[
    {
        "file_hash": "47099bdb3a6d880a8abe377de8a6bee8",
        "create_time": 1703118969,
        "title": "苹果快充 ，来大活动了，一个帐号领一份哦，仅限新人，宝子们快去冲吖！#苹果快充 #苹果快充30w #快充 #充电器 #手机充电",
        "author": "雯静爱生活",
        "thumbnail": "https://p9-sign.douyinpic.com/tos-cn-p-0015/osicyAAGQAz3gPA6ItGABBiDEDfHewKhP1XIN4~tplv-dy-360p.jpeg?x-expires=1706493600&x-signature=wlOkWRZjf3TyLnAZgqo5sqcleqA%3D&from=3213915784&s=PackSourceEnum_FEED&se=false&sc=origin_cover&biz_tag=aweme_video&l=021705286983460fdbddc0200ff05008bde4961213f9c9a982d3b",
        "videoPlayUrl": "https://api-hl.amemv.com/aweme/v1/play/?video_id=v0300fg10000cm1ogt3c77u648hvea20&line=1&file_id=5ad7ccea01eb49b191a8ab9ad1df87ea&sign=47099bdb3a6d880a8abe377de8a6bee8&is_play_url=1&source=PackSourceEnum_FEED"
    },
    {
        "file_hash": "b4e08f953674c348d722adce3b360533",
        "create_time": 1704883049,
        "title": "那一刻 所有的偶像剧都弱爆了#歌曲风错过雨",
        "author": "祭忆",
        "thumbnail": "https://p3-sign.douyinpic.com/tos-cn-p-0015/o82A0bneugs9nahQArtDAVBDcAn8QBajleNVOU~tplv-dy-360p.jpeg?x-expires=1706493600&x-signature=Bnr9QJGVI3GXBwk95csRiGq36C8%3D&from=3213915784&s=PackSourceEnum_FEED&se=false&sc=origin_cover&biz_tag=aweme_video&l=02170528700544700000000000000000000ffff0a1c602a8d817c",
        "videoPlayUrl": "https://api-hl.amemv.com/aweme/v1/play/?video_id=v0300fg10000cmf76lbc77ubam7bnfd0&line=1&file_id=101e8c196a4243e0882322c643e92da6&sign=b4e08f953674c348d722adce3b360533&is_play_url=1&source=PackSourceEnum_FEED"
    },
    {
        "file_hash": "6cef6a245a61828eb13ef2ec5a75f134",
        "create_time": 1704161536,
        "title": "韩国最大在野党党首李在明出席活动时遇袭，颈部受伤流血",
        "author": "长江云新闻",
        "thumbnail": "https://p11-sign.douyinpic.com/tos-cn-p-0015/o03bQrgMbh6IcmMyAzBOIcITNhAiTBANTzAeyf~tplv-dy-360p.jpeg?x-expires=1706493600&x-signature=800jtbmO3J9XD41i0lxFB99ZDa0%3D&from=3213915784&s=PackSourceEnum_FEED&se=false&sc=origin_cover&biz_tag=aweme_video&l=021705286797441fdbddc0200ff05008bde4961213f9c9a23b916",
        "videoPlayUrl": "https://api-hl.amemv.com/aweme/v1/play/?video_id=v0d00fg10000cm9n1rjc77u0e33emjpg&line=1&file_id=0451d4bafe7843bd86b3cc63783c4a3c&sign=6cef6a245a61828eb13ef2ec5a75f134&is_play_url=1&source=PackSourceEnum_FEED"
    },
    {
        "file_hash": "b894e365f7c36a7cc48d1976cce4c538",
        "create_time": 1704517454,
        "title": "#巩晓彬 #巩峻青 #巩俊彤 #篮球男孩",
        "author": "焦凯说球",
        "thumbnail": "https://p6-sign.douyinpic.com/tos-cn-p-0015/osnA57lQxmenMBivgVCqNbDf8AA9UBmgEa1R8Q~tplv-dy-360p.jpeg?x-expires=1706493600&x-signature=cx9%2F7YnxNF3WyVWC8w3NjkB90WU%3D&from=3213915784&s=PackSourceEnum_FEED&se=false&sc=origin_cover&biz_tag=aweme_video&l=021705286920981fdbddc0200ff05008bde4961213f9c9a53c350",
        "videoPlayUrl": "https://api-hl.amemv.com/aweme/v1/play/?video_id=v0200fg10000cmcdtlbc77u826d2qv6g&line=1&file_id=9ceeb2cd96c4475ea97f133b323ba241&sign=b894e365f7c36a7cc48d1976cce4c538&is_play_url=1&source=PackSourceEnum_FEED"
    },
    {
        "file_hash": "507baf3835bf0af2420f580641570494",
        "create_time": 1704366335,
        "title": "武汉地铁19号线“武汉站西广场站”不能直接换乘4、5号线，市民建议参考公交换乘模式。地铁集团回复：正在积极研究虚拟换乘#武汉地铁 #武汉市民热线 #武汉19号线 #交通出行 #虚拟换乘 @抖音小助手",
        "author": "武汉市民热线",
        "thumbnail": "https://p11-sign.douyinpic.com/tos-cn-p-0015/oAIDAkNzNIFp9VlAqkGl2lmoWBQATheofBcpIg~tplv-dy-360p.jpeg?x-expires=1706493600&x-signature=Jk%2F7aU6OUJ5yJ9nwy7ps4YGUUvg%3D&from=3213915784&s=PackSourceEnum_FEED&se=false&sc=origin_cover&biz_tag=aweme_video&l=021705287076186fdbddc0200ff05008bde4961213f9c9a76d629",
        "videoPlayUrl": "https://api-hl.amemv.com/aweme/v1/play/?video_id=v0d00fg10000cmb8ukjc77u5l0shb6ig&line=1&file_id=45d4d4b564a2431c9cd57e4ec7e4a430&sign=507baf3835bf0af2420f580641570494&is_play_url=1&source=PackSourceEnum_FEED"
    },
    {
        "file_hash": "e5910015a9d497e134c34a20d7f33b35",
        "create_time": 1702695646,
        "title": "主播摔手机挑衅粉丝，称\"直播间刷临期的这些人 工资买不起蛋黄酥\"，东方甄选宣布停播闭门思过。",
        "author": "湖北日报",
        "thumbnail": "https://p26-sign.douyinpic.com/tos-cn-p-0015/7f6cb970246943119a18641e06756261_1702695651~tplv-dy-360p.jpeg?x-expires=1706493600&x-signature=e2wgFzZ0UW7HZlvQxadKzV463D0%3D&from=3213915784&s=PackSourceEnum_FEED&se=false&sc=origin_cover&biz_tag=aweme_video&l=02170528689329200000000000000000000ffff0a187112655ae4",
        "videoPlayUrl": "https://api-hl.amemv.com/aweme/v1/play/?video_id=v0200fg10000cluh5drc77u5016i7uj0&line=1&file_id=4067720af4e24b5ba804faff21723232&sign=e5910015a9d497e134c34a20d7f33b35&is_play_url=1&source=PackSourceEnum_FEED"
    },
    {
        "file_hash": "a4da8320a8a88457542e8769fcdeab0b",
        "create_time": 1703695079,
        "title": "不花钱的鱼缸增氧泵#水族 #观赏鱼 #养鱼养心",
        "author": "园园水族",
        "thumbnail": "https://p26-sign.douyinpic.com/tos-cn-p-0015/oAA3AAdlCDUEC9fQJKYbB8pj0nNKvFQjS0fyUg~tplv-dy-360p.jpeg?x-expires=1706493600&x-signature=CdoLlt%2BA%2B54PvDqczsqQPINiJJU%3D&from=3213915784&s=PackSourceEnum_FEED&se=false&sc=origin_cover&biz_tag=aweme_video&l=021705286954648fdbddc0200ff05008bde4961213f9c9a760aea",
        "videoPlayUrl": "https://api-hl.amemv.com/aweme/v1/play/?video_id=v0200fg10000cm654l3c77u8tt9iv92g&line=1&file_id=aa78857772544a14a4528472c2baf5e3&sign=a4da8320a8a88457542e8769fcdeab0b&is_play_url=1&source=PackSourceEnum_FEED"
    }
]