[
    {
        "file_hash": "69d6741674d53dcd48f18ee24057c62b",
        "create_time": 1703824233,
        "title": "你还在给你女儿穿容易跑杯的保暖内衣吗，快点我头像#少女内衣 #发育期内衣",
        "author": "花伴朵内衣旗舰店",
        "thumbnail": "https://p6-sign.douyinpic.com/tos-cn-p-0051/oAImJmyAynAW0bwOzgEOtxfK8hBAMQtIhRBSvX~tplv-dy-360p.jpeg?x-expires=1706497200&x-signature=SCmgRexG277o52LnfOtPpMOKkNQ%3D&from=3213915784&s=PackSourceEnum_FEED&se=false&sc=origin_cover&biz_tag=aweme_video&l=02170528943149400000000000000000000ffff0a19474c7858e0",
        "videoPlayUrl": "https://api-hl.amemv.com/aweme/v1/play/?video_id=v02033g10000cm74mqfog65m4v0q8rbg&line=1&file_id=2f2ddea545c9427ea5148bcbe9fd2bdd&sign=69d6741674d53dcd48f18ee24057c62b&is_play_url=1&source=PackSourceEnum_FEED"
    },
    {
        "file_hash": "6c67974a4e7ebbd01d2a918c82baa26a",
        "create_time": 1704510362,
        "title": "被人贩子丢弃的双胞胎弟弟回乡认亲-儿子:过去的都让它过去；母亲:当年困难 想把小儿子送到好人家 #寻亲 #广东 #双胞胎",
        "author": "蓬勃新闻",
        "thumbnail": "https://p3-sign.douyinpic.com/tos-cn-p-0015/oEflCbsynAqleEFAJYDwMGQ5mBDQ48ygSw9sLA~tplv-dy-360p.jpeg?x-expires=1706497200&x-signature=b2PobXEkrc%2BzHu3CgMiHgYNmKlQ%3D&from=3213915784&s=PackSourceEnum_FEED&se=false&sc=origin_cover&biz_tag=aweme_video&l=021705289653520fdbddc0200ff0500281b0ef8b4be4f2822c379",
        "videoPlayUrl": "https://api-hl.amemv.com/aweme/v1/play/?video_id=v0300fg10000cmcc5ibc77u9e68bimf0&line=1&file_id=914bf5915fad4726af6dc06ab5522045&sign=6c67974a4e7ebbd01d2a918c82baa26a&is_play_url=1&source=PackSourceEnum_FEED"
    },
    {
        "file_hash": "611c6832c0939f7aa368e30a1aaadced",
        "create_time": 1704447039,
        "title": "据视频发布者称，事发地在自贡市富顺县人民医院附近工地。具体情况有待进一步通报。",
        "author": "今日关注",
        "thumbnail": "https://p26-sign.douyinpic.com/tos-cn-p-0015/os7IEC63AzzlgCaXcDfOgYIh9ACGBwQNAXBlde~tplv-dy-360p.jpeg?x-expires=1706497200&x-signature=8DNaRBmHoZcfiiPssaZLK1pLkxE%3D&from=3213915784&s=PackSourceEnum_FEED&se=false&sc=origin_cover&biz_tag=aweme_video&l=021705289556312fdbddc0200ff0500281b0ef8b4be4f28cd9295",
        "videoPlayUrl": "https://api-hl.amemv.com/aweme/v1/play/?video_id=v0200fg10000cmbso83c77u2tts1lq1g&line=1&file_id=e3322ff4d8ec4de8bb94bfe8b9f5536c&sign=611c6832c0939f7aa368e30a1aaadced&is_play_url=1&source=PackSourceEnum_FEED"
    },
    {
        "file_hash": "a16c4fe14b781408ecd2b4f4d4264f0a",
        "create_time": 1704632228,
        "title": "对不起我不应该大喊大叫🥹#记录猫咪日常 #好爱我的猫 #这个世界不能没有小猫 #快看啊这是我的猫 #它真的好像个小宝宝",
        "author": "草莓熊是我呀",
        "thumbnail": "https://p11-sign.douyinpic.com/tos-cn-p-0015/oUynnUbFzI660aH9AMfAC8e2FBNGy8AIhqgBAz~tplv-dy-360p.jpeg?x-expires=1706497200&x-signature=%2F3MF3vq5BtOETZLPMuywscKZDj0%3D&from=3213915784&s=PackSourceEnum_FEED&se=false&sc=origin_cover&biz_tag=aweme_video&l=021705289650025fdbddc0200ff0500281b0ef8b4be4f28deb65d",
        "videoPlayUrl": "https://api-hl.amemv.com/aweme/v1/play/?video_id=v0200fg10000cmd9tr3c77u72gcso5q0&line=1&file_id=c94c275163b34094855f48383d6ae6c3&sign=a16c4fe14b781408ecd2b4f4d4264f0a&is_play_url=1&source=PackSourceEnum_FEED"
    },
    {
        "file_hash": "0a12924222ec647090883dcc03263439",
        "create_time": 1703143910,
        "title": "东芝今天正式退市！#传奇人物 #经典案例 #名人大咖",
        "author": "兰世立",
        "thumbnail": "https://p3-sign.douyinpic.com/tos-cn-p-0015/oA2iuBeo9LheAAHWpV15ZBDPC7f5BA7PHqaALB~tplv-dy-360p.jpeg?x-expires=1706497200&x-signature=oBicILpWJa3cAoeQc13FqHuuJ88%3D&from=3213915784&s=PackSourceEnum_FEED&se=false&sc=origin_cover&biz_tag=aweme_video&l=021705289615466fdbddc0200ff0500281b0ef8b4be4f28efff1e",
        "videoPlayUrl": "https://api-hl.amemv.com/aweme/v1/play/?video_id=v0d00fg10000cm1uhsbc77ud9j1at87g&line=1&file_id=26e843febdc44d04a871c6f694f28f53&sign=0a12924222ec647090883dcc03263439&is_play_url=1&source=PackSourceEnum_FEED"
    },
    {
        "file_hash": "e5db1f13c4366dafc358c2948319cfb7",
        "create_time": 1704621951,
        "title": "有美女路过，当然要多看几眼#青春老男孩 #你懂得",
        "author": "青春老男孩",
        "thumbnail": "https://p3-sign.douyinpic.com/tos-cn-p-0015/oQYT4Dg3oh6I97ByAZBpIdIaNuA2GBAN4zHezf~tplv-dy-360p.jpeg?x-expires=1706497200&x-signature=OOGD3Dk7RnRkIzYBq2dJmtpZb%2Bc%3D&from=3213915784&s=PackSourceEnum_FEED&se=false&sc=origin_cover&biz_tag=aweme_video&l=021705289650025fdbddc0200ff0500281b0ef8b4be4f28deb65d",
        "videoPlayUrl": "https://api-hl.amemv.com/aweme/v1/play/?video_id=v0d00fg10000cmd7ec3c77u7ugd07ocg&line=1&file_id=5cc293bf258b4c71909bfebe3fb8303d&sign=e5db1f13c4366dafc358c2948319cfb7&is_play_url=1&source=PackSourceEnum_FEED"
    },
    {
        "file_hash": "5bc8f9e921042801913bff276f95ed56",
        "create_time": 1703592003,
        "title": "老孙家的分家风波。 #平凡的世界  #孙少安  #贺秀莲  #孙少平  #孙玉厚 ",
        "author": "妖叔解毒",
        "thumbnail": "https://p26-sign.douyinpic.com/tos-cn-p-0015/oUFwGBbFyiAMZMAKB4iigABzAxAear8IICfRDW~tplv-dy-360p.jpeg?x-expires=1706497200&x-signature=e86jYfLdkTVTe3nxIvaejuLf1V0%3D&from=3213915784&s=PackSourceEnum_FEED&se=false&sc=origin_cover&biz_tag=aweme_video&l=021705289676427fdbddc0200ff05002519908599535853ef6df8",
        "videoPlayUrl": "https://api-hl.amemv.com/aweme/v1/play/?video_id=v0300fg10000cm5c0pvog65o11812c2g&line=1&file_id=2dbf1b8e29ff4f8a93df2d1dc9161b7b&sign=5bc8f9e921042801913bff276f95ed56&is_play_url=1&source=PackSourceEnum_FEED"
    },
    {
        "file_hash": "e3fbc6f5ec838e0d7fb71f8674461fcb",
        "create_time": 1702802672,
        "title": "#少儿武术#中华武术博大精深 #武术#发扬传承精武精神 #强身健体增强免疫力",
        "author": "健康养生知识",
        "thumbnail": "https://p6-sign.douyinpic.com/tos-cn-p-0015/936687073c57482f9de57f085854681b_1702802676~tplv-dy-360p.jpeg?x-expires=1706497200&x-signature=D3ADxcAdjpXXJ2IIE%2FzkTt7w3Ms%3D&from=3213915784&s=PackSourceEnum_FEED&se=false&sc=origin_cover&biz_tag=aweme_video&l=021705289516814fdbddc0200ff0500281b0ef8b4be4f28671183",
        "videoPlayUrl": "https://api-hl.amemv.com/aweme/v1/play/?video_id=v0300fg10000clvb9mbc77u9lt71ei60&line=1&file_id=de8f32fcbab84462be2dfffb96992d5f&sign=e3fbc6f5ec838e0d7fb71f8674461fcb&is_play_url=1&source=PackSourceEnum_FEED"
    },
    {
        "file_hash": "c42a5fb220011088dae9fec92ae22dfd",
        "create_time": 1703552700,
        "title": "国庆感情生意全部失败，给心上人打完最后一通电话，从高楼一跃而下结束生命#因为一个片段看了整部剧 #好剧推荐 #我在抖音追剧 #每日影视推荐",
        "author": "安徽台海豚君",
        "thumbnail": "https://p3-sign.douyinpic.com/tos-cn-p-0015/owD9hhAJYWTXvZnfBgbreXADBXISrNuXAVilVA~tplv-dy-360p.jpeg?x-expires=1706497200&x-signature=Ufp7X8HZxNmm15AviznouEXrVWw%3D&from=3213915784&s=PackSourceEnum_FEED&se=false&sc=origin_cover&biz_tag=aweme_video&l=02170528959893200000000000000000000ffff0a903bdc45f9f8",
        "videoPlayUrl": "https://api-hl.amemv.com/aweme/v1/play/?video_id=v0300fg10000cm4lblrc77uc5qu3uilg&line=1&file_id=002b3e2092194f6da7edc99f753d05e6&sign=c42a5fb220011088dae9fec92ae22dfd&is_play_url=1&source=PackSourceEnum_FEED"
    }
]