[
    {
        "file_hash": "66ad752707e49e828e30829c287ac08f",
        "create_time": 1703563811,
        "title": "挂念是一种更深沉的爱意 #电影非诚勿扰3",
        "author": "电影非诚勿扰3",
        "thumbnail": "https://p3-sign.douyinpic.com/tos-cn-p-0015/oABD97nUiylbHgbBKftoDSqDAnYeIAlwAAgAik~tplv-dy-360p.jpeg?x-expires=1706493600&x-signature=FIlXJ4xSofQfdcHNumJOy7vDDIc%3D&from=3213915784&s=PackSourceEnum_FEED&se=false&sc=origin_cover&biz_tag=aweme_video&l=021705286178795fdbddc0200ff0500ffda2b6d084330e240c03a",
        "videoPlayUrl": "https://api-hl.amemv.com/aweme/v1/play/?video_id=v0300fg10000cm553qjc77ucfq0714jg&line=1&file_id=2ec6c77d27a442b2ad7b0303ae16dcb7&sign=66ad752707e49e828e30829c287ac08f&is_play_url=1&source=PackSourceEnum_FEED"
    },
    {
        "file_hash": "b84e3706d475bbcea3531d43556131b3",
        "create_time": 1703339643,
        "title": "本想着把老板盘了，顺手捉只鸡。最后竟是输给了自己 #黑坑鲫鱼 #鲫鱼饵料 #钓鲫鱼技巧 #黑坑盘老板",
        "author": "百萬战队.大雄",
        "thumbnail": "https://p9-sign.douyinpic.com/tos-cn-p-0015/oQhASBDtQonS9HgC7FiQeaNAbKNEMlAAzsQAje~tplv-dy-360p.jpeg?x-expires=1706493600&x-signature=L9VxU%2BPnfPoOZV7X0%2FE3169xEXU%3D&from=3213915784&s=PackSourceEnum_FEED&se=false&sc=origin_cover&biz_tag=aweme_video&l=021705286184053fdbddc0200ff0500ffda2b6d084330e2b5a9ad",
        "videoPlayUrl": "https://api-hl.amemv.com/aweme/v1/play/?video_id=v0d00fg10000cm3dtg3c77u51ceog14g&line=1&file_id=0d5dc42a3e064d208a1172bc89efe736&sign=b84e3706d475bbcea3531d43556131b3&is_play_url=1&source=PackSourceEnum_FEED"
    },
    {
        "file_hash": "013488d1441d6df2a8bb5bd576491533",
        "create_time": 1703167190,
        "title": "这曲太有穿透力了，一开口 就感觉上了黄士高坡！#老歌越听越有味 #黄土高坡 #热门音乐🔥",
        "author": "巧巧啊",
        "thumbnail": "https://p26-sign.douyinpic.com/tos-cn-p-0015/owgPDDE7lA9eiDdEAnBi85PheCEQCAb9aAZ5II~tplv-dy-360p.jpeg?x-expires=1706493600&x-signature=EHGBv02HyAzhmLBzIiuHC5GZdiQ%3D&from=3213915784&s=PackSourceEnum_FEED&se=false&sc=origin_cover&biz_tag=aweme_video&l=021705285997104fdbddc020028000a000000000000004360f67c",
        "videoPlayUrl": "https://api-hl.amemv.com/aweme/v1/play/?video_id=v0200fg10000cm2427bc77u2eb7m31i0&line=1&file_id=97180fdf60ec47b0b534497c8a66de5f&sign=013488d1441d6df2a8bb5bd576491533&is_play_url=1&source=PackSourceEnum_FEED"
    },
    {
        "file_hash": "09754f321735681bd10b634e30a28c2d",
        "create_time": 1703891440,
        "title": "十对花（9）#抖音热点宝#自然风户外拍摄 #民间小调",
        "author": "自然风",
        "thumbnail": "https://p26-sign.douyinpic.com/tos-cn-p-0015/o025oqsGHCB4KaAgLgoALIAJ1fJAfL0lPB7eHo~tplv-dy-360p.jpeg?x-expires=1706493600&x-signature=MIRzYcjI7LEzJaicyw64ZGf7Ku8%3D&from=3213915784&s=PackSourceEnum_FEED&se=false&sc=origin_cover&biz_tag=aweme_video&l=021705285954827fdbddc0200ff0500ffda2b6d084330e25bd9a9",
        "videoPlayUrl": "https://api-hl.amemv.com/aweme/v1/play/?video_id=v0300fg10000cm7l2djc77u1fuaakd80&line=1&file_id=e99b281e0e744b249b8803b45674ccbe&sign=09754f321735681bd10b634e30a28c2d&is_play_url=1&source=PackSourceEnum_FEED"
    },
    {
        "file_hash": "f9041183c27a23529d45d6e9b24c605a",
        "create_time": 1703152191,
        "title": "上海一女子霸占地铁座位，被提醒后变本加厉，网友：急需地铁判官 #地铁占座 #社会百态",
        "author": "周口广电融媒",
        "thumbnail": "https://p11-sign.douyinpic.com/tos-cn-p-0015/oMeA5glAIRonhBHFgGDIAbDMeAA9EDhTOyhXKQ~tplv-dy-360p.jpeg?x-expires=1706493600&x-signature=HGSAjkZgbF4ITkEeuYvydglszck%3D&from=3213915784&s=PackSourceEnum_FEED&se=false&sc=origin_cover&biz_tag=aweme_video&l=021705286001598fdbddc0200ff0500c005a4187ae3cb7fa3757c",
        "videoPlayUrl": "https://api-hl.amemv.com/aweme/v1/play/?video_id=v0300fg10000cm20g1jc77u9lq4f1kcg&line=1&file_id=8ef83e763d494f6f8713f00055e47b0d&sign=f9041183c27a23529d45d6e9b24c605a&is_play_url=1&source=PackSourceEnum_FEED"
    },
    {
        "file_hash": "7e1889ee7eaa0999635fcb0dbdd926a4",
        "create_time": 1704695469,
        "title": "东北小冻梨吃醋了….失宠了.#黑龙江到底有多美",
        "author": "博哥威武",
        "thumbnail": "https://p9-sign.douyinpic.com/tos-cn-p-0015/oYWYDbYJnAelelgAPbDl5SQrmBDQdqvgDB9aaA~tplv-dy-360p.jpeg?x-expires=1706493600&x-signature=fq8sEo8dhV70Td50f8Vz6Bv9mZU%3D&from=3213915784&s=PackSourceEnum_FEED&se=false&sc=origin_cover&biz_tag=aweme_video&l=021705286048703fdbddc0200ff0500ffda2b6d084330e2327d49",
        "videoPlayUrl": "https://api-hl.amemv.com/aweme/v1/play/?video_id=v0300fg10000cmdpd3rc77u1n961fcag&line=1&file_id=9caf83a12a244648a74df2e7fcdc76cf&sign=7e1889ee7eaa0999635fcb0dbdd926a4&is_play_url=1&source=PackSourceEnum_FEED"
    },
    {
        "file_hash": "043b99bb6eba50925726cb76065dc4c2",
        "create_time": 1702853499,
        "title": "",
        "author": "情感",
        "thumbnail": "https://p6-sign.douyinpic.com/tos-cn-p-0015/27fa0d9ba8784d628e49321d23833e79_1702853504~tplv-dy-360p.jpeg?x-expires=1706493600&x-signature=j3V1T0ZIpt3GAhv%2FFFAKdzOdld0%3D&from=3213915784&s=PackSourceEnum_FEED&se=false&sc=origin_cover&biz_tag=aweme_video&l=021705286196078fdbddc0200ff0500ffda2b6d084330e2ba7905",
        "videoPlayUrl": "https://api-hl.amemv.com/aweme/v1/play/?video_id=v0300fg10000clvnlv3c77uanlp8kk70&line=1&file_id=44f1d0a88fa2428c9830343bf6df0eb3&sign=043b99bb6eba50925726cb76065dc4c2&is_play_url=1&source=PackSourceEnum_FEED"
    }
]