[
    {
        "file_hash": "252d06994f8995bcc828a77d8e53700d",
        "create_time": 1704435654,
        "title": "恭喜@凯诺梦露夫妇 、今天又当爹了😍#跨国家庭#混血宝宝",
        "author": "唐哥夫妇",
        "thumbnail": "https://p11-sign.douyinpic.com/tos-cn-p-0015/oMnAjDbngeIBQxMeb3l9ABAOInXS8lIU59iKgC~tplv-dy-360p.jpeg?x-expires=1706497200&x-signature=PiuyIfl3h%2FwbB1uGmjyVysveNEY%3D&from=3213915784&s=PackSourceEnum_FEED&se=false&sc=origin_cover&biz_tag=aweme_video&l=021705290446806fdbddc0200ff05002eb6e04b3b3ccb9a6daac2",
        "videoPlayUrl": "https://api-hl.amemv.com/aweme/v1/play/?video_id=v0200fg10000cmbpovbc77u79q90cudg&line=1&file_id=f8ef7376b6ad4654ae0cb41b6fc2916d&sign=252d06994f8995bcc828a77d8e53700d&is_play_url=1&source=PackSourceEnum_FEED"
    },
    {
        "file_hash": "7debd224d12ea5d501be2feb4669062f",
        "create_time": 1704166791,
        "title": "#记录远嫁日常生活 2024新任务:  我想自由  我想赚钱  我想旅游   我想好好生活.#一拖三带娃的生活 #远嫁姑娘",
        "author": "小燕一家",
        "thumbnail": "https://p6-sign.douyinpic.com/tos-cn-p-0015/oInTfN6iQB8kTQDybb9hACdA3TpG4g4WElAOel~tplv-dy-360p.jpeg?x-expires=1706497200&x-signature=MBuLSPL7AOkIHXJbhB1tl24dXzI%3D&from=3213915784&s=PackSourceEnum_FEED&se=false&sc=origin_cover&biz_tag=aweme_video&l=021705290557469fdbddc0200ff05002eb6e04b3b3ccb9a515baf",
        "videoPlayUrl": "https://api-hl.amemv.com/aweme/v1/play/?video_id=v0d00fg10000cm9o9ojc77uepap7ss1g&line=1&file_id=c6b2033ab0464586803b220b2809d48d&sign=7debd224d12ea5d501be2feb4669062f&is_play_url=1&source=PackSourceEnum_FEED"
    },
    {
        "file_hash": "b9640503b15e92a711d17bda7c87b5a3",
        "create_time": 1703341275,
        "title": "海上钻井平台喂鱼抢食！ #艺术在抖音 #探寻好生活的百种温度 #知识前沿派对",
        "author": "世界之最",
        "thumbnail": "https://p9-sign.douyinpic.com/tos-cn-p-0015/oklMQNRAAnDwKggaQ2TBbebIxANeSAwg9uh0GB~tplv-dy-360p.jpeg?x-expires=1706497200&x-signature=RoO6bsVbuxmatCH5PLPzPd7ZAu8%3D&from=3213915784&s=PackSourceEnum_FEED&se=false&sc=origin_cover&biz_tag=aweme_video&l=021705290363338fdbddc0200ff05002eb6e04b3b3ccb9a71e445",
        "videoPlayUrl": "https://api-hl.amemv.com/aweme/v1/play/?video_id=v0d00fg10000cm3eokjc77u48638a8k0&line=1&file_id=9a202d35126c4cd9865d6b2603c0adf9&sign=b9640503b15e92a711d17bda7c87b5a3&is_play_url=1&source=PackSourceEnum_FEED"
    },
    {
        "file_hash": "98eb0ccd12babcf6c41101a5b5503acb",
        "create_time": 1704762288,
        "title": "结婚遇闹心事 渭南祁某偷偷混入婚宴干这事被抓",
        "author": "东秦百姓",
        "thumbnail": "https://p6-sign.douyinpic.com/tos-cn-p-0015/oEkOagagPkOcTCNbAH22AVECi4HFfLBBkeA7e5~tplv-dy-360p.jpeg?x-expires=1706497200&x-signature=T3xnv5krPD6eLOLpyFrq6OHhvkQ%3D&from=3213915784&s=PackSourceEnum_FEED&se=false&sc=origin_cover&biz_tag=aweme_video&l=02170529023148900000000000000000000ffff0a9f2382a1578b",
        "videoPlayUrl": "https://api-hl.amemv.com/aweme/v1/play/?video_id=v0d00fg10000cme9n3bc77u7gsb4h6o0&line=1&file_id=3bc5a3d71b1c407bb8a74eaf3ca62d17&sign=98eb0ccd12babcf6c41101a5b5503acb&is_play_url=1&source=PackSourceEnum_FEED"
    },
    {
        "file_hash": "ffa1038f115bf94943c5e0db1e718251",
        "create_time": 1703745956,
        "title": "优待证在哪里用处最大呢？#优待证 #优待证有什么用途 #退役军人",
        "author": "我的老班长",
        "thumbnail": "https://p9-sign.douyinpic.com/tos-cn-p-0015/oI2lYalleAyfB9ldgQ8ajGNnObG5GaRDAABKNQ~tplv-dy-360p.jpeg?x-expires=1706497200&x-signature=n0T0JwwfuOr4%2BBOP8YzkDcCUodM%3D&from=3213915784&s=PackSourceEnum_FEED&se=false&sc=origin_cover&biz_tag=aweme_video&l=021705290333632fdbddc0200ff0500aed06d9cb392fb8ed76356",
        "videoPlayUrl": "https://api-hl.amemv.com/aweme/v1/play/?video_id=v0d00fg10000cm6hijjc77uftgqa6smg&line=1&file_id=fe94462e63fe4bfda8ffbfa415657f3e&sign=ffa1038f115bf94943c5e0db1e718251&is_play_url=1&source=PackSourceEnum_FEED"
    },
    {
        "file_hash": "8707a8cbfdafa66b0eedbb8cdb6c9dbf",
        "create_time": 1702809863,
        "title": "人类两大欲望对决！！",
        "author": "蘑嘟夫妇",
        "thumbnail": "https://p26-sign.douyinpic.com/tos-cn-p-0015/928e1d38f89b47f2a5a289e74743b3f7_1702809868~tplv-dy-360p.jpeg?x-expires=1706497200&x-signature=xF944TzEBLdmZfN0rgSyU7iyK70%3D&from=3213915784&s=PackSourceEnum_FEED&se=false&sc=origin_cover&biz_tag=aweme_video&l=02170529052006100000000000000000000ffff0a9fce2455450a",
        "videoPlayUrl": "https://api-hl.amemv.com/aweme/v1/play/?video_id=v0200fg10000clvd1gbc77u2ag18f9l0&line=1&file_id=1ad1b11274b04dc08b48dece917d2218&sign=8707a8cbfdafa66b0eedbb8cdb6c9dbf&is_play_url=1&source=PackSourceEnum_FEED"
    }
]