[
    {
        "file_hash": "0809182292d41e727e1f7717fae348a2",
        "create_time": 1704445410,
        "title": "中国小伙力大无穷？倒挂金钩摔断嚣张老外的脖颈，裁判吓傻了！ #拳击比赛 #搏击 #职业拳击 #散打王 #泰拳 ",
        "author": "解说小张",
        "thumbnail": "https://p6-sign.douyinpic.com/tos-cn-p-0015/o0vLGeeFBITEQeiQPCLALCovQZ74A5cqUBTQE9~tplv-dy-360p.jpeg?x-expires=1706497200&x-signature=kPiEv3Fwxt2Wu%2FXAEOa%2FwZbPgYM%3D&from=3213915784&s=PackSourceEnum_FEED&se=false&sc=origin_cover&biz_tag=aweme_video&l=02170529028083500000000000000000000ffff0a9fce245eac08",
        "videoPlayUrl": "https://api-hl.amemv.com/aweme/v1/play/?video_id=v0200fg10000cmbsbonog65v3t08s8ag&line=1&file_id=1c5206e93d1744a2a34998cb54377438&sign=0809182292d41e727e1f7717fae348a2&is_play_url=1&source=PackSourceEnum_FEED"
    },
    {
        "file_hash": "7f25295d366b97086097c1c0d6240881",
        "create_time": 1703908800,
        "title": "银渐层真的这么掉毛吗 #银渐层 #萌宠 #吸毛",
        "author": "怡享净化空气消毒机",
        "thumbnail": "https://p26-sign.douyinpic.com/tos-cn-p-0015/owAWYdIgNZAeNDmbOm9VAjbz84n7AB0IgCtleO~tplv-dy-360p.jpeg?x-expires=1706497200&x-signature=iGMjxHrktiviDsfEPChDEY8k0P8%3D&from=3213915784&s=PackSourceEnum_FEED&se=false&sc=origin_cover&biz_tag=aweme_video&l=02170529047671900000000000000000000ffff0a9fce2467d3f3",
        "videoPlayUrl": "https://api-hl.amemv.com/aweme/v1/play/?video_id=v0d00fg10000cm76s7bc77u0fcqq0l6g&line=1&file_id=865967c914d84466922a0224022cb603&sign=7f25295d366b97086097c1c0d6240881&is_play_url=1&source=PackSourceEnum_FEED"
    },
    {
        "file_hash": "086cc340baaa0e13f3020d467f761495",
        "create_time": 1704371400,
        "title": "警察配枪丢失，找回后子弹全没了#重案六组第二部 #好剧推荐 #我的观影报告 #下集更精彩 ",
        "author": "枪手说剧",
        "thumbnail": "https://p9-sign.douyinpic.com/tos-cn-p-0015/ocDMykbeiIPvApZAiy1gyJB3i0fBABPEaIoWJW~tplv-dy-360p.jpeg?x-expires=1706497200&x-signature=QTT3wqi0hJB3m3V29q71atub%2FYA%3D&from=3213915784&s=PackSourceEnum_FEED&se=false&sc=origin_cover&biz_tag=aweme_video&l=02170529028673900000000000000000000ffff0a9fce24b6337d",
        "videoPlayUrl": "https://api-hl.amemv.com/aweme/v1/play/?video_id=v0300fg10000cmba9qfog65n7mdsp2i0&line=1&file_id=3989b05153524cb7a5319c4a68326894&sign=086cc340baaa0e13f3020d467f761495&is_play_url=1&source=PackSourceEnum_FEED"
    },
    {
        "file_hash": "30f727241df9b81a170335d687d6406f",
        "create_time": 1704019327,
        "title": "#我的观影报告 #因为一个片段看了整部剧",
        "author": "萱萱ㅤ",
        "thumbnail": "https://p6-sign.douyinpic.com/tos-cn-p-0015/oQ6NIDdJfzAYRMCLIUfOA9lBaAOgMBykIAtXRh~tplv-dy-360p.jpeg?x-expires=1706497200&x-signature=RN9asNDDj5rbHJOG6SC5XUqoDUQ%3D&from=3213915784&s=PackSourceEnum_FEED&se=false&sc=origin_cover&biz_tag=aweme_video&l=02170529046779500000000000000000000ffff0a9fce2493254d",
        "videoPlayUrl": "https://api-hl.amemv.com/aweme/v1/play/?video_id=v0300fg10000cm8k6vrc77ue4j00sceg&line=1&file_id=b8e7904668524a7da7d9a3be0fa56c05&sign=30f727241df9b81a170335d687d6406f&is_play_url=1&source=PackSourceEnum_FEED"
    },
    {
        "file_hash": "e2d3f5731946ac295c893d2bdd2068d9",
        "create_time": 1703988177,
        "title": "通车啦！自贡再增一条南向对外免费快速通道#城市建设 #快速通道",
        "author": "沿滩融媒",
        "thumbnail": "https://p6-sign.douyinpic.com/tos-cn-p-0015/okMlBQdsDk9eHuyAIg7Ik1Ra9teXnABFAbOIwN~tplv-dy-360p.jpeg?x-expires=1706497200&x-signature=%2BwBtJKkOcVoIB3q98xndlCHcH3M%3D&from=3213915784&s=PackSourceEnum_FEED&se=false&sc=origin_cover&biz_tag=aweme_video&l=02170529030926100000000000000000000ffff0a9f2ba8933fb9",
        "videoPlayUrl": "https://api-hl.amemv.com/aweme/v1/play/?video_id=v0d00fg10000cm8cmp3c77u2kfisfgqg&line=1&file_id=9bc63cc8a8d54190880d7a5693eeca9b&sign=e2d3f5731946ac295c893d2bdd2068d9&is_play_url=1&source=PackSourceEnum_FEED"
    },
    {
        "file_hash": "76d3ecc8f125ee93efefb3baab812b3a",
        "create_time": 1704441302,
        "title": "偶遇网红狗",
        "author": "宁金龙",
        "thumbnail": "https://p11-sign.douyinpic.com/tos-cn-p-0015/o4n5fD1ETQtlc8JADNnbiLadWVgMB9gfXlQ7AA~tplv-dy-360p.jpeg?x-expires=1706497200&x-signature=0anEw%2FvvF5%2BSqCbA47A0X%2FnKWbc%3D&from=3213915784&s=PackSourceEnum_FEED&se=false&sc=origin_cover&biz_tag=aweme_video&l=02170529054902000000000000000000000ffff0a9fce24ff5d51",
        "videoPlayUrl": "https://api-hl.amemv.com/aweme/v1/play/?video_id=v0d00fg10000cmbr9n3c77udfv4ml1j0&line=1&file_id=ddc59ecaf50f4e30bb6d30cbf6834c77&sign=76d3ecc8f125ee93efefb3baab812b3a&is_play_url=1&source=PackSourceEnum_FEED"
    },
    {
        "file_hash": "995cea203bed866bed5f3e8b7bc3bc41",
        "create_time": 1704683361,
        "title": "山东一周天气趋势",
        "author": "山东天气",
        "thumbnail": "https://p26-sign.douyinpic.com/tos-cn-p-0015/oUqbebCHyIDAAPAEZBzf3uOhI6zCPOAnRgtB2G~tplv-dy-360p.jpeg?x-expires=1706497200&x-signature=NXY2WsXTJ03mU%2F5XVR2%2Fg4sti5o%3D&from=3213915784&s=PackSourceEnum_FEED&se=false&sc=origin_cover&biz_tag=aweme_video&l=02170529026302600000000000000000000ffff0a9fce24c83a83",
        "videoPlayUrl": "https://api-hl.amemv.com/aweme/v1/play/?video_id=v0300fg10000cmdme8rc77u47hnafa10&line=1&file_id=61ce8d0058024037b04bff207a59972e&sign=995cea203bed866bed5f3e8b7bc3bc41&is_play_url=1&source=PackSourceEnum_FEED"
    },
    {
        "file_hash": "e34488c214c88fed91540184cd2c5553",
        "create_time": 1704364200,
        "title": "小男孩帮奶奶整理菜园，勤快是勤快，但是……@李李吖",
        "author": "AHTV第一时间",
        "thumbnail": "https://p11-sign.douyinpic.com/tos-cn-p-0015/oMhfsAVBMaFOBDQL8LebBCA3Vz4J56QS75nWBe~tplv-dy-360p.jpeg?x-expires=1706497200&x-signature=aorFZiG5Pg84oecqHrD2LcQEA7k%3D&from=3213915784&s=PackSourceEnum_FEED&se=false&sc=origin_cover&biz_tag=aweme_video&l=02170529055122500000000000000000000ffff0a9fce24a77050",
        "videoPlayUrl": "https://api-hl.amemv.com/aweme/v1/play/?video_id=v0d00fg10000cmb6efjc77ub4k42laug&line=1&file_id=6346bdd6ebad47e3bf13556ce0efa94a&sign=e34488c214c88fed91540184cd2c5553&is_play_url=1&source=PackSourceEnum_FEED"
    },
    {
        "file_hash": "b18d49f7957f0806a80c2c560ff25a50",
        "create_time": 1704810139,
        "title": "“又到年底了，辛苦了一年仍然是两手空空心也空空…”.#说不出的或许都在歌里 #歌词句句入心 #两手空空心空空",
        "author": "张静7478",
        "thumbnail": "https://p26-sign.douyinpic.com/tos-cn-p-0015/o0EBfe5O9QPaW7DA0C5A2UHjLdQ376fBEtpqVC~tplv-dy-360p.jpeg?x-expires=1706497200&x-signature=5sM%2B8mERZZKHSMckIwT957s9%2BTY%3D&from=3213915784&s=PackSourceEnum_FEED&se=false&sc=origin_cover&biz_tag=aweme_video&l=021705290235678fdbddc02002803441b444f48a00000c3893df2",
        "videoPlayUrl": "https://api-hl.amemv.com/aweme/v1/play/?video_id=v0200fg10000cmeld2rc77ufe6kvvugg&line=1&file_id=c4c011e7e0d34055b8acda2ef91a1504&sign=b18d49f7957f0806a80c2c560ff25a50&is_play_url=1&source=PackSourceEnum_FEED"
    },
    {
        "file_hash": "52fac16683fd596f87a0ccca0bf58417",
        "create_time": 1704529980,
        "title": "在线云撸狗，鬣老二这体型够直观了吧~ #野生动物零距离 #神奇动物在抖音 #动物的迷惑行为 #人与动物和谐共处 #鬣狗",
        "author": "派哥动物园",
        "thumbnail": "https://p9-sign.douyinpic.com/tos-cn-p-0015/oo2Z73waLCB5SthBdAEOUdABrrbAfLfcPB7eHS~tplv-dy-360p.jpeg?x-expires=1706497200&x-signature=4vkihXxM5FUeBxoZvYRo29VS1kE%3D&from=3213915784&s=PackSourceEnum_FEED&se=false&sc=origin_cover&biz_tag=aweme_video&l=02170529028252800000000000000000000ffff0a9fce24da2bc5",
        "videoPlayUrl": "https://api-hl.amemv.com/aweme/v1/play/?video_id=v0d00fg10000cmbrmu3c77uaims915e0&line=1&file_id=8827705326554580b89bd57363424302&sign=52fac16683fd596f87a0ccca0bf58417&is_play_url=1&source=PackSourceEnum_FEED"
    }
]