[
    {
        "file_hash": "48584b0405460ea26ec8fa8f11f0f809",
        "create_time": 1703764800,
        "title": "怀孕后，你们的癖好都这么奇怪？#女性健康 #医学科普 #涨知识 #怀孕 #女生必看 ",
        "author": "好孕方舟",
        "thumbnail": "https://p6-sign.douyinpic.com/tos-cn-p-0015/oo2NlGgxNAIHNN27Bzey2vBSRhADfAdIIqQIoH~tplv-dy-360p.jpeg?x-expires=1706497200&x-signature=Gw4fzaq3O8MFqdxuDdYsmJL9ytE%3D&from=3213915784&s=PackSourceEnum_FEED&se=false&sc=origin_cover&biz_tag=aweme_video&l=021705290317482fdbddc0200ff0500539d98e2bea7afe5734ef2",
        "videoPlayUrl": "https://api-hl.amemv.com/aweme/v1/play/?video_id=v0300fg10000cm6kdijc77u74dmog690&line=1&file_id=eba1d85adffc403ab5aa14b503ea5c92&sign=48584b0405460ea26ec8fa8f11f0f809&is_play_url=1&source=PackSourceEnum_FEED"
    },
    {
        "file_hash": "1476b85daca47d31b01213d46fb8fe20",
        "create_time": 1703764208,
        "title": "#电视剧三大队  特殊时刻特殊对待，四个男人睡一张床……也行~#秦昊  #迷雾剧场",
        "author": "爱奇艺",
        "thumbnail": "https://p6-sign.douyinpic.com/tos-cn-p-0015/o8ABCPVNJtLQbC7Seenr2Q48EGY7Df8AIHwBcz~tplv-dy-360p.jpeg?x-expires=1706497200&x-signature=6NjWUwyuICSKxD%2BR6eNytsEU4wE%3D&from=3213915784&s=PackSourceEnum_FEED&se=false&sc=origin_cover&biz_tag=aweme_video&l=021705290477423fdbddc0200ff0500bc1675fcf697acf6709ba4",
        "videoPlayUrl": "https://api-hl.amemv.com/aweme/v1/play/?video_id=v0200fg10000cm6lvu3c77ufbef1man0&line=1&file_id=95d44aed3ddc4d5d8c92a7590a1ee82f&sign=1476b85daca47d31b01213d46fb8fe20&is_play_url=1&source=PackSourceEnum_FEED"
    },
    {
        "file_hash": "85ca7e785ed7d89268fc2daaf2fd0fe9",
        "create_time": 1704715092,
        "title": "《在水一方》cover邓丽君 #抖音热歌 #邓丽君 #愿岁月温柔以待 #在水一方 #梁文静",
        "author": "梁文静的梁¹⁸²",
        "thumbnail": "https://p11-sign.douyinpic.com/tos-cn-p-0015/oArwzZDQQBALn3Nbb4eGbZeQm1HmVBAVnCe7CP~tplv-dy-360p.jpeg?x-expires=1706497200&x-signature=gX82w7ONxQB8sa58Abk6aiyOPlg%3D&from=3213915784&s=PackSourceEnum_FEED&se=false&sc=origin_cover&biz_tag=aweme_video&l=02170529027274300000000000000000000ffff0a1c602a7f3346",
        "videoPlayUrl": "https://api-hl.amemv.com/aweme/v1/play/?video_id=v0300fg10000cmdu3prc77u7lbecgppg&line=1&file_id=096d9a1b4ae244f68602a7d1370c4900&sign=85ca7e785ed7d89268fc2daaf2fd0fe9&is_play_url=1&source=PackSourceEnum_FEED"
    },
    {
        "file_hash": "ef558e2f71bee0c2a50a8818bc9e9c84",
        "create_time": 1703749897,
        "title": "我配音怎么你了？#猫疯了 #猫咪的迷惑行为",
        "author": "蒜偷小狗八",
        "thumbnail": "https://p11-sign.douyinpic.com/tos-cn-p-0015/oMAiAAQyNhjBSekIR2NtBfKxCzcr5pICqBJp6g~tplv-dy-360p.jpeg?x-expires=1706497200&x-signature=lwYhWzTVCO05hKd67eBbH2ZMtkw%3D&from=3213915784&s=PackSourceEnum_FEED&se=false&sc=origin_cover&biz_tag=aweme_video&l=021705290339749fdbddc0200ff0500bc1675fcf697acf622b4c4",
        "videoPlayUrl": "https://api-hl.amemv.com/aweme/v1/play/?video_id=v0d00fg10000cm6ihhrc77u2sul4jar0&line=1&file_id=9d582662ac3a4c91a649136d43591b06&sign=ef558e2f71bee0c2a50a8818bc9e9c84&is_play_url=1&source=PackSourceEnum_FEED"
    },
    {
        "file_hash": "d3d2501f1060e344fed0135acecbade7",
        "create_time": 1702803682,
        "title": "农村小伙跟村花暖脚，暖到心坎里面去了！#最后不过只是相识一场",
        "author": "期待未来123",
        "thumbnail": "https://p3-sign.douyinpic.com/tos-cn-p-0015/f0a9c57cf4564909aa922494c8345cd2_1702803687~tplv-dy-360p.jpeg?x-expires=1706497200&x-signature=0s7N70vmc3EY%2BUfE7IqMS7wI8wE%3D&from=3213915784&s=PackSourceEnum_FEED&se=false&sc=origin_cover&biz_tag=aweme_video&l=021705290402287fdbddc0200ff0500bc1675fcf697acf6963f5f",
        "videoPlayUrl": "https://api-hl.amemv.com/aweme/v1/play/?video_id=v0d00fg10000clvbhhrc77u69q785to0&line=1&file_id=4320bff1ba5144aeb36d1d1318607299&sign=d3d2501f1060e344fed0135acecbade7&is_play_url=1&source=PackSourceEnum_FEED"
    },
    {
        "file_hash": "aa7b6eee514789060e2135d70a187dcb",
        "create_time": 1704363030,
        "title": "这堆石头挑一个不能做东西的挺难的 #哈轩珠宝 #翡翠 #缅甸翡翠 #一见爱上传统文化",
        "author": "哈轩翡翠",
        "thumbnail": "https://p26-sign.douyinpic.com/tos-cn-p-0015/oonWWBbPB1toleAAvcOBALCMDlIAhIeg9my5q7~tplv-dy-360p.jpeg?x-expires=1706497200&x-signature=6iUnV2v58CcYhdbkqsSZgP1sn3k%3D&from=3213915784&s=PackSourceEnum_FEED&se=false&sc=origin_cover&biz_tag=aweme_video&l=021705290450617fdbddc0200ff0500bc1675fcf697acf6bacee0",
        "videoPlayUrl": "https://api-hl.amemv.com/aweme/v1/play/?video_id=v0200fg10000cmb87irc77u75nmmdd60&line=1&file_id=9976d11e7c2d4c3390d6194234c49dbf&sign=aa7b6eee514789060e2135d70a187dcb&is_play_url=1&source=PackSourceEnum_FEED"
    },
    {
        "file_hash": "14b1d1a3e4f078a24edfb780506857cd",
        "create_time": 1704596709,
        "title": "鸣龙少年！编剧发颠！！！谁教你这么编剧的啊！#追剧 #鸣龙少年 #张若昀",
        "author": "富贵不是福贵",
        "thumbnail": "https://p6-sign.douyinpic.com/tos-cn-p-0015/o49BReAdBVibuOmgOlxCAzCaG2IAItXYnhFeDg~tplv-dy-360p.jpeg?x-expires=1706497200&x-signature=xDh8zBK4ZMP19jeWC9t0vMGt3Vw%3D&from=3213915784&s=PackSourceEnum_FEED&se=false&sc=origin_cover&biz_tag=aweme_video&l=021705290438308fdbddc0200ff0500e133e973bd3b735ca8847c",
        "videoPlayUrl": "https://api-hl.amemv.com/aweme/v1/play/?video_id=v0200fg10000cmd18ojc77u782lgnupg&line=1&file_id=5520b847701f47639a30a68fb9fccc2b&sign=14b1d1a3e4f078a24edfb780506857cd&is_play_url=1&source=PackSourceEnum_FEED"
    },
    {
        "file_hash": "5f2377c400e55912a1bf1546584c1bf5",
        "create_time": 1703848809,
        "title": "#豫剧风雨行宫十六年 #王红丽 #沐月戏曲分享 #精彩",
        "author": "沐月戏曲分享",
        "thumbnail": "https://p9-sign.douyinpic.com/tos-cn-p-0015/ogqAmjBuZefBABCanlbp9tgJXDIcbAdnIOprEo~tplv-dy-360p.jpeg?x-expires=1706497200&x-signature=IqpmNtbcaxO6qOXQFT74%2Bo%2BRA6c%3D&from=3213915784&s=PackSourceEnum_FEED&se=false&sc=origin_cover&biz_tag=aweme_video&l=021705290473171fdbddc0200ff0500bc1675fcf697acf6295160",
        "videoPlayUrl": "https://api-hl.amemv.com/aweme/v1/play/?video_id=v0200fg10000cm7abqbc77udmcqfut0g&line=1&file_id=8f8f0c1460a640d7a0b184d0c33e734e&sign=5f2377c400e55912a1bf1546584c1bf5&is_play_url=1&source=PackSourceEnum_FEED"
    },
    {
        "file_hash": "db73433e70f89316d84c1d1629e592ba",
        "create_time": 1704528557,
        "title": "论唬揍老公谁家强，佳木斯添伊家的老王头绝对有排名😮‍💨😆#冬泳 #长春冬泳",
        "author": "添伊外贸家居馆",
        "thumbnail": "https://p6-sign.douyinpic.com/tos-cn-p-0015/owbR36qGQlfqIgD8CqieaAXnB2xvmI9ZiANAAA~tplv-dy-360p.jpeg?x-expires=1706497200&x-signature=2nBZdNyfJLZYK5DSnHyhZ93PWAc%3D&from=3213915784&s=PackSourceEnum_FEED&se=false&sc=origin_cover&biz_tag=aweme_video&l=021705290440751fdbddc0200ff0500281b0ef8b4be4f285677cd",
        "videoPlayUrl": "https://api-hl.amemv.com/aweme/v1/play/?video_id=v0d00fg10000cmcgh4bc77u06nta5qng&line=1&file_id=e222b5dae395427a89653ad671b395f6&sign=db73433e70f89316d84c1d1629e592ba&is_play_url=1&source=PackSourceEnum_FEED"
    }
]