[
    {
        "file_hash": "f86891142db80c84503610ac3ea0427b",
        "create_time": 1704713414,
        "title": "忘字心中绕，前缘尽勾销 #赵雅芝版白蛇传  #新白娘子传奇 ",
        "author": "阿炳扒剧",
        "thumbnail": "https://p6-sign.douyinpic.com/tos-cn-p-0015/o8yaAufDCQuL9DlAU3vQmmJ9bBMAbEzeFAtHQg~tplv-dy-360p.jpeg?x-expires=1706497200&x-signature=dK4cEPThyKzUYm2Bv4WhqzF0fjg%3D&from=3213915784&s=PackSourceEnum_FEED&se=false&sc=origin_cover&biz_tag=aweme_video&l=02170529054075700000000000000000000ffff0a1b46d5faad3d",
        "videoPlayUrl": "https://api-hl.amemv.com/aweme/v1/play/?video_id=v0200fg10000cmdtphvog65n53as34k0&line=1&file_id=c6884d12608c4cd49e0c2b5b7cbe48e3&sign=f86891142db80c84503610ac3ea0427b&is_play_url=1&source=PackSourceEnum_FEED"
    },
    {
        "file_hash": "2704405702fe24fd517e712c850d720f",
        "create_time": 1704773640,
        "title": "屋顶明明是斜的，可积雪为什么不会自己滑下来呢？ #雪  #解压  #冰雪季  #科普  #治愈系入冬",
        "author": "好奇万花筒",
        "thumbnail": "https://p3-sign.douyinpic.com/tos-cn-p-0015/ocEMyIQb9lDGZDAfBVnzRI8MSTfngAwgw7D2gA~tplv-dy-360p.jpeg?x-expires=1706497200&x-signature=51vuug%2BTCHt%2BN2phKLK%2FDy3rWjU%3D&from=3213915784&s=PackSourceEnum_FEED&se=false&sc=origin_cover&biz_tag=aweme_video&l=02170529023331300000000000000000000ffff0a9e7ca26f09db",
        "videoPlayUrl": "https://api-hl.amemv.com/aweme/v1/play/?video_id=v0300fg10000cmec423c77uc634l8j20&line=1&file_id=d1a569ea7cf74e8181d2b54f9efc87d9&sign=2704405702fe24fd517e712c850d720f&is_play_url=1&source=PackSourceEnum_FEED"
    },
    {
        "file_hash": "a9824290f3f541ac23cce52961cc9dde",
        "create_time": 1703597719,
        "title": "7~12岁的孩子家长注意了，面向小学家长发放1000份猿辅导新思维盒子，29元速领",
        "author": "小猿数理新思维",
        "thumbnail": "https://p11-sign.douyinpic.com/tos-cn-p-0051/ooleDZK83BnQtA8NWA1g2DmDeiDogEbqUQ1nDo~tplv-dy-360p.jpeg?x-expires=1706497200&x-signature=5OQsNapUUQhwLyeBYO000d%2FipBs%3D&from=3213915784&s=PackSourceEnum_FEED&se=false&sc=origin_cover&biz_tag=aweme_video&l=02170529034882400000000000000000000ffff0a1b46d539bb5b",
        "videoPlayUrl": "https://api-hl.amemv.com/aweme/v1/play/?video_id=v02033g10000cm5dd5vog65k30foc91g&line=1&file_id=d909d7d7e537433e820616b77d258cae&sign=a9824290f3f541ac23cce52961cc9dde&is_play_url=1&source=PackSourceEnum_FEED"
    },
    {
        "file_hash": "d74eb4017f9607d412e80384bf34823d",
        "create_time": 1704210007,
        "title": "结局精彩了~点击上方（红色按钮）可看完整版",
        "author": "青盲视界",
        "thumbnail": "https://p6-sign.douyinpic.com/tos-cn-p-0015/o0fy5YeaAhByVUZirLicrIDlAdsBIgB0hgACGA~tplv-dy-360p.jpeg?x-expires=1706497200&x-signature=qB1n0zwhG5jWgvrZlCMvnHOziQQ%3D&from=3213915784&s=PackSourceEnum_FEED&se=false&sc=origin_cover&biz_tag=aweme_video&l=02170529030656200000000000000000000ffff0a1c388da04388",
        "videoPlayUrl": "https://api-hl.amemv.com/aweme/v1/play/?video_id=v0200fg10000cma2slvog65k30alh0eg&line=1&file_id=011d073cfa7f422ebb042039c2ce57d5&sign=d74eb4017f9607d412e80384bf34823d&is_play_url=1&source=PackSourceEnum_FEED"
    },
    {
        "file_hash": "f3c8ee8c7f66b7925fd948b628469103",
        "create_time": 1704628813,
        "title": "#科莫多巨蜥",
        "author": "阿搬动物世界",
        "thumbnail": "https://p26-sign.douyinpic.com/tos-cn-p-0015/oQAbAAklDDFDe9mQIMabBekmOnv7MpQX4EpsUg~tplv-dy-360p.jpeg?x-expires=1706497200&x-signature=Fqv3CqX2NYA39vjpi7x%2FACkAd4s%3D&from=3213915784&s=PackSourceEnum_FEED&se=false&sc=origin_cover&biz_tag=aweme_video&l=02170529022877200000000000000000000ffff0a9f2ba8d52ca4",
        "videoPlayUrl": "https://api-hl.amemv.com/aweme/v1/play/?video_id=v0300fg10000cmd941bc77ubj2ip9s30&line=1&file_id=e60d6f8bddf646cbabe373379388498e&sign=f3c8ee8c7f66b7925fd948b628469103&is_play_url=1&source=PackSourceEnum_FEED"
    },
    {
        "file_hash": "1a0a942e6c341e91aa3a9e84aed38f6f",
        "create_time": 1703236848,
        "title": "六个月的宝宝就能吃，专属小月龄宝贝的冻干米饼～",
        "author": "喵小侠旗舰店",
        "thumbnail": "https://p6-sign.douyinpic.com/tos-cn-p-0015/oIeBpfALAzpNuHwoPy6DA8NFu7IAAwMQzqVyhg~tplv-dy-360p.jpeg?x-expires=1706497200&x-signature=CBwxBBVuKxHMWz5%2FAaoWvrJ8NY8%3D&from=3213915784&s=PackSourceEnum_FEED&se=false&sc=origin_cover&biz_tag=aweme_video&l=02170529058218800000000000000000000ffff0a1b46d5f13c88",
        "videoPlayUrl": "https://api-hl.amemv.com/aweme/v1/play/?video_id=v0d00fg10000cm2l9kjc77u7kcq0piu0&line=1&file_id=1dbfcaa4e3e149f08979cd56b9e14c3b&sign=1a0a942e6c341e91aa3a9e84aed38f6f&is_play_url=1&source=PackSourceEnum_FEED"
    },
    {
        "file_hash": "7d190ec40d21c6844e1ee75abcf2f371",
        "create_time": 1705150984,
        "title": "狗眼睛都被你吵洗了！不要对狗弹琴了！#金毛 #狗狗 #萌宠 #狗狗的心思都写在脸上了 #萌宠出道计划",
        "author": "巴啵巴啵rocky啊",
        "thumbnail": "https://p3-sign.douyinpic.com/tos-cn-p-0015/oMofC8nF9AAoAQmUXiDQKiBAiBMggRfSolbWzi~tplv-dy-360p.jpeg?x-expires=1706497200&x-signature=yupwIksEanswMYW%2FPfnSBkxcQnM%3D&from=3213915784&s=PackSourceEnum_FEED&se=false&sc=origin_cover&biz_tag=aweme_video&l=021705290530497fdbddc0200ff0500281b0ef8b4be4f28199992",
        "videoPlayUrl": "https://api-hl.amemv.com/aweme/v1/play/?video_id=v0200fg10000cmh8h53c77u4fp94cplg&line=1&file_id=c51d1dce1c2c43429378549b0ac89831&sign=7d190ec40d21c6844e1ee75abcf2f371&is_play_url=1&source=PackSourceEnum_FEED"
    },
    {
        "file_hash": "bccde83896f6c09d73d1682b1f933b2d",
        "create_time": 1703559069,
        "title": "三岁宝宝路边捡瓶子，看到没关门的汽车，宝宝是这样做的 #懂事宝宝",
        "author": "海洋-",
        "thumbnail": "https://p26-sign.douyinpic.com/tos-cn-p-0015/owPA8DMngmaBA8k8bel9AEAcg3K65iAVjM7e2D~tplv-dy-360p.jpeg?x-expires=1706497200&x-signature=f2oVWO456z4wpYIzPH90E5EiWI4%3D&from=3213915784&s=PackSourceEnum_FEED&se=false&sc=origin_cover&biz_tag=aweme_video&l=02170529048962000000000000000000000ffff0a1b46d5ac0adb",
        "videoPlayUrl": "https://api-hl.amemv.com/aweme/v1/play/?video_id=v0300fg10000cm53u33c77u76vk0i9hg&line=1&file_id=90261f26d0654daab0c8c275c8a29012&sign=bccde83896f6c09d73d1682b1f933b2d&is_play_url=1&source=PackSourceEnum_FEED"
    },
    {
        "file_hash": "582a02f2ab30c62afd13357404ad8197",
        "create_time": 1702795671,
        "title": "#戚百草就是现在 #旋风三连踢 #雪天满足了我的武侠梦",
        "author": "殿下",
        "thumbnail": "https://p26-sign.douyinpic.com/tos-cn-p-0015/08897df7e34c41988b605dd059ed4eb0_1702795675~tplv-dy-360p.jpeg?x-expires=1706497200&x-signature=Bnot4phSbdDV27UQdBPwjLjbiXg%3D&from=3213915784&s=PackSourceEnum_FEED&se=false&sc=origin_cover&biz_tag=aweme_video&l=02170529052360900000000000000000000ffff0a1b46d594e375",
        "videoPlayUrl": "https://api-hl.amemv.com/aweme/v1/play/?video_id=v0300fg10000clv9j3rc77ua1k0t5v9g&line=1&file_id=f61d914f57894f0482321229256a7e42&sign=582a02f2ab30c62afd13357404ad8197&is_play_url=1&source=PackSourceEnum_FEED"
    }
]