[
    {
        "file_hash": "94d0d5a53262698792609034b5d68c34",
        "create_time": 1704346066,
        "title": "工头老范的丈母娘过生日，拜托汪小姐在黄河路金美林订了一桌宴席。汪小姐跟老范师徒一场，陪老范去黄河路等位，被卢美琳刁难。冲突之间，金美林火药味蹿起……#唐嫣#范志毅#范湉湉#电视剧繁花#东方卫视繁花",
        "author": "东方卫视",
        "thumbnail": "https://p3-sign.douyinpic.com/tos-cn-p-0015/os2IdzkAAnQleCqWlEeCgFID9AJRBvUbABBlgk~tplv-dy-360p.jpeg?x-expires=1706508000&x-signature=RfytrbMWtEk%2Bdxn89jUGUJFiL4Y%3D&from=3213915784&s=PackSourceEnum_FEED&se=false&sc=origin_cover&biz_tag=aweme_video&l=02170530041579500000000000000000000ffff0a9e5faa776857",
        "videoPlayUrl": "https://api-hl.amemv.com/aweme/v1/play/?video_id=v0200fg10000cmb42l3c77u4tg3ql420&line=1&file_id=da59377a02634e1ab8f0651dee035d4f&sign=94d0d5a53262698792609034b5d68c34&is_play_url=1&source=PackSourceEnum_FEED"
    },
    {
        "file_hash": "b56848b222f3b5a050bc1578035a36b6",
        "create_time": 1703243031,
        "title": "聊斋#井仙#聊斋#我要上热门@抖音小助手",
        "author": "月儿🌸",
        "thumbnail": "https://p9-sign.douyinpic.com/tos-cn-p-0015/oIk6tAzwNbCARfesyT7iZBDAgIXFBzlAaaJrhZ~tplv-dy-360p.jpeg?x-expires=1706508000&x-signature=tS7zYwW%2BNasgt95Jdya8fQJjBRg%3D&from=3213915784&s=PackSourceEnum_FEED&se=false&sc=origin_cover&biz_tag=aweme_video&l=021705300633110fdbddc020024062a00000000000000463547d0",
        "videoPlayUrl": "https://api-hl.amemv.com/aweme/v1/play/?video_id=v0300fg10000cm2mphbc77u99sthjr6g&line=1&file_id=6109458085e6485a9e170b3ddee659f4&sign=b56848b222f3b5a050bc1578035a36b6&is_play_url=1&source=PackSourceEnum_FEED"
    },
    {
        "file_hash": "af00f9b08d15f2b4da939714b1758a7b",
        "create_time": 1704510750,
        "title": "妈妈教育女儿不要乱丢东西，结果见识了女儿的“一身反骨”#萌娃 #人类幼崽 #反骨 #教育",
        "author": "大国重器",
        "thumbnail": "https://p26-sign.douyinpic.com/tos-cn-p-0015/oMA5TTIgCYAeSDMxy99lOmbeJUnBABQIaBRlWY~tplv-dy-360p.jpeg?x-expires=1706508000&x-signature=ocBAZaB%2FbT%2Fm3wvETWoU9%2Be1M00%3D&from=3213915784&s=PackSourceEnum_FEED&se=false&sc=origin_cover&biz_tag=aweme_video&l=021705300670091fdbddc020024062a0000000000000046407c88",
        "videoPlayUrl": "https://api-hl.amemv.com/aweme/v1/play/?video_id=v0200fg10000cmcca4rc77u75nn5l590&line=1&file_id=57829c1a2dfa403fa4bc0bb403b0ef54&sign=af00f9b08d15f2b4da939714b1758a7b&is_play_url=1&source=PackSourceEnum_FEED"
    },
    {
        "file_hash": "7400f22cf4c35987959e17b273189f7a",
        "create_time": 1703068801,
        "title": "蝗虫天敌出现了，20万椋鸟对战上亿只蝗虫，看它如何捕杀蝗虫？（1） #蝗虫  #椋鸟  #生物防治  ",
        "author": "大眼睛剪辑",
        "thumbnail": "https://p11-sign.douyinpic.com/tos-cn-p-0015/ogLlGoCBBCAQYAL7wBfANILCOBBBAEeeFkxGIO~tplv-dy-360p.jpeg?x-expires=1706508000&x-signature=TP%2FAbJHjrko4Cy0izuNzG8mthn8%3D&from=3213915784&s=PackSourceEnum_FEED&se=false&sc=origin_cover&biz_tag=aweme_video&l=021705300638789fdbddc020024062a00000000000000468ac7a3",
        "videoPlayUrl": "https://api-hl.amemv.com/aweme/v1/play/?video_id=v0300fg10000cm1c907og65s04q1v03g&line=1&file_id=861655b1eeec486295c3e7421636debc&sign=7400f22cf4c35987959e17b273189f7a&is_play_url=1&source=PackSourceEnum_FEED"
    },
    {
        "file_hash": "bc3df4cdcf8e5aedcdfcb095157d1780",
        "create_time": 1702681800,
        "title": "雅鹿儿童羽绒服，加厚保暖不跑毛 雅鹿亲子羽绒服，极寒加厚白鸭绒，大人小孩都能穿#儿童羽绒服#品质童装#童装羽绒服#保暖又便宜#羽绒服 #雅鹿亲子羽绒",
        "author": "雅鹿织羽童装",
        "thumbnail": "https://p26-sign.douyinpic.com/tos-cn-p-0015/2311f0e6d66b4bdc891e33607de5e404_1702647870~tplv-dy-360p.jpeg?x-expires=1706508000&x-signature=QXgbUScBmOfNpH0YG1NGEH%2FLaH4%3D&from=3213915784&s=PackSourceEnum_FEED&se=false&sc=origin_cover&biz_tag=aweme_video&l=021705300726349fdbddc020024062a000000000000004692dcf4",
        "videoPlayUrl": "https://api-hl.amemv.com/aweme/v1/play/?video_id=v0200fg10000clu5g4jc77u4rn3ronkg&line=1&file_id=2df90379a78043f089235fa50528e25a&sign=bc3df4cdcf8e5aedcdfcb095157d1780&is_play_url=1&source=PackSourceEnum_FEED"
    },
    {
        "file_hash": "4a08bc9cd6cad4626f7fdda0062b7ddb",
        "create_time": 1704881539,
        "title": "来看看我用什么调理宝宝吃饭秘诀吧@圣特拉慕#圣特拉慕#纯羊小分子3益宝护力#奶粉怎么选#圣特拉慕羊奶粉#羊奶粉",
        "author": "南川麻麻",
        "thumbnail": "https://p9-sign.douyinpic.com/tos-cn-p-0015/osGlXf1gTAkFE9Mtgg8knfDngbNYiNjDAABJ4g~tplv-dy-360p.jpeg?x-expires=1706508000&x-signature=ZObq9uY1mF%2FONHCfx9FSu%2BP2Gmo%3D&from=3213915784&s=PackSourceEnum_FEED&se=false&sc=origin_cover&biz_tag=aweme_video&l=021705300389955fdbddc02000c03730000000000000037150f8c",
        "videoPlayUrl": "https://api-hl.amemv.com/aweme/v1/play/?video_id=v0300fg10000cmf3qo3c77u18or0h64g&line=1&file_id=bd3a0b910289424a90e9b1fb2e7e63e7&sign=4a08bc9cd6cad4626f7fdda0062b7ddb&is_play_url=1&source=PackSourceEnum_FEED"
    },
    {
        "file_hash": "a215a8cc8161c57f2cfda9cda93966ec",
        "create_time": 1704510000,
        "title": "女生跟猫咪告状 说被骂了，猫咪大哥立马帮她骂回去 （视频来源于：@好鄂茶摊 ）#橘猫还是那个橘猫 #猫猫：让我瞅瞅什么情况 #猫咪的心思都写在脸上了 #猫咪 #萌宠成精了",
        "author": "新闻视界",
        "thumbnail": "https://p6-sign.douyinpic.com/tos-cn-p-0015/o0vJpf0AhIyIgSy99Xt56tPAesuEyzNsAC1VBd~tplv-dy-360p.jpeg?x-expires=1706508000&x-signature=0FyAl4CABYA0sUwqPjTE5%2FQGHgw%3D&from=3213915784&s=PackSourceEnum_FEED&se=false&sc=origin_cover&biz_tag=aweme_video&l=021705300740388fdbddc020024062a0000000000000046e88c2d",
        "videoPlayUrl": "https://api-hl.amemv.com/aweme/v1/play/?video_id=v0d00fg10000cmbrp7rc77u9qbljr9t0&line=1&file_id=89ec9fe2fa8b4d0cb5de1b2eecbb911d&sign=a215a8cc8161c57f2cfda9cda93966ec&is_play_url=1&source=PackSourceEnum_FEED"
    },
    {
        "file_hash": "85ca7e785ed7d89268fc2daaf2fd0fe9",
        "create_time": 1704715092,
        "title": "《在水一方》cover邓丽君 #抖音热歌 #邓丽君 #愿岁月温柔以待 #在水一方 #梁文静",
        "author": "梁文静的梁¹⁸²",
        "thumbnail": "https://p11-sign.douyinpic.com/tos-cn-p-0015/oArwzZDQQBALn3Nbb4eGbZeQm1HmVBAVnCe7CP~tplv-dy-360p.jpeg?x-expires=1706508000&x-signature=%2BcnXpyIWR4rZ6nJdUldPG%2Bluobs%3D&from=3213915784&s=PackSourceEnum_FEED&se=false&sc=origin_cover&biz_tag=aweme_video&l=021705300574264fdbddc020024062a00000000000000465b2ca9",
        "videoPlayUrl": "https://api-hl.amemv.com/aweme/v1/play/?video_id=v0300fg10000cmdu3prc77u7lbecgppg&line=1&file_id=096d9a1b4ae244f68602a7d1370c4900&sign=85ca7e785ed7d89268fc2daaf2fd0fe9&is_play_url=1&source=PackSourceEnum_FEED"
    }
]