[
    {
        "file_hash": "6565991f351178be7d26120c0d0eac61",
        "create_time": 1704538109,
        "title": "读懂了何家村遗宝，你就读懂了大唐盛世。#兽首玛瑙杯 #何家村遗宝 #陕西历史博物馆",
        "author": "刘国杨的发现之旅",
        "thumbnail": "https://p26-sign.douyinpic.com/tos-cn-p-0015/o0ImNfzGeAAXIIZGLZhIqtBAKB8g2DMkzyN4Fa~tplv-dy-360p.jpeg?x-expires=1706508000&x-signature=WsZvwZHV%2FjHvB%2Bdvs%2FG391qgZyo%3D&from=3213915784&s=PackSourceEnum_FEED&se=false&sc=origin_cover&biz_tag=aweme_video&l=021705300566906fdbddc0200ff0500191901312700ede252b692",
        "videoPlayUrl": "https://api-hl.amemv.com/aweme/v1/play/?video_id=v0d00fg10000cmchd33c77u3jakjo5s0&line=1&file_id=ce5e2afd84a944818e0b5decb7567b72&sign=6565991f351178be7d26120c0d0eac61&is_play_url=1&source=PackSourceEnum_FEED"
    },
    {
        "file_hash": "96c8b3f7a3cd5fd6366dd28dd8897326",
        "create_time": 1702720001,
        "title": "12月16日央视财经，女子吃#减肥话梅 吃出肝炎，那你还敢吃吗？#减肥产品#健康减脂 #食品安全",
        "author": "看见集美",
        "thumbnail": "https://p11-sign.douyinpic.com/tos-cn-p-0015/4eaaa36ad42648cb9f521953d1405bf0_1702720005~tplv-dy-360p.jpeg?x-expires=1706508000&x-signature=NiYbQiKINg825FGInMBOmIPgJws%3D&from=3213915784&s=PackSourceEnum_FEED&se=false&sc=origin_cover&biz_tag=aweme_video&l=021705300795668fdbddc0200ff05008bde4961213f9c9a8b6775",
        "videoPlayUrl": "https://api-hl.amemv.com/aweme/v1/play/?video_id=v0200fg10000clun38bc77ubtaj4qnu0&line=1&file_id=29c9b61b40094f4ab0bf38873780dbe6&sign=96c8b3f7a3cd5fd6366dd28dd8897326&is_play_url=1&source=PackSourceEnum_FEED"
    },
    {
        "file_hash": "2d78e21c43e3089966f1270514103307",
        "create_time": 1704941606,
        "title": "2024年的新年新片，没想到这部剧还能这么火，特别是第十二集，太有那个味了！",
        "author": "可可看剧",
        "thumbnail": "https://p9-sign.douyinpic.com/tos-cn-p-0051/osNwRTDIEAglPPmbfq8DbcOje1tMSDACnB6NBl~tplv-dy-360p.jpeg?x-expires=1706508000&x-signature=BwnSHKPMtEuVhpLQ7e2yH%2BcSvuo%3D&from=3213915784&s=PackSourceEnum_FEED&se=false&sc=origin_cover&biz_tag=aweme_video&l=021705300539796fdbddc0200ff0500191901312700ede277614a",
        "videoPlayUrl": "https://api-hl.amemv.com/aweme/v1/play/?video_id=v03033g10000cmflg9fog65ukdlqj2m0&line=1&file_id=d37aeea837fe48c9b999e20d92433b69&sign=2d78e21c43e3089966f1270514103307&is_play_url=1&source=PackSourceEnum_FEED"
    },
    {
        "file_hash": "a1cb52bf01d872467cbab8b6bac89e58",
        "create_time": 1704016465,
        "title": "12月31日报道，湖北武汉，#挖呀挖黄老师当妈妈了 ： 在爆火之前就已怀孕，面对舆论压力，为了宝宝努力保持平和。#黄老师回首2023轻舟已过万重山",
        "author": "九派新闻",
        "thumbnail": "https://p9-sign.douyinpic.com/tos-cn-p-0015/oMeJnAeqRdLAZlSOg8HoC4IB7BlPlAQEUB2eq1~tplv-dy-360p.jpeg?x-expires=1706508000&x-signature=%2BARbBTDW8DWHWods9KeM%2Bykbbeo%3D&from=3213915784&s=PackSourceEnum_FEED&se=false&sc=origin_cover&biz_tag=aweme_video&l=021705300601758fdbddc0200ff05006d7cf199a51a40f682d0c2",
        "videoPlayUrl": "https://api-hl.amemv.com/aweme/v1/play/?video_id=v0200fg10000cm8jk5bc77u3mb0aamlg&line=1&file_id=2da23108f3684403b0494e13aba0e755&sign=a1cb52bf01d872467cbab8b6bac89e58&is_play_url=1&source=PackSourceEnum_FEED"
    },
    {
        "file_hash": "14b03a3d69938d7c450874d5f1690f39",
        "create_time": 1704680485,
        "title": "1月7日，湖南长沙。50万宝马4系刚提1天失控就撞损，车主质疑4S店销售人员误导或车辆本身质量问题。#宝马4系 #质量问题 #本地民生资讯",
        "author": "都市1时间",
        "thumbnail": "https://p9-sign.douyinpic.com/tos-cn-p-0015/oMkAhafzJIzGRGBA3pVgNjhrybIZeKNADUCaXB~tplv-dy-360p.jpeg?x-expires=1706508000&x-signature=o8bSkQJiJpQIvVO6jWZWqbGSoFY%3D&from=3213915784&s=PackSourceEnum_FEED&se=false&sc=origin_cover&biz_tag=aweme_video&l=021705300812707fdbddc0200ff0500191901312700ede28f64ee",
        "videoPlayUrl": "https://api-hl.amemv.com/aweme/v1/play/?video_id=v0300fg10000cmdln8jc77u6lopm29kg&line=1&file_id=5c51c58d6bd147ada1a7782bb0831c30&sign=14b03a3d69938d7c450874d5f1690f39&is_play_url=1&source=PackSourceEnum_FEED"
    },
    {
        "file_hash": "3f3f3c210a63f69d5bf327fa95740473",
        "create_time": 1704965281,
        "title": "贵妇却嫌角斗士穿得太多  #电影解说 #宅家dou剧场 #美剧 ",
        "author": "半盏流年影",
        "thumbnail": "https://p11-sign.douyinpic.com/tos-cn-p-0015/ogGf8GMTQCmPVQIYKe7tBycBGlpi2ALyBeA9LL~tplv-dy-360p.jpeg?x-expires=1706508000&x-signature=NpQKfs3iqA4NV9lYEEgEfvGv3is%3D&from=3213915784&s=PackSourceEnum_FEED&se=false&sc=origin_cover&biz_tag=aweme_video&l=021705300877517fdbddc0200ff0500191901312700ede242778c",
        "videoPlayUrl": "https://api-hl.amemv.com/aweme/v1/play/?video_id=v0300fg10000cmfr9afog65n7m9b65og&line=1&file_id=3482fd40da8d4a61aaf9d69e410f5fb6&sign=3f3f3c210a63f69d5bf327fa95740473&is_play_url=1&source=PackSourceEnum_FEED"
    },
    {
        "file_hash": "3c4d3b1ac7a4860034f9e17e2e543d65",
        "create_time": 1703161309,
        "title": "#杭州  市佛教协会暨杭州#灵隐寺  向#甘肃  、#青海 #地震  灾区各捐款100万元（来源：灵隐寺）",
        "author": "杭州综合频道",
        "thumbnail": "https://p3-sign.douyinpic.com/tos-cn-p-0015/o0hAbwByTfIwABN8syCae1gVbhI8NAXzAELd6S~tplv-dy-360p.jpeg?x-expires=1706508000&x-signature=mrgC1SkzAxN7t8Hgitj4GPG4p3Y%3D&from=3213915784&s=PackSourceEnum_FEED&se=false&sc=origin_cover&biz_tag=aweme_video&l=021705300658806fdbddc0200ff0500191901312700ede289ba21",
        "videoPlayUrl": "https://api-hl.amemv.com/aweme/v1/play/?video_id=v0d00fg10000cm22rd3c77u29mtggno0&line=1&file_id=63eea24d1a854755b1f355bc08476858&sign=3c4d3b1ac7a4860034f9e17e2e543d65&is_play_url=1&source=PackSourceEnum_FEED"
    },
    {
        "file_hash": "19749ae302e8510199d92107eb3a83a6",
        "create_time": 1703234677,
        "title": "12月22日，山东聊城（报道时间）担心校门口积雪会让学生滑倒，3名家长买500斤融雪剂深夜铲雪",
        "author": "经视直播",
        "thumbnail": "https://p6-sign.douyinpic.com/tos-cn-p-0015/ooAfAAOlDDdIZ93AxIKbB8mhknf3NUgxmv9KOg~tplv-dy-360p.jpeg?x-expires=1706508000&x-signature=0%2F06qwJ9svhq1MXRX7XlcuhB1oc%3D&from=3213915784&s=PackSourceEnum_FEED&se=false&sc=origin_cover&biz_tag=aweme_video&l=021705300772966fdbddc0200ff0500191901312700ede283f3f3",
        "videoPlayUrl": "https://api-hl.amemv.com/aweme/v1/play/?video_id=v0300fg10000cm2konbc77uc9ksauph0&line=1&file_id=53dc1858439f4c6986c7ca472152de69&sign=19749ae302e8510199d92107eb3a83a6&is_play_url=1&source=PackSourceEnum_FEED"
    }
]