[
    {
        "file_hash": "ba90d02bc98a516b5698fbf32e19ed75",
        "create_time": 1703319046,
        "title": "生活就是一半诗意一半烟火，手持烟火以谋生，心怀诗意以谋爱。#敬往事一杯",
        "author": "洋澜一🎤",
        "thumbnail": "https://p11-sign.douyinpic.com/tos-cn-p-0015/oIBUYqyb9lDMeCAdBynGNXepggthgAPQ2jllAA~tplv-dy-360p.jpeg?x-expires=1706508000&x-signature=qbPG80lPlmGuDSuGEJ5RkysNVS4%3D&from=3213915784&s=PackSourceEnum_FEED&se=false&sc=origin_cover&biz_tag=aweme_video&l=02170530088139000000000000000000000ffff0a92138bac97c0",
        "videoPlayUrl": "https://api-hl.amemv.com/aweme/v1/play/?video_id=v0200fg10000cm39bqjc77u7tj34dacg&line=1&file_id=7f3a300795e54461a0b5d4eb2c8a9942&sign=ba90d02bc98a516b5698fbf32e19ed75&is_play_url=1&source=PackSourceEnum_FEED"
    },
    {
        "file_hash": "0ff1054df9fa87df402f4cf00f3b5931",
        "create_time": 1704412801,
        "title": "有来有回还有#反转 ，打一拳要还五拳#冯兴礼 #昆仑决 #体育 #祖耶夫",
        "author": "昆仑决",
        "thumbnail": "https://p26-sign.douyinpic.com/tos-cn-p-0015/o06vi0TJzIW2DWLRAlfBN2epzBNXylAIhWg1Ay~tplv-dy-360p.jpeg?x-expires=1706508000&x-signature=l4YMvNif%2B4FkUHNl4wM6OeCfKoo%3D&from=3213915784&s=PackSourceEnum_FEED&se=false&sc=origin_cover&biz_tag=aweme_video&l=02170530083882900000000000000000000ffff0a92138b4bcb82",
        "videoPlayUrl": "https://api-hl.amemv.com/aweme/v1/play/?video_id=v0d00fg10000cmb8hkjc77ub4tdubj1g&line=1&file_id=61e0abf9eb384ac9af9708b4e87d6e74&sign=0ff1054df9fa87df402f4cf00f3b5931&is_play_url=1&source=PackSourceEnum_FEED"
    },
    {
        "file_hash": "8c4786c97815cd4a8cd622e15bc7f5a4",
        "create_time": 1702896869,
        "title": "#女孩 #火 #社会百态",
        "author": "至昂纪实",
        "thumbnail": "https://p9-sign.douyinpic.com/tos-cn-p-0015/oAEdEfxxYgxJsfsHfSL4kAuSAIdAeAcgbEfnAA~tplv-dy-360p.jpeg?x-expires=1706508000&x-signature=ziZjUTI0vDqzbVQMWtOBBoFuXCU%3D&from=3213915784&s=PackSourceEnum_FEED&se=false&sc=origin_cover&biz_tag=aweme_video&l=02170530078388600000000000000000000ffff0a92138b39a7b9",
        "videoPlayUrl": "https://api-hl.amemv.com/aweme/v1/play/?video_id=v0300fg10000cm029p7og65nhvevvrn0&line=1&file_id=5bd2eca3cdf74c819bc3ff941a1bd706&sign=8c4786c97815cd4a8cd622e15bc7f5a4&is_play_url=1&source=PackSourceEnum_FEED"
    },
    {
        "file_hash": "94eda6df89317af237eb7d51a993ac49",
        "create_time": 1704769675,
        "title": "#哈哈哈娱乐一下😂😂😂 #专业动作请勿模仿 #看一遍笑一遍 #这谁顶得住啊 #搞笑",
        "author": "开心果丽丽",
        "thumbnail": "https://p6-sign.douyinpic.com/tos-cn-p-0015/o0hnnbfPADlDIIuCVAlg8B4cIR9LAGeHOAzvtl~tplv-dy-360p.jpeg?x-expires=1706508000&x-signature=TWeCYi%2BV7dYeMHUZQO2Z%2FZ32ug8%3D&from=3213915784&s=PackSourceEnum_FEED&se=false&sc=origin_cover&biz_tag=aweme_video&l=02170530092333000000000000000000000ffff0a92138b521c2e",
        "videoPlayUrl": "https://api-hl.amemv.com/aweme/v1/play/?video_id=v0300fg10000cmebgjrc77uflf2rs23g&line=1&file_id=117f2f3b60f74f48a1510ed29181598a&sign=94eda6df89317af237eb7d51a993ac49&is_play_url=1&source=PackSourceEnum_FEED"
    },
    {
        "file_hash": "6b6058d2f2cd6557a81b9ae2c9278ec2",
        "create_time": 1703152953,
        "title": "狗狗很孝顺奶奶#动物的迷惑行为 #动物趣事 #聪明的狗子",
        "author": "必燃动物城",
        "thumbnail": "https://p9-sign.douyinpic.com/tos-cn-p-0015/oEtESngwtAIoIaydBzeyGTB1DhANfAXZAgZANE~tplv-dy-360p.jpeg?x-expires=1706508000&x-signature=d6kDrSdJPicEfakLQfAR2p9jVLw%3D&from=3213915784&s=PackSourceEnum_FEED&se=false&sc=origin_cover&biz_tag=aweme_video&l=02170530088860300000000000000000000ffff0a92138bbf14db",
        "videoPlayUrl": "https://api-hl.amemv.com/aweme/v1/play/?video_id=v0d00fg10000cm20q9bc77u401llj7qg&line=1&file_id=ad6990eb45cc428f967bc3bfc2e67e19&sign=6b6058d2f2cd6557a81b9ae2c9278ec2&is_play_url=1&source=PackSourceEnum_FEED"
    },
    {
        "file_hash": "515c94d8c3011e4806698c9521805021",
        "create_time": 1703337225,
        "title": "老人河边洗拖把突然落水，好心人经过第一时间下水营救",
        "author": "宁波晚报",
        "thumbnail": "https://p11-sign.douyinpic.com/tos-cn-p-0015/oADGzl7EDvztA84eJENgbgA35NehBsnqAAQb9j~tplv-dy-360p.jpeg?x-expires=1706508000&x-signature=U638LmuMrKYXo0q0%2BsbzZXqrW8s%3D&from=3213915784&s=PackSourceEnum_FEED&se=false&sc=origin_cover&biz_tag=aweme_video&l=02170530087777300000000000000000000ffff0a92138bb8ee48",
        "videoPlayUrl": "https://api-hl.amemv.com/aweme/v1/play/?video_id=v0d00fg10000cm3dpjbc77uagjm34otg&line=1&file_id=83ae81909cc0429f93798581722e85c0&sign=515c94d8c3011e4806698c9521805021&is_play_url=1&source=PackSourceEnum_FEED"
    }
]