[
    {
        "file_hash": "8aa703393a03fd6ad84796d8bd0d3468",
        "create_time": 1703422867,
        "title": "",
        "author": "WaTaK WaTak",
        "thumbnail": "https://p11-sign.douyinpic.com/tos-cn-p-0015/oY9BnfAWAXetmBi35lMIAcDIX0IAA9ONzCKchg~tplv-dy-360p.jpeg?x-expires=1706508000&x-signature=vAaUfPZwrVBgod%2BSJowfsnh%2BuOo%3D&from=3213915784&s=PackSourceEnum_FEED&se=false&sc=origin_cover&biz_tag=aweme_video&l=02170530085006300000000000000000000ffff0a9f93d3db63b5",
        "videoPlayUrl": "https://api-hl.amemv.com/aweme/v1/play/?video_id=v0300fg10000cm42jvbc77u1rlpksse0&line=1&file_id=e7d0af220cb343df98e3014427f42be8&sign=8aa703393a03fd6ad84796d8bd0d3468&is_play_url=1&source=PackSourceEnum_FEED"
    },
    {
        "file_hash": "e626730e412d8812b785768e74517c41",
        "create_time": 1704193725,
        "title": "饭后消食燃脂操，每天练习10分钟，坚持七天，肚子平了，腰细了。#饭后操完整版 #减肥 #运动健身",
        "author": "Abby.",
        "thumbnail": "https://p26-sign.douyinpic.com/tos-cn-p-0015/oA7BUfgAhIGIgBkAfTtdHSQA9p29lzDMAB4rBT~tplv-dy-360p.jpeg?x-expires=1706508000&x-signature=JytmAVcU0PP2eanOD2F5%2BqsecJM%3D&from=3213915784&s=PackSourceEnum_FEED&se=false&sc=origin_cover&biz_tag=aweme_video&l=02170530073221700000000000000000000ffff0a9f93d36aac61",
        "videoPlayUrl": "https://api-hl.amemv.com/aweme/v1/play/?video_id=v0300fg10000cm9ut8bc77u1gdhg0k3g&line=1&file_id=cc44723b421f4ae781cce477a634f7b9&sign=e626730e412d8812b785768e74517c41&is_play_url=1&source=PackSourceEnum_FEED"
    },
    {
        "file_hash": "a71459845c6835387d18c3c9d1d18f84",
        "create_time": 1703809248,
        "title": "冬季光水主攻钓远深，选水底结构变化处，选湾叉、选小水面，选背风向阳#钓鱼技巧 #传统钓#原来钓鱼才是抖音运动顶流",
        "author": "传统钓鱼探阿勇",
        "thumbnail": "https://p11-sign.douyinpic.com/tos-cn-p-0015/owo6BYbnEQQq7PLBXEvkSHYBOCOAIDe5eDfnQA~tplv-dy-360p.jpeg?x-expires=1706508000&x-signature=q82MMQriLhaJjtMLLgm4M3voT5c%3D&from=3213915784&s=PackSourceEnum_FEED&se=false&sc=origin_cover&biz_tag=aweme_video&l=02170530074764600000000000000000000ffff0a9f93d34de796",
        "videoPlayUrl": "https://api-hl.amemv.com/aweme/v1/play/?video_id=v0200fg10000cm70v9rc77u85v9gfc90&line=1&file_id=0bd82f15bde34ee7a92d9ee0c3a24df4&sign=a71459845c6835387d18c3c9d1d18f84&is_play_url=1&source=PackSourceEnum_FEED"
    },
    {
        "file_hash": "d9c70f7bca7f37bfe4538492561acac6",
        "create_time": 1704117662,
        "title": "#情感音乐 #一首歌唱尽人的一生",
        "author": "情感音乐",
        "thumbnail": "https://p11-sign.douyinpic.com/tos-cn-p-0015/ogtS5pgkbAQ9BVe6Cn9lXZBKxDAN8AEfpsDQOM~tplv-dy-360p.jpeg?x-expires=1706508000&x-signature=jkSKM2lpciHpFMeTE5gKeufGbHk%3D&from=3213915784&s=PackSourceEnum_FEED&se=false&sc=origin_cover&biz_tag=aweme_video&l=021705300596504fdbddc0200ff05004b5e2b79359642d27dd6f4",
        "videoPlayUrl": "https://api-hl.amemv.com/aweme/v1/play/?video_id=v0d00fg10000cm9caubc77u355fdvkig&line=1&file_id=3f24c102253740d2b135497674d7d1c8&sign=d9c70f7bca7f37bfe4538492561acac6&is_play_url=1&source=PackSourceEnum_FEED"
    },
    {
        "file_hash": "267e8b745f74daf3164b7e8c3683fbae",
        "create_time": 1703073745,
        "title": "女生发现自家猫咪爪爪粘在护栏上，直接上手给猫咪暖爪爪成功解救猫咪，“还舔，舔完又粘住了”。",
        "author": "新民晚报",
        "thumbnail": "https://p9-sign.douyinpic.com/tos-cn-p-0015/okB6eCz1wSWtvYtGCwWtDPihBaJfIAy7AAgA9n~tplv-dy-360p.jpeg?x-expires=1706508000&x-signature=%2BiInvedcAM4RlJb%2Bz0EhaVTa0gI%3D&from=3213915784&s=PackSourceEnum_FEED&se=false&sc=origin_cover&biz_tag=aweme_video&l=02170530077849800000000000000000000ffff0a9f93d34b198c",
        "videoPlayUrl": "https://api-hl.amemv.com/aweme/v1/play/?video_id=v0300fg10000cm1dfhbc77u9ob8rn7d0&line=1&file_id=d563ee9c9b72420c80c8b3ba0ae6af46&sign=267e8b745f74daf3164b7e8c3683fbae&is_play_url=1&source=PackSourceEnum_FEED"
    },
    {
        "file_hash": "be631b9711bda514c957d8de52f229f4",
        "create_time": 1704523164,
        "title": "美国国防部长被送医治疗，目前身体在康复中，副部长随时准备行使防长职权#海峡新干线#台海时刻",
        "author": "海峡新干线",
        "thumbnail": "https://p26-sign.douyinpic.com/tos-cn-p-0015/okgMjWlDeEemfA23fRgAp5HCp1PsSYEaJ244n0~tplv-dy-360p.jpeg?x-expires=1706508000&x-signature=CZxqNZCmDOxY9cgamBSPcbVNWrU%3D&from=3213915784&s=PackSourceEnum_FEED&se=false&sc=origin_cover&biz_tag=aweme_video&l=02170530056162000000000000000000000ffff0a2eb6a65ebfa9",
        "videoPlayUrl": "https://api-hl.amemv.com/aweme/v1/play/?video_id=v0d00fg10000cmcfaf3c77ufp7ehikn0&line=1&file_id=8570bf5eacd249aa8c030b1bccc7ef37&sign=be631b9711bda514c957d8de52f229f4&is_play_url=1&source=PackSourceEnum_FEED"
    },
    {
        "file_hash": "ea883477096e77b815721accea96ac0e",
        "create_time": 1703586181,
        "title": "每天学一点#创作灵感 #家长必读 #关注我每天坚持分享知识 #正确的引导孩子陪伴孩子#经验分享",
        "author": "一起育儿",
        "thumbnail": "https://p3-sign.douyinpic.com/tos-cn-p-0015/oUYAAiIDagAq5j1LPMqkKbFZsgDHwBnelgA9f8~tplv-dy-360p.jpeg?x-expires=1706508000&x-signature=izqPAuhv6q58NCM8tutZKoJ4VeE%3D&from=3213915784&s=PackSourceEnum_FEED&se=false&sc=origin_cover&biz_tag=aweme_video&l=02170530075836500000000000000000000ffff0a9f93d346b5d4",
        "videoPlayUrl": "https://api-hl.amemv.com/aweme/v1/play/?video_id=v0300fg10000cm5ai23c77u1u0m07udg&line=1&file_id=848fa621ad9548f9b2f4319867eeffe9&sign=ea883477096e77b815721accea96ac0e&is_play_url=1&source=PackSourceEnum_FEED"
    },
    {
        "file_hash": "7664ee16ba272400143ebeda02b5cd06",
        "create_time": 1704796800,
        "title": "看到别人幸福也会忍不住流泪 #隔代亲 #奶奶 #感动瞬间 （视频来源@LFYJ. ）06",
        "author": "南阳网",
        "thumbnail": "https://p9-sign.douyinpic.com/tos-cn-p-0015/oYBQAB3zCfOWsAoBIyhzJkN5IzhUgMHVADdCVe~tplv-dy-360p.jpeg?x-expires=1706508000&x-signature=ftPUyJL3n4hnRTLRYSPAYAcy5AU%3D&from=3213915784&s=PackSourceEnum_FEED&se=false&sc=origin_cover&biz_tag=aweme_video&l=02170530070611700000000000000000000ffff0a9f93d3fb43de",
        "videoPlayUrl": "https://api-hl.amemv.com/aweme/v1/play/?video_id=v0300fg10000cmegc13c77u9m58tbnsg&line=1&file_id=28d7ac35e8094a66bddd1c7ce3fdfa4b&sign=7664ee16ba272400143ebeda02b5cd06&is_play_url=1&source=PackSourceEnum_FEED"
    },
    {
        "file_hash": "c56c8d6981841f31a5a1ce560e695e61",
        "create_time": 1704845820,
        "title": "早教儿歌:兔子舞#好玩的汤姆猫 #儿童动画 #儿歌100首最火 #0到3岁早教儿歌 #亲子教育",
        "author": "好玩的汤姆猫",
        "thumbnail": "https://p9-sign.douyinpic.com/tos-cn-p-0015/o4WAmnCU68uWABCxXlfu9QgiCDQEbAEnQ6wiye~tplv-dy-360p.jpeg?x-expires=1706508000&x-signature=KQPfxuWGGRXdkeQJsYJtQX8igpg%3D&from=3213915784&s=PackSourceEnum_FEED&se=false&sc=origin_cover&biz_tag=aweme_video&l=021705300690355fdbddc0200ff05006cbdf607bbf07aa542a2bd",
        "videoPlayUrl": "https://api-hl.amemv.com/aweme/v1/play/?video_id=v0200fg10000cmem1bjc77ufukpfe25g&line=1&file_id=7affb22884194390b8f190b3042a8404&sign=c56c8d6981841f31a5a1ce560e695e61&is_play_url=1&source=PackSourceEnum_FEED"
    }
]