[
    {
        "file_hash": "879429419db90cf5caa8599a8a5ddf33",
        "create_time": 1702774756,
        "title": "#中华田园犬 出生到满月 一直陪她玩，今天小狗 就要去新家了，一直恋恋不舍。#萌娃和萌宠 #小奶狗",
        "author": "汪汪队小黄",
        "thumbnail": "https://p11-sign.douyinpic.com/tos-cn-p-0015/7835585185734acbbb723d7ae4ebf2b5_1702774762~tplv-dy-360p.jpeg?x-expires=1706508000&x-signature=VrvHvJR27F7zo3ZfNsSP0Vzu%2Fy4%3D&from=3213915784&s=PackSourceEnum_FEED&se=false&sc=origin_cover&biz_tag=aweme_video&l=021705300869861fdbddc0200ff0500bc273f266bb753264197af",
        "videoPlayUrl": "https://api-hl.amemv.com/aweme/v1/play/?video_id=v0d00fg10000clv4ed3c77u1s1rqlnog&line=1&file_id=f74de7c282fb4934ad5b26775c8d011b&sign=879429419db90cf5caa8599a8a5ddf33&is_play_url=1&source=PackSourceEnum_FEED"
    },
    {
        "file_hash": "1d5bd64a3c476df11606fd1108f14468",
        "create_time": 1704269394,
        "title": "#0到3岁早教儿歌 #思维训练 #动手动脑 #专注力培养 #开发大脑",
        "author": "小萌娃贝贝动画",
        "thumbnail": "https://p11-sign.douyinpic.com/tos-cn-p-0015/o0kyvHGPLCFSe8C4HffihAgGBBsV2KMAs7glGE~tplv-dy-360p.jpeg?x-expires=1706508000&x-signature=ELUX98WtXjKwtAwrgsb6cYf83hE%3D&from=3213915784&s=PackSourceEnum_FEED&se=false&sc=origin_cover&biz_tag=aweme_video&l=02170530058455400000000000000000000ffff0a1c602abc70f8",
        "videoPlayUrl": "https://api-hl.amemv.com/aweme/v1/play/?video_id=v0300fg10000cmahcgjc77u28dcm0nkg&line=1&file_id=328eeabf1197432ab13d98b04b41e2ee&sign=1d5bd64a3c476df11606fd1108f14468&is_play_url=1&source=PackSourceEnum_FEED"
    },
    {
        "file_hash": "a16c4fe14b781408ecd2b4f4d4264f0a",
        "create_time": 1704632228,
        "title": "对不起我不应该大喊大叫🥹#记录猫咪日常 #好爱我的猫 #这个世界不能没有小猫 #快看啊这是我的猫 #它真的好像个小宝宝",
        "author": "草莓熊是我呀",
        "thumbnail": "https://p11-sign.douyinpic.com/tos-cn-p-0015/oUynnUbFzI660aH9AMfAC8e2FBNGy8AIhqgBAz~tplv-dy-360p.jpeg?x-expires=1706508000&x-signature=n6BqFggWNo0%2FcrvKDNNKkJ5V4Yk%3D&from=3213915784&s=PackSourceEnum_FEED&se=false&sc=origin_cover&biz_tag=aweme_video&l=021705300881062fdbddc0200ff0500bc273f266bb75326d3fb74",
        "videoPlayUrl": "https://api-hl.amemv.com/aweme/v1/play/?video_id=v0200fg10000cmd9tr3c77u72gcso5q0&line=1&file_id=c94c275163b34094855f48383d6ae6c3&sign=a16c4fe14b781408ecd2b4f4d4264f0a&is_play_url=1&source=PackSourceEnum_FEED"
    },
    {
        "file_hash": "27e30d4099080bfffe4540cc0ed6684b",
        "create_time": 1703584859,
        "title": "孩子选择留在养父母身边，郭刚堂说：尊重孩子的选择#郭刚堂  #郭刚堂之子被拐案一审  #亲爱的原型  #寻亲",
        "author": "都市现场",
        "thumbnail": "https://p3-sign.douyinpic.com/tos-cn-p-0015/ocuVKlBYDisqAefciCDQ9gAS2y0iBIndAQLb9N~tplv-dy-360p.jpeg?x-expires=1706508000&x-signature=IK216HRpPBndW0K7fLA8KYBs7Ec%3D&from=3213915784&s=PackSourceEnum_FEED&se=false&sc=origin_cover&biz_tag=aweme_video&l=021705300846166fdbddc0200ff0500bc273f266bb75326546d8f",
        "videoPlayUrl": "https://api-hl.amemv.com/aweme/v1/play/?video_id=v0300fg10000cm5a5cjc77uem06t26i0&line=1&file_id=c739e32db1a04c6791638cbd26c024fe&sign=27e30d4099080bfffe4540cc0ed6684b&is_play_url=1&source=PackSourceEnum_FEED"
    },
    {
        "file_hash": "b178b67bccf4d23271f32275cefdb7f1",
        "create_time": 1704808820,
        "title": "#努力生活的人在闪闪发光 #祝我们2024年越来越好 #加油每一天 #靠自己努力迎接新的春天 @DOU+小助手",
        "author": "挽风音乐",
        "thumbnail": "https://p11-sign.douyinpic.com/tos-cn-p-0015/ogdcgzzBmIybf6NiTNtBekjnXNjdUqATAhA7JI~tplv-dy-360p.jpeg?x-expires=1706508000&x-signature=Tx2yqfZwodWou1oo5pQucZuVXW8%3D&from=3213915784&s=PackSourceEnum_FEED&se=false&sc=origin_cover&biz_tag=aweme_video&l=021705300547494fdbddc0200ff0500191901312700ede2466aef",
        "videoPlayUrl": "https://api-hl.amemv.com/aweme/v1/play/?video_id=v0d00fg10000cmel2hrc77udi72cr3tg&line=1&file_id=dc888d9c261148bb9430e98c631e4fcc&sign=b178b67bccf4d23271f32275cefdb7f1&is_play_url=1&source=PackSourceEnum_FEED"
    },
    {
        "file_hash": "3d3102dcbc5b37baf8fb6285755adb23",
        "create_time": 1704787912,
        "title": "4岁女孩捡银行卡姑姑猜中密码，取款5700获刑7个月#万万没想到 #捡钱",
        "author": "新余发布",
        "thumbnail": "https://p26-sign.douyinpic.com/tos-cn-p-0015/oUz7AzfFigZGxJfwewYQZ4LV5fmPffPdAcI8mg~tplv-dy-360p.jpeg?x-expires=1706508000&x-signature=W5WA9%2FWoLERjDvLsSTkVK6p2m9U%3D&from=3213915784&s=PackSourceEnum_FEED&se=false&sc=origin_cover&biz_tag=aweme_video&l=021705300543966fdbddc0200280a0800000000000000372b875b",
        "videoPlayUrl": "https://api-hl.amemv.com/aweme/v1/play/?video_id=v0300fg10000cmefv0bc77u7vhrevpng&line=1&file_id=518e01e35afb4adaa51b2a397a766113&sign=3d3102dcbc5b37baf8fb6285755adb23&is_play_url=1&source=PackSourceEnum_FEED"
    },
    {
        "file_hash": "0364a0352e72ac8106929a785682780c",
        "create_time": 1704879206,
        "title": "艾特最可爱的宝宝来看#美猫3",
        "author": "美猫3",
        "thumbnail": "https://p3-sign.douyinpic.com/tos-cn-p-0015/o0Ve9medlQDYAPABZBn8K0RDQunBFlA5FgbKGQ~tplv-dy-360p.jpeg?x-expires=1706508000&x-signature=NGiwkYTMEdARine87sO6xzccMM8%3D&from=3213915784&s=PackSourceEnum_FEED&se=false&sc=origin_cover&biz_tag=aweme_video&l=021705300704487fdbddc0200ff0500bc273f266bb753269a79e3",
        "videoPlayUrl": "https://api-hl.amemv.com/aweme/v1/play/?video_id=v0300fg10000cmf68hbc77u08l1eslfg&line=1&file_id=e720aeb2e87f403bbda71be05dc6b9d9&sign=0364a0352e72ac8106929a785682780c&is_play_url=1&source=PackSourceEnum_FEED"
    },
    {
        "file_hash": "6a1bd49c13a5d584e72aebeba06e79cb",
        "create_time": 1703127961,
        "title": "35年前姐妹俩草场被奸杀，堂姐夫被判死缓坐牢21年，内蒙古高院近日宣判其无罪。来源:齐鲁晚报网 #社会关注 #社会新闻 #你怎么看",
        "author": "潍坊新闻",
        "thumbnail": "https://p3-sign.douyinpic.com/tos-cn-p-0015/oMiAkXyADF1zwBVqgFC5dthLfAAeSBwIvgWDcI~tplv-dy-360p.jpeg?x-expires=1706508000&x-signature=2%2FrHMA4BwafoOl2nupqx29te6gk%3D&from=3213915784&s=PackSourceEnum_FEED&se=false&sc=origin_cover&biz_tag=aweme_video&l=021705300777330fdbddc0200ff0500bc273f266bb75326155d84",
        "videoPlayUrl": "https://api-hl.amemv.com/aweme/v1/play/?video_id=v0200fg10000cm1qn2rc77u81haldlg0&line=1&file_id=200f13ac8b8a4d01aafc398e6e146ec4&sign=6a1bd49c13a5d584e72aebeba06e79cb&is_play_url=1&source=PackSourceEnum_FEED"
    }
]