[
    {
        "file_hash": "78a26aa567a357e1f383d1143833d4a3",
        "create_time": 1705057201,
        "title": "每当小狗心跳加速时，相机便会拍下一张照片",
        "author": "小影娱乐",
        "thumbnail": "https://p6-sign.douyinpic.com/tos-cn-p-0015/osndM5HggBALgkQ2fi4GDs6UEfX3fBAzPCc7Ed~tplv-dy-360p.jpeg?x-expires=1706508000&x-signature=R5WnQz99a46uNlEQ5yGUHzEUn8U%3D&from=3213915784&s=PackSourceEnum_FEED&se=false&sc=origin_cover&biz_tag=aweme_video&l=02170530070058500000000000000000000ffff0a1b5499b7cbff",
        "videoPlayUrl": "https://api-hl.amemv.com/aweme/v1/play/?video_id=v0300fg10000cmge5s3c77u3n7vna30g&line=1&file_id=19b332efa6fa41c7b8ebdda51fbc6960&sign=78a26aa567a357e1f383d1143833d4a3&is_play_url=1&source=PackSourceEnum_FEED"
    },
    {
        "file_hash": "f093a59347bd0535a07bf0541fd8d18c",
        "create_time": 1704802379,
        "title": "#创作灵感 @DOU+小助手 #我的观影报告 #影视解说 #因为一个片段看了整部剧 #精彩片段",
        "author": "欣怡影视",
        "thumbnail": "https://p6-sign.douyinpic.com/tos-cn-p-0015/owlONf67CBRQTA897A9QeJjBZnASg5bs8hcnDq~tplv-dy-360p.jpeg?x-expires=1706508000&x-signature=Bn86493XQmYHc%2Fk2%2FM66zVekW4A%3D&from=3213915784&s=PackSourceEnum_FEED&se=false&sc=origin_cover&biz_tag=aweme_video&l=02170530055545300000000000000000000ffff0a1b54997bb619",
        "videoPlayUrl": "https://api-hl.amemv.com/aweme/v1/play/?video_id=v0d00fg10000cmejggjc77uevfp5t8qg&line=1&file_id=3eeecdcac17648ee817d7b5440ba5540&sign=f093a59347bd0535a07bf0541fd8d18c&is_play_url=1&source=PackSourceEnum_FEED"
    },
    {
        "file_hash": "2443b7c8e7b17a82bb66fad4eb3c9c44",
        "create_time": 1703568930,
        "title": "生活小常识#每天一起涨知识 #每天学习一点点就会有收获",
        "author": "@通信录好友",
        "thumbnail": "https://p3-sign.douyinpic.com/tos-cn-p-0015/oEnK9NeVAB7iNQDXib9ZASOAUYhumgH1EnAKel~tplv-dy-360p.jpeg?x-expires=1706508000&x-signature=YNWGadNQZrKRXmt4TeW8ErWsE%2FI%3D&from=3213915784&s=PackSourceEnum_FEED&se=false&sc=origin_cover&biz_tag=aweme_video&l=02170530076123100000000000000000000ffff0a1b5499fdeec3",
        "videoPlayUrl": "https://api-hl.amemv.com/aweme/v1/play/?video_id=v0d00fg10000cm56c5bc77u79ukrr3rg&line=1&file_id=9def5dc075d7483f8b9bf7c2f2336805&sign=2443b7c8e7b17a82bb66fad4eb3c9c44&is_play_url=1&source=PackSourceEnum_FEED"
    },
    {
        "file_hash": "686d362ee9ccb7290245e62cfe175ec0",
        "create_time": 1703603239,
        "title": "唱不尽的美好和热爱，86岁黄爱菊老师再唱《劝驸马》#谁说戏曲不抖音 #戏曲",
        "author": "中原豫剧哥",
        "thumbnail": "https://p6-sign.douyinpic.com/tos-cn-p-0015/oULFEsV2Q7dKCDfBQfQVUBAeD78FNab1gAhnSD~tplv-dy-360p.jpeg?x-expires=1706508000&x-signature=aqf5AG7cR4vNJKuxS7BPcZbCaRQ%3D&from=3213915784&s=PackSourceEnum_FEED&se=false&sc=origin_cover&biz_tag=aweme_video&l=02170530063186800000000000000000000ffff0a1b5499e239e8",
        "videoPlayUrl": "https://api-hl.amemv.com/aweme/v1/play/?video_id=v0d00fg10000cm5eknrc77ub7um23aig&line=1&file_id=5878e24289ef47eda9684616d4c8bdb4&sign=686d362ee9ccb7290245e62cfe175ec0&is_play_url=1&source=PackSourceEnum_FEED"
    },
    {
        "file_hash": "ff24171075d3bbc85353690082ae3463",
        "create_time": 1704797370,
        "title": "你为什么负我不负她#畅儿梦想歌手",
        "author": "畅儿《梦想歌手》🎤",
        "thumbnail": "https://p11-sign.douyinpic.com/tos-cn-p-0015/ooSnnbUxADXNILJPfAlgeBQdIO9SAtFvmAw2Nv~tplv-dy-360p.jpeg?x-expires=1706508000&x-signature=XVf3Zzx9KhguHzjR1SLRtgmjUmM%3D&from=3213915784&s=PackSourceEnum_FEED&se=false&sc=origin_cover&biz_tag=aweme_video&l=02170530087847400000000000000000000ffff0a1b549940ee21",
        "videoPlayUrl": "https://api-hl.amemv.com/aweme/v1/play/?video_id=v0d00fg10000cmei9cbc77uafk1kafng&line=1&file_id=373220cba695488b840ebfa2602df872&sign=ff24171075d3bbc85353690082ae3463&is_play_url=1&source=PackSourceEnum_FEED"
    },
    {
        "file_hash": "018df6770eaa06aa7a5c7ae320f23665",
        "create_time": 1703328831,
        "title": "#萌娃日常 #我家小棉袄 #家的味道 。良好的家风从孩子做起",
        "author": "农家鸡蛋峰哥",
        "thumbnail": "https://p11-sign.douyinpic.com/tos-cn-p-0015/oc6GJNghbAQESvKTDn9lwEBqvDACeAf2UrtArA~tplv-dy-360p.jpeg?x-expires=1706508000&x-signature=fECSRHqmLZieib6v6oPwyrD5eqo%3D&from=3213915784&s=PackSourceEnum_FEED&se=false&sc=origin_cover&biz_tag=aweme_video&l=021705300648055fdbddc0200ff05002eb6e04b3b3ccb9a8f4f99",
        "videoPlayUrl": "https://api-hl.amemv.com/aweme/v1/play/?video_id=v0200fg10000cm3bnibc77u0563lm6qg&line=1&file_id=41d1f74a34734af4ba117b0f822f5a79&sign=018df6770eaa06aa7a5c7ae320f23665&is_play_url=1&source=PackSourceEnum_FEED"
    },
    {
        "file_hash": "192361bf21243ab8fc43a3687e0e71ce",
        "create_time": 1704854637,
        "title": "1月10日 ，黑龙江哈尔滨。争做哈尔滨中央大街上最萌“显眼包”，北京“小烤鸭”化身“人肉喇叭”：“走过路过不要错过，北京小烤鸭来了！”#尔滨",
        "author": "北京时间",
        "thumbnail": "https://p6-sign.douyinpic.com/tos-cn-p-0015/oc9sqAPNAbOQ9DNlKgDeDRTnQBtbexz8vgnCAM~tplv-dy-360p.jpeg?x-expires=1706508000&x-signature=L5Rfu2myD8FU%2BBKDrN4hEKJ5aR0%3D&from=3213915784&s=PackSourceEnum_FEED&se=false&sc=origin_cover&biz_tag=aweme_video&l=021705300703181fdbddc0200ff05002eb6e04b3b3ccb9a275bf0",
        "videoPlayUrl": "https://api-hl.amemv.com/aweme/v1/play/?video_id=v0300fg10000cmf08jrc77udj5kqjuig&line=1&file_id=d0f9d0c158384500b24007ddf93bfe5e&sign=192361bf21243ab8fc43a3687e0e71ce&is_play_url=1&source=PackSourceEnum_FEED"
    },
    {
        "file_hash": "cbfddda8386d590d53e4d51a9558a9ad",
        "create_time": 1703928713,
        "title": "#大熊猫 幼崽：哼奶妈，我现在就跟屏幕前的姨姨走！#国宝 #萌宠出道计划",
        "author": "熊猫滚滚",
        "thumbnail": "https://p26-sign.douyinpic.com/tos-cn-p-0015/okBrA4hjEfK5MAfAIlhzH4tTI2vzgHprADPC59~tplv-dy-360p.jpeg?x-expires=1706508000&x-signature=y19g7EzarZS%2F7wLjAp%2BZHQa0rk4%3D&from=3213915784&s=PackSourceEnum_FEED&se=false&sc=origin_cover&biz_tag=aweme_video&l=021705300573016fdbddc02000c0373000000000000003736bc3e",
        "videoPlayUrl": "https://api-hl.amemv.com/aweme/v1/play/?video_id=v0300fg10000cm7u71bc77u76at7j19g&line=1&file_id=bbca45a5f77e4872ab102a747535de68&sign=cbfddda8386d590d53e4d51a9558a9ad&is_play_url=1&source=PackSourceEnum_FEED"
    },
    {
        "file_hash": "e68ead9ef428c53580333611a67b5cb3",
        "create_time": 1705218832,
        "title": "女子偷偷代替也要来接侄子，当侄子看到姑姑眼神亮了，“第一次知道什么是眼神亮了”",
        "author": "江西旅游广播",
        "thumbnail": "https://p11-sign.douyinpic.com/tos-cn-p-0015/oc30J5PJnQdiWHPLA8eDN393bBbflVAQDagsAo~tplv-dy-360p.jpeg?x-expires=1706508000&x-signature=gvN7vjt56Yp9r%2ByRI1YaaXo6J%2BM%3D&from=3213915784&s=PackSourceEnum_FEED&se=false&sc=origin_cover&biz_tag=aweme_video&l=02170530069364900000000000000000000ffff0a1b5499913ac7",
        "videoPlayUrl": "https://api-hl.amemv.com/aweme/v1/play/?video_id=v0d00fg10000cmhp5trc77u7idj9sdlg&line=1&file_id=a28b0712515f455299e1c5e5e51e42c2&sign=e68ead9ef428c53580333611a67b5cb3&is_play_url=1&source=PackSourceEnum_FEED"
    },
    {
        "file_hash": "4a35398d380df8ab970edfbfeda072f1",
        "create_time": 1704538695,
        "title": "两姐妹坐在一起聊天，80岁妈妈二话不说上去就是一巴掌“去别人家扫地刷碗，接回来没几天被打两次” #家家有本难念的经 #母女之间的矛盾 #情感宣泄",
        "author": "河南乡村频道",
        "thumbnail": "https://p26-sign.douyinpic.com/tos-cn-p-0015/owfQgPmQpE7ZApl2c8TjAeDCyn7JbMA99EBIcN~tplv-dy-360p.jpeg?x-expires=1706508000&x-signature=rSeYSQgVetvLOp%2FDzhtM8crH28M%3D&from=3213915784&s=PackSourceEnum_FEED&se=false&sc=origin_cover&biz_tag=aweme_video&l=02170530071518800000000000000000000ffff0a1b5499f672a8",
        "videoPlayUrl": "https://api-hl.amemv.com/aweme/v1/play/?video_id=v0d00fg10000cmcj48rc77uet5o4vutg&line=1&file_id=bc18fc911c0c4279b36625b22ba1a98b&sign=4a35398d380df8ab970edfbfeda072f1&is_play_url=1&source=PackSourceEnum_FEED"
    }
]