[
    {
        "file_hash": "526433dd265a4044a6e1161270cee746",
        "create_time": 1704337348,
        "title": "据九派新闻1月4日消息，刘德华称自己吃素10年，太太吃素， 女儿从娘胎里就吃素，希望和家人一起做这件事。",
        "author": "燕赵都市报",
        "thumbnail": "https://p6-sign.douyinpic.com/tos-cn-p-0015/oYkHnP84QPfBEfLCesqP2BW79kA5CRDAQPxLQK~tplv-dy-360p.jpeg?x-expires=1706508000&x-signature=t9jZVYVLPEKEA%2BsvBdHE2OeoPWA%3D&from=3213915784&s=PackSourceEnum_FEED&se=false&sc=origin_cover&biz_tag=aweme_video&l=021705300728740fdbddc020028000a0000000000000043f9ae60",
        "videoPlayUrl": "https://api-hl.amemv.com/aweme/v1/play/?video_id=v0200fg10000cmb1vcjc77ufpsl7uf5g&line=1&file_id=6b28f46ed0d64598b785ec7beacbf9e9&sign=526433dd265a4044a6e1161270cee746&is_play_url=1&source=PackSourceEnum_FEED"
    },
    {
        "file_hash": "d90e085d6d4b0a635e682d263eba3e30",
        "create_time": 1703253600,
        "title": "来自湖北的吴阿姨帕金森十多年失去自理能力，公益救助帮助吴阿姨缓解症状恢复自理能力",
        "author": "河南都市报道",
        "thumbnail": "https://p26-sign.douyinpic.com/tos-cn-p-0015/okeOfdVlhAcnAsnDDWrVk9pBCVKbA3z9AssgQn~tplv-dy-360p.jpeg?x-expires=1706508000&x-signature=nkWE%2FKiT%2Figg8QhaOnWN752pTlA%3D&from=3213915784&s=PackSourceEnum_FEED&se=false&sc=origin_cover&biz_tag=aweme_video&l=021705300651902fdbddc020028000a000000000000004388d029",
        "videoPlayUrl": "https://api-hl.amemv.com/aweme/v1/play/?video_id=v0200fg10000cm2l79rc77ubb5f77mb0&line=1&file_id=c22359b265fe4d37b573bb96ea53e94d&sign=d90e085d6d4b0a635e682d263eba3e30&is_play_url=1&source=PackSourceEnum_FEED"
    },
    {
        "file_hash": "8c9150136913d86bea12e41eb756eb9f",
        "create_time": 1704358804,
        "title": "#ai 感动",
        "author": "苏瞌kē🍇（回归）",
        "thumbnail": "https://p11-sign.douyinpic.com/tos-cn-p-0015/oMM8cnXenIG5nWWOAAeADB9H4Bb9l8AID7gmAl~tplv-dy-360p.jpeg?x-expires=1706508000&x-signature=UJE62Ellx281juLZRAawIuMblDY%3D&from=3213915784&s=PackSourceEnum_FEED&se=false&sc=origin_cover&biz_tag=aweme_video&l=021705300571500fdbddc020028000a0000000000000043d02e83",
        "videoPlayUrl": "https://api-hl.amemv.com/aweme/v1/play/?video_id=v0300fg10000cmb771rc77ubf9ng1ojg&line=1&file_id=22b0e94b591d44da93d1f4307a615779&sign=8c9150136913d86bea12e41eb756eb9f&is_play_url=1&source=PackSourceEnum_FEED"
    },
    {
        "file_hash": "51035718a46eeaadd6a4566e7911e984",
        "create_time": 1703552086,
        "title": "李阳老师原来是这样教女儿英语的 #创作灵感 #宝爸带娃 #陪你长大陪你看世界 #日常vlog @抖音小助手",
        "author": "李阳疯狂英语（",
        "thumbnail": "https://p6-sign.douyinpic.com/tos-cn-p-0015/ocD9yRAUa0Osw8nCBgbEe2ACCQQsK7fRAiilSA~tplv-dy-360p.jpeg?x-expires=1706508000&x-signature=oK9oox8T7iWYo%2BqVQN3YmQEjaLs%3D&from=3213915784&s=PackSourceEnum_FEED&se=false&sc=origin_cover&biz_tag=aweme_video&l=021705300628712fdbddc020028000a0000000000000043b52c93",
        "videoPlayUrl": "https://api-hl.amemv.com/aweme/v1/play/?video_id=v0200fg10000cm5284bc77uddlj42m10&line=1&file_id=4cf7540907ec44d78ffc9a3cafe0b5de&sign=51035718a46eeaadd6a4566e7911e984&is_play_url=1&source=PackSourceEnum_FEED"
    },
    {
        "file_hash": "9c9e56a616cc4e095153b0c6c8c3b4f0",
        "create_time": 1704618000,
        "title": "完美球搭子3——守护型球搭 #潘晓婷  #台球  #球搭子",
        "author": "潘晓婷",
        "thumbnail": "https://p26-sign.douyinpic.com/tos-cn-p-0015/oIP9IzlaIACkSVBAHA4hNKeV9IC9g8fIlXBvpN~tplv-dy-360p.jpeg?x-expires=1706508000&x-signature=oGkj8R%2F9LSXzoLc%2BawR6dByOpEE%3D&from=3213915784&s=PackSourceEnum_FEED&se=false&sc=origin_cover&biz_tag=aweme_video&l=021705300723094fdbddc020028000a000000000000004350bab1",
        "videoPlayUrl": "https://api-hl.amemv.com/aweme/v1/play/?video_id=v0200fg10000cmbtui3c77u79bp0klkg&line=1&file_id=90b6b8c1c15b4ed1a4ddaa248dbce4d3&sign=9c9e56a616cc4e095153b0c6c8c3b4f0&is_play_url=1&source=PackSourceEnum_FEED"
    },
    {
        "file_hash": "f8f7ed806990de11304aa3f64faff34d",
        "create_time": 1705156030,
        "title": "江西终于知道外地网友喜欢什么了，江西文旅上演“美男计”“美女计”，主打一个攻心为上！#江西文旅 #江西dou知道 #向世界推介江西",
        "author": "微吉州",
        "thumbnail": "https://p26-sign.douyinpic.com/tos-cn-p-0015/o8bpsnoqQAN9NKCAAAnDpc079Qe9gKewliBq6b~tplv-dy-360p.jpeg?x-expires=1706508000&x-signature=EUOVnYhNSYLZjG5Havm533nIq2g%3D&from=3213915784&s=PackSourceEnum_FEED&se=false&sc=origin_cover&biz_tag=aweme_video&l=021705300693000fdbddc020028000a0000000000000043512da9",
        "videoPlayUrl": "https://api-hl.amemv.com/aweme/v1/play/?video_id=v0d00fg10000cmh9qfbc77u03db0s5eg&line=1&file_id=c940d03744284144817f97ef66c1ea60&sign=f8f7ed806990de11304aa3f64faff34d&is_play_url=1&source=PackSourceEnum_FEED"
    },
    {
        "file_hash": "cfa5e8abfbc87d5d837d7e321f50674c",
        "create_time": 1703180276,
        "title": "人群之中，随心舞动#滑冰 #花样滑冰 #专业动作请在指导下进行 ⛸️",
        "author": "李有容日记",
        "thumbnail": "https://p26-sign.douyinpic.com/tos-cn-p-0015/ogB37nVQOdeHAAIbAgaIkDlf7E9phAGoDArBBc~tplv-dy-360p.jpeg?x-expires=1706508000&x-signature=wKwXdgNnFYdBlGL4O%2BN4MBQ85oY%3D&from=3213915784&s=PackSourceEnum_FEED&se=false&sc=origin_cover&biz_tag=aweme_video&l=021705300774724fdbddc020028000a000000000000004365cf92",
        "videoPlayUrl": "https://api-hl.amemv.com/aweme/v1/play/?video_id=v0300fg10000cm27ai3c77uddsin90jg&line=1&file_id=bea422c914c54cfab86047ae77edf4fb&sign=cfa5e8abfbc87d5d837d7e321f50674c&is_play_url=1&source=PackSourceEnum_FEED"
    },
    {
        "file_hash": "6ff8c248a837247419824f314cdcb547",
        "create_time": 1704424127,
        "title": "说好了啊！我们每天都要贴贴～",
        "author": "金三柜",
        "thumbnail": "https://p11-sign.douyinpic.com/tos-cn-p-0015/oQdKQNWqcnAY5iQXl383A9lCcA1gfBflQzb4uD~tplv-dy-360p.jpeg?x-expires=1706508000&x-signature=XrIrLco89xPE3vkx3zQ%2FZKloRGQ%3D&from=3213915784&s=PackSourceEnum_FEED&se=false&sc=origin_cover&biz_tag=aweme_video&l=021705300566823fdbddc020028000a000000000000004363ac49",
        "videoPlayUrl": "https://api-hl.amemv.com/aweme/v1/play/?video_id=v0d00fg10000cmbn573c77udta5jqvlg&line=1&file_id=c8aec44284a440ba81ceba1f8376d451&sign=6ff8c248a837247419824f314cdcb547&is_play_url=1&source=PackSourceEnum_FEED"
    }
]