[
    {
        "file_hash": "944c34e7a82553b7cc8ba18801d07c0e",
        "create_time": 1703639521,
        "title": "#因为一个片段看了整部剧",
        "author": "指间短剧",
        "thumbnail": "https://p9-sign.douyinpic.com/tos-cn-p-0015/oQDOQCSb3ejQV8A9Z8ilTBemgngnmcgAAMBJWB~tplv-dy-360p.jpeg?x-expires=1706508000&x-signature=5J%2FqYGSWp6pO36JreLTGNWg3%2BcI%3D&from=3213915784&s=PackSourceEnum_FEED&se=false&sc=origin_cover&biz_tag=aweme_video&l=02170530075707600000000000000000000ffff0a1c602ac919c1",
        "videoPlayUrl": "https://api-hl.amemv.com/aweme/v1/play/?video_id=v0200fg10000cm5nj6bc77u0kspacho0&line=1&file_id=825e5893ac8a4158adedb18aa732eb09&sign=944c34e7a82553b7cc8ba18801d07c0e&is_play_url=1&source=PackSourceEnum_FEED"
    },
    {
        "file_hash": "f21e1844eef235a655121b475f424dc8",
        "create_time": 1705062948,
        "title": "#司机在路边停车因阻挡出车口遭殴打  事后双方均承认自己有过错，愿意达成调解#广东dou知道",
        "author": "DV现场",
        "thumbnail": "https://p26-sign.douyinpic.com/tos-cn-p-0015/oEvalzjIY1fJAlyNAgAhhDyiMKes0AYXhIqBAY~tplv-dy-360p.jpeg?x-expires=1706508000&x-signature=bUKE6iXtfspdnUZa6EhgxfOUnZk%3D&from=3213915784&s=PackSourceEnum_FEED&se=false&sc=origin_cover&biz_tag=aweme_video&l=02170530087726200000000000000000000ffff0a1c602a988688",
        "videoPlayUrl": "https://api-hl.amemv.com/aweme/v1/play/?video_id=v0300fg10000cmgj3p3c77u0d8dapfc0&line=1&file_id=e8026ad6ce4543b5a18fdfe482c971b9&sign=f21e1844eef235a655121b475f424dc8&is_play_url=1&source=PackSourceEnum_FEED"
    },
    {
        "file_hash": "fb8724bff92d9eae62f206ebb0e0b55a",
        "create_time": 1704447310,
        "title": "宜宾文旅已与四川“小熊猫”取得联系。 “小熊猫”们来自宜宾长宁，请大家关注后续行程。@小怪兽们 @宜宾新闻网 @哈尔滨文旅 @极光新闻 @黑龙江高速交警 @龙视新闻 @四川文旅 @四川观察 @最美长宁",
        "author": "宜宾文旅",
        "thumbnail": "https://p6-sign.douyinpic.com/tos-cn-p-0015/o8I7XlHAsBevxg9cEiIA6fhAXzzg8lBD1NrXVC~tplv-dy-360p.jpeg?x-expires=1706508000&x-signature=BNLnLosd9kNasVQDqaCwPZGAEgM%3D&from=3213915784&s=PackSourceEnum_FEED&se=false&sc=origin_cover&biz_tag=aweme_video&l=02170530056915700000000000000000000ffff0a1c602a2512c3",
        "videoPlayUrl": "https://api-hl.amemv.com/aweme/v1/play/?video_id=v0200fg10000cmbsnbjc77u4qn48fslg&line=1&file_id=137f4a651bed404aba528e742cc6ba90&sign=fb8724bff92d9eae62f206ebb0e0b55a&is_play_url=1&source=PackSourceEnum_FEED"
    },
    {
        "file_hash": "6507674f533d3f0d17bad6613871da9c",
        "create_time": 1704714621,
        "title": "#杭州 42名#特警 50米距离枪法大比拼，总共3名女特警其中2人#晋级 #半决赛 ，“枪花”首次参赛就突围：“男的打得比我快，但我打得稳！”",
        "author": "杭州综合频道",
        "thumbnail": "https://p3-sign.douyinpic.com/tos-cn-p-0015/oMfAHSwnAGEBevaL7G2CB7eHvDQBQD83UMJNbn~tplv-dy-360p.jpeg?x-expires=1706508000&x-signature=uoZ95RDB%2BT4p29HeFdJpAqwdv9o%3D&from=3213915784&s=PackSourceEnum_FEED&se=false&sc=origin_cover&biz_tag=aweme_video&l=02170530054801400000000000000000000ffff0a1c602af7b38e",
        "videoPlayUrl": "https://api-hl.amemv.com/aweme/v1/play/?video_id=v0d00fg10000cmdu29rc77ubooftr9dg&line=1&file_id=ff6e1e36a32d49f584273afcfb3f2a8a&sign=6507674f533d3f0d17bad6613871da9c&is_play_url=1&source=PackSourceEnum_FEED"
    },
    {
        "file_hash": "247d8941bdabd419951a48f0bcb16c55",
        "create_time": 1702721963,
        "title": "会搭积木了！#人类幼崽 #这是我生的哈基米 #你家孩子也这样吗",
        "author": "老弟记",
        "thumbnail": "https://p26-sign.douyinpic.com/tos-cn-p-0015/68c8c964f3494c7e98aceb016945d6c5_1702721968~tplv-dy-360p.jpeg?x-expires=1706508000&x-signature=J1v8p4RFoYu4gB3nxUDOVfqnzNs%3D&from=3213915784&s=PackSourceEnum_FEED&se=false&sc=origin_cover&biz_tag=aweme_video&l=021705300873416fdbddc02002a00260000000000000014bc387e",
        "videoPlayUrl": "https://api-hl.amemv.com/aweme/v1/play/?video_id=v0d00fg10000clunisrc77u58nqm9ofg&line=1&file_id=e6f29968cd48483dbc2118d1acf20b38&sign=247d8941bdabd419951a48f0bcb16c55&is_play_url=1&source=PackSourceEnum_FEED"
    },
    {
        "file_hash": "49f0bedcc15b6f751767bed8c4cb8ecf",
        "create_time": 1703838231,
        "title": "深圳人！好幸福！坐地铁还有黄金拿 #黄金 #万万想不到",
        "author": "飞天小娱警",
        "thumbnail": "https://p3-sign.douyinpic.com/tos-cn-p-0015/oUoAPjEsM8fqABN8hlh09hg1HDQfbAEnQdBDIn~tplv-dy-360p.jpeg?x-expires=1706508000&x-signature=x%2BpGf%2BfQ3kgTLdlmwI3X5e1N97E%3D&from=3213915784&s=PackSourceEnum_FEED&se=false&sc=origin_cover&biz_tag=aweme_video&l=021705300746303fdbddc0200ff050025199085995358537bbdc0",
        "videoPlayUrl": "https://api-hl.amemv.com/aweme/v1/play/?video_id=v0d00fg10000cm783t3c77u89gv1v2ag&line=1&file_id=574bdaa75546470594afe9e70649920f&sign=49f0bedcc15b6f751767bed8c4cb8ecf&is_play_url=1&source=PackSourceEnum_FEED"
    },
    {
        "file_hash": "b58841d32914f06549ba1bb92795311c",
        "create_time": 1704350700,
        "title": "#影视解说",
        "author": "楠楠说剧",
        "thumbnail": "https://p11-sign.douyinpic.com/tos-cn-p-0015/oEfHDu3yyA1sAuWAhPQqOeRBNaVtIjIPAuWgIz~tplv-dy-360p.jpeg?x-expires=1706508000&x-signature=EF3FWeutHOQ2ivlNwSI8bPiWDRc%3D&from=3213915784&s=PackSourceEnum_FEED&se=false&sc=origin_cover&biz_tag=aweme_video&l=02170530058136200000000000000000000ffff0a1c602a2d5a10",
        "videoPlayUrl": "https://api-hl.amemv.com/aweme/v1/play/?video_id=v0d00fg10000cmak7bbc77ufn412peb0&line=1&file_id=c8a5ba75b77c4e408e72f69696d68fa6&sign=b58841d32914f06549ba1bb92795311c&is_play_url=1&source=PackSourceEnum_FEED"
    },
    {
        "file_hash": "63a3dbcda8c89fd5bb7b92ff33acdd33",
        "create_time": 1704843000,
        "title": "女子在美发店祛斑242颗，花费近10万却险变“麻子脸”。法院调解门店退还4万元，分期支付。",
        "author": "帮女郎在行动",
        "thumbnail": "https://p3-sign.douyinpic.com/tos-cn-p-0015/ockAYGnxe4Bbnz6ov9iyAB3AlO8QQNDbglWYfD~tplv-dy-360p.jpeg?x-expires=1706508000&x-signature=MWYjPQY%2B2R5%2FmjwkFSI2QPc%2FQLI%3D&from=3213915784&s=PackSourceEnum_FEED&se=false&sc=origin_cover&biz_tag=aweme_video&l=02170530070683100000000000000000000ffff0a1c602a35c2c9",
        "videoPlayUrl": "https://api-hl.amemv.com/aweme/v1/play/?video_id=v0d00fg10000cmemc6rc77u79b3pn0sg&line=1&file_id=e1ff691b31dd435886c5116f595ba3fc&sign=63a3dbcda8c89fd5bb7b92ff33acdd33&is_play_url=1&source=PackSourceEnum_FEED"
    },
    {
        "file_hash": "221b70a5552082b57c0bfde8e8d1a528",
        "create_time": 1704278465,
        "title": "搞了半天 生她 养她  最后就为了给我销户呗？值呀…#教孩子的崩溃瞬间 #绝对是亲生的 #辅导作业 #被逼疯的家长 #漏风的小棉袄",
        "author": "我是艾雯呦",
        "thumbnail": "https://p26-sign.douyinpic.com/tos-cn-p-0015/oMOAI0ByAggISCeUThMctBrAVv9zyfHypD4O0A~tplv-dy-360p.jpeg?x-expires=1706508000&x-signature=GrkqYhnljMhXVL90iw49P9TRB5I%3D&from=3213915784&s=PackSourceEnum_FEED&se=false&sc=origin_cover&biz_tag=aweme_video&l=021705300582005fdbddc0200ff05007069c7e82e0982d1373078",
        "videoPlayUrl": "https://api-hl.amemv.com/aweme/v1/play/?video_id=v0300fg10000cmajinrc77u7706jhba0&line=1&file_id=7063b26fc0ea4ce29e43fbf3982d5851&sign=221b70a5552082b57c0bfde8e8d1a528&is_play_url=1&source=PackSourceEnum_FEED"
    }
]