[
    {
        "file_hash": "14502288c8237b7e830e8e5f57bbc229",
        "create_time": 1702694805,
        "title": "羽球圈三大厂年终总结——蓝厂篇 以退为进#羽毛球 #羽毛球装备",
        "author": "胖虎憨憨🏸️",
        "thumbnail": "https://p6-sign.douyinpic.com/tos-cn-p-0015/81f3521e7cbc48ae910b70e54c08d29d_1702694809~tplv-dy-360p.jpeg?x-expires=1706508000&x-signature=7k6UFiWjS0MGShDELCsDthUx2jA%3D&from=3213915784&s=PackSourceEnum_FEED&se=false&sc=origin_cover&biz_tag=aweme_video&l=021705300796992fdbddc0200ff05008bde4961213f9c9a5f93fa",
        "videoPlayUrl": "https://api-hl.amemv.com/aweme/v1/play/?video_id=v0d00fg10000clugtjbc77u8p5k0r9o0&line=1&file_id=cc9d98de66f744758b8062a2e66698e2&sign=14502288c8237b7e830e8e5f57bbc229&is_play_url=1&source=PackSourceEnum_FEED"
    },
    {
        "file_hash": "8a53c31c22e6643eee17ee3b5138366a",
        "create_time": 1703561269,
        "title": "【伊朗高级军事顾问遭袭身亡 伊朗：以色列“将付出代价”】 12月25日，伊朗一名高级军事顾问在以色列对叙利亚袭击中身亡。伊朗总统发表声明说，以色列将为其罪行“付出代价”。",
        "author": "小央视频",
        "thumbnail": "https://p3-sign.douyinpic.com/tos-cn-p-0015/osEAcgllCk9sDdcAekA0iQAnUghDi5TBSfbZGS~tplv-dy-360p.jpeg?x-expires=1706508000&x-signature=PTnDU6%2Bg2Ak2VGnoDKDu0MbLLWI%3D&from=3213915784&s=PackSourceEnum_FEED&se=false&sc=origin_cover&biz_tag=aweme_video&l=021705300634423fdbddc0200ff05008bde4961213f9c9a4f941f",
        "videoPlayUrl": "https://api-hl.amemv.com/aweme/v1/play/?video_id=v0300fg10000cm54g7bc77u974lojm4g&line=1&file_id=729e0ddb949547449466ae3ce3da579f&sign=8a53c31c22e6643eee17ee3b5138366a&is_play_url=1&source=PackSourceEnum_FEED"
    },
    {
        "file_hash": "0e186cac1e5836f15fedab8cd0f129b4",
        "create_time": 1704862230,
        "title": "口感超棒的  搅拌酸奶降价啦~酸奶和谷物干湿分离，满满的燕麦粒和坚果粒 ，多种口味任选，困了饿了拌一拌，元气满满！！！#嚼拌酸奶 #酸奶 #好吃到停不下来 #休闲零食",
        "author": "肉肉来了",
        "thumbnail": "https://p6-sign.douyinpic.com/tos-cn-p-0015/oA980ABeQQ9Dk4mScb75eQh0lhiIqn41nCDgAA~tplv-dy-360p.jpeg?x-expires=1706508000&x-signature=yMihCnQzyf3MUA0JLjU%2FJI3BuDg%3D&from=3213915784&s=PackSourceEnum_FEED&se=false&sc=origin_cover&biz_tag=aweme_video&l=021705300807495fdbddc0200ff05008bde4961213f9c9a3b81bb",
        "videoPlayUrl": "https://api-hl.amemv.com/aweme/v1/play/?video_id=v0300fg10000cmf1s4jc77uev6lkuut0&line=1&file_id=2f2b5fe044b44d3b9055edb721a599b0&sign=0e186cac1e5836f15fedab8cd0f129b4&is_play_url=1&source=PackSourceEnum_FEED"
    },
    {
        "file_hash": "724b648fb324256162c2921621d62600",
        "create_time": 1703901739,
        "title": "#车载音乐 #dj #一首好听的dj音乐分享给大家 #抖音热歌推荐🔥 #抖音热歌推荐🔥",
        "author": "秦感音乐",
        "thumbnail": "https://p9-sign.douyinpic.com/tos-cn-p-0015/o0Ye63gjbAgwtmIWDn9lniBweDAN8A2Y33ZgVE~tplv-dy-360p.jpeg?x-expires=1706508000&x-signature=LI6XnAi0KTpF%2FdlyHl3gx2TbVsQ%3D&from=3213915784&s=PackSourceEnum_FEED&se=false&sc=origin_cover&biz_tag=aweme_video&l=021705300744961fdbddc0200ff05008bde4961213f9c9afc5ddb",
        "videoPlayUrl": "https://api-hl.amemv.com/aweme/v1/play/?video_id=v0d00fg10000cm7njejc77u16ueocdu0&line=1&file_id=4d1ede9e5bf24e66bb737b2dae0d5d23&sign=724b648fb324256162c2921621d62600&is_play_url=1&source=PackSourceEnum_FEED"
    },
    {
        "file_hash": "9928bbc1fed979fadfae6e13b9fdfdc2",
        "create_time": 1704878540,
        "title": "小朋友喜欢的立体拼图，不用剪刀和胶水，自己能独立完成，还能认识很多小动物#立体拼图 #拼图 #益智拼图 #益智玩具",
        "author": "小幸运✌️",
        "thumbnail": "https://p11-sign.douyinpic.com/tos-cn-v-c9e10a/okQ5BClDmPGFvV8enAILKnekGHCBggbWDYIXGF~tplv-dy-360p.jpeg?x-expires=1706508000&x-signature=XkN%2BoNGRvWwFxSnnBKDM6LYxE%2Bo%3D&from=3213915784&s=PackSourceEnum_FEED&se=false&sc=origin_cover&biz_tag=aweme_video&l=021705300543366fdbddc0200ff05008bde4961213f9c9a90b6c7",
        "videoPlayUrl": "https://api-hl.amemv.com/aweme/v1/play/?video_id=v02033g10000cmf63j7og65iciq62i9g&line=1&file_id=f40ee8a242494cb2ac14885dfa6edc5a&sign=9928bbc1fed979fadfae6e13b9fdfdc2&is_play_url=1&source=PackSourceEnum_FEED"
    },
    {
        "file_hash": "5359228eb3f8ef54500e5bda098b73b2",
        "create_time": 1703334306,
        "title": "",
        "author": "开心宝贝",
        "thumbnail": "https://p26-sign.douyinpic.com/tos-cn-p-0015/oYM7bAb5EDACq07SBeAyQCeDzNVieLGan2BaCx~tplv-dy-360p.jpeg?x-expires=1706508000&x-signature=05i3SgoI%2Fxxr1YSxPvXUF28jJYQ%3D&from=3213915784&s=PackSourceEnum_FEED&se=false&sc=origin_cover&biz_tag=aweme_video&l=021705300768236fdbddc0200ff05008bde4961213f9c9a3959e5",
        "videoPlayUrl": "https://api-hl.amemv.com/aweme/v1/play/?video_id=v0200fg10000cm3d37jc77uduv742hag&line=1&file_id=f0c567b22de2427782adc6d90fee420b&sign=5359228eb3f8ef54500e5bda098b73b2&is_play_url=1&source=PackSourceEnum_FEED"
    },
    {
        "file_hash": "8eda34829c331721989889f16bdc3f2b",
        "create_time": 1703859248,
        "title": "快过年了，朋友聚会多了，这个陈皮白茶也天天爆火了，真的不错啊，兄弟们可以买回去尝尝3泡，不满意可以退#陈皮白茶 #送礼佳品 #茶叶 #白茶 #茶",
        "author": "【三只羊】臻选百货返场",
        "thumbnail": "https://p26-sign.douyinpic.com/tos-cn-p-0015/o86WCbjinB8Le4tBfdDqaeQGHCaQzwjAGs7LbA~tplv-dy-360p.jpeg?x-expires=1706508000&x-signature=S5loObZFOQLxELvCqEnbIY%2BelIA%3D&from=3213915784&s=PackSourceEnum_FEED&se=false&sc=origin_cover&biz_tag=aweme_video&l=021705300744961fdbddc0200ff05008bde4961213f9c9afc5ddb",
        "videoPlayUrl": "https://api-hl.amemv.com/aweme/v1/play/?video_id=v0d00fg10000cm7d6vrc77u3csar3hs0&line=1&file_id=42cf4bdf2c8240fd943786f18e71f5b5&sign=8eda34829c331721989889f16bdc3f2b&is_play_url=1&source=PackSourceEnum_FEED"
    },
    {
        "file_hash": "a0711e121f13e3381961f98b93499128",
        "create_time": 1703052895,
        "title": "打工苦啊打工累，说起打工流眼泪……😭#歌词句句入心 #伤感音乐 #唱出了多少打工人的心声 #说不出的或许都在歌里 #致生活不易的我们",
        "author": "俊哥哥🔥",
        "thumbnail": "https://p9-sign.douyinpic.com/tos-cn-p-0015/os8VGBCnlBhR0Uj8DfDoNAQdAAlCbgHge9AmCa~tplv-dy-360p.jpeg?x-expires=1706508000&x-signature=F6fXOqYvrk%2BZPlsHs1LStkglpWU%3D&from=3213915784&s=PackSourceEnum_FEED&se=false&sc=origin_cover&biz_tag=aweme_video&l=021705300779871fdbddc0200ff05008bde4961213f9c9a590498",
        "videoPlayUrl": "https://api-hl.amemv.com/aweme/v1/play/?video_id=v0200fg10000cm18amjc77u4bnqb3qf0&line=1&file_id=97b77016790e4d9db334ea9450ae08da&sign=a0711e121f13e3381961f98b93499128&is_play_url=1&source=PackSourceEnum_FEED"
    }
]