[
    {
        "file_hash": "1b45b18e88e0d0de64fdf99765b36027",
        "create_time": 1704441906,
        "title": "结局精彩了，点击上方↑（红色按钮）可看完整版 #热门好剧 ZT",
        "author": "阿南起飞",
        "thumbnail": "https://p26-sign.douyinpic.com/tos-cn-p-0015/oATgQyuyAegA77Cl9HVBAYR4DEIdIAFXs2tlfD~tplv-dy-360p.jpeg?x-expires=1706508000&x-signature=X96QYjRY2qPvI83ExHbpbeA3FYw%3D&from=3213915784&s=PackSourceEnum_FEED&se=false&sc=origin_cover&biz_tag=aweme_video&l=021705300884790fdbddc02002a00040000000000000028d0b482",
        "videoPlayUrl": "https://api-hl.amemv.com/aweme/v1/play/?video_id=v0200fg10000cmbrgcnog65tv425hiag&line=1&file_id=4aa1211506244e95935e73331955abe3&sign=1b45b18e88e0d0de64fdf99765b36027&is_play_url=1&source=PackSourceEnum_FEED"
    },
    {
        "file_hash": "63a3dbcda8c89fd5bb7b92ff33acdd33",
        "create_time": 1704843000,
        "title": "女子在美发店祛斑242颗，花费近10万却险变“麻子脸”。法院调解门店退还4万元，分期支付。",
        "author": "帮女郎在行动",
        "thumbnail": "https://p3-sign.douyinpic.com/tos-cn-p-0015/ockAYGnxe4Bbnz6ov9iyAB3AlO8QQNDbglWYfD~tplv-dy-360p.jpeg?x-expires=1706508000&x-signature=MWYjPQY%2B2R5%2FmjwkFSI2QPc%2FQLI%3D&from=3213915784&s=PackSourceEnum_FEED&se=false&sc=origin_cover&biz_tag=aweme_video&l=02170530070364800000000000000000000ffff0a1b401b90b80f",
        "videoPlayUrl": "https://api-hl.amemv.com/aweme/v1/play/?video_id=v0d00fg10000cmemc6rc77u79b3pn0sg&line=1&file_id=e1ff691b31dd435886c5116f595ba3fc&sign=63a3dbcda8c89fd5bb7b92ff33acdd33&is_play_url=1&source=PackSourceEnum_FEED"
    },
    {
        "file_hash": "eaf1a074af66c426a5eb5faf6893d4b3",
        "create_time": 1702968645,
        "title": "沉浸式体验交警路面执勤的一天，谁会拒绝这样爱唠叨的交警大哥呢 #交警 #一盔一带dou知道 #文明执法",
        "author": "遂宁新闻网",
        "thumbnail": "https://p6-sign.douyinpic.com/tos-cn-p-0015/ocCtgTm9fIuPAP5ADlTgG0nJeIbCABUgCAZBIJ~tplv-dy-360p.jpeg?x-expires=1706508000&x-signature=QWrrxKlOmSKy5UqCKjX2j2lsZls%3D&from=3213915784&s=PackSourceEnum_FEED&se=false&sc=origin_cover&biz_tag=aweme_video&l=021705300864024fdbddc02002a0004000000000000002860df22",
        "videoPlayUrl": "https://api-hl.amemv.com/aweme/v1/play/?video_id=v0200fg10000cm0jq23c77u4rn4vdv9g&line=1&file_id=ea7e0fe64ccd474f95a390308323b523&sign=eaf1a074af66c426a5eb5faf6893d4b3&is_play_url=1&source=PackSourceEnum_FEED"
    },
    {
        "file_hash": "fd83e85351cfb1aed826347a4b631db5",
        "create_time": 1704340800,
        "title": "一个人想通全关有点难～ #跑酷",
        "author": "张艺杰",
        "thumbnail": "https://p3-sign.douyinpic.com/tos-cn-p-0015/oIpA1yBuqf5mABDhjyGUeNgc1hIitATzIVO36b~tplv-dy-360p.jpeg?x-expires=1706508000&x-signature=JyAHWeSOJMabAGc9JhuDLW1jJLw%3D&from=3213915784&s=PackSourceEnum_FEED&se=false&sc=origin_cover&biz_tag=aweme_video&l=021705300558405fdbddc0200ff050077d9d6d3743e55b88a44d9",
        "videoPlayUrl": "https://api-hl.amemv.com/aweme/v1/play/?video_id=v0300fg10000cmajlabc77u6ldcfijj0&line=1&file_id=1b759f68a506441bac989daddb3f89ef&sign=fd83e85351cfb1aed826347a4b631db5&is_play_url=1&source=PackSourceEnum_FEED"
    },
    {
        "file_hash": "1ddd75e71d809468c204ba292f04279a",
        "create_time": 1703817386,
        "title": "英伟达发布面向中国市场的较低性能的游戏芯片，起售近1.3万元",
        "author": "温州瓯海发布",
        "thumbnail": "https://p6-sign.douyinpic.com/tos-cn-p-0015/o8BBhBNzlBMHB2hfhM5j3AI0AAiONjsg19IKue~tplv-dy-360p.jpeg?x-expires=1706508000&x-signature=yfl3fv5V4Th0yeZEERbnAcPoVw4%3D&from=3213915784&s=PackSourceEnum_FEED&se=false&sc=origin_cover&biz_tag=aweme_video&l=021705300747295fdbddc0200ff05006d7cf199a51a40f65bc3ee",
        "videoPlayUrl": "https://api-hl.amemv.com/aweme/v1/play/?video_id=v0d00fg10000cm730v3c77u7qdca210g&line=1&file_id=1f036bfd7bd44cc293ff6a278a141f84&sign=1ddd75e71d809468c204ba292f04279a&is_play_url=1&source=PackSourceEnum_FEED"
    },
    {
        "file_hash": "50d92e5698f82ab033324844c9789ba6",
        "create_time": 1704161031,
        "title": "#我在抖音追剧 #影视解说 #因为一个片段看了整部剧 #经典老剧百看不厌",
        "author": "柴犬说",
        "thumbnail": "https://p9-sign.douyinpic.com/tos-cn-p-0015/osq9nDg5IclAeMAwIBTuKDedlkPBbAb2SBAp0k~tplv-dy-360p.jpeg?x-expires=1706508000&x-signature=i9BOy6mdV7eKKhYvxcb0cS3Xvvw%3D&from=3213915784&s=PackSourceEnum_FEED&se=false&sc=origin_cover&biz_tag=aweme_video&l=021705300828206fdbddc02002a00040000000000000028100360",
        "videoPlayUrl": "https://api-hl.amemv.com/aweme/v1/play/?video_id=v0300fg10000cm9mq93c77u974njsa7g&line=1&file_id=47c880889098411d92052f02358194e0&sign=50d92e5698f82ab033324844c9789ba6&is_play_url=1&source=PackSourceEnum_FEED"
    },
    {
        "file_hash": "d6ef222b8cffdcee76c669e93b8648ef",
        "create_time": 1704537543,
        "title": "宝宝含着糖睡着了，“大战八百回合”后被妈妈拿下",
        "author": "建德融媒",
        "thumbnail": "https://p6-sign.douyinpic.com/tos-cn-p-0015/ocAb3rIgDyAf7hJL2geRFztbtazSABlIOBcysZ~tplv-dy-360p.jpeg?x-expires=1706508000&x-signature=%2BP6OnYps0%2BRXdYY3o5CcvQwKI5M%3D&from=3213915784&s=PackSourceEnum_FEED&se=false&sc=origin_cover&biz_tag=aweme_video&l=021705300815752fdbddc0200ff050003e4861f574b2a3c8eecc2",
        "videoPlayUrl": "https://api-hl.amemv.com/aweme/v1/play/?video_id=v0300fg10000cmciqlrc77u5m6rcshtg&line=1&file_id=45f9adeeaa514003b4ebed12cfac308f&sign=d6ef222b8cffdcee76c669e93b8648ef&is_play_url=1&source=PackSourceEnum_FEED"
    },
    {
        "file_hash": "8a05a4409011e03226c66344160f94cc",
        "create_time": 1704786013,
        "title": "儿子太霸气#因为一个片段看了整部剧",
        "author": "亚亚影视",
        "thumbnail": "https://p26-sign.douyinpic.com/tos-cn-p-0015/ogAABGt5NRlQbBbmRknPrQ0HCne9DgegCgDAMr~tplv-dy-360p.jpeg?x-expires=1706508000&x-signature=pZdvG5xzE2i3tn3HUPfJdMH4CH0%3D&from=3213915784&s=PackSourceEnum_FEED&se=false&sc=origin_cover&biz_tag=aweme_video&l=021705300552761fdbddc02002a00040000000000000028d2d950",
        "videoPlayUrl": "https://api-hl.amemv.com/aweme/v1/play/?video_id=v0200fg10000cmefgd3c77u8kdc7bmj0&line=1&file_id=f2e61035bc8d4d7eb2bcfdc08b439c61&sign=8a05a4409011e03226c66344160f94cc&is_play_url=1&source=PackSourceEnum_FEED"
    }
]