[
    {
        "file_hash": "b54d9efea96bdf2bee6828cb2852a61c",
        "create_time": 1703614800,
        "title": "#影视解说",
        "author": "姗姗影视",
        "thumbnail": "https://p11-sign.douyinpic.com/tos-cn-p-0015/oAnByWJlzIitnKFVAUfBN1eNLBtEyQAIhHgqAx~tplv-dy-360p.jpeg?x-expires=1706508000&x-signature=0IUy%2Fic6ab3NEYLtrI6HcHDytQM%3D&from=3213915784&s=PackSourceEnum_FEED&se=false&sc=origin_cover&biz_tag=aweme_video&l=021705301661745fdbddc0200ff050070f52370c8ad334598fd6f",
        "videoPlayUrl": "https://api-hl.amemv.com/aweme/v1/play/?video_id=v0d00fg10000cm5cl6rc77u5iqg58bjg&line=1&file_id=0d09d279c8d54470b781df035169cd86&sign=b54d9efea96bdf2bee6828cb2852a61c&is_play_url=1&source=PackSourceEnum_FEED"
    },
    {
        "file_hash": "420295e1b3101d7c877a397ccf82f4de",
        "create_time": 1704891970,
        "title": "小寡妇在家偷偷挖地道，没想到撞见了同村光棍 #一定要看到结尾 #因为一个片段看了整部剧 #关注我持续更新",
        "author": "林东影视",
        "thumbnail": "https://p6-sign.douyinpic.com/tos-cn-p-0015/oYk7QKeRGjDaii1eABnAQYnL99lglBEAlpDubi~tplv-dy-360p.jpeg?x-expires=1706508000&x-signature=f%2BieSaiVU2V9OWtqEeIVx%2Fm3km8%3D&from=3213915784&s=PackSourceEnum_FEED&se=false&sc=origin_cover&biz_tag=aweme_video&l=02170530170648700000000000000000000ffff0a1c388d44693d",
        "videoPlayUrl": "https://api-hl.amemv.com/aweme/v1/play/?video_id=v0300fg10000cmf9c6jc77u5vcetrh2g&line=1&file_id=0bb63286060b4365b44ebf2350a39384&sign=420295e1b3101d7c877a397ccf82f4de&is_play_url=1&source=PackSourceEnum_FEED"
    },
    {
        "file_hash": "7c94954be003863a14e37ac2130e0fff",
        "create_time": 1704457800,
        "title": "“我们的女儿必须听得见！”",
        "author": "嗨普陀",
        "thumbnail": "https://p9-sign.douyinpic.com/tos-cn-p-0015/o0z7XuNsBW49yfiAioIBApDZhyIAtIXgevuSlt~tplv-dy-360p.jpeg?x-expires=1706508000&x-signature=4fE9BkuIMhNiSYUN8ZuuFuHt1Vo%3D&from=3213915784&s=PackSourceEnum_FEED&se=false&sc=origin_cover&biz_tag=aweme_video&l=02170530162384100000000000000000000ffff0a1c388dbd03e1",
        "videoPlayUrl": "https://api-hl.amemv.com/aweme/v1/play/?video_id=v0300fg10000cmbrckjc77u8tlqqvocg&line=1&file_id=6882fef150144264a32e43aa34ce9654&sign=7c94954be003863a14e37ac2130e0fff&is_play_url=1&source=PackSourceEnum_FEED"
    },
    {
        "file_hash": "29cbae0c63eb67b70fa7b53e0fc1ed84",
        "create_time": 1704438489,
        "title": "#儿童益智 #0到3岁早教儿歌 #启蒙早教",
        "author": "小小玩具家",
        "thumbnail": "https://p6-sign.douyinpic.com/tos-cn-p-0015/owFXfvglNAIyAqydBz9lAtBMqhACfABLw6gIGB~tplv-dy-360p.jpeg?x-expires=1706508000&x-signature=7Y00Xx9u42Oz44LFQQRS8Cmt66c%3D&from=3213915784&s=PackSourceEnum_FEED&se=false&sc=origin_cover&biz_tag=aweme_video&l=02170530162384100000000000000000000ffff0a1c388dbd03e1",
        "videoPlayUrl": "https://api-hl.amemv.com/aweme/v1/play/?video_id=v0200fg10000cmbqlfjc77u1o00knf60&line=1&file_id=384853b0b854483db96a5628bfb166a4&sign=29cbae0c63eb67b70fa7b53e0fc1ed84&is_play_url=1&source=PackSourceEnum_FEED"
    },
    {
        "file_hash": "1bc4a78f3c91c4d74e678c8d382d2e99",
        "create_time": 1703560314,
        "title": "28亿外包环卫除不干净雪 受罚的岂能是沿街商户",
        "author": "正观•黄河评论",
        "thumbnail": "https://p26-sign.douyinpic.com/tos-cn-p-0015/oANA7KeisQnsgQCAQ0egbyD1lKAz9b0ADoHkRB~tplv-dy-360p.jpeg?x-expires=1706508000&x-signature=hTg2s6s0b%2BaNrUuT2swEzCVyxxI%3D&from=3213915784&s=PackSourceEnum_FEED&se=false&sc=origin_cover&biz_tag=aweme_video&l=02170530166350200000000000000000000ffff0a1b46d5c7d432",
        "videoPlayUrl": "https://api-hl.amemv.com/aweme/v1/play/?video_id=v0300fg10000cm54883c77u8deb9rmd0&line=1&file_id=5a6d703e91734349b614f48c1f06d110&sign=1bc4a78f3c91c4d74e678c8d382d2e99&is_play_url=1&source=PackSourceEnum_FEED"
    },
    {
        "file_hash": "90a95883c38e8e0f3a8171a61641abee",
        "create_time": 1704435494,
        "title": "4块方便面100元，#长沙 现“#天价麻辣香锅 ”？店家回应：七八个人吃481元，明码标价，没缺斤少两",
        "author": "大皖新闻",
        "thumbnail": "https://p6-sign.douyinpic.com/tos-cn-p-0015/oUWAC0elXQnZ4REA7KTgbBDTlvQf9OpADmk5PB~tplv-dy-360p.jpeg?x-expires=1706508000&x-signature=NLIuR2KZm8fqLyvNkLNxEn4QCz4%3D&from=3213915784&s=PackSourceEnum_FEED&se=false&sc=origin_cover&biz_tag=aweme_video&l=02170530162384100000000000000000000ffff0a1c388dbd03e1",
        "videoPlayUrl": "https://api-hl.amemv.com/aweme/v1/play/?video_id=v0300fg10000cmbptu3c77u8ko6i2big&line=1&file_id=414c7a3dc0594787bd454cd1c658b4fe&sign=90a95883c38e8e0f3a8171a61641abee&is_play_url=1&source=PackSourceEnum_FEED"
    },
    {
        "file_hash": "f318624b406d35fd8f0f1c1a0838ea4b",
        "create_time": 1702805715,
        "title": "士为知己者死 ，从来都是双向奔赴。 #董宇辉 #新东方 #东方甄选 #诸葛亮 #岳飞",
        "author": "寒秋ㅤ",
        "thumbnail": "https://p6-sign.douyinpic.com/tos-cn-p-0015/f5968da3c53640e58a81c2bc33492458_1702805097~tplv-dy-360p.jpeg?x-expires=1706508000&x-signature=XLtyMBG00puZb%2BgsYZuamJPYJXw%3D&from=3213915784&s=PackSourceEnum_FEED&se=false&sc=origin_cover&biz_tag=aweme_video&l=02170530157940200000000000000000000ffff0a1c388d126440",
        "videoPlayUrl": "https://api-hl.amemv.com/aweme/v1/play/?video_id=v0d00fg10000clvbo3jc77u0n24oq3eg&line=1&file_id=23abb2991a31421a927c37c4d0162e48&sign=f318624b406d35fd8f0f1c1a0838ea4b&is_play_url=1&source=PackSourceEnum_FEED"
    },
    {
        "file_hash": "ae2a8ad400f482669b06f4583d17cab2",
        "create_time": 1703906580,
        "title": "新娘子也来互动啦🔥🔥🔥#海阳大秧歌 @🇨🇳海阳环宇秧歌🇨🇳 @煎饼果子🫔",
        "author": "环宇-秧歌小王子",
        "thumbnail": "https://p11-sign.douyinpic.com/tos-cn-p-0015/oMAlqTIgCuAfTh8jubekOxtvQZzvABIILDRyOP~tplv-dy-360p.jpeg?x-expires=1706508000&x-signature=k1S7XJk78MqWBMuOHI6Tsdqe%2Bmc%3D&from=3213915784&s=PackSourceEnum_FEED&se=false&sc=origin_cover&biz_tag=aweme_video&l=02170530149970600000000000000000000ffff0a9ff746156713",
        "videoPlayUrl": "https://api-hl.amemv.com/aweme/v1/play/?video_id=v0200fg10000cm7op9rc77ue7bskn49g&line=1&file_id=02e2103e58b44fa5880ca43ea3f8b196&sign=ae2a8ad400f482669b06f4583d17cab2&is_play_url=1&source=PackSourceEnum_FEED"
    },
    {
        "file_hash": "4c0283e2ce96966d6cabf84f17a87577",
        "create_time": 1704533267,
        "title": "有你的iPhone吗 #Apple #iPhone",
        "author": "Digital-屿墨",
        "thumbnail": "https://p11-sign.douyinpic.com/tos-cn-p-0015/ooAFAAilNDqAp9tQzyybBeOmMnenARQaojSVog~tplv-dy-360p.jpeg?x-expires=1706508000&x-signature=vKEiuaFjIkEyUvyxFA6AMJJup2k%3D&from=3213915784&s=PackSourceEnum_FEED&se=false&sc=origin_cover&biz_tag=aweme_video&l=02170530161746700000000000000000000ffff0a18659b78f3f0",
        "videoPlayUrl": "https://api-hl.amemv.com/aweme/v1/play/?video_id=v0d00fg10000cmchpqjc77ud051aikcg&line=1&file_id=4d3c7437477c45eeb88b47ac6fd75dbc&sign=4c0283e2ce96966d6cabf84f17a87577&is_play_url=1&source=PackSourceEnum_FEED"
    },
    {
        "file_hash": "679290b7c31e5cb8e816b6c806e339ff",
        "create_time": 1703844171,
        "title": "民进党放任违禁品入校致学生被害，郭正亮：付出生命代价才在反省",
        "author": "海峡导报",
        "thumbnail": "https://p26-sign.douyinpic.com/tos-cn-p-0015/ocAnAAUyChIBieHIyMOtBfmxuz5xC0ILqFP1Sg~tplv-dy-360p.jpeg?x-expires=1706508000&x-signature=xWkEvtwYl%2FVNo7rcgrJjP0nVWOI%3D&from=3213915784&s=PackSourceEnum_FEED&se=false&sc=origin_cover&biz_tag=aweme_video&l=02170530150508200000000000000000000ffff0a1c388dba8409",
        "videoPlayUrl": "https://api-hl.amemv.com/aweme/v1/play/?video_id=v0200fg10000cm79i4bc77ub14mkva60&line=1&file_id=c8b876d8a44842ce821b788f981d6756&sign=679290b7c31e5cb8e816b6c806e339ff&is_play_url=1&source=PackSourceEnum_FEED"
    }
]