[
    {
        "file_hash": "9b672059036e257ff57456d17ba434c3",
        "create_time": 1704629526,
        "title": "#蛇",
        "author": "用户5426100179642",
        "thumbnail": "https://p11-sign.douyinpic.com/tos-cn-p-0015/oEqQgDRD9StQlAKb1S2mcpjvyuenABeKCuNAP5~tplv-dy-360p.jpeg?x-expires=1706508000&x-signature=9zDL8hBeMaMD7zuD0%2Fos8Fkp84I%3D&from=3213915784&s=PackSourceEnum_FEED&se=false&sc=origin_cover&biz_tag=aweme_video&l=02170530161263600000000000000000000ffff0a9f7dda9d2dce",
        "videoPlayUrl": "https://api-hl.amemv.com/aweme/v1/play/?video_id=v0200fg10000cmd992jc77u8rmarpndg&line=1&file_id=ea72ed90dc4b4bcc9cbe7048bf1e5d5e&sign=9b672059036e257ff57456d17ba434c3&is_play_url=1&source=PackSourceEnum_FEED"
    },
    {
        "file_hash": "fa9012fa9227a6013644542e0d6d6f22",
        "create_time": 1703157921,
        "title": "宝宝的连体衣小了，千万不要闲置或留给二胎，剪掉裤腿又是一件新衣服，超级简单的改法，宝妈们可以试试哦☀️#宝宝连体裤裁剪教程 #育儿经验分享 #宝宝衣服 #带娃的日子",
        "author": "王一宝贝👨‍👩‍👦",
        "thumbnail": "https://p3-sign.douyinpic.com/tos-cn-p-0015/ogDJh8M9jQY4AIIADlBgj7nEecbCABKf6AyEYJ~tplv-dy-360p.jpeg?x-expires=1706508000&x-signature=0S1kxOu44vCpYvWZL584w6s1V7Q%3D&from=3213915784&s=PackSourceEnum_FEED&se=false&sc=origin_cover&biz_tag=aweme_video&l=021705301677377fdbddc0200ff05008bde4961213f9c9a41aede",
        "videoPlayUrl": "https://api-hl.amemv.com/aweme/v1/play/?video_id=v0300fg10000cm21tn3c77u2613g9hv0&line=1&file_id=41165c7f6ac14f8791ffca6ade2cb693&sign=fa9012fa9227a6013644542e0d6d6f22&is_play_url=1&source=PackSourceEnum_FEED"
    },
    {
        "file_hash": "d54968744a87fac026c1663ef634e895",
        "create_time": 1703581252,
        "title": "中方宣布对美反制！对美一家机构和两名个人采取反制措施，禁止入境中国",
        "author": "环球网",
        "thumbnail": "https://p6-sign.douyinpic.com/tos-cn-p-0015/og2IkndpAzlxnNJKPCf6grAheAIVBqkNASBybU~tplv-dy-360p.jpeg?x-expires=1706508000&x-signature=Zez%2FlhwahGcCdZmra38Q1v2x3D4%3D&from=3213915784&s=PackSourceEnum_FEED&se=false&sc=origin_cover&biz_tag=aweme_video&l=02170530166506200000000000000000000ffff0a1b46935178cf",
        "videoPlayUrl": "https://api-hl.amemv.com/aweme/v1/play/?video_id=v0d00fg10000cm59bi3c77u8racsit10&line=1&file_id=7055afb69a424e5993d3c731b5ae0f93&sign=d54968744a87fac026c1663ef634e895&is_play_url=1&source=PackSourceEnum_FEED"
    },
    {
        "file_hash": "548aa1b49dbd8daf8403a7861683b778",
        "create_time": 1704353933,
        "title": "就 浅帅一下叭#李斯曼 #呲雪墙 #滑雪",
        "author": "李斯曼曼",
        "thumbnail": "https://p11-sign.douyinpic.com/tos-cn-p-0015/owQAWel4lBtNAQn8Qbp7bDCgDyYTQlJcKe9A9I~tplv-dy-360p.jpeg?x-expires=1706508000&x-signature=o5JiRAIFDcoCzBZx5hNCremMZFw%3D&from=3213915784&s=PackSourceEnum_FEED&se=false&sc=origin_cover&biz_tag=aweme_video&l=02170530162928000000000000000000000ffff0a1b4693fa3789",
        "videoPlayUrl": "https://api-hl.amemv.com/aweme/v1/play/?video_id=v0300fg10000cmb5un3c77u4u2d0a6k0&line=1&file_id=e3d23c63768740289024f6b069d6396d&sign=548aa1b49dbd8daf8403a7861683b778&is_play_url=1&source=PackSourceEnum_FEED"
    },
    {
        "file_hash": "f7bdf81028999a9a5016121f6db5488e",
        "create_time": 1705115894,
        "title": "1月12日，河南三门峡。女生课间“戏精”上身，模仿英语老师教课。全班没一个走出教室！",
        "author": "河南都市报道",
        "thumbnail": "https://p26-sign.douyinpic.com/tos-cn-p-0015/o0eBBfAiBOqNWC0OPyxtAMCi74IAIbihzQA1hg~tplv-dy-360p.jpeg?x-expires=1706508000&x-signature=YOO1UIgrNxZ41jEBzeBjOQRm7CU%3D&from=3213915784&s=PackSourceEnum_FEED&se=false&sc=origin_cover&biz_tag=aweme_video&l=02170530159578500000000000000000000ffff0a1b4693fa4b1d",
        "videoPlayUrl": "https://api-hl.amemv.com/aweme/v1/play/?video_id=v0200fg10000cmh01l3c77u273k65l60&line=1&file_id=9e2b5d738393460787f74d265632b087&sign=f7bdf81028999a9a5016121f6db5488e&is_play_url=1&source=PackSourceEnum_FEED"
    },
    {
        "file_hash": "f8c2ead95a6c8d7aa1590a36cd4b7609",
        "create_time": 1703660400,
        "title": "“天降祁媛”婚礼陈哥坐主桌！ #脱轨  #刘浩存  #林一  #王喳喳",
        "author": "电视剧脱轨",
        "thumbnail": "https://p6-sign.douyinpic.com/tos-cn-p-0015/oAtQLeb4CPaKaMfV2e5kAeQH2AgZBpm2DvEW5s~tplv-dy-360p.jpeg?x-expires=1706508000&x-signature=SuN4WNEkeWAbs8awWwS%2BehoCD2U%3D&from=3213915784&s=PackSourceEnum_FEED&se=false&sc=origin_cover&biz_tag=aweme_video&l=021705301470846fdbddc020028003e0000000000000042b113ca",
        "videoPlayUrl": "https://api-hl.amemv.com/aweme/v1/play/?video_id=v0300fg10000cm5b7krc77uc2rodfmvg&line=1&file_id=00c3ca0c868e408382be1dd830d54df0&sign=f8c2ead95a6c8d7aa1590a36cd4b7609&is_play_url=1&source=PackSourceEnum_FEED"
    }
]