[
    {
        "file_hash": "63fc566af9ae5e9658c84d7a05feeeb8",
        "create_time": 1704869965,
        "title": "儿媳称拥有世界最好婆婆不接受反驳",
        "author": "先锋新闻",
        "thumbnail": "https://p11-sign.douyinpic.com/tos-cn-p-0015/o8cQAPFCDeAPfnDgQ9SnNy1Jk0gzAJl8aAhbBJ~tplv-dy-360p.jpeg?x-expires=1706508000&x-signature=%2FedWzmDImZyr5wBfHl5DbzQyAUs%3D&from=3213915784&s=PackSourceEnum_FEED&se=false&sc=origin_cover&biz_tag=aweme_video&l=02170530103995400000000000000000000ffff0a1a2b9855bc53",
        "videoPlayUrl": "https://api-hl.amemv.com/aweme/v1/play/?video_id=v0d00fg10000cmf40cjc77u4js7a9q0g&line=1&file_id=1bb2b485fb754750816a30d3416c8b7c&sign=63fc566af9ae5e9658c84d7a05feeeb8&is_play_url=1&source=PackSourceEnum_FEED"
    },
    {
        "file_hash": "6e4894aad4eaf509191f801d1d528465",
        "create_time": 1705236706,
        "title": "还得靠他！尽管一度被森保一弃用，当球队陷入困境，南野拓实站了出来，用梅开二度稳住了局势！#日本vs越南 #南野拓实 #dou来亚洲杯 #唯有足球不可辜负 #卡塔尔亚洲杯",
        "author": "咪咕体育",
        "thumbnail": "https://p26-sign.douyinpic.com/tos-cn-p-0015/oU9A1oC1o86gABDe5ld29lgWhDgfbA6ngHscjP~tplv-dy-360p.jpeg?x-expires=1706508000&x-signature=weSmMQVmdQCsFDesOl%2FFHg6trVg%3D&from=3213915784&s=PackSourceEnum_FEED&se=false&sc=origin_cover&biz_tag=aweme_video&l=02170530101808100000000000000000000ffff0a1a2b9858b171",
        "videoPlayUrl": "https://api-hl.amemv.com/aweme/v1/play/?video_id=v0300fg10000cmhtgtjc77u7d3bptek0&line=1&file_id=b70555fbfe2f43dc8c42aa6d181c5fd1&sign=6e4894aad4eaf509191f801d1d528465&is_play_url=1&source=PackSourceEnum_FEED"
    },
    {
        "file_hash": "99c6c54ea3faf9e594cf8c5e32dd6371",
        "create_time": 1704190700,
        "title": "回复 @毅玲爸爸的评论 看了#毅玲爸爸的视频 久久不能释怀，心疼那句“我能有什么办法，拥有和失去都不由我”，眼泪止不住的流😭#毅玲 #女儿是爸的小棉袄 #毅玲爸爸的话让人破防了",
        "author": "大圆脸手绘",
        "thumbnail": "https://p3-sign.douyinpic.com/tos-cn-p-0015/o040AKNzNIOk95lAU4UsmkPfTBuAkhE0fBr5Ig~tplv-dy-360p.jpeg?x-expires=1706508000&x-signature=ZtTXI9tnHIuBh2QE6LEYe7ynNeY%3D&from=3213915784&s=PackSourceEnum_FEED&se=false&sc=origin_cover&biz_tag=aweme_video&l=02170530135518900000000000000000000ffff0a1a2b98b82382",
        "videoPlayUrl": "https://api-hl.amemv.com/aweme/v1/play/?video_id=v0d00fg10000cm9u4sjc77uead1bifm0&line=1&file_id=114a9a49ab834d6999696d40582f4d4c&sign=99c6c54ea3faf9e594cf8c5e32dd6371&is_play_url=1&source=PackSourceEnum_FEED"
    },
    {
        "file_hash": "5706fa7f7374d2acf2e0d55961303a3b",
        "create_time": 1704424093,
        "title": "看完“英美德在路上”吕秀莲忍不住讽：好像开车郊游",
        "author": "台海网",
        "thumbnail": "https://p26-sign.douyinpic.com/tos-cn-p-0015/oECAjpz4fDTOycXAAetdABVA4JzIIDBNgy79Vh~tplv-dy-360p.jpeg?x-expires=1706508000&x-signature=Fc%2Bn3%2F63B6P9k%2F9yeXfGsiXGDqs%3D&from=3213915784&s=PackSourceEnum_FEED&se=false&sc=origin_cover&biz_tag=aweme_video&l=02170530107490700000000000000000000ffff0a1a2b98dbb2c6",
        "videoPlayUrl": "https://api-hl.amemv.com/aweme/v1/play/?video_id=v0300fg10000cmbn373c77u9sfedajeg&line=1&file_id=ec3dc887c625434287186bc70ebe2d67&sign=5706fa7f7374d2acf2e0d55961303a3b&is_play_url=1&source=PackSourceEnum_FEED"
    },
    {
        "file_hash": "55b9387bd787cd00466493b7395facff",
        "create_time": 1704725761,
        "title": "#运城大闸蟹",
        "author": "你有没有看见一只小鹿",
        "thumbnail": "https://p6-sign.douyinpic.com/tos-cn-p-0015/ocAPJDIgN8A8uDAD6M98enb9XznWABJIeBQlEc~tplv-dy-360p.jpeg?x-expires=1706508000&x-signature=mzvIhAMIA3FHJFxX%2FQhtGwrsXcc%3D&from=3213915784&s=PackSourceEnum_FEED&se=false&sc=origin_cover&biz_tag=aweme_video&l=02170530133752400000000000000000000ffff0a1a2b98322b9b",
        "videoPlayUrl": "https://api-hl.amemv.com/aweme/v1/play/?video_id=v0d00fg10000cme0pgrc77uf17kvtsn0&line=1&file_id=3c52bb4d81e74f84ad006ff8ca7ee361&sign=55b9387bd787cd00466493b7395facff&is_play_url=1&source=PackSourceEnum_FEED"
    },
    {
        "file_hash": "19f9202a3c5cb6dbbf5b68d921f075b4",
        "create_time": 1704106810,
        "title": "过于离谱#飞猫#飞猫智联#随身wifi",
        "author": "这名字牛",
        "thumbnail": "https://p3-sign.douyinpic.com/tos-cn-p-0015/osIRIBEusFeiA3fsfyirY1gPmkfHrcFAYeKZIk~tplv-dy-360p.jpeg?x-expires=1706508000&x-signature=k%2FI9iixIsxjbDfJBtQd8UntuZrA%3D&from=3213915784&s=PackSourceEnum_FEED&se=false&sc=origin_cover&biz_tag=aweme_video&l=02170530110561700000000000000000000ffff0a1a2b984fc209",
        "videoPlayUrl": "https://api-hl.amemv.com/aweme/v1/play/?video_id=v0300fg10000cm8ha9bc77ubvsvttlj0&line=1&file_id=cc66bc1446284e769345c13b5299b7a2&sign=19f9202a3c5cb6dbbf5b68d921f075b4&is_play_url=1&source=PackSourceEnum_FEED"
    }
]