[
    {
        "file_hash": "f99bc7351d85901473616411611337b5",
        "create_time": 1703825851,
        "title": "“3娃非亲生案”当事人：没婚检不代表不能生",
        "author": "齐鲁晚报·果然视频",
        "thumbnail": "https://p9-sign.douyinpic.com/tos-cn-p-0015/ocYIRl2IbABeEsn3Avx5GFggO89dljelCDDgAU~tplv-dy-360p.jpeg?x-expires=1706508000&x-signature=BXSdTIpzoFQkx2jOrBuWYBNAbbg%3D&from=3213915784&s=PackSourceEnum_FEED&se=false&sc=origin_cover&biz_tag=aweme_video&l=02170530173658800000000000000000000ffff0a1b46d56f0069",
        "videoPlayUrl": "https://api-hl.amemv.com/aweme/v1/play/?video_id=v0300fg10000cm753drc77u20moe162g&line=1&file_id=f2d3fe6400154a60a7e18c0ec52153de&sign=f99bc7351d85901473616411611337b5&is_play_url=1&source=PackSourceEnum_FEED"
    },
    {
        "file_hash": "dc457c84d9a7ca11f6e29c764096097f",
        "create_time": 1702972738,
        "title": "新年就给女儿这样穿，谁穿谁好看#生女儿就是用来打扮的  #新年装  #新年穿搭  #女童中国风拜年服",
        "author": "辰辰妈",
        "thumbnail": "https://p9-sign.douyinpic.com/tos-cn-p-0015/o0MQCAmIgAyEAlKr9ebvUlnBl7geADAtotSgBC~tplv-dy-360p.jpeg?x-expires=1706508000&x-signature=SbdTwCZIKshxv18%2FAI5%2BoxP6WZc%3D&from=3213915784&s=PackSourceEnum_FEED&se=false&sc=origin_cover&biz_tag=aweme_video&l=02170530168858700000000000000000000ffff0a1b46d5a68df5",
        "videoPlayUrl": "https://api-hl.amemv.com/aweme/v1/play/?video_id=v0200fg10000cm0kp83c77u59dt5dlg0&line=1&file_id=b2dd9a6acb2141618b60349316328d1c&sign=dc457c84d9a7ca11f6e29c764096097f&is_play_url=1&source=PackSourceEnum_FEED"
    },
    {
        "file_hash": "610a7e1dc8ef5161afe39f357e61fbc3",
        "create_time": 1704880585,
        "title": "当了21年辅警的她破格转为正式民警，利用指纹对比破获数以万计的案件。#警察节 （制作：白永林）",
        "author": "翠华晴隆",
        "thumbnail": "https://p9-sign.douyinpic.com/tos-cn-p-0015/o8Q8QDA990unAanlnekmbE448lFAZDAgDvm5Bf~tplv-dy-360p.jpeg?x-expires=1706508000&x-signature=T%2FTsXCQSbGufp%2FiJtB0irxpsWIQ%3D&from=3213915784&s=PackSourceEnum_FEED&se=false&sc=origin_cover&biz_tag=aweme_video&l=02170530160202000000000000000000000ffff0a1b46d5a0ff9e",
        "videoPlayUrl": "https://api-hl.amemv.com/aweme/v1/play/?video_id=v0300fg10000cmf6imbc77u2pv2tf2f0&line=1&file_id=464b147e70ea4a13829367b612a7496f&sign=610a7e1dc8ef5161afe39f357e61fbc3&is_play_url=1&source=PackSourceEnum_FEED"
    },
    {
        "file_hash": "9b9cddfe55d5e2cb76235027f9c49bb9",
        "create_time": 1703856123,
        "title": "网易暴雪复合，“绿茶”又找老实人接盘了？ #游戏 #暴雪 #网易 #魔兽世界 ",
        "author": "公信财经",
        "thumbnail": "https://p26-sign.douyinpic.com/tos-cn-p-0015/ocfHDf68BEFGQAysbDLAFCcOQx7YAeSsWBAEqI~tplv-dy-360p.jpeg?x-expires=1706508000&x-signature=QbyD35bad%2BxR0JJTUhMClx%2FGtJY%3D&from=3213915784&s=PackSourceEnum_FEED&se=false&sc=origin_cover&biz_tag=aweme_video&l=021705301734560fdbddc0200ff05006c5c80f9298a04d3c77f54",
        "videoPlayUrl": "https://api-hl.amemv.com/aweme/v1/play/?video_id=v0300fg10000cm7cfv7og65t6rikimb0&line=1&file_id=3bd96a7425c74e48ae0bd9c9d4e77b64&sign=9b9cddfe55d5e2cb76235027f9c49bb9&is_play_url=1&source=PackSourceEnum_FEED"
    },
    {
        "file_hash": "468941ce5b5a582beeca7725cee7adf1",
        "create_time": 1704187151,
        "title": "列车途径阜阳站时，女孩突发晕厥！",
        "author": "阜阳916",
        "thumbnail": "https://p26-sign.douyinpic.com/tos-cn-p-0015/oUC6jiDb9lDSyCAkBfnTaSe9IRxkgAXIiN1FIA~tplv-dy-360p.jpeg?x-expires=1706508000&x-signature=yTMd2G1RZM3A9OPn0lrdhOuqtkA%3D&from=3213915784&s=PackSourceEnum_FEED&se=false&sc=origin_cover&biz_tag=aweme_video&l=02170530163393100000000000000000000ffff0a1b46d57b1509",
        "videoPlayUrl": "https://api-hl.amemv.com/aweme/v1/play/?video_id=v0200fg10000cm9t98jc77ubokftlq1g&line=1&file_id=10eeb83523cf4a95a1c801e4d5af7471&sign=468941ce5b5a582beeca7725cee7adf1&is_play_url=1&source=PackSourceEnum_FEED"
    },
    {
        "file_hash": "7e12bb487cca08017ab281b3e262116e",
        "create_time": 1705023981,
        "title": "1月10日，广东深圳；业主称，同幢楼的邻居 私自将门扩至2.5米。现场的物业工作人员管过劝过，但不能起直接冲突。#装修",
        "author": "爱义乌",
        "thumbnail": "https://p26-sign.douyinpic.com/tos-cn-p-0015/oMAkaLQgDgAeUDJMd69oQobwSmnfABuQOC9lHB~tplv-dy-360p.jpeg?x-expires=1706508000&x-signature=cu82Mvl6UpW8KKGjcE5Sj%2F6PEAE%3D&from=3213915784&s=PackSourceEnum_FEED&se=false&sc=origin_cover&biz_tag=aweme_video&l=02170530177212500000000000000000000ffff0a1b46d532e6da",
        "videoPlayUrl": "https://api-hl.amemv.com/aweme/v1/play/?video_id=v0300fg10000cmg9j2rc77u81u28ek50&line=1&file_id=5da1318f89504e588c83b22fb3bdb549&sign=7e12bb487cca08017ab281b3e262116e&is_play_url=1&source=PackSourceEnum_FEED"
    },
    {
        "file_hash": "6f59a298d934bec9d75262e82ae79851",
        "create_time": 1703322386,
        "title": "广厦VS北控#陈登星 #矣进宏 #抖音百分大战",
        "author": "DK-陈登星23",
        "thumbnail": "https://p6-sign.douyinpic.com/tos-cn-p-0015/oAN5o0rCwBAfzAmIBA49K1ARal8gxy4UzAeGhW~tplv-dy-360p.jpeg?x-expires=1706508000&x-signature=he9A6YjTNI1uJ%2F2VUFO4ouSO8RM%3D&from=3213915784&s=PackSourceEnum_FEED&se=false&sc=origin_cover&biz_tag=aweme_video&l=02170530167257500000000000000000000ffff0a1c602a6fd2df",
        "videoPlayUrl": "https://api-hl.amemv.com/aweme/v1/play/?video_id=v0200fg10000cm39sljc77uail6fgqj0&line=1&file_id=2a26730a9e5f46088bc2428c32cff404&sign=6f59a298d934bec9d75262e82ae79851&is_play_url=1&source=PackSourceEnum_FEED"
    }
]