[
    {
        "file_hash": "ae4d790e9b1762569bc15b3dc51dc1f4",
        "create_time": 1704641515,
        "title": "",
        "author": "Palmira米拉🇲🇿刘小萍",
        "thumbnail": "https://p6-sign.douyinpic.com/tos-cn-p-0015/owzvABbnCQRd9xlAxhxuMmBs1BeAWDK1eCA9Qg~tplv-dy-360p.jpeg?x-expires=1706508000&x-signature=pv1Zgyrs9MPjTWB9Oqv2n7cWDFw%3D&from=3213915784&s=PackSourceEnum_FEED&se=false&sc=origin_cover&biz_tag=aweme_video&l=021705301450419fdbddc0200ff05002519908599535853f6ade5",
        "videoPlayUrl": "https://api-hl.amemv.com/aweme/v1/play/?video_id=v0200fg10000cmdc5fbc77u8sds3h0rg&line=1&file_id=0df51cdef0ac4027b5029d8cb00d0f1c&sign=ae4d790e9b1762569bc15b3dc51dc1f4&is_play_url=1&source=PackSourceEnum_FEED"
    },
    {
        "file_hash": "181a79470b032a81a76e07a3c9700753",
        "create_time": 1704086686,
        "title": "#山海剧场 #抖音剧集 #因为一个片段看了整部剧 感谢支持，推荐这部非常好看的给你收看#2024新年第一部短剧",
        "author": "优创剧场",
        "thumbnail": "https://p3-sign.douyinpic.com/tos-cn-p-0015/ogRaINfw6ANJox1SABzAIXyLegygTBuALSh2tF~tplv-dy-360p.jpeg?x-expires=1706508000&x-signature=JE1EJIMTbVxPBWVGCD77i09mqms%3D&from=3213915784&s=PackSourceEnum_FEED&se=false&sc=origin_cover&biz_tag=aweme_video&l=02170530148988300000000000000000000ffff0a903bdc68fecd",
        "videoPlayUrl": "https://api-hl.amemv.com/aweme/v1/play/?video_id=v0d00fg10000cm94n4rc77ubg06plh6g&line=1&file_id=eb2258699e644ca88b601bdec09ff7c1&sign=181a79470b032a81a76e07a3c9700753&is_play_url=1&source=PackSourceEnum_FEED"
    },
    {
        "file_hash": "21963914077432f660c60035441e1972",
        "create_time": 1704715236,
        "title": "赢荡举鼎身亡～芈姝崩溃到极点#抖音二创激励计划 #我在抖音追剧 #影视解说",
        "author": "悦赞影视",
        "thumbnail": "https://p6-sign.douyinpic.com/tos-cn-p-0015/oM7CNeBrB0sbMDNMeL1kAKa3slQBQ9dcnexADA~tplv-dy-360p.jpeg?x-expires=1706508000&x-signature=ljZxU%2BOYShOh7xNILqBoisW%2BZJQ%3D&from=3213915784&s=PackSourceEnum_FEED&se=false&sc=origin_cover&biz_tag=aweme_video&l=021705301445247fdbddc0200ff050025199085995358534de552",
        "videoPlayUrl": "https://api-hl.amemv.com/aweme/v1/play/?video_id=v0d00fg10000cmdu6r3c77u1j6hot02g&line=1&file_id=d99ae6a88eea4f7e9273f349fe2929e3&sign=21963914077432f660c60035441e1972&is_play_url=1&source=PackSourceEnum_FEED"
    },
    {
        "file_hash": "a10d4b4a39b00b361a1e46a76827e13f",
        "create_time": 1703565502,
        "title": "#家庭 #真相 #子女 ",
        "author": "小林故事",
        "thumbnail": "https://p11-sign.douyinpic.com/tos-cn-p-0015/oAEbBGfDEQuP7vLBUWKKeFtLKCMAJEFNFCDfAA~tplv-dy-360p.jpeg?x-expires=1706508000&x-signature=g6wrHWs%2FsP49s9%2FoDBIhr%2FAmh2s%3D&from=3213915784&s=PackSourceEnum_FEED&se=false&sc=origin_cover&biz_tag=aweme_video&l=021705301526330fdbddc0200ff05002519908599535853ce68d0",
        "videoPlayUrl": "https://api-hl.amemv.com/aweme/v1/play/?video_id=v0200fg10000cm55hfvog65n53cdfmig&line=1&file_id=469d683ce3244acba55b4b2085529c64&sign=a10d4b4a39b00b361a1e46a76827e13f&is_play_url=1&source=PackSourceEnum_FEED"
    },
    {
        "file_hash": "3c8220a4c4be77807c34634fb4494209",
        "create_time": 1703809226,
        "title": "“听着听着就哭了，回首往事，历历在目…太难太难…#伤感音乐 #人生路 #完整版 #告别2023 #一首歌告别2023",
        "author": "时空音乐",
        "thumbnail": "https://p3-sign.douyinpic.com/tos-cn-p-0015/o0g1oDg0lAvCDerSAnBIKHYjeAuIDIb9BAHrOt~tplv-dy-360p.jpeg?x-expires=1706508000&x-signature=ftRWqLwbJrs12kGSBfNEiNzy47s%3D&from=3213915784&s=PackSourceEnum_FEED&se=false&sc=origin_cover&biz_tag=aweme_video&l=02170530146198800000000000000000000ffff0a18680f9cd781",
        "videoPlayUrl": "https://api-hl.amemv.com/aweme/v1/play/?video_id=v0300fg10000cm70narc77u9aov98umg&line=1&file_id=9be3236660b84919af425dd5dc8c92e4&sign=3c8220a4c4be77807c34634fb4494209&is_play_url=1&source=PackSourceEnum_FEED"
    },
    {
        "file_hash": "054364329152377d9f0e510249888d4f",
        "create_time": 1703646595,
        "title": "今天李玉顺满十一岁，进入十二岁了。祝宝贝又长大了一岁。愿你永远开心快乐成长。#下午两点半直播#祝李玉顺生日快乐#李玉顺的师娘#双目失明李玉顺#励志男孩李玉顺",
        "author": "李玉顺的师娘",
        "thumbnail": "https://p11-sign.douyinpic.com/tos-cn-p-0015/oAcALxByWf5DABC8IyMleZgjohIoNAXzILlYb5~tplv-dy-360p.jpeg?x-expires=1706508000&x-signature=5ejAjQbV%2FsfHmrwUap4cWKyQw1k%3D&from=3213915784&s=PackSourceEnum_FEED&se=false&sc=origin_cover&biz_tag=aweme_video&l=021705301658687fdbddc0200ff05002519908599535853886cd5",
        "videoPlayUrl": "https://api-hl.amemv.com/aweme/v1/play/?video_id=v0200fg10000cm5p8ijc77ucb2p3in1g&line=1&file_id=cf75bdc4597349c8a4cb8f54470be1be&sign=054364329152377d9f0e510249888d4f&is_play_url=1&source=PackSourceEnum_FEED"
    },
    {
        "file_hash": "a11f4e623e98f9ae3674a3475c717aa1",
        "create_time": 1703406522,
        "title": "钓巨物就像牵牛一样，慢慢耗不可过激，好好享受溜鱼的过程，钓鱼如此人生亦是如此 #爱生活爱钓鱼",
        "author": "朝阳钓鱼",
        "thumbnail": "https://p3-sign.douyinpic.com/tos-cn-p-0015/okWktEEnLC1NCBZeDcAeeAQzBB6PbDnAq7A3Us~tplv-dy-360p.jpeg?x-expires=1706508000&x-signature=Mnvypj8QsYJ9RvbT093TD%2FFXdu0%3D&from=3213915784&s=PackSourceEnum_FEED&se=false&sc=origin_cover&biz_tag=aweme_video&l=021705301747475fdbddc0200ff050025199085995358531335c4",
        "videoPlayUrl": "https://api-hl.amemv.com/aweme/v1/play/?video_id=v0200fg10000cm3uib3c77u6stbkp15g&line=1&file_id=8ac3a4c65eb142b696c6a573277ae712&sign=a11f4e623e98f9ae3674a3475c717aa1&is_play_url=1&source=PackSourceEnum_FEED"
    },
    {
        "file_hash": "01ae65b1a932b93cab1770d163722ad5",
        "create_time": 1704501695,
        "title": "结局精彩了Y #一定要看到最后#影视推荐#精彩片段#我的观影报告#短剧",
        "author": "熬夜视界",
        "thumbnail": "https://p6-sign.douyinpic.com/tos-cn-p-0015/oEbBQO4MKlafQgDRQ9nenABnBzVImQ9xEKNABA~tplv-dy-360p.jpeg?x-expires=1706508000&x-signature=6yXgITChral7c4efJYpLFemfc7U%3D&from=3213915784&s=PackSourceEnum_FEED&se=false&sc=origin_cover&biz_tag=aweme_video&l=021705301619432fdbddc0200ff05004b3325c82d4e0598c70c3f",
        "videoPlayUrl": "https://api-hl.amemv.com/aweme/v1/play/?video_id=v0d00fg10000cmca20bc77u59rbr7720&line=1&file_id=7098e1736d6d43fbb2e2f488b6a0e6bc&sign=01ae65b1a932b93cab1770d163722ad5&is_play_url=1&source=PackSourceEnum_FEED"
    }
]