[
    {
        "file_hash": "7882ef1ea4444096556a740f57968da9",
        "create_time": 1704770132,
        "title": "有你这个妈真是我得福气...😮‍💨#过节送礼送良品 @良品铺子",
        "author": "Just_X小阿娜",
        "thumbnail": "https://p3-sign.douyinpic.com/tos-cn-p-0015/okG9zhghIYlBG4A3IBbW9CfFhmMg4AtfAhA9Fo~tplv-dy-360p.jpeg?x-expires=1706508000&x-signature=OeU8Ub4scyrr%2BTLfklWs4y0CArU%3D&from=3213915784&s=PackSourceEnum_FEED&se=false&sc=origin_cover&biz_tag=aweme_video&l=02170530156814800000000000000000000ffff0a921eeea5046d",
        "videoPlayUrl": "https://api-hl.amemv.com/aweme/v1/play/?video_id=v0200fg10000cmdu5kbc77u0c8c4dt60&line=1&file_id=e613324111c1419a99aaaf09aedc69dc&sign=7882ef1ea4444096556a740f57968da9&is_play_url=1&source=PackSourceEnum_FEED"
    },
    {
        "file_hash": "c0b5c2d3c5508832d01973782a812570",
        "create_time": 1703102931,
        "title": "@老高爱搞笑",
        "author": "老高爱搞笑",
        "thumbnail": "https://p26-sign.douyinpic.com/tos-cn-p-0015/o0FxQCCLBAZAUe7scH7d2EeADi2PB4BNpaeSIB~tplv-dy-360p.jpeg?x-expires=1706508000&x-signature=IFEDzQyQaDqUj22QoLsHtJ6mFbI%3D&from=3213915784&s=PackSourceEnum_FEED&se=false&sc=origin_cover&biz_tag=aweme_video&l=02170530167505600000000000000000000ffff0a92ed6becbb7d",
        "videoPlayUrl": "https://api-hl.amemv.com/aweme/v1/play/?video_id=v0d00fg10000cm1kjcbc77u04bh4ffb0&line=1&file_id=bdd43e2dbac14dd9bb834c4918b003b6&sign=c0b5c2d3c5508832d01973782a812570&is_play_url=1&source=PackSourceEnum_FEED"
    },
    {
        "file_hash": "08e755c8119ac458f23f06cac986ac3b",
        "create_time": 1705062610,
        "title": "同样的歌曲，演绎不同的小调，你更喜欢听谁的？#曹云金 #郭德纲 #张云雷 #探清水河",
        "author": "【聽雲轩一排】",
        "thumbnail": "https://p26-sign.douyinpic.com/tos-cn-p-0015/oENhQ4eToGDXRH5hADnAQCoJ9ylgMBeAuTDlbC~tplv-dy-360p.jpeg?x-expires=1706508000&x-signature=Ak3MSPumBcKkjflBCeI7SaG9g3g%3D&from=3213915784&s=PackSourceEnum_FEED&se=false&sc=origin_cover&biz_tag=aweme_video&l=02170530187466100000000000000000000ffff0a921eeec874f9",
        "videoPlayUrl": "https://api-hl.amemv.com/aweme/v1/play/?video_id=v0300fg10000cmgj15rc77u4sgqb13u0&line=1&file_id=4e8311bae9f147ecbdb9203e0c4ab37f&sign=08e755c8119ac458f23f06cac986ac3b&is_play_url=1&source=PackSourceEnum_FEED"
    },
    {
        "file_hash": "bc3df4cdcf8e5aedcdfcb095157d1780",
        "create_time": 1702681800,
        "title": "雅鹿儿童羽绒服，加厚保暖不跑毛 雅鹿亲子羽绒服，极寒加厚白鸭绒，大人小孩都能穿#儿童羽绒服#品质童装#童装羽绒服#保暖又便宜#羽绒服 #雅鹿亲子羽绒",
        "author": "雅鹿织羽童装",
        "thumbnail": "https://p26-sign.douyinpic.com/tos-cn-p-0015/2311f0e6d66b4bdc891e33607de5e404_1702647870~tplv-dy-360p.jpeg?x-expires=1706508000&x-signature=QXgbUScBmOfNpH0YG1NGEH%2FLaH4%3D&from=3213915784&s=PackSourceEnum_FEED&se=false&sc=origin_cover&biz_tag=aweme_video&l=02170530194115500000000000000000000ffff0a921eee6e07b4",
        "videoPlayUrl": "https://api-hl.amemv.com/aweme/v1/play/?video_id=v0200fg10000clu5g4jc77u4rn3ronkg&line=1&file_id=2df90379a78043f089235fa50528e25a&sign=bc3df4cdcf8e5aedcdfcb095157d1780&is_play_url=1&source=PackSourceEnum_FEED"
    },
    {
        "file_hash": "9ab90f648136b082e3aa304b0a12523d",
        "create_time": 1702705121,
        "title": "#刚出生的宝宝 #生孩子那天 老大皮夹克，老二能否儿女双全呢？拭目以待吧！#一路绿灯迎接小生命",
        "author": "青岛莲池妇婴医院",
        "thumbnail": "https://p9-sign.douyinpic.com/tos-cn-p-0015/8626f8aa6f3449cf8be9e46b66cf5bfa_1702705126~tplv-dy-360p.jpeg?x-expires=1706508000&x-signature=fMIT9EfxNIvI2tT%2BG%2BVKkcrrr2E%3D&from=3213915784&s=PackSourceEnum_FEED&se=false&sc=origin_cover&biz_tag=aweme_video&l=02170530173232600000000000000000000ffff0a921eee9e5932",
        "videoPlayUrl": "https://api-hl.amemv.com/aweme/v1/play/?video_id=v0d00fg10000clujfgjc77u52ap63cag&line=1&file_id=e74b016027ee45698809ea43ace6d838&sign=9ab90f648136b082e3aa304b0a12523d&is_play_url=1&source=PackSourceEnum_FEED"
    },
    {
        "file_hash": "1bf2575addacb3d4a8ed855704ef8b3c",
        "create_time": 1705209918,
        "title": "84岁的胡广福终于与哥哥团聚，胡广福的儿子表示，父亲75年来一直想念家，能找到家人也是他一直以来的心愿，替他开心。",
        "author": "长江云说法",
        "thumbnail": "https://p11-sign.douyinpic.com/tos-cn-p-0015/oInjiNC5IBrorIDJEb9cAGTAmA7g3gsdCfAGel~tplv-dy-360p.jpeg?x-expires=1706508000&x-signature=a6Rabg4CZ6go%2FUmVNLIbfUcYUh8%3D&from=3213915784&s=PackSourceEnum_FEED&se=false&sc=origin_cover&biz_tag=aweme_video&l=02170530187369900000000000000000000ffff0a921eee3b38fb",
        "videoPlayUrl": "https://api-hl.amemv.com/aweme/v1/play/?video_id=v0d00fg10000cmhn0ebc77u9vndencg0&line=1&file_id=d31f5ceb12f2416488976ba4227a8527&sign=1bf2575addacb3d4a8ed855704ef8b3c&is_play_url=1&source=PackSourceEnum_FEED"
    }
]