[
    {
        "file_hash": "1162c39266af87c608c697a664010fab",
        "create_time": 1704271013,
        "title": "17岁女孩面部衰老就像五六十岁的老人，女孩不敢一个人出去逛街，跨年夜同学们带着她去拍照，同学说我们是你的家人",
        "author": "河南广播电视台小莉帮忙",
        "thumbnail": "https://p6-sign.douyinpic.com/tos-cn-p-0015/o0eAFaOQADhBjeEL7qYCBVnOUHgMgH5qe8dK2P~tplv-dy-360p.jpeg?x-expires=1706508000&x-signature=xk177pU%2BvlKtXlaReHlyvEfAvzs%3D&from=3213915784&s=PackSourceEnum_FEED&se=false&sc=origin_cover&biz_tag=aweme_video&l=021705301629825fdbddc0200ff0500281b0ef8b4be4f28bccbf9",
        "videoPlayUrl": "https://api-hl.amemv.com/aweme/v1/play/?video_id=v0200fg10000cmahoa3c77ufgcb7amj0&line=1&file_id=6ce2a058c3684cafa3bf6e45747fd17c&sign=1162c39266af87c608c697a664010fab&is_play_url=1&source=PackSourceEnum_FEED"
    },
    {
        "file_hash": "7eb11601360c3f3d79e609365490f171",
        "create_time": 1703741063,
        "title": "幼儿园小朋友的快乐",
        "author": "夏伯恩",
        "thumbnail": "https://p3-sign.douyinpic.com/tos-cn-p-0015/ossSBokTzIKoMNNMAgfCCjejKBNUymAIhOgjAx~tplv-dy-360p.jpeg?x-expires=1706508000&x-signature=EzgyUPOoYA15nRAtn%2FRm2UwnwH4%3D&from=3213915784&s=PackSourceEnum_FEED&se=false&sc=origin_cover&biz_tag=aweme_video&l=021705301654501fdbddc0200ff0500cef9f97167bae8961e093d",
        "videoPlayUrl": "https://api-hl.amemv.com/aweme/v1/play/?video_id=v0200fg10000cm6gchjc77ud9oqa0a60&line=1&file_id=8ee0a5da2ed94025bd7b0817444e91f0&sign=7eb11601360c3f3d79e609365490f171&is_play_url=1&source=PackSourceEnum_FEED"
    },
    {
        "file_hash": "9c9e56a616cc4e095153b0c6c8c3b4f0",
        "create_time": 1704618000,
        "title": "完美球搭子3——守护型球搭 #潘晓婷  #台球  #球搭子",
        "author": "潘晓婷",
        "thumbnail": "https://p26-sign.douyinpic.com/tos-cn-p-0015/oIP9IzlaIACkSVBAHA4hNKeV9IC9g8fIlXBvpN~tplv-dy-360p.jpeg?x-expires=1706508000&x-signature=oGkj8R%2F9LSXzoLc%2BawR6dByOpEE%3D&from=3213915784&s=PackSourceEnum_FEED&se=false&sc=origin_cover&biz_tag=aweme_video&l=021705301622269fdbddc0200ff0500c407fc1c4b494bca21b8dd",
        "videoPlayUrl": "https://api-hl.amemv.com/aweme/v1/play/?video_id=v0200fg10000cmbtui3c77u79bp0klkg&line=1&file_id=90b6b8c1c15b4ed1a4ddaa248dbce4d3&sign=9c9e56a616cc4e095153b0c6c8c3b4f0&is_play_url=1&source=PackSourceEnum_FEED"
    },
    {
        "file_hash": "fddb201d53064981b456a7a1aa68a66c",
        "create_time": 1703862404,
        "title": "其实想要的真的不多，家人的微笑爱人暖心窝，就算再苦再累也值得#大大的城市小小的我 #音乐",
        "author": "好听音乐🎶",
        "thumbnail": "https://p26-sign.douyinpic.com/tos-cn-p-0015/oQAp49QgNpAeYDu4eZ9KBjbOSBnUAB5QtCIlEO~tplv-dy-360p.jpeg?x-expires=1706508000&x-signature=BKAfT4msEsGnCkDyIfTe19gAr2o%3D&from=3213915784&s=PackSourceEnum_FEED&se=false&sc=origin_cover&biz_tag=aweme_video&l=021705301504496fdbddc0200ff0500281b0ef8b4be4f284bd32e",
        "videoPlayUrl": "https://api-hl.amemv.com/aweme/v1/play/?video_id=v0d00fg10000cm7e0vbc77u0h1qjd560&line=1&file_id=d6df03742b084414b49e3c275e5e1558&sign=fddb201d53064981b456a7a1aa68a66c&is_play_url=1&source=PackSourceEnum_FEED"
    },
    {
        "file_hash": "a672bb377949f2c9f467ca46c00c24f2",
        "create_time": 1703061577,
        "title": "军营第四餐，暖胃更暖心！ 不是泡面火腿吃不起，而是自制泡芙更有性价比！军营第四餐，暖胃更暖心！（作者：机动/任超林、徐飞翔、徐梓涵、王根成）【编辑：杨垒】",
        "author": "湖北武警",
        "thumbnail": "https://p26-sign.douyinpic.com/tos-cn-p-0015/oIahNq1EIaEANXwBgCrztAjeQXAfBbVgXv7yAw~tplv-dy-360p.jpeg?x-expires=1706508000&x-signature=l5AvpTYBLwLE2RAFCcntb7mxO7k%3D&from=3213915784&s=PackSourceEnum_FEED&se=false&sc=origin_cover&biz_tag=aweme_video&l=021705301683149fdbddc0200ff0500281b0ef8b4be4f281fc93b",
        "videoPlayUrl": "https://api-hl.amemv.com/aweme/v1/play/?video_id=v0d00fg10000cm1agbrc77u4dc1nb0hg&line=1&file_id=c95f4e8497894233870be8cc8f80b420&sign=a672bb377949f2c9f467ca46c00c24f2&is_play_url=1&source=PackSourceEnum_FEED"
    },
    {
        "file_hash": "9779e92cbaba6cab8bc02776ec181fd4",
        "create_time": 1703673000,
        "title": "成功都是熬出来的，伟大的背后是苦难。#华为  #任正非  #励志  #商业思维  #朱士尧",
        "author": "朱士尧讲企业文化",
        "thumbnail": "https://p3-sign.douyinpic.com/tos-cn-p-0015/oYifm8TnnQE74XR0Ao8CCe9SyBbClsAQDAgRAi~tplv-dy-360p.jpeg?x-expires=1706508000&x-signature=XWv7wV93SHs2e409cGCao66eFDw%3D&from=3213915784&s=PackSourceEnum_FEED&se=false&sc=origin_cover&biz_tag=aweme_video&l=021705301507619fdbddc0200ff05004f7ea5ddc5c7792ac71b6b",
        "videoPlayUrl": "https://api-hl.amemv.com/aweme/v1/play/?video_id=v0200fg10000cm5sq4jc77u4ct3v8pe0&line=1&file_id=fd4edfc607f14125af64faf309e18582&sign=9779e92cbaba6cab8bc02776ec181fd4&is_play_url=1&source=PackSourceEnum_FEED"
    },
    {
        "file_hash": "33dfd70c4fc3ac3d7d0b51ebead26a7d",
        "create_time": 1704441060,
        "title": "草原上的鬣狗",
        "author": "老六",
        "thumbnail": "https://p6-sign.douyinpic.com/tos-cn-p-0015/oEaAoEgDgmqB8TyFfpl9AFA8Q4v1clQx7j3UeN~tplv-dy-360p.jpeg?x-expires=1706508000&x-signature=WgBmvpcMKm1jNYVRh%2FHIBU6iA3w%3D&from=3213915784&s=PackSourceEnum_FEED&se=false&sc=origin_cover&biz_tag=aweme_video&l=02170530146627900000000000000000000ffff0a1b549961563b",
        "videoPlayUrl": "https://api-hl.amemv.com/aweme/v1/play/?video_id=v0d00fg10000cmbr9ovog65ue6npij80&line=1&file_id=721908a558ca431aa8a8a49ad78558c7&sign=33dfd70c4fc3ac3d7d0b51ebead26a7d&is_play_url=1&source=PackSourceEnum_FEED"
    },
    {
        "file_hash": "755bf323233952bd8fd407d9fc9fd185",
        "create_time": 1703032230,
        "title": "吓得我都不敢在这里钓了。#原来钓鱼才是抖音运动顶流 #路亚 #钓鱼人",
        "author": "江河野生淡水鱼研究员",
        "thumbnail": "https://p9-sign.douyinpic.com/tos-cn-p-0015/oQFA9UegEQn7ABEAWwHgbbDWlEAH9fsANo1jaB~tplv-dy-360p.jpeg?x-expires=1706508000&x-signature=K4If9ozbevjLUb4RRuxUTy5W430%3D&from=3213915784&s=PackSourceEnum_FEED&se=false&sc=origin_cover&biz_tag=aweme_video&l=021705301566077fdbddc0200ff05008c7da51b121c1d62216c1e",
        "videoPlayUrl": "https://api-hl.amemv.com/aweme/v1/play/?video_id=v0d00fg10000cm13b03c77u0ljept2c0&line=1&file_id=a52fd5f1898b4d748a9756488e72bd87&sign=755bf323233952bd8fd407d9fc9fd185&is_play_url=1&source=PackSourceEnum_FEED"
    },
    {
        "file_hash": "e507b37f0ca440b36116febaeab30f60",
        "create_time": 1702981978,
        "title": "没规矩怎成方圆，贫穷不怕，家风不好才可怕 #规矩 #国学文化",
        "author": "李琦说",
        "thumbnail": "https://p6-sign.douyinpic.com/tos-cn-p-0015/oAI0Bl1AnBXHig9WPkAAafhAEczGJgB6bN4eVN~tplv-dy-360p.jpeg?x-expires=1706508000&x-signature=XKCMR205CKh%2FhdTFBOqdWjBGNYg%3D&from=3213915784&s=PackSourceEnum_FEED&se=false&sc=origin_cover&biz_tag=aweme_video&l=021705301686387fdbddc0200ff0500281b0ef8b4be4f28dd1c05",
        "videoPlayUrl": "https://api-hl.amemv.com/aweme/v1/play/?video_id=v0d00fg10000cm0n2f3c77ufdlkja9s0&line=1&file_id=54660b66753f49629e5e517b7b2c8ac7&sign=e507b37f0ca440b36116febaeab30f60&is_play_url=1&source=PackSourceEnum_FEED"
    },
    {
        "file_hash": "84187f343deee78f7c892134e8ed3b46",
        "create_time": 1702806655,
        "title": "阿爸阿妈\n演唱：李玉顺",
        "author": "李玉顺和果冻哥",
        "thumbnail": "https://p11-sign.douyinpic.com/tos-cn-p-0015/15312289b8fb42df96b67a73657e02a5_1702806660~tplv-dy-360p.jpeg?x-expires=1706508000&x-signature=NV6w5HB3%2Bx42Ow6PBJpLXjyjqJE%3D&from=3213915784&s=PackSourceEnum_FEED&se=false&sc=origin_cover&biz_tag=aweme_video&l=021705301580375fdbddc0200ff05007069c7e82e0982d12c2fe6",
        "videoPlayUrl": "https://api-hl.amemv.com/aweme/v1/play/?video_id=v0d00fg10000clvc8jjc77u28jq1efqg&line=1&file_id=3890bbff255d431d80b2be6b97421090&sign=84187f343deee78f7c892134e8ed3b46&is_play_url=1&source=PackSourceEnum_FEED"
    }
]