[
    {
        "file_hash": "822e0981b10c0b852c442cc96595f57e",
        "create_time": 1703674500,
        "title": "女生给腿毛染色，涂到皮肤上洗不掉",
        "author": "热度新闻",
        "thumbnail": "https://p3-sign.douyinpic.com/tos-cn-p-0015/ogLBEFLcfCYIeAf7JBkIJSBBMFBPATtalT5zhO~tplv-dy-360p.jpeg?x-expires=1706493600&x-signature=JzxY8XeTqXNkMy%2BCq2GToVSaIpg%3D&from=3213915784&s=PackSourceEnum_FEED&se=false&sc=origin_cover&biz_tag=aweme_video&l=021705285967313fdbddc0200ff05007880f92fa5f5d9a757ba5a",
        "videoPlayUrl": "https://api-hl.amemv.com/aweme/v1/play/?video_id=v0200fg10000cm5u9vrc77u9e29u8o70&line=1&file_id=c7208d3fb48d4e9091770b3a34a25e8a&sign=822e0981b10c0b852c442cc96595f57e&is_play_url=1&source=PackSourceEnum_FEED"
    },
    {
        "file_hash": "9cca5e42acdf5dfce7b6ee72b756f34a",
        "create_time": 1704281663,
        "title": "“新的一年26岁的我，稳定成绩16秒5，也不输当年”#健身 #蛇行跑 #体能训练 #腿部训练 #爆发力",
        "author": "覃教员（下午3点直播带训）",
        "thumbnail": "https://p11-sign.douyinpic.com/tos-cn-p-0015/oMUXDenw9AAGHIMIxVDItYBARAZgkcDellb5UC~tplv-dy-360p.jpeg?x-expires=1706493600&x-signature=GI8247RLZs5OYe8LLmQ06ysR52Y%3D&from=3213915784&s=PackSourceEnum_FEED&se=false&sc=origin_cover&biz_tag=aweme_video&l=021705286159415fdbddc0200ff05007880f92fa5f5d9a790088e",
        "videoPlayUrl": "https://api-hl.amemv.com/aweme/v1/play/?video_id=v0300fg10000cmakc23c77ue5tnpiksg&line=1&file_id=c796374b939547a9bd9cba0f6cde07b1&sign=9cca5e42acdf5dfce7b6ee72b756f34a&is_play_url=1&source=PackSourceEnum_FEED"
    },
    {
        "file_hash": "918c08da43eb9dda82a15438b60c9eca",
        "create_time": 1703068303,
        "title": "既然大家都喝点带颜色的水，那我也喝点吧#健身 #健身房那些事儿 #健身小白必看经验 #氮泵女孩 #健身房",
        "author": "杨小小小艺",
        "thumbnail": "https://p6-sign.douyinpic.com/tos-cn-p-0015/oglcN8FxFBhQsAe9SAZAYSDDagAQg3b0eIhnDq~tplv-dy-360p.jpeg?x-expires=1706493600&x-signature=KcwIo6Rt2Z%2FQ7B3RY%2FlrJRgAUDA%3D&from=3213915784&s=PackSourceEnum_FEED&se=false&sc=origin_cover&biz_tag=aweme_video&l=021705286000046fdbddc0200ff050010d5a110955f064b3d655f",
        "videoPlayUrl": "https://api-hl.amemv.com/aweme/v1/play/?video_id=v0d00fg10000cm1c41bc77u9cb10pgqg&line=1&file_id=28c885081f064d77a96ae673d0e4641c&sign=918c08da43eb9dda82a15438b60c9eca&is_play_url=1&source=PackSourceEnum_FEED"
    },
    {
        "file_hash": "8c1e6fda3feb2c6f7bbfb17c85873f05",
        "create_time": 1704260086,
        "title": "母亲月花6000元追短剧惊呆女儿，专家提醒：老人理性消费 子女多些陪伴",
        "author": "极目新闻",
        "thumbnail": "https://p3-sign.douyinpic.com/tos-cn-p-0015/o8PBj0ybZTPl8AAtgHe49xFngDKANeG1jnlagz~tplv-dy-360p.jpeg?x-expires=1706493600&x-signature=aawDsIqdmka%2BODn8pRneMDTVMEI%3D&from=3213915784&s=PackSourceEnum_FEED&se=false&sc=origin_cover&biz_tag=aweme_video&l=02170528587036800000000000000000000ffff0a1c25d1a2a32d",
        "videoPlayUrl": "https://api-hl.amemv.com/aweme/v1/play/?video_id=v0d00fg10000cmaf3sjc77ubcfb7q1f0&line=1&file_id=f94bd6583ada419b8c0b8e3a6dae246d&sign=8c1e6fda3feb2c6f7bbfb17c85873f05&is_play_url=1&source=PackSourceEnum_FEED"
    },
    {
        "file_hash": "6cadfd5b641970299f1580572eb9e22b",
        "create_time": 1704340800,
        "title": "请你暂时停下来，一起踏雪 #合拍 #笑容最治愈的女孩",
        "author": "汤圆♨️⁷²⁰（暂休）",
        "thumbnail": "https://p3-sign.douyinpic.com/tos-cn-p-0015/o4DIInNeAA5W4KzaAMgf0yFyItyvyRhBsBQESA~tplv-dy-360p.jpeg?x-expires=1706493600&x-signature=iOlEdsZy2O0bn6BXjrhaOBvBuKI%3D&from=3213915784&s=PackSourceEnum_FEED&se=false&sc=origin_cover&biz_tag=aweme_video&l=021705286073284fdbddc0200ff05007880f92fa5f5d9a7c9a893",
        "videoPlayUrl": "https://api-hl.amemv.com/aweme/v1/play/?video_id=v0d00fg10000cm9cg8rc77u4sb5tlkjg&line=1&file_id=03823efd91c048acb64a9e012b8037c9&sign=6cadfd5b641970299f1580572eb9e22b&is_play_url=1&source=PackSourceEnum_FEED"
    },
    {
        "file_hash": "2bedab720b373982342f5239ae256968",
        "create_time": 1703150550,
        "title": "#李佳琦称培养下一个自己很可笑 ：世上有谁愿意成为#李佳琦 的代替品？#政媒原创作者联盟 #李佳琦直播间",
        "author": "新闻晨报",
        "thumbnail": "https://p9-sign.douyinpic.com/tos-cn-p-0015/o87TAl0CbABzC2nKA9SEPhAg8e9hAhdeRNDQAa~tplv-dy-360p.jpeg?x-expires=1706493600&x-signature=b1PYr6D%2BsEniIb6G5xe4UFBPPtI%3D&from=3213915784&s=PackSourceEnum_FEED&se=false&sc=origin_cover&biz_tag=aweme_video&l=021705285999554fdbddc0200ff05007880f92fa5f5d9a7e75efd",
        "videoPlayUrl": "https://api-hl.amemv.com/aweme/v1/play/?video_id=v0d00fg10000cm207ijc77u9oerohtmg&line=1&file_id=bff75e4f87bc4f3ca2a3ab91c22e41e9&sign=2bedab720b373982342f5239ae256968&is_play_url=1&source=PackSourceEnum_FEED"
    }
]