[
    {
        "file_hash": "d16009af2e101484b9b741a3e5613115",
        "create_time": 1704720131,
        "title": "以后，谁也别来了，我拿不起也放不下，嘴硬心软，我太明白自己的德行了，我不想难过了，#究竟是谁放掉这段感情",
        "author": "无奈。",
        "thumbnail": "https://p26-sign.douyinpic.com/tos-cn-p-0015/oAI3RBMnWE7HzfHeDKze4AQdDCo3bbsAr2Qgsf~tplv-dy-360p.jpeg?x-expires=1706508000&x-signature=dR5H3l4NzvrK%2BNAMi8hTc7RKZ24%3D&from=3213915784&s=PackSourceEnum_FEED&se=false&sc=origin_cover&biz_tag=aweme_video&l=02170530175480900000000000000000000ffff0a921eeee1fcb6",
        "videoPlayUrl": "https://api-hl.amemv.com/aweme/v1/play/?video_id=v0300fg10000cmdvdvrc77u3ndeg7pi0&line=1&file_id=393b7a2c361d4ec3b1f29ded283921e6&sign=d16009af2e101484b9b741a3e5613115&is_play_url=1&source=PackSourceEnum_FEED"
    },
    {
        "file_hash": "d94315570608d3ece36d654cebe9c1f7",
        "create_time": 1704616214,
        "title": "小天才电话手表防水防污大测试#儿童手表 #电话手表 #小天才电话手表 #小天才儿童手表 #武汉同城",
        "author": "小天才小时达官方旗舰店—湖北",
        "thumbnail": "https://p3-sign.douyinpic.com/tos-cn-p-0015/osLaupgIDSnAmDhelrBSKlY9TlgA9ABGIkRebt~tplv-dy-360p.jpeg?x-expires=1706508000&x-signature=4M9i4FdTMuawH9HQ2L40Un2XZow%3D&from=3213915784&s=PackSourceEnum_FEED&se=false&sc=origin_cover&biz_tag=aweme_video&l=02170530158153800000000000000000000ffff0a921eeefd413d",
        "videoPlayUrl": "https://api-hl.amemv.com/aweme/v1/play/?video_id=v0300fg10000cmd5ukjc77u9o2ajdun0&line=1&file_id=5354ab41990042629d97285b8058e64a&sign=d94315570608d3ece36d654cebe9c1f7&is_play_url=1&source=PackSourceEnum_FEED"
    },
    {
        "file_hash": "9bfc8b5001f0728a73d5ff8cf241eb7f",
        "create_time": 1704593533,
        "title": "非常适合两轮三轮四轮专用的锂电池！一次充电可跑100-300公里，冬天不怕冻，夏天耐高温，是您爱车极佳的选择#两轮三轮四轮专用#锂电池定制#电动车锂电池",
        "author": "千锂马锂电池定制",
        "thumbnail": "https://p26-sign.douyinpic.com/tos-cn-p-0015/ogeIg6mIzibCAblGqegVADD6anaHb9AE9BBhmN~tplv-dy-360p.jpeg?x-expires=1706508000&x-signature=v4Ldy15uQqf7gzSgkc212C3DDJs%3D&from=3213915784&s=PackSourceEnum_FEED&se=false&sc=origin_cover&biz_tag=aweme_video&l=02170530158514500000000000000000000ffff0a921eee18dd39",
        "videoPlayUrl": "https://api-hl.amemv.com/aweme/v1/play/?video_id=v0d00fg10000cmd0glbc77udcta5s430&line=1&file_id=622dac4db40d4077baf0a1eea308f2ac&sign=9bfc8b5001f0728a73d5ff8cf241eb7f&is_play_url=1&source=PackSourceEnum_FEED"
    },
    {
        "file_hash": "aad4c47902785a2ed3193934a665a6b0",
        "create_time": 1704386647,
        "title": " 结局太精彩了 #因为一个片段看完整部剧 #好剧推荐",
        "author": "翔哥影视",
        "thumbnail": "https://p11-sign.douyinpic.com/tos-cn-p-0015/oQnA9AfEYglFlWoCeIBB93AZxQInFOA9D7Ku4W~tplv-dy-360p.jpeg?x-expires=1706508000&x-signature=mbsmNbAmz1bm5CkZGV1XKuh3uVQ%3D&from=3213915784&s=PackSourceEnum_FEED&se=false&sc=origin_cover&biz_tag=aweme_video&l=02170530159846600000000000000000000ffff0a921eee51e553",
        "videoPlayUrl": "https://api-hl.amemv.com/aweme/v1/play/?video_id=v0200fg10000cmbe0lnog65tv41rftk0&line=1&file_id=f7c9819df42d4bf1812e5ca74247cddb&sign=aad4c47902785a2ed3193934a665a6b0&is_play_url=1&source=PackSourceEnum_FEED"
    },
    {
        "file_hash": "20b08a1052eff796552c505be4cba5fa",
        "create_time": 1703253601,
        "title": "#问苍茫 她们降生在生锈的时代，社会妄图将她们禁锢在一方瓦院，但却忘了，她们本就自由！#问苍茫女性群像好飒 #嘉泽",
        "author": "电视剧问苍茫",
        "thumbnail": "https://p3-sign.douyinpic.com/tos-cn-p-0015/oUMYZFAWhQTTmAjBUVPPAzlziQIgn4BKTQiYI~tplv-dy-360p.jpeg?x-expires=1706508000&x-signature=muXOV4myowZFmXE97t0RTFZ22wI%3D&from=3213915784&s=PackSourceEnum_FEED&se=false&sc=origin_cover&biz_tag=aweme_video&l=02170530169002500000000000000000000ffff0a921eee510ef7",
        "videoPlayUrl": "https://api-hl.amemv.com/aweme/v1/play/?video_id=v0d00fg10000cm2l6c7og65js44l11c0&line=1&file_id=3e2b73624a0e458ea3518b9bde5bd353&sign=20b08a1052eff796552c505be4cba5fa&is_play_url=1&source=PackSourceEnum_FEED"
    },
    {
        "file_hash": "ae2a8ad400f482669b06f4583d17cab2",
        "create_time": 1703906580,
        "title": "新娘子也来互动啦🔥🔥🔥#海阳大秧歌 @🇨🇳海阳环宇秧歌🇨🇳 @煎饼果子🫔",
        "author": "环宇-秧歌小王子",
        "thumbnail": "https://p11-sign.douyinpic.com/tos-cn-p-0015/oMAlqTIgCuAfTh8jubekOxtvQZzvABIILDRyOP~tplv-dy-360p.jpeg?x-expires=1706508000&x-signature=k1S7XJk78MqWBMuOHI6Tsdqe%2Bmc%3D&from=3213915784&s=PackSourceEnum_FEED&se=false&sc=origin_cover&biz_tag=aweme_video&l=02170530160401700000000000000000000ffff0a93d29ac4d517",
        "videoPlayUrl": "https://api-hl.amemv.com/aweme/v1/play/?video_id=v0200fg10000cm7op9rc77ue7bskn49g&line=1&file_id=02e2103e58b44fa5880ca43ea3f8b196&sign=ae2a8ad400f482669b06f4583d17cab2&is_play_url=1&source=PackSourceEnum_FEED"
    },
    {
        "file_hash": "ac50237961c32bb1a81628f09c2c2e46",
        "create_time": 1704041573,
        "title": "2024年第一条视频！湖滨#跨年倒计时 放飞气球，我在#杭州 ，你在哪？",
        "author": "杭州综合频道",
        "thumbnail": "https://p11-sign.douyinpic.com/tos-cn-p-0015/o8BOAnXk4eOZfAZCIlDnFGbjI7ZXgxKxADRU39~tplv-dy-360p.jpeg?x-expires=1706508000&x-signature=5pa43JXm4lXVSsMbRuNkaPaln7Q%3D&from=3213915784&s=PackSourceEnum_FEED&se=false&sc=origin_cover&biz_tag=aweme_video&l=02170530179221000000000000000000000ffff0a921eee8c0767",
        "videoPlayUrl": "https://api-hl.amemv.com/aweme/v1/play/?video_id=v0300fg10000cm8pol3c77u2vs9benhg&line=1&file_id=5dde7728886345b692f0d67441603b1f&sign=ac50237961c32bb1a81628f09c2c2e46&is_play_url=1&source=PackSourceEnum_FEED"
    }
]