[
    {
        "file_hash": "814cc5ae7dd8764c6a931696a0419920",
        "create_time": 1704934406,
        "title": "美国众议院司法委员会判定拜登儿子藐视国会，并可能提出刑事指控@抖音小助手 （来源：环球网）",
        "author": "三沙卫视",
        "thumbnail": "https://p11-sign.douyinpic.com/tos-cn-p-0015/oEbergApOsTHgADeepG80HHnIkkgfgs8fUYAEE~tplv-dy-360p.jpeg?x-expires=1706508000&x-signature=Jxxjf1G0SDcOGLs%2FwsRijxedKk8%3D&from=3213915784&s=PackSourceEnum_FEED&se=false&sc=origin_cover&biz_tag=aweme_video&l=021705301429562fdbddc0200ff0500dd49e873a22f49f78cf47a",
        "videoPlayUrl": "https://api-hl.amemv.com/aweme/v1/play/?video_id=v0300fg10000cmfjnvjc77u56h793840&line=1&file_id=feb25ae242c64d939620c9156aa7d2ff&sign=814cc5ae7dd8764c6a931696a0419920&is_play_url=1&source=PackSourceEnum_FEED"
    },
    {
        "file_hash": "e7484ef9c42b21062ebec236f46f91d9",
        "create_time": 1704787915,
        "title": "",
        "author": "俊辰雨橙爷爷",
        "thumbnail": "https://p26-sign.douyinpic.com/tos-cn-p-0015/oo6nnb4HADeNg5fAsClg8Bdzgn9PAXmw5AoHsy~tplv-dy-360p.jpeg?x-expires=1706508000&x-signature=ohQJJh3YjmkhtP55TpzXVrCsBUM%3D&from=3213915784&s=PackSourceEnum_FEED&se=false&sc=origin_cover&biz_tag=aweme_video&l=021705301398489fdbddc0200ff050039029951e90f87fcd719e3",
        "videoPlayUrl": "https://api-hl.amemv.com/aweme/v1/play/?video_id=v0d00fg10000cmeft1rc77ue5hrcj060&line=1&file_id=4423e8096b484bd3b3d819c44d8826df&sign=e7484ef9c42b21062ebec236f46f91d9&is_play_url=1&source=PackSourceEnum_FEED"
    },
    {
        "file_hash": "42b20a8bfd7da147a14beab76b77d2fa",
        "create_time": 1703596070,
        "title": "奔跑的兔子#萌宠出道计划 #兔子 #田园小萌宠#歌曲玫瑰星系",
        "author": "田园小萌宠",
        "thumbnail": "https://p3-sign.douyinpic.com/tos-cn-p-0015/o403IDFeanAC0ozjbseHA9lBaAagpBhiIBbPKD~tplv-dy-360p.jpeg?x-expires=1706508000&x-signature=o54Ap7oDvMbIc0l%2F6Y%2FD9Q80D04%3D&from=3213915784&s=PackSourceEnum_FEED&se=false&sc=origin_cover&biz_tag=aweme_video&l=02170530166033600000000000000000000ffff0a18680ba460bc",
        "videoPlayUrl": "https://api-hl.amemv.com/aweme/v1/play/?video_id=v0300fg10000cm5crmjc77u3va05l92g&line=1&file_id=43fab09c10614967ba612f2cbc5f446f&sign=42b20a8bfd7da147a14beab76b77d2fa&is_play_url=1&source=PackSourceEnum_FEED"
    },
    {
        "file_hash": "3f7a7cdb6af9c46fdaccb6f31c4d145f",
        "create_time": 1704980067,
        "title": "俺们抚顺来“且”啦！河南“小豫米”来抚顺体验真人版“贪吃蛇”啦！#河南 #辽宁 #旅游",
        "author": "抚顺日报社",
        "thumbnail": "https://p11-sign.douyinpic.com/tos-cn-p-0015/oUQzfLJBdCeG8A7TEGQAkeDB47nVuPDW1bolma~tplv-dy-360p.jpeg?x-expires=1706508000&x-signature=%2FauUy1l%2BOsB36ESj6uN26Nki05Y%3D&from=3213915784&s=PackSourceEnum_FEED&se=false&sc=origin_cover&biz_tag=aweme_video&l=02170530170371100000000000000000000ffff0a186d91dbf946",
        "videoPlayUrl": "https://api-hl.amemv.com/aweme/v1/play/?video_id=v0d00fg10000cmfus9bc77u2dacc9na0&line=1&file_id=c2a07a9b35c64300af193392da6f0253&sign=3f7a7cdb6af9c46fdaccb6f31c4d145f&is_play_url=1&source=PackSourceEnum_FEED"
    },
    {
        "file_hash": "b7234e97c72e8f4a3e1138ee98c16073",
        "create_time": 1703417636,
        "title": "分别30年的恋人因为一碗海鲜面相聚，不料两人如同仇人 #因为一个片段看了整部剧 #我的观影报告 #好剧推荐 #影视解说 #关注我一起追剧",
        "author": "拂尘看剧",
        "thumbnail": "https://p26-sign.douyinpic.com/tos-cn-p-0015/oYA9WClABk3XUI8InAQdZieGykBBCgbQDFAe6y~tplv-dy-360p.jpeg?x-expires=1706508000&x-signature=k%2FY7RDg3KlCdOiiNhPxSriQ5wUQ%3D&from=3213915784&s=PackSourceEnum_FEED&se=false&sc=origin_cover&biz_tag=aweme_video&l=02170530153440600000000000000000000ffff0a186d9114764e",
        "videoPlayUrl": "https://api-hl.amemv.com/aweme/v1/play/?video_id=v0200fg10000cm41b23c77u85v84tcv0&line=1&file_id=5567dafea2dc4bedbc14cf669c0e9d90&sign=b7234e97c72e8f4a3e1138ee98c16073&is_play_url=1&source=PackSourceEnum_FEED"
    },
    {
        "file_hash": "24f8be583193db318b7c765233e1bc1b",
        "create_time": 1704152292,
        "title": "女儿剪出“爸爸”字样窗花，没想到阳光下的倒影竟然成了“狗狗”两字！#萌娃搞笑日常 #搞笑家庭欢乐多",
        "author": "头很大的十九",
        "thumbnail": "https://p11-sign.douyinpic.com/tos-cn-p-0015/o8gffD0GlA2YTFFTAnBCiXGk8DzQNQb9OAu6TI~tplv-dy-360p.jpeg?x-expires=1706508000&x-signature=pzM0WWbz0FLiR4qdnGUibfA8kaM%3D&from=3213915784&s=PackSourceEnum_FEED&se=false&sc=origin_cover&biz_tag=aweme_video&l=02170530163616100000000000000000000ffff0a186d91e3ec7a",
        "videoPlayUrl": "https://api-hl.amemv.com/aweme/v1/play/?video_id=v0d00fg10000cm9kphbc77u4vas6v2i0&line=1&file_id=014c41a81c554950b6368658d7f80ee6&sign=24f8be583193db318b7c765233e1bc1b&is_play_url=1&source=PackSourceEnum_FEED"
    },
    {
        "file_hash": "7130a595d0e480064057952239f43b7f",
        "create_time": 1704612125,
        "title": "从怀孕穿到现在的一款孕妇哺乳内衣，轻薄透气很舒服，弹力特别大，穿着一点也没有束缚感#孕妇内衣 #母婴好物 #待产包 #孕期囤货",
        "author": "小倩好物精选(仨娃版)",
        "thumbnail": "https://p11-sign.douyinpic.com/tos-cn-p-0015/oIahXUaSIVPACzzBjaKztAdehkAfBJSgcsHyIu~tplv-dy-360p.jpeg?x-expires=1706508000&x-signature=HclvaiWjMIvAOviL6wL55T41c6o%3D&from=3213915784&s=PackSourceEnum_FEED&se=false&sc=origin_cover&biz_tag=aweme_video&l=02170530143847400000000000000000000ffff0a9e234787b949",
        "videoPlayUrl": "https://api-hl.amemv.com/aweme/v1/play/?video_id=v0200fg10000cmd51ibc77ufaritl3eg&line=1&file_id=83d6fba1a04f4d5685e7ccc8afae9b59&sign=7130a595d0e480064057952239f43b7f&is_play_url=1&source=PackSourceEnum_FEED"
    },
    {
        "file_hash": "a1f3e09fa7e425324dfce5c84908fa65",
        "create_time": 1703409900,
        "title": "希望你们快乐#希望你被这个世界爱着 #情侣",
        "author": "☁️coco",
        "thumbnail": "https://p9-sign.douyinpic.com/tos-cn-p-0015/oQTeOBkQL8Bl9KuPCPeDAinqBDA7x8OAQHbcaf~tplv-dy-360p.jpeg?x-expires=1706508000&x-signature=gvJ%2BG8D308Ey18gAmCQV0L%2BjP0A%3D&from=3213915784&s=PackSourceEnum_FEED&se=false&sc=origin_cover&biz_tag=aweme_video&l=02170530153592400000000000000000000ffff0a186d91fe2026",
        "videoPlayUrl": "https://api-hl.amemv.com/aweme/v1/play/?video_id=v0d00fg10000cm3vhajc77u7hqess540&line=1&file_id=7a39b0c988bb49f7a8e5d17984f6122b&sign=a1f3e09fa7e425324dfce5c84908fa65&is_play_url=1&source=PackSourceEnum_FEED"
    },
    {
        "file_hash": "295b4b424fe1584c416c5b467b8415ad",
        "create_time": 1704099633,
        "title": "今天不做狗饭了，有手就会的巴斯克蛋糕来了#有零有食 #冻干水果 #年货礼盒#日常vlog #宝宝辅食",
        "author": "花朵",
        "thumbnail": "https://p3-sign.douyinpic.com/tos-cn-p-0015/okb9QAjb8dLf8pCj9XBrQ4dEgDegAlAYktnDvD~tplv-dy-360p.jpeg?x-expires=1706508000&x-signature=z%2BxDuqUsAxlsYWMRAxW80q0c39g%3D&from=3213915784&s=PackSourceEnum_FEED&se=false&sc=origin_cover&biz_tag=aweme_video&l=021705301456038fdbddc0200ff050077d9d6d3743e55b82b8bfe",
        "videoPlayUrl": "https://api-hl.amemv.com/aweme/v1/play/?video_id=v0300fg10000cm8ohirc77uemo9rduv0&line=1&file_id=9e3910b0cc904a009d335eaf53b9c9d2&sign=295b4b424fe1584c416c5b467b8415ad&is_play_url=1&source=PackSourceEnum_FEED"
    },
    {
        "file_hash": "7b6896d52266570382b754517b00d4ef",
        "create_time": 1703992705,
        "title": "来自2023年的最后一击\n#尤文图斯 #射门 #拉比奥 #2023最后一天",
        "author": "尤文图斯足球俱乐部",
        "thumbnail": "https://p6-sign.douyinpic.com/tos-cn-p-0015/ooEMNAzyS3KAYfeDyKc02BDAgIBQBZJIJTJGh7~tplv-dy-360p.jpeg?x-expires=1706508000&x-signature=D%2Fqrgbt5iCW61FN9lOglSN2t1YY%3D&from=3213915784&s=PackSourceEnum_FEED&se=false&sc=origin_cover&biz_tag=aweme_video&l=02170530173258300000000000000000000ffff0a186d918833b6",
        "videoPlayUrl": "https://api-hl.amemv.com/aweme/v1/play/?video_id=v0300fg10000cm8dmq3c77u9568fms90&line=1&file_id=df8e10627b9f4ada8e54aafc43837b68&sign=7b6896d52266570382b754517b00d4ef&is_play_url=1&source=PackSourceEnum_FEED"
    },
    {
        "file_hash": "9f6a4e68f528c8f100fd17915ad90e9e",
        "create_time": 1703426724,
        "title": "唐僧竟然是“咏春”的传人。\n#不一样的西游记 #西游记 #唐僧 #看完不笑算我输",
        "author": "梦醒方如初",
        "thumbnail": "https://p6-sign.douyinpic.com/tos-cn-p-0015/oY2IAYgxtAIaJxKHAzey8qBROhADfAXs7BzA1I~tplv-dy-360p.jpeg?x-expires=1706508000&x-signature=QoGIRHEYvAvNTY6FqRd4S9eK%2BC4%3D&from=3213915784&s=PackSourceEnum_FEED&se=false&sc=origin_cover&biz_tag=aweme_video&l=02170530149865400000000000000000000ffff0a9e234723c784",
        "videoPlayUrl": "https://api-hl.amemv.com/aweme/v1/play/?video_id=v0300fg10000cm43h0bc77u8tv6qoo8g&line=1&file_id=5b58d161ee1f4a6c9ca43d7b52036302&sign=9f6a4e68f528c8f100fd17915ad90e9e&is_play_url=1&source=PackSourceEnum_FEED"
    }
]