[
    {
        "file_hash": "9c04d9c1ec35900aeaca13d00f67f28d",
        "create_time": 1703742090,
        "title": "刘强东拼了？京东员工大涨薪！#知识领航者",
        "author": "丸子妹",
        "thumbnail": "https://p3-sign.douyinpic.com/tos-cn-p-0015/oobWNwEAACBDjVgfXKngDlQojQeprC9VQ8QAS0~tplv-dy-360p.jpeg?x-expires=1706493600&x-signature=UJAR6gGTqW%2FPNsNIn7SPqd28%2FBc%3D&from=3213915784&s=PackSourceEnum_FEED&se=false&sc=origin_cover&biz_tag=aweme_video&l=021705285958802fdbddc02002805380000000000000025f1ebee",
        "videoPlayUrl": "https://api-hl.amemv.com/aweme/v1/play/?video_id=v0300fg10000cm6gkh3c77u5vuhclg40&line=1&file_id=e11648837df0449f995e35ff584c2ce7&sign=9c04d9c1ec35900aeaca13d00f67f28d&is_play_url=1&source=PackSourceEnum_FEED"
    },
    {
        "file_hash": "ebcddd910f1da90b61b872120f84effc",
        "create_time": 1704196166,
        "title": "叫一声老爸爸，儿女给你跪下……#最辛苦的是咱爸",
        "author": "蓓蕾",
        "thumbnail": "https://p11-sign.douyinpic.com/tos-cn-p-0015/oIBAek8WAefD9MMW2fmECqZRJHQiQC4ndcgT2P~tplv-dy-360p.jpeg?x-expires=1706493600&x-signature=8COE7gqGqVAICTAWXzbzDOkBjEY%3D&from=3213915784&s=PackSourceEnum_FEED&se=false&sc=origin_cover&biz_tag=aweme_video&l=021705286071283fdbddc02002805380000000000000025480259",
        "videoPlayUrl": "https://api-hl.amemv.com/aweme/v1/play/?video_id=v0300fg10000cm9vfqrc77u1jrpjai9g&line=1&file_id=f8a5534c00a04c6eab34b05d8cd41c96&sign=ebcddd910f1da90b61b872120f84effc&is_play_url=1&source=PackSourceEnum_FEED"
    },
    {
        "file_hash": "3142cc1283dfd1ed7e1c9175500aab09",
        "create_time": 1702889983,
        "title": "生平第一次明白什么是暴雪",
        "author": "青岛交通广播FM897",
        "thumbnail": "https://p26-sign.douyinpic.com/tos-cn-p-0015/51488163db34482cba7bd12f40f19aac_1702889987~tplv-dy-360p.jpeg?x-expires=1706493600&x-signature=Akl0ECh4XxIz7h40Wlo%2BPmTO2h0%3D&from=3213915784&s=PackSourceEnum_FEED&se=false&sc=origin_cover&biz_tag=aweme_video&l=021705286194859fdbddc02002805380000000000000025a01f84",
        "videoPlayUrl": "https://api-hl.amemv.com/aweme/v1/play/?video_id=v0200fg10000cm00j2bc77ucqabs7s7g&line=1&file_id=4d7df0c327cc4a2fad4d485230f9bacd&sign=3142cc1283dfd1ed7e1c9175500aab09&is_play_url=1&source=PackSourceEnum_FEED"
    },
    {
        "file_hash": "2234f96d4b0b73fbffc148a60b637bac",
        "create_time": 1703124000,
        "title": "日本巨兽打不过还骂脏话，中国猛将当场暴怒，直接打断他的胳膊 #拳击  #格斗 ",
        "author": "体娱世界",
        "thumbnail": "https://p9-sign.douyinpic.com/tos-cn-p-0015/oscAAbBQf3QOBLLcQXzJBtQWHM4I8eAe7CCiEE~tplv-dy-360p.jpeg?x-expires=1706493600&x-signature=BGroEWe4WAEtteA6hUtb5Tg9MP0%3D&from=3213915784&s=PackSourceEnum_FEED&se=false&sc=origin_cover&biz_tag=aweme_video&l=021705286001401fdbddc020028053800000000000000256dfa20",
        "videoPlayUrl": "https://api-hl.amemv.com/aweme/v1/play/?video_id=v0200fg10000cm1poh7og65v3t1nef70&line=1&file_id=31fc877b55e74a97b35ad33abe3fb87b&sign=2234f96d4b0b73fbffc148a60b637bac&is_play_url=1&source=PackSourceEnum_FEED"
    },
    {
        "file_hash": "dc210e28d94c82cdd02c96f226439f50",
        "create_time": 1702904580,
        "title": "江亚菲霸气护妈 安杰直呼太解气了 #父母爱情#电视剧 #影视",
        "author": "江苏影视频道",
        "thumbnail": "https://p11-sign.douyinpic.com/tos-cn-p-0015/78c4a136cfa949478a29bd6dd01e1570_1702883143~tplv-dy-360p.jpeg?x-expires=1706493600&x-signature=GCl6pM1qYaRvtIqXSj%2FNeKpVR%2BI%3D&from=3213915784&s=PackSourceEnum_FEED&se=false&sc=origin_cover&biz_tag=aweme_video&l=021705286016318fdbddc0200ff0500be2b99ffa6fbc707209d41",
        "videoPlayUrl": "https://api-hl.amemv.com/aweme/v1/play/?video_id=v0200fg10000clvurljc77u7a10kth5g&line=1&file_id=23c4f8fd40fb4051bdf99b3b332d7c0a&sign=dc210e28d94c82cdd02c96f226439f50&is_play_url=1&source=PackSourceEnum_FEED"
    },
    {
        "file_hash": "724b648fb324256162c2921621d62600",
        "create_time": 1703901739,
        "title": "#车载音乐 #dj #一首好听的dj音乐分享给大家 #抖音热歌推荐🔥 #抖音热歌推荐🔥",
        "author": "秦感音乐",
        "thumbnail": "https://p9-sign.douyinpic.com/tos-cn-p-0015/o0Ye63gjbAgwtmIWDn9lniBweDAN8A2Y33ZgVE~tplv-dy-360p.jpeg?x-expires=1706493600&x-signature=tD0TNaZORbMHeybMzRFzMAIga%2FI%3D&from=3213915784&s=PackSourceEnum_FEED&se=false&sc=origin_cover&biz_tag=aweme_video&l=021705285948969fdbddc02002805380000000000000025c82b7e",
        "videoPlayUrl": "https://api-hl.amemv.com/aweme/v1/play/?video_id=v0d00fg10000cm7njejc77u16ueocdu0&line=1&file_id=4d1ede9e5bf24e66bb737b2dae0d5d23&sign=724b648fb324256162c2921621d62600&is_play_url=1&source=PackSourceEnum_FEED"
    },
    {
        "file_hash": "d301cd0cba6b026e9ecca525a94eac69",
        "create_time": 1704703272,
        "title": "千万网红团队成员 两人约架致一人身亡 警方称情况属实 正在调查中#社会百态 #热点 @抖音小助手 @DOU+小助手",
        "author": "三衢",
        "thumbnail": "https://p26-sign.douyinpic.com/tos-cn-p-0015/oMlmQb3AAnDotggfOtxBbeSdSADBhQ0N97m6FB~tplv-dy-360p.jpeg?x-expires=1706493600&x-signature=MkJlz%2ByBulN7e%2FFHiJEpyB1V97Q%3D&from=3213915784&s=PackSourceEnum_FEED&se=false&sc=origin_cover&biz_tag=aweme_video&l=021705286146719fdbddc0200ff050027329a669929baf65499f4",
        "videoPlayUrl": "https://api-hl.amemv.com/aweme/v1/play/?video_id=v0300fg10000cmdr98bc77uejejldrjg&line=1&file_id=0ebb955ae7da482ab562b4424945f31a&sign=d301cd0cba6b026e9ecca525a94eac69&is_play_url=1&source=PackSourceEnum_FEED"
    },
    {
        "file_hash": "602eea7adc23cd6df58197e42994b765",
        "create_time": 1703915271,
        "title": "11万营业额半年无法提现？#哗啦啦 #餐馆 #工资",
        "author": "大调查",
        "thumbnail": "https://p11-sign.douyinpic.com/tos-cn-p-0015/oQIzyxBD72s9ABHxUldAD3QAhaCwPvlIOgNfer~tplv-dy-360p.jpeg?x-expires=1706493600&x-signature=9dEIAY0t5sehQlzFJyPnXz1AlQc%3D&from=3213915784&s=PackSourceEnum_FEED&se=false&sc=origin_cover&biz_tag=aweme_video&l=021705286171448fdbddc02002805380000000000000025ccb320",
        "videoPlayUrl": "https://api-hl.amemv.com/aweme/v1/play/?video_id=v0200fg10000cm7qtm3c77u3ojmrff3g&line=1&file_id=0ef15bbd452245b4b9a972c047c2a577&sign=602eea7adc23cd6df58197e42994b765&is_play_url=1&source=PackSourceEnum_FEED"
    },
    {
        "file_hash": "537f6b1ee4c2af2a5b04de60ee4c6437",
        "create_time": 1703905334,
        "title": "蹬杆是你的谎言#yegk #Cunam #shell☄️ #vick2 #gt剪辑社",
        "author": "black manba（疯了）",
        "thumbnail": "https://p9-sign.douyinpic.com/tos-cn-p-0015/oEgA5PybBie5h8aAf8AuzIIzPg3NxLpBRgtLDO~tplv-dy-360p.jpeg?x-expires=1706493600&x-signature=znOCtizFy0cLdDNK6s0Am1Ye9%2BQ%3D&from=3213915784&s=PackSourceEnum_FEED&se=false&sc=origin_cover&biz_tag=aweme_video&l=021705285947726fdbddc02002805380000000000000025d19864",
        "videoPlayUrl": "https://api-hl.amemv.com/aweme/v1/play/?video_id=v0d00fg10000cm7ofubc77ued6v6jp8g&line=1&file_id=54dd7d4664cd493bb9e162669ac9cc2a&sign=537f6b1ee4c2af2a5b04de60ee4c6437&is_play_url=1&source=PackSourceEnum_FEED"
    },
    {
        "file_hash": "6babe65985f27e044481dedc3ef6a014",
        "create_time": 1703521076,
        "title": "他一直都在，因为人民万岁！#伟大领袖毛主席#纪念毛泽东诞辰130周年！",
        "author": "中华网军事",
        "thumbnail": "https://p9-sign.douyinpic.com/tos-cn-p-0015/os892iDOxbUoYJCzAyrbqJgQnbAX8AB7fBelaA~tplv-dy-360p.jpeg?x-expires=1706493600&x-signature=tgjJUOBqVbAICLt%2BSds5NKzmwC4%3D&from=3213915784&s=PackSourceEnum_FEED&se=false&sc=origin_cover&biz_tag=aweme_video&l=021705285976157fdbddc020028053800000000000000254f3133",
        "videoPlayUrl": "https://api-hl.amemv.com/aweme/v1/play/?video_id=v0200fg10000cm4qlmrc77udij5hvtv0&line=1&file_id=7adeacf8d4dc4d9c91f81f4dd05cc833&sign=6babe65985f27e044481dedc3ef6a014&is_play_url=1&source=PackSourceEnum_FEED"
    }
]