[
    {
        "file_hash": "d4d4efb1b3d42b1f2d6a11f306c37744",
        "create_time": 1702861316,
        "title": "",
        "author": "小金子（吃）",
        "thumbnail": "https://p3-sign.douyinpic.com/tos-cn-p-0015/4ac3861bd813454d81aa4b1f51078173_1702861320~tplv-dy-360p.jpeg?x-expires=1706508000&x-signature=bI%2Fdv8GRQBGVs9ZkTIgybj0inEU%3D&from=3213915784&s=PackSourceEnum_FEED&se=false&sc=origin_cover&biz_tag=aweme_video&l=02170530166743600000000000000000000ffff0a92fe15147019",
        "videoPlayUrl": "https://api-hl.amemv.com/aweme/v1/play/?video_id=v0200fg10000clvpk0jc77u0ug1d73a0&line=1&file_id=ba20a1c1c32f4d2a9f6665e3ef82cff0&sign=d4d4efb1b3d42b1f2d6a11f306c37744&is_play_url=1&source=PackSourceEnum_FEED"
    },
    {
        "file_hash": "7f5f3865588edad600300494b168793c",
        "create_time": 1703434509,
        "title": "差点让听泉看走眼的银元#听泉鉴宝 #鉴宝 @国博文物总店 @听泉寻宝",
        "author": "泉哥鉴宝（听泉寻宝）",
        "thumbnail": "https://p11-sign.douyinpic.com/tos-cn-p-0015/oEPvOADzyBWDhcJfhytC8AI1AAFItxCgCeARaz~tplv-dy-360p.jpeg?x-expires=1706508000&x-signature=%2BujYRy66933gOVmruMLbkm8qj1I%3D&from=3213915784&s=PackSourceEnum_FEED&se=false&sc=origin_cover&biz_tag=aweme_video&l=02170530167993000000000000000000000ffff0a92f9e780e5c6",
        "videoPlayUrl": "https://api-hl.amemv.com/aweme/v1/play/?video_id=v0300fg10000cm45fprc77u3qggkj17g&line=1&file_id=981aea67241a402daa343656ebb0ac0d&sign=7f5f3865588edad600300494b168793c&is_play_url=1&source=PackSourceEnum_FEED"
    },
    {
        "file_hash": "56a0d527e450073be7e808b17e633c28",
        "create_time": 1703063866,
        "title": "有一种感动叫“中国红”，有一种表白叫“我爱你中国”。温柔的曲声表达着对祖国的热爱，让人有一种热泪盈眶的感觉，祝福祖国繁荣昌盛，国泰民安#纯音乐#我爱你中国#乐器演奏#红歌@DOU+小助手",
        "author": "精选纯音馆",
        "thumbnail": "https://p11-sign.douyinpic.com/tos-cn-p-0015/o48uANFD9NcbVEkIYgCrqAjgQAMle8neWMnA8B~tplv-dy-360p.jpeg?x-expires=1706508000&x-signature=1bSu4IgNkh%2FXid1HjUZ7MigekvQ%3D&from=3213915784&s=PackSourceEnum_FEED&se=false&sc=origin_cover&biz_tag=aweme_video&l=02170530185806800000000000000000000ffff0a92f9e7e4766f",
        "videoPlayUrl": "https://api-hl.amemv.com/aweme/v1/play/?video_id=v0d00fg10000cm1b233c77uf1hpsln20&line=1&file_id=2a2428365e8548009df772c027702230&sign=56a0d527e450073be7e808b17e633c28&is_play_url=1&source=PackSourceEnum_FEED"
    },
    {
        "file_hash": "f950200fcd591e6f7b409e3d58ae9dfe",
        "create_time": 1703042401,
        "title": "“亿万富翁之子”解清帅重生（二十）：75岁奶奶见到孙子泪流满面，瘫痪在床多年，要见到孙子再走。#时间的答案2023  #抖音热点记忆2023",
        "author": "九派新闻",
        "thumbnail": "https://p9-sign.douyinpic.com/tos-cn-p-0015/oo7C9jl0lIC8AYA3MBgiRyLiARBAKGAmegf1wN~tplv-dy-360p.jpeg?x-expires=1706508000&x-signature=zHeLWVM3UWcflRZsUK1vX0GjKGE%3D&from=3213915784&s=PackSourceEnum_FEED&se=false&sc=origin_cover&biz_tag=aweme_video&l=02170530170917300000000000000000000ffff0a92f9e7b70ade",
        "videoPlayUrl": "https://api-hl.amemv.com/aweme/v1/play/?video_id=v0200fg10000cm135vfog65n53a6drig&line=1&file_id=c7681f3902ab40f0a69371ccdc0132e1&sign=f950200fcd591e6f7b409e3d58ae9dfe&is_play_url=1&source=PackSourceEnum_FEED"
    },
    {
        "file_hash": "de6dfcbcb6303bf1465a7d66fa4fb9f3",
        "create_time": 1703241508,
        "title": "江苏一女大学生被老鼠咬伤手反咬老鼠头报复",
        "author": "人民网江苏",
        "thumbnail": "https://p6-sign.douyinpic.com/tos-cn-p-0015/oYAiA9CeWAYr5OzTANgfPwyhINZwyjhBnBNDFA~tplv-dy-360p.jpeg?x-expires=1706508000&x-signature=7ktwLE4coFmjJWbUJITbatiL1eA%3D&from=3213915784&s=PackSourceEnum_FEED&se=false&sc=origin_cover&biz_tag=aweme_video&l=02170530184831800000000000000000000ffff0a92f9e77bdc0c",
        "videoPlayUrl": "https://api-hl.amemv.com/aweme/v1/play/?video_id=v0200fg10000cm2mdhjc77u3spu16fug&line=1&file_id=aab1e65812674ca1a82be977d1c0df99&sign=de6dfcbcb6303bf1465a7d66fa4fb9f3&is_play_url=1&source=PackSourceEnum_FEED"
    },
    {
        "file_hash": "96af0d1fc043556f35028b0f8f45cdda",
        "create_time": 1704593852,
        "title": "统统闪开 帅哥来了 把你们帅晕#柴犬 #恶犬 #猛兽",
        "author": "忧郁的卷心菜",
        "thumbnail": "https://p3-sign.douyinpic.com/tos-cn-p-0015/oIMzEaThQJIzz2byALAIeCIfRNKYK8ADAz5Bgw~tplv-dy-360p.jpeg?x-expires=1706508000&x-signature=z6BrhEaqnVNvXekRpcUnTFjjHFs%3D&from=3213915784&s=PackSourceEnum_FEED&se=false&sc=origin_cover&biz_tag=aweme_video&l=02170530158514500000000000000000000ffff0a921eee18dd39",
        "videoPlayUrl": "https://api-hl.amemv.com/aweme/v1/play/?video_id=v0300fg10000cmd0j4jc77uc5i6f1jsg&line=1&file_id=afc66eb180f74333b845d50e21e62b6e&sign=96af0d1fc043556f35028b0f8f45cdda&is_play_url=1&source=PackSourceEnum_FEED"
    }
]