[
    {
        "file_hash": "7aea3b5f8f6b45aefa807f5dd19e85cf",
        "create_time": 1704533348,
        "title": "#看家护院 #第一批回村的狗在干什么",
        "author": "sandalwood",
        "thumbnail": "https://p9-sign.douyinpic.com/tos-cn-p-0015/okFYmVGwgHnIeYZBjOLByPsCMgEmaxe2AAf4M7~tplv-dy-360p.jpeg?x-expires=1706493600&x-signature=EGCYoRT1HOmsSSq3qmtTpvl4zrg%3D&from=3213915784&s=PackSourceEnum_FEED&se=false&sc=origin_cover&biz_tag=aweme_video&l=021705286210963fdbddc02002a00040000000000000028e33cd9",
        "videoPlayUrl": "https://api-hl.amemv.com/aweme/v1/play/?video_id=v0d00fg10000cmchpj3c77u2nuc8opu0&line=1&file_id=9887d59469994c6681e48b11980306ef&sign=7aea3b5f8f6b45aefa807f5dd19e85cf&is_play_url=1&source=PackSourceEnum_FEED"
    },
    {
        "file_hash": "756b9af9a4179149cd9dc2c39edb9857",
        "create_time": 1703430968,
        "title": "浙江台州一女研究生制售色情书籍10万余本被抓，涉案金额1000多万元，民警：情节太露骨",
        "author": "大象新闻",
        "thumbnail": "https://p9-sign.douyinpic.com/tos-cn-p-0015/oEnEeninAANotnCADAlDZhs8Lgk9gf8DlQBXQb~tplv-dy-360p.jpeg?x-expires=1706493600&x-signature=rvgilYPkF4iHoKPRsJLk7lUXRqk%3D&from=3213915784&s=PackSourceEnum_FEED&se=false&sc=origin_cover&biz_tag=aweme_video&l=021705285929517fdbddc0200ff050010d5a110955f064bc2d912",
        "videoPlayUrl": "https://api-hl.amemv.com/aweme/v1/play/?video_id=v0d00fg10000cm44ma3c77u0tle3gpq0&line=1&file_id=11f6b409b2464066b5974821c2d12f7d&sign=756b9af9a4179149cd9dc2c39edb9857&is_play_url=1&source=PackSourceEnum_FEED"
    },
    {
        "file_hash": "7ddd5474774bee3a07531565a3841c76",
        "create_time": 1704774959,
        "title": "1月8日，据央视新闻，长沙8层自建房4秒垮塌成废墟，导致54人遇难，其中大学生44人，原副区长：心存侥幸，在自己任期内不会出事\n",
        "author": "青豆新闻",
        "thumbnail": "https://p6-sign.douyinpic.com/tos-cn-p-0015/ooqcxl3BDGVMAeoedCDQlgAz6q9nBcnDAQTb9s~tplv-dy-360p.jpeg?x-expires=1706493600&x-signature=evnfUlSzEBD%2FhaM%2Fj4BK0SxyulQ%3D&from=3213915784&s=PackSourceEnum_FEED&se=false&sc=origin_cover&biz_tag=aweme_video&l=021705286044294fdbddc02002a0004000000000000002867f1ab",
        "videoPlayUrl": "https://api-hl.amemv.com/aweme/v1/play/?video_id=v0300fg10000cmecoqjc77u1geuktm70&line=1&file_id=badf81aab3ab4a30ad7677660940c774&sign=7ddd5474774bee3a07531565a3841c76&is_play_url=1&source=PackSourceEnum_FEED"
    },
    {
        "file_hash": "38635c25a86e7e8f6832f839b9fecda3",
        "create_time": 1703060088,
        "title": "曾跟着爸爸送外卖的小霏儿终于有了自己的“新房子”，一家人在新房子里尽情地奔跑。",
        "author": "柳州制造",
        "thumbnail": "https://p26-sign.douyinpic.com/tos-cn-p-0015/o4uCIqgwNAIkSEKJBzeynnBJohACfAh7LVuAHH~tplv-dy-360p.jpeg?x-expires=1706493600&x-signature=EemaMb42p6AzaG5ub3lqaDuM%2Bnk%3D&from=3213915784&s=PackSourceEnum_FEED&se=false&sc=origin_cover&biz_tag=aweme_video&l=021705286120307fdbddc02002a00040000000000000028d8660b",
        "videoPlayUrl": "https://api-hl.amemv.com/aweme/v1/play/?video_id=v0200fg10000cm1a443c77u75ptrna4g&line=1&file_id=5845752107884d5ca32d95ce20a4f2b7&sign=38635c25a86e7e8f6832f839b9fecda3&is_play_url=1&source=PackSourceEnum_FEED"
    },
    {
        "file_hash": "7066ea3aaebddceb2076da8b80b240e6",
        "create_time": 1703930400,
        "title": "特鲁姆普看了都说好的高杆吸库教学，@球搭子一起上分 #中式台球 #台球教学 #台球是一种生活",
        "author": "任最杰台球🎱",
        "thumbnail": "https://p6-sign.douyinpic.com/tos-cn-p-0015/ogBXYLVC35IDBMe7mNQCeZAaoUAbAfMdhcHQ9n~tplv-dy-360p.jpeg?x-expires=1706493600&x-signature=yBE2kKWxsZ%2FdWMB%2Brlp5DpWyywQ%3D&from=3213915784&s=PackSourceEnum_FEED&se=false&sc=origin_cover&biz_tag=aweme_video&l=021705286082421fdbddc02002a0004000000000000002811b95c",
        "videoPlayUrl": "https://api-hl.amemv.com/aweme/v1/play/?video_id=v0d00fg10000cm7ai7rc77u6dquhp6g0&line=1&file_id=562036bee7b841aa8f93ee73e590d5ee&sign=7066ea3aaebddceb2076da8b80b240e6&is_play_url=1&source=PackSourceEnum_FEED"
    },
    {
        "file_hash": "36505073db2ba16f08d9ed9e2b807095",
        "create_time": 1704103824,
        "title": "东北哈尔滨终于火出圈 哈尔滨人可稀罕小土豆啦 #哈尔滨冰雪大世界 #南方小土豆 #南方小土豆勇闯冰雪大世界",
        "author": "知心白大姐呀",
        "thumbnail": "https://p11-sign.douyinpic.com/tos-cn-p-0015/oMgSjoQ6nQu5sSe9AK8CNH9JbBbWleAQDCg4Ak~tplv-dy-360p.jpeg?x-expires=1706493600&x-signature=T6Ef1RrHPfQBAt%2FtB0Js0YYekZ8%3D&from=3213915784&s=PackSourceEnum_FEED&se=false&sc=origin_cover&biz_tag=aweme_video&l=021705286072081fdbddc02002a000400000000000000285fd4b5",
        "videoPlayUrl": "https://api-hl.amemv.com/aweme/v1/play/?video_id=v0d00fg10000cm98uibc77ufen14adr0&line=1&file_id=3b2e680e3d6d4d1abb956f21bbd70690&sign=36505073db2ba16f08d9ed9e2b807095&is_play_url=1&source=PackSourceEnum_FEED"
    },
    {
        "file_hash": "38f7c17ef61eea7159fbef0338a803e1",
        "create_time": 1703509691,
        "title": "#儿童思维训练",
        "author": "装修还是找老朱",
        "thumbnail": "https://p9-sign.douyinpic.com/tos-cn-p-0015/oUrAObXSdgy9nX0ABRBDAxBCfAieQDpwl72GEU~tplv-dy-360p.jpeg?x-expires=1706493600&x-signature=JHEAZTHTqJ22%2Fra2esMTzWdeikc%3D&from=3213915784&s=PackSourceEnum_FEED&se=false&sc=origin_cover&biz_tag=aweme_video&l=021705285975235fdbddc02002a00040000000000000028bcf099",
        "videoPlayUrl": "https://api-hl.amemv.com/aweme/v1/play/?video_id=v0200fg10000cm4nrcbc77u0hm12ttjg&line=1&file_id=8545fbda784846a895daa2ca15cf0915&sign=38f7c17ef61eea7159fbef0338a803e1&is_play_url=1&source=PackSourceEnum_FEED"
    },
    {
        "file_hash": "4f936e953f31861b14df7195842f5af5",
        "create_time": 1704869833,
        "title": "女子服装店“0元购”被发现，老板娘当场给了两耳光#监控下的一幕 （lkx)",
        "author": "临沂市广播电视台",
        "thumbnail": "https://p6-sign.douyinpic.com/tos-cn-p-0015/oo8B2bHeFAr7nIdQDrDDAACaPBPeQ5w6LZeCZM~tplv-dy-360p.jpeg?x-expires=1706493600&x-signature=jO%2BY4s52Req6otCSSFkiqg1BcdA%3D&from=3213915784&s=PackSourceEnum_FEED&se=false&sc=origin_cover&biz_tag=aweme_video&l=021705286039889fdbddc02002a00040000000000000028eb2700",
        "videoPlayUrl": "https://api-hl.amemv.com/aweme/v1/play/?video_id=v0d00fg10000cmf3v03c77u1gnam5ctg&line=1&file_id=4ec2c4f4d2624b3ea2bacef58407c146&sign=4f936e953f31861b14df7195842f5af5&is_play_url=1&source=PackSourceEnum_FEED"
    }
]