[
    {
        "file_hash": "8b8c3f53c84b764ab3077f405061b9fc",
        "create_time": 1702902267,
        "title": "日本将于2024年2月进行第四轮核污染水排海，此前三轮已排放23410吨！",
        "author": "长江日报",
        "thumbnail": "https://p11-sign.douyinpic.com/tos-cn-p-0015/oMblBy98A8ngMAADxc8nOQtfAewIAgB5DJCCDA~tplv-dy-360p.jpeg?x-expires=1706511600&x-signature=RziWWqiXCF%2Fw7F8TVfVR9N2w%2Fdo%3D&from=3213915784&s=PackSourceEnum_FEED&se=false&sc=origin_cover&biz_tag=aweme_video&l=021705302674280fdbddc0200ff0500c005a4187ae3cb7f3bec76",
        "videoPlayUrl": "https://api-hl.amemv.com/aweme/v1/play/?video_id=v0200fg10000cm03jjjc77ue8cgcp2fg&line=1&file_id=ab0eb159e9fb41bc90319819887a0a01&sign=8b8c3f53c84b764ab3077f405061b9fc&is_play_url=1&source=PackSourceEnum_FEED"
    },
    {
        "file_hash": "922bfaab14949c89c539f5867690e07a",
        "create_time": 1704257747,
        "title": "这乐宝都不让别人抱的，没想到舅舅抱舅很亲，都不要我了😂",
        "author": "三千金成长记",
        "thumbnail": "https://p11-sign.douyinpic.com/tos-cn-p-0015/oMzUUNqMIB1yXIhmNte6AWGAcQuRngyhDHApfy~tplv-dy-360p.jpeg?x-expires=1706511600&x-signature=lvUIb3GcMvXhAlxBMuSzA5OexuU%3D&from=3213915784&s=PackSourceEnum_FEED&se=false&sc=origin_cover&biz_tag=aweme_video&l=021705302390004fdbddc0200ff0500c005a4187ae3cb7fafec38",
        "videoPlayUrl": "https://api-hl.amemv.com/aweme/v1/play/?video_id=v0d00fg10000cmaeg6bc77u63oavbi8g&line=1&file_id=c6c47415517346d886acc5f7fac3f9d9&sign=922bfaab14949c89c539f5867690e07a&is_play_url=1&source=PackSourceEnum_FEED"
    },
    {
        "file_hash": "b0be77fc763278f1d7a5bce74aef8f78",
        "create_time": 1705057706,
        "title": "近日，“鄂伦春族小伙送小女孩珍贵狍角帽”一事温暖全网。提到为什么要送给女孩帽子时，小伙说：“她坚定的眼神让我觉得是值得托付的。”#鄂伦春族小伙送女孩珍贵狍角帽后续",
        "author": "新华网",
        "thumbnail": "https://p26-sign.douyinpic.com/tos-cn-p-0015/o0uneBleRATBZSzhIBGaDbk3CHoPlIAr0AC9gO~tplv-dy-360p.jpeg?x-expires=1706511600&x-signature=bLyBEV9rERKquRuaEPTwX8WEI4g%3D&from=3213915784&s=PackSourceEnum_FEED&se=false&sc=origin_cover&biz_tag=aweme_video&l=021705302466888fdbddc0200ff05001ce38fdad3b7b5fd96a154",
        "videoPlayUrl": "https://api-hl.amemv.com/aweme/v1/play/?video_id=v0200fg10000cmghptrc77u9vask4pi0&line=1&file_id=83540b18e4794da29b81e38d3ac2c0b8&sign=b0be77fc763278f1d7a5bce74aef8f78&is_play_url=1&source=PackSourceEnum_FEED"
    },
    {
        "file_hash": "8f220dc12bd781fd1e1db821e7f7fb51",
        "create_time": 1704787392,
        "title": "人类首次商业化太空葬启航，国内一公司太空葬停止线上服务",
        "author": "极目新闻",
        "thumbnail": "https://p3-sign.douyinpic.com/tos-cn-p-0015/oUcAAnkC1QAPINKvRwf25bEMAgDdzBnclQc9ae~tplv-dy-360p.jpeg?x-expires=1706511600&x-signature=%2F%2BZrut%2Bnjz%2FArK0VSZEzv0GuJNo%3D&from=3213915784&s=PackSourceEnum_FEED&se=false&sc=origin_cover&biz_tag=aweme_video&l=021705302622304fdbddc0200ff0500c005a4187ae3cb7fa6f74e",
        "videoPlayUrl": "https://api-hl.amemv.com/aweme/v1/play/?video_id=v0200fg10000cmefr93c77uesttoh400&line=1&file_id=411b9098f9564529bbbdcc14d9ebda3b&sign=8f220dc12bd781fd1e1db821e7f7fb51&is_play_url=1&source=PackSourceEnum_FEED"
    },
    {
        "file_hash": "db85a990267907c9bf859fac042c85ea",
        "create_time": 1704968723,
        "title": "我是被小艾暖到了，毫不犹豫！但是小艾外教老师挺纠结该不该收哈哈哈  #梵诗笛 #日常vlog #努尔Emily",
        "author": "努尔Emily",
        "thumbnail": "https://p26-sign.douyinpic.com/tos-cn-p-0015/oYGwhDXqlkAohtFfBHeDgFnqAnA9taLQQtbvD8~tplv-dy-360p.jpeg?x-expires=1706511600&x-signature=UwjjEVMGEtn9qr0gvdSyz%2BVtvsw%3D&from=3213915784&s=PackSourceEnum_FEED&se=false&sc=origin_cover&biz_tag=aweme_video&l=02170530261530500000000000000000000ffff0a9f93d3799ca8",
        "videoPlayUrl": "https://api-hl.amemv.com/aweme/v1/play/?video_id=v0300fg10000cmfs2qjc77u3r8obfmqg&line=1&file_id=ab2560c81fbe410189628127818dfa64&sign=db85a990267907c9bf859fac042c85ea&is_play_url=1&source=PackSourceEnum_FEED"
    },
    {
        "file_hash": "ed8ee65336a5baf01d3710179fe2037e",
        "create_time": 1703248725,
        "title": "#歌曲时光的脚步#回望2023专属bgm 女儿偷偷做手术瞒着不敢告诉，怕妈妈担心，手术后妈妈看到病床上的女儿瞬间心疼的红了眼",
        "author": "青岛焦点",
        "thumbnail": "https://p26-sign.douyinpic.com/tos-cn-p-0015/oIOAgDdC9MfIlAgbFAShuY16eOCnAB8HNidABL~tplv-dy-360p.jpeg?x-expires=1706511600&x-signature=ZSxh6zFnIq73Wqmrw7mhaiVmCoI%3D&from=3213915784&s=PackSourceEnum_FEED&se=false&sc=origin_cover&biz_tag=aweme_video&l=021705302460844fdbddc0200ff0500c005a4187ae3cb7f52206e",
        "videoPlayUrl": "https://api-hl.amemv.com/aweme/v1/play/?video_id=v0d00fg10000cm2o61rc77u7cbrsme90&line=1&file_id=9abd870a9f4642229fe5e5c9f3ccb909&sign=ed8ee65336a5baf01d3710179fe2037e&is_play_url=1&source=PackSourceEnum_FEED"
    },
    {
        "file_hash": "25a6f40e93ba63c4d6492b44efc5aaa4",
        "create_time": 1704104303,
        "title": "冬钓鲫鱼，钓友们线组搭配的合理吗，线组搭配合理，鲫鱼鱼获更多。#鱼线主线推荐 #钓鱼主线推荐 #鲫鱼线组搭配 #冬钓鲫鱼 #小凤仙官方旗舰店",
        "author": "刚哥户外渔具",
        "thumbnail": "https://p3-sign.douyinpic.com/tos-cn-p-0015/o8JzfBjBUAJN4KhSIBoXhtPwNkyYyIAyRAkegi~tplv-dy-360p.jpeg?x-expires=1706511600&x-signature=2z7uGKoep1NZjFVyMO%2B8%2F7TJlo4%3D&from=3213915784&s=PackSourceEnum_FEED&se=false&sc=origin_cover&biz_tag=aweme_video&l=021705302549463fdbddc0200ff0500bc273f266bb75326e11220",
        "videoPlayUrl": "https://api-hl.amemv.com/aweme/v1/play/?video_id=v0d00fg10000cm991obc77u90ske9o7g&line=1&file_id=f76330cb6bd94486819783548a286248&sign=25a6f40e93ba63c4d6492b44efc5aaa4&is_play_url=1&source=PackSourceEnum_FEED"
    },
    {
        "file_hash": "10e5f45986f390578543880669ba98ad",
        "create_time": 1704785535,
        "title": "每天跟弟弟滴这个真的感觉是在碰运气 #养娃日常",
        "author": "车蜀黍的碎碎念",
        "thumbnail": "https://p9-sign.douyinpic.com/tos-cn-p-0015/occQCEuAeIVAoCTtEaIBhszyoDHfhAbnBgds9z~tplv-dy-360p.jpeg?x-expires=1706511600&x-signature=5uhc0s7D1e8OkzNQVJOwWy%2Bps58%3D&from=3213915784&s=PackSourceEnum_FEED&se=false&sc=origin_cover&biz_tag=aweme_video&l=021705302622304fdbddc0200ff0500c005a4187ae3cb7fa6f74e",
        "videoPlayUrl": "https://api-hl.amemv.com/aweme/v1/play/?video_id=v0200fg10000cmefcdrc77u4aodh023g&line=1&file_id=59eb9f6934fc40ccb3c0523eb5be3c92&sign=10e5f45986f390578543880669ba98ad&is_play_url=1&source=PackSourceEnum_FEED"
    },
    {
        "file_hash": "fddb201d53064981b456a7a1aa68a66c",
        "create_time": 1703862404,
        "title": "其实想要的真的不多，家人的微笑爱人暖心窝，就算再苦再累也值得#大大的城市小小的我 #音乐",
        "author": "好听音乐🎶",
        "thumbnail": "https://p26-sign.douyinpic.com/tos-cn-p-0015/oQAp49QgNpAeYDu4eZ9KBjbOSBnUAB5QtCIlEO~tplv-dy-360p.jpeg?x-expires=1706511600&x-signature=PT3m5q2KqQtqcpAHCuImyRQt9wk%3D&from=3213915784&s=PackSourceEnum_FEED&se=false&sc=origin_cover&biz_tag=aweme_video&l=021705302414450fdbddc0200ff0500c005a4187ae3cb7f2fbaaa",
        "videoPlayUrl": "https://api-hl.amemv.com/aweme/v1/play/?video_id=v0d00fg10000cm7e0vbc77u0h1qjd560&line=1&file_id=d6df03742b084414b49e3c275e5e1558&sign=fddb201d53064981b456a7a1aa68a66c&is_play_url=1&source=PackSourceEnum_FEED"
    }
]