[
    {
        "file_hash": "945ac71b13b8b289140468df3185b6fc",
        "create_time": 1703502000,
        "title": "你们的男朋友有给你们生可爱耶耶吗#萌宠出道计划 #狗狗 #萨摩耶 #没人拒绝得了小狗狗",
        "author": "汇娱",
        "thumbnail": "https://p3-sign.douyinpic.com/tos-cn-p-0015/ocA9YNlARfOa0muSnAQKdie0d1BBdgbUDLAcxN~tplv-dy-360p.jpeg?x-expires=1706511600&x-signature=h55TZ0sZmeQevsXmHiOWzNNV2V0%3D&from=3213915784&s=PackSourceEnum_FEED&se=false&sc=origin_cover&biz_tag=aweme_video&l=021705302579810fdbddc02002805380000000000000025eb9c2d",
        "videoPlayUrl": "https://api-hl.amemv.com/aweme/v1/play/?video_id=v0d00fg10000cm4hc9jc77ua6m5qaerg&line=1&file_id=a29e10bc32534963b7bc1dd9cc4c7673&sign=945ac71b13b8b289140468df3185b6fc&is_play_url=1&source=PackSourceEnum_FEED"
    },
    {
        "file_hash": "a328dfdacd06f59e64cfbae7c8296fd1",
        "create_time": 1704597607,
        "title": "德国Z世代：中国的导航软件让你永不迷路！ Thumbs up for Chinese navigation software!",
        "author": "Z世代说",
        "thumbnail": "https://p6-sign.douyinpic.com/tos-cn-p-0015/oIzgIClXqnAGGLxnGhebA9lBaABgHB5mIebZaD~tplv-dy-360p.jpeg?x-expires=1706511600&x-signature=kC9H3xzbleLtaJHXxxs8Zc1%2BKqg%3D&from=3213915784&s=PackSourceEnum_FEED&se=false&sc=origin_cover&biz_tag=aweme_video&l=021705302368277fdbddc0200ff0500ffda2b6d084330e2cf1e83",
        "videoPlayUrl": "https://api-hl.amemv.com/aweme/v1/play/?video_id=v0200fg10000cmd1gajc77udlpfo27ig&line=1&file_id=a043f98b40ad4fa4bbd0e39489b58d26&sign=a328dfdacd06f59e64cfbae7c8296fd1&is_play_url=1&source=PackSourceEnum_FEED"
    },
    {
        "file_hash": "34cffcb864dded399e9f3b31f202fec3",
        "create_time": 1703553886,
        "title": "#鹤壁 #鹿台阁 朝歌风华项目灯光秀将在2023年12月31日和2024年1月1日晚上七点进行表演！敬请期待！#无限鹤壁 #河南dou知道 #元旦",
        "author": "无限鹤壁",
        "thumbnail": "https://p9-sign.douyinpic.com/tos-cn-p-0015/ok5KkIWhipe0BAAIGBfyAKSzgINSTAH2NRxAQM~tplv-dy-360p.jpeg?x-expires=1706511600&x-signature=JXOfFjLOvWG0Tgfdo17%2FNjUazrU%3D&from=3213915784&s=PackSourceEnum_FEED&se=false&sc=origin_cover&biz_tag=aweme_video&l=021705302443356fdbddc02002805380000000000000025bf65e9",
        "videoPlayUrl": "https://api-hl.amemv.com/aweme/v1/play/?video_id=v0d00fg10000cm52mi3c77uc4aeh1p40&line=1&file_id=c3281406256341e28c2d58a919d1b50c&sign=34cffcb864dded399e9f3b31f202fec3&is_play_url=1&source=PackSourceEnum_FEED"
    },
    {
        "file_hash": "dc1f48d81b5477ffc571c0e37d6cbf53",
        "create_time": 1704117410,
        "title": "2024年第一天，团子这损爹干的都是啥事啊，我到底要不要告诉团子爷爷，团子太奶啊……#萌娃日常 #坑娃的爹 #2024年第一个洋相",
        "author": "菜团子",
        "thumbnail": "https://p6-sign.douyinpic.com/tos-cn-p-0015/oMnyS2I8HAHKCeQ9gIfNyxCzJNl9DKWhAABuSI~tplv-dy-360p.jpeg?x-expires=1706511600&x-signature=IZvv7h4w44IaWC1M7UDpi%2FO4sYo%3D&from=3213915784&s=PackSourceEnum_FEED&se=false&sc=origin_cover&biz_tag=aweme_video&l=021705302403558fdbddc02002805380000000000000025f4cae3",
        "videoPlayUrl": "https://api-hl.amemv.com/aweme/v1/play/?video_id=v0200fg10000cm9c84jc77uajpfg7t6g&line=1&file_id=053efa97e66241f9bb7a53f6efc6d3b3&sign=dc1f48d81b5477ffc571c0e37d6cbf53&is_play_url=1&source=PackSourceEnum_FEED"
    },
    {
        "file_hash": "5c07ca738b8070d33df05283cc6dcfb5",
        "create_time": 1703076056,
        "title": "#创作灵感 周五演出实录💯这种欢乐的现场氛围很难不爱‼️主唱的选歌超上头🤣#民谣酒馆 #南宁探店 #livehouse音乐现场 #一镜到底",
        "author": "跳南湖-胜大利",
        "thumbnail": "https://p6-sign.douyinpic.com/tos-cn-p-0015/oQZfBbQhnA0le6kATFDwtnQbgBNAPGlgMV9a6A~tplv-dy-360p.jpeg?x-expires=1706511600&x-signature=BtGsMcDzAtxcGrBz9N0TQkm%2ByiQ%3D&from=3213915784&s=PackSourceEnum_FEED&se=false&sc=origin_cover&biz_tag=aweme_video&l=02170530247441800000000000000000000ffff0a913566e63f76",
        "videoPlayUrl": "https://api-hl.amemv.com/aweme/v1/play/?video_id=v0d00fg10000cm1dt4rc77u63s69581g&line=1&file_id=34337f83c2ab44b4b6806e424f2b47a5&sign=5c07ca738b8070d33df05283cc6dcfb5&is_play_url=1&source=PackSourceEnum_FEED"
    },
    {
        "file_hash": "dcb4720122566536c4b76c6a3e0862f6",
        "create_time": 1704368550,
        "title": "河南一学校被指学费高伙食差，全是素菜馒头还馊了。内黄县教育局工作人员称，食堂的食物已留样，具体情况正在进一步调查中。",
        "author": "长江云说法",
        "thumbnail": "https://p26-sign.douyinpic.com/tos-cn-p-0015/ogRp1ggtCD0F6pilAUCfQMQtbmA8uBACRnQ9le~tplv-dy-360p.jpeg?x-expires=1706511600&x-signature=vzcwc4PdhKkqzDmCWRNiilU7i1k%3D&from=3213915784&s=PackSourceEnum_FEED&se=false&sc=origin_cover&biz_tag=aweme_video&l=021705302632792fdbddc02002805380000000000000025d86531",
        "videoPlayUrl": "https://api-hl.amemv.com/aweme/v1/play/?video_id=v0200fg10000cmb9j4bc77u8ek8508l0&line=1&file_id=718fa43513aa472c889d7d1c97d6fc66&sign=dcb4720122566536c4b76c6a3e0862f6&is_play_url=1&source=PackSourceEnum_FEED"
    },
    {
        "file_hash": "22f2a889c6f3321df6a635fcedc8e9a6",
        "create_time": 1704166072,
        "title": "韩媒称嫌疑人假扮支持者接近李在明，用约20厘米长刀攻击其颈部 #李在明 #韩国",
        "author": "四川日报",
        "thumbnail": "https://p11-sign.douyinpic.com/tos-cn-p-0015/oQ0Rgcn9zIarYTMEApfBNme0xBNoyVAIhkgLAy~tplv-dy-360p.jpeg?x-expires=1706511600&x-signature=g73d7Vmp3nEQfk81Jv5SxEmGHKk%3D&from=3213915784&s=PackSourceEnum_FEED&se=false&sc=origin_cover&biz_tag=aweme_video&l=021705302550330fdbddc02002805380000000000000025825f0d",
        "videoPlayUrl": "https://api-hl.amemv.com/aweme/v1/play/?video_id=v0d00fg10000cm9o4q3c77ucuiq6jhc0&line=1&file_id=9b7b0a08eefe48d8865a5e14b52e74de&sign=22f2a889c6f3321df6a635fcedc8e9a6&is_play_url=1&source=PackSourceEnum_FEED"
    },
    {
        "file_hash": "311d227e8335a9d5d4c127fb048bfc24",
        "create_time": 1704001500,
        "title": "2023年，撒贝宁陪伴我们感受了中国文化有多美！ 期待2024年，能感受更多中国美！#跨过2023  #必燃计划 #非遗里的中国",
        "author": "央视一套",
        "thumbnail": "https://p9-sign.douyinpic.com/tos-cn-p-0015/oEAAZOfylIzqwOAAGtVgtrhyyQIqe6EAN67H4B~tplv-dy-360p.jpeg?x-expires=1706511600&x-signature=lGaUDrowYaZqAEDxrUsdqYoGiSM%3D&from=3213915784&s=PackSourceEnum_FEED&se=false&sc=origin_cover&biz_tag=aweme_video&l=021705302409926fdbddc0200ff0500aed06d9cb392fb8e2a3f7e",
        "videoPlayUrl": "https://api-hl.amemv.com/aweme/v1/play/?video_id=v0d00fg10000cm8e6obc77uepaohj5mg&line=1&file_id=369125a038fe4a14a67ae8ff11421f39&sign=311d227e8335a9d5d4c127fb048bfc24&is_play_url=1&source=PackSourceEnum_FEED"
    },
    {
        "file_hash": "9c1fd4e43eec56c29f2bfadd2d09bed9",
        "create_time": 1704546814,
        "title": "#2024你往前走#你往前走不要回头 大家都充满着正义感和责任感，给予了女孩足够的安全感！",
        "author": "YK大辽河",
        "thumbnail": "https://p9-sign.douyinpic.com/tos-cn-p-0015/o0AKZyKBMvjhAtfeg3IBQBACCUgtL5GZ8qzIgz~tplv-dy-360p.jpeg?x-expires=1706511600&x-signature=kJAoKafxhlWMqaslTuErGY5PfmA%3D&from=3213915784&s=PackSourceEnum_FEED&se=false&sc=origin_cover&biz_tag=aweme_video&l=021705302626802fdbddc02002805380000000000000025cbffe9",
        "videoPlayUrl": "https://api-hl.amemv.com/aweme/v1/play/?video_id=v0200fg10000cmcl3src77u662gavn5g&line=1&file_id=7e32e5271b1f4f4f86fa45598a00ea5f&sign=9c1fd4e43eec56c29f2bfadd2d09bed9&is_play_url=1&source=PackSourceEnum_FEED"
    }
]