[
    {
        "file_hash": "75f36d1a827754b94c11c28a290010d7",
        "create_time": 1704279267,
        "title": "#民间故事 #听人间故事品百味人生 #好故事分享 #民间故事大全完整版 #关注我每天分享不同的故事",
        "author": "聆听民间故事（收徒）",
        "thumbnail": "https://p26-sign.douyinpic.com/tos-cn-p-0015/okIVLyglbAQqJyi7Dn9loPBaPDADeAePrT1QBH~tplv-dy-360p.jpeg?x-expires=1706511600&x-signature=spedeZubQIw5HN7ZgI8c1Ii4G3c%3D&from=3213915784&s=PackSourceEnum_FEED&se=false&sc=origin_cover&biz_tag=aweme_video&l=021705302374572fdbddc0200ff0500c7d782ca0c1ec128780ab4",
        "videoPlayUrl": "https://api-hl.amemv.com/aweme/v1/play/?video_id=v0300fg10000cmajp2rc77u3qt0gfp6g&line=1&file_id=2f747c0458fc4f54983463cc9d965948&sign=75f36d1a827754b94c11c28a290010d7&is_play_url=1&source=PackSourceEnum_FEED"
    },
    {
        "file_hash": "be3af5e3c463532def3c778d2958c5b7",
        "create_time": 1703159410,
        "title": "太专业了！荣耀平板9，千元平板护眼新标杆 #荣耀平板 9#平板推荐#平板电脑",
        "author": "老实人廖同学",
        "thumbnail": "https://p6-sign.douyinpic.com/tos-cn-p-0015/o80gDQgAnKZ0oBW5gDbbAFD6VeBEvlAAFH49eF~tplv-dy-360p.jpeg?x-expires=1706511600&x-signature=oRUyVlVLWf5GuIyj0hK4po8R75w%3D&from=3213915784&s=PackSourceEnum_FEED&se=false&sc=origin_cover&biz_tag=aweme_video&l=021705302481378fdbddc0200ff050027329a669929baf6ceced9",
        "videoPlayUrl": "https://api-hl.amemv.com/aweme/v1/play/?video_id=v0300fg10000cm18q83c77u3g8gklsu0&line=1&file_id=0eb1a126cddc4e91a219d7eadbeedec0&sign=be3af5e3c463532def3c778d2958c5b7&is_play_url=1&source=PackSourceEnum_FEED"
    },
    {
        "file_hash": "76a9c4c014f42e107971ac105bb72ea2",
        "create_time": 1704712602,
        "title": "广东队第四节能够奋起直追小将黄明依功不可没#黄明依",
        "author": "我来自揭阳",
        "thumbnail": "https://p3-sign.douyinpic.com/tos-cn-p-0015/oc1bZZgmtAItTyCWBz9lzZBB2hADfAQ2teLIjL~tplv-dy-360p.jpeg?x-expires=1706511600&x-signature=dJ%2BinZEymZxMctSsExS4eiTy1og%3D&from=3213915784&s=PackSourceEnum_FEED&se=false&sc=origin_cover&biz_tag=aweme_video&l=021705302690300fdbddc0200ff050027329a669929baf6217091",
        "videoPlayUrl": "https://api-hl.amemv.com/aweme/v1/play/?video_id=v0300fg10000cmdticrc77ubmsuncp0g&line=1&file_id=c22c459e63114e6cb5019f5bdfa4d933&sign=76a9c4c014f42e107971ac105bb72ea2&is_play_url=1&source=PackSourceEnum_FEED"
    },
    {
        "file_hash": "e7b68b85eae4666be14f540a41baf1fb",
        "create_time": 1703510951,
        "title": "#零基础学格斗 #格斗世界 #播求#苏波邦#泰国泰拳",
        "author": "one冠军赛1月28号苏波克VS武尊",
        "thumbnail": "https://p6-sign.douyinpic.com/tos-cn-p-0015/oE6M4zxzAANFxVBAMAghvdGUgIqegWfJyJBk9N~tplv-dy-360p.jpeg?x-expires=1706511600&x-signature=Itr8OuQYQGwYwR0CJeOB%2FeD3AiU%3D&from=3213915784&s=PackSourceEnum_FEED&se=false&sc=origin_cover&biz_tag=aweme_video&l=021705302443537fdbddc0200ff05004b3325c82d4e0598d56106",
        "videoPlayUrl": "https://api-hl.amemv.com/aweme/v1/play/?video_id=v0d00fg10000cm4o62jc77ucop15qlug&line=1&file_id=73f1d000f0904606bfcd0051e6c438e2&sign=e7b68b85eae4666be14f540a41baf1fb&is_play_url=1&source=PackSourceEnum_FEED"
    },
    {
        "file_hash": "6bd6aff69d9a3ccc5f020bd256e719ab",
        "create_time": 1703856969,
        "title": "东北情侣搞笑健身动作，带你找回童年乐趣#搞笑#情侣日常",
        "author": "浪漫情侣健身",
        "thumbnail": "https://p26-sign.douyinpic.com/tos-cn-p-0015/ooUy0BXmyaAhnNCOBGfhgVzsAxAeQoyIIdNXN2~tplv-dy-360p.jpeg?x-expires=1706511600&x-signature=s8SCzsZgGrBTi%2FgugoI81fkUjxw%3D&from=3213915784&s=PackSourceEnum_FEED&se=false&sc=origin_cover&biz_tag=aweme_video&l=02170530241611400000000000000000000ffff0a18680bd1dbf4",
        "videoPlayUrl": "https://api-hl.amemv.com/aweme/v1/play/?video_id=v0d00fg10000cm7clm3c77u6el09edj0&line=1&file_id=f87fe4a64ece4a658e6119a2459437a7&sign=6bd6aff69d9a3ccc5f020bd256e719ab&is_play_url=1&source=PackSourceEnum_FEED"
    },
    {
        "file_hash": "46367755e5d629f0c88b4c23fea6ca86",
        "create_time": 1705134643,
        "title": "麻烦大家给我们取个小小名，不要带胖字的#晒出越养越上头的人类幼崽 #人类幼崽越养越上头 #给宝宝取名字 #林阿木木 #阿木木的成长记录",
        "author": "林阿木木",
        "thumbnail": "https://p9-sign.douyinpic.com/tos-cn-p-0015/o8blNx9GAWno4i2DZSeklIujAWL0IgBXkmBCfA~tplv-dy-360p.jpeg?x-expires=1706511600&x-signature=vJtynZGtmxfGD5OCMDmy7xsZ4HM%3D&from=3213915784&s=PackSourceEnum_FEED&se=false&sc=origin_cover&biz_tag=aweme_video&l=021705302332711fdbddc0200ff050027329a669929baf6b7fc89",
        "videoPlayUrl": "https://api-hl.amemv.com/aweme/v1/play/?video_id=v0200fg10000cmh4i9bc77ubvt7336b0&line=1&file_id=0e53b554e31c4b8eba2add17ccd1b25e&sign=46367755e5d629f0c88b4c23fea6ca86&is_play_url=1&source=PackSourceEnum_FEED"
    },
    {
        "file_hash": "d1387c92cc0e75fec9ce03004507d2d6",
        "create_time": 1703842200,
        "title": "你觉得像吗#泥塑定制 #手艺人 #铜像定制 ",
        "author": "泥塑大师(奇人匠心)",
        "thumbnail": "https://p11-sign.douyinpic.com/tos-cn-p-0015/ooI7PHArgFLIkpBfgC0k5a4LeGoByB2m7fAdWY~tplv-dy-360p.jpeg?x-expires=1706511600&x-signature=lF6065Yvo88DbDDsQCTSOFYN3H0%3D&from=3213915784&s=PackSourceEnum_FEED&se=false&sc=origin_cover&biz_tag=aweme_video&l=021705302432887fdbddc0200ff050027329a669929baf6cd2b43",
        "videoPlayUrl": "https://api-hl.amemv.com/aweme/v1/play/?video_id=v0d00fg10000cm6j5j3c77u7cbtbied0&line=1&file_id=36aee14b228845808cc4b8dda89930bd&sign=d1387c92cc0e75fec9ce03004507d2d6&is_play_url=1&source=PackSourceEnum_FEED"
    }
]