[
    {
        "file_hash": "814cc5ae7dd8764c6a931696a0419920",
        "create_time": 1704934406,
        "title": "美国众议院司法委员会判定拜登儿子藐视国会，并可能提出刑事指控@抖音小助手 （来源：环球网）",
        "author": "三沙卫视",
        "thumbnail": "https://p11-sign.douyinpic.com/tos-cn-p-0015/oEbergApOsTHgADeepG80HHnIkkgfgs8fUYAEE~tplv-dy-360p.jpeg?x-expires=1706511600&x-signature=fT2CQcUkIqmRLJOr2lLcHu1fHto%3D&from=3213915784&s=PackSourceEnum_FEED&se=false&sc=origin_cover&biz_tag=aweme_video&l=02170530232820900000000000000000000ffff0a92dc47df1cf7",
        "videoPlayUrl": "https://api-hl.amemv.com/aweme/v1/play/?video_id=v0300fg10000cmfjnvjc77u56h793840&line=1&file_id=feb25ae242c64d939620c9156aa7d2ff&sign=814cc5ae7dd8764c6a931696a0419920&is_play_url=1&source=PackSourceEnum_FEED"
    },
    {
        "file_hash": "ae7ab6ec18b3ecdd39c2ea75aec72bf3",
        "create_time": 1703576380,
        "title": "努力了一年又一年，我还是一个穷光蛋😂#改编歌曲#养膘容易挣钱难啊！#为了生活都不容易#转眼又已经快过年",
        "author": "@慧姐",
        "thumbnail": "https://p3-sign.douyinpic.com/tos-cn-p-0015/oEAZKeIgDOAfChng669kFiNwN2zNABaAtCzlqK~tplv-dy-360p.jpeg?x-expires=1706511600&x-signature=Bx1L%2Fg261Qn4dzCmy1a5kjvU94s%3D&from=3213915784&s=PackSourceEnum_FEED&se=false&sc=origin_cover&biz_tag=aweme_video&l=02170530257322900000000000000000000ffff0a19548f54ae49",
        "videoPlayUrl": "https://api-hl.amemv.com/aweme/v1/play/?video_id=v0300fg10000cm57rf3c77u5lc36r410&line=1&file_id=a04efe73db7b4718a60d0a68cc3aaef3&sign=ae7ab6ec18b3ecdd39c2ea75aec72bf3&is_play_url=1&source=PackSourceEnum_FEED"
    },
    {
        "file_hash": "4d89d4b2239fe58fe01e7f518445fc49",
        "create_time": 1704616200,
        "title": "“小砂糖橘”受到热情款待，一大桌的东北菜。",
        "author": "嗨普陀",
        "thumbnail": "https://p9-sign.douyinpic.com/tos-cn-p-0015/oYVfOAB6IheD2au4HtKuZINryY8rJzauzBhgAA~tplv-dy-360p.jpeg?x-expires=1706511600&x-signature=ur0f6qdMt6fdoxMlSiK4pvAHd2I%3D&from=3213915784&s=PackSourceEnum_FEED&se=false&sc=origin_cover&biz_tag=aweme_video&l=02170530269298400000000000000000000ffff0a19548fce13f9",
        "videoPlayUrl": "https://api-hl.amemv.com/aweme/v1/play/?video_id=v0300fg10000cmcqqsbc77uan2dfkl70&line=1&file_id=1cdbd06d640f49748c06de9dee623c1e&sign=4d89d4b2239fe58fe01e7f518445fc49&is_play_url=1&source=PackSourceEnum_FEED"
    },
    {
        "file_hash": "5f062eee0827343dd367a5513aa6b022",
        "create_time": 1703842039,
        "title": "“这就是‘快招公司’！”女子加盟“品牌”奶茶店，现问题加盟公司不管不顾。20年攒下的16万元“打水漂”（来源：@比尔盖南 ）#社会百态 #万万没想到 #神操作",
        "author": "金蝉视频",
        "thumbnail": "https://p9-sign.douyinpic.com/tos-cn-p-0015/oQgkPB4hliAdnWeOBU8DgBnHAjA90kFIIAbeNp~tplv-dy-360p.jpeg?x-expires=1706511600&x-signature=WMIbnEKpreKHYw7jLazv9fdgSXc%3D&from=3213915784&s=PackSourceEnum_FEED&se=false&sc=origin_cover&biz_tag=aweme_video&l=02170530241956000000000000000000000ffff0a19548ffe9660",
        "videoPlayUrl": "https://api-hl.amemv.com/aweme/v1/play/?video_id=v0d00fg10000cm790hrc77u5021tsmgg&line=1&file_id=c36c9f270d644899a9b1c4c192359be9&sign=5f062eee0827343dd367a5513aa6b022&is_play_url=1&source=PackSourceEnum_FEED"
    },
    {
        "file_hash": "de6dfcbcb6303bf1465a7d66fa4fb9f3",
        "create_time": 1703241508,
        "title": "江苏一女大学生被老鼠咬伤手反咬老鼠头报复",
        "author": "人民网江苏",
        "thumbnail": "https://p6-sign.douyinpic.com/tos-cn-p-0015/oYAiA9CeWAYr5OzTANgfPwyhINZwyjhBnBNDFA~tplv-dy-360p.jpeg?x-expires=1706511600&x-signature=kLGzCjy34Jl9t5s2ewX%2Fey%2BZJZ8%3D&from=3213915784&s=PackSourceEnum_FEED&se=false&sc=origin_cover&biz_tag=aweme_video&l=021705302586398fdbddc0200ff05002a218ff47157b78b138689",
        "videoPlayUrl": "https://api-hl.amemv.com/aweme/v1/play/?video_id=v0200fg10000cm2mdhjc77u3spu16fug&line=1&file_id=aab1e65812674ca1a82be977d1c0df99&sign=de6dfcbcb6303bf1465a7d66fa4fb9f3&is_play_url=1&source=PackSourceEnum_FEED"
    },
    {
        "file_hash": "f26dedd5c4ef16e7c6abe69fd223f015",
        "create_time": 1704346256,
        "title": "父亲做家务对孩子的影响",
        "author": "阿克苏好地方维语版",
        "thumbnail": "https://p3-sign.douyinpic.com/tos-cn-p-0015/owRMQloibAB5BcnHAp9WJqIgfe9HkliGpCDIAY~tplv-dy-360p.jpeg?x-expires=1706511600&x-signature=GfdPvY6pAZFrP5xk%2FzrSuH1rhbY%3D&from=3213915784&s=PackSourceEnum_FEED&se=false&sc=origin_cover&biz_tag=aweme_video&l=02170530269796200000000000000000000ffff0a19548f7e74f9",
        "videoPlayUrl": "https://api-hl.amemv.com/aweme/v1/play/?video_id=v0200fg10000cmb44hrc77u6ajjuihc0&line=1&file_id=ea139d102db64bfbba88b6e4a18c4970&sign=f26dedd5c4ef16e7c6abe69fd223f015&is_play_url=1&source=PackSourceEnum_FEED"
    },
    {
        "file_hash": "fbddf792e7198100542cde7f5778dd23",
        "create_time": 1703055275,
        "title": "梦回总决赛，熟悉的对手，熟悉的三分，奈特奈特#库里 #金州勇士 #勇士加时胜绿军",
        "author": "库里专区🏀",
        "thumbnail": "https://p11-sign.douyinpic.com/tos-cn-p-0015/okADC8vT8gD6njva9b6Bo2AigDDJAe6AzlweQ6~tplv-dy-360p.jpeg?x-expires=1706511600&x-signature=y%2BX3cbym0gFxxBIlQR81RkEVJSM%3D&from=3213915784&s=PackSourceEnum_FEED&se=false&sc=origin_cover&biz_tag=aweme_video&l=02170530247727700000000000000000000ffff0a19548f8f5dbe",
        "videoPlayUrl": "https://api-hl.amemv.com/aweme/v1/play/?video_id=v0300fg10000cm18u4rc77u8gfltfpug&line=1&file_id=3eba53e044ff48d895000310be518650&sign=fbddf792e7198100542cde7f5778dd23&is_play_url=1&source=PackSourceEnum_FEED"
    }
]