[
    {
        "file_hash": "6ebbfbfa7070dfdbea2a804124a27a6c",
        "create_time": 1704112756,
        "title": "你家宝宝喜欢听什么才会笑？#育儿经验分享 #超级奶爸已上线 #人类幼崽越养越上头 #育婴知识",
        "author": "宝妈米猜猜",
        "thumbnail": "https://p26-sign.douyinpic.com/tos-cn-p-0015/oUkQBvUkDeAGoJCAQ7FnGeEsWgZnSGLleBabCO~tplv-dy-360p.jpeg?x-expires=1706511600&x-signature=FiQwJnbYGl6l7ZPSbuuqBEGrCHA%3D&from=3213915784&s=PackSourceEnum_FEED&se=false&sc=origin_cover&biz_tag=aweme_video&l=02170530203093100000000000000000000ffff0a1a2b98f2a902",
        "videoPlayUrl": "https://api-hl.amemv.com/aweme/v1/play/?video_id=v0300fg10000cm9b4njc77u31j89cg90&line=1&file_id=0a36c22f443e4647aefd5170b3389460&sign=6ebbfbfa7070dfdbea2a804124a27a6c&is_play_url=1&source=PackSourceEnum_FEED"
    },
    {
        "file_hash": "2617d819561de71b52363119fd96b6f1",
        "create_time": 1704340151,
        "title": "当台湾同胞来到哈尔滨，哈尔滨的热情，“把兜给装满！”",
        "author": "封面新闻",
        "thumbnail": "https://p26-sign.douyinpic.com/tos-cn-p-0015/oEjrWA3SxNBhuhIyqyftABgOIKxzVAI2eqzBAR~tplv-dy-360p.jpeg?x-expires=1706508000&x-signature=yEISEpHf12uCG6WwPzzTK1MiPsY%3D&from=3213915784&s=PackSourceEnum_FEED&se=false&sc=origin_cover&biz_tag=aweme_video&l=02170530197256600000000000000000000ffff0aa921ff8e57c4",
        "videoPlayUrl": "https://api-hl.amemv.com/aweme/v1/play/?video_id=v0d00fg10000cmb2l8rc77u1r8tre800&line=1&file_id=a305f6affcd24abdb209c927521cdf14&sign=2617d819561de71b52363119fd96b6f1&is_play_url=1&source=PackSourceEnum_FEED"
    },
    {
        "file_hash": "9a0df8568aea3a47cbfbaf35156b451b",
        "create_time": 1704947863,
        "title": "1月11日，广西南宁。蔓越莓鲜果抵达南宁，正式开箱啦！#广西dou知道 #双向奔赴 #蔓越莓",
        "author": "新闻夜班",
        "thumbnail": "https://p3-sign.douyinpic.com/tos-cn-p-0015/oIbMfhkAADBDoKgdn7n0ClQJnQEBNc9V38eAkS~tplv-dy-360p.jpeg?x-expires=1706508000&x-signature=rgyyqLnjaeeTk2iFCmVnLgeFeDE%3D&from=3213915784&s=PackSourceEnum_FEED&se=false&sc=origin_cover&biz_tag=aweme_video&l=02170530196279100000000000000000000ffff0a1a2b988b3c2e",
        "videoPlayUrl": "https://api-hl.amemv.com/aweme/v1/play/?video_id=v0200fg10000cmfn0p3c77u9rl4c5d7g&line=1&file_id=553752242e5c49b99ec5ea3ddb36e648&sign=9a0df8568aea3a47cbfbaf35156b451b&is_play_url=1&source=PackSourceEnum_FEED"
    },
    {
        "file_hash": "5761afe3eaa029b6e7a31846de3ab7b7",
        "create_time": 1703411940,
        "title": "花鼓子继续#真人真唱 #唱出自己的风格才会如此与众不同 #老歌越听越有味 #民间小调我要上热门 @",
        "author": "林幺妹（收徒中）",
        "thumbnail": "https://p11-sign.douyinpic.com/tos-cn-p-0015/ow0EHWjA8fePf0fME2M2cu26DqC5QAHWAQIAy7~tplv-dy-360p.jpeg?x-expires=1706511600&x-signature=3wisDZR1z2%2BkvB3etHevmGVUShg%3D&from=3213915784&s=PackSourceEnum_FEED&se=false&sc=origin_cover&biz_tag=aweme_video&l=02170530208894500000000000000000000ffff0a1a2b9813d58c",
        "videoPlayUrl": "https://api-hl.amemv.com/aweme/v1/play/?video_id=v0d00fg10000cm3vulrc77ufui7til20&line=1&file_id=24c67f35de1e4876a88573788e6570c6&sign=5761afe3eaa029b6e7a31846de3ab7b7&is_play_url=1&source=PackSourceEnum_FEED"
    },
    {
        "file_hash": "a976c03daa695fc98a9f02e85d363683",
        "create_time": 1704633951,
        "title": "1月7日，黑龙江，当贵州“小茅台”遇到东北糖葫芦。糖葫芦：你咬好几口，我才受了皮外伤！#贵州小茅台勇闯哈尔滨",
        "author": "维度新闻",
        "thumbnail": "https://p6-sign.douyinpic.com/tos-cn-p-0015/oAga9qi1lQDsAVAfpBm8UeZDQFnC4HADEgbqmH~tplv-dy-360p.jpeg?x-expires=1706511600&x-signature=WqXttqzp2JGWUUD6as%2Fmfq8Jobs%3D&from=3213915784&s=PackSourceEnum_FEED&se=false&sc=origin_cover&biz_tag=aweme_video&l=02170530216687500000000000000000000ffff0a1a2b98d6d16f",
        "videoPlayUrl": "https://api-hl.amemv.com/aweme/v1/play/?video_id=v0300fg10000cmdach3c77ufu0sa3g8g&line=1&file_id=2863ead739744420b71cc701e3ae5319&sign=a976c03daa695fc98a9f02e85d363683&is_play_url=1&source=PackSourceEnum_FEED"
    },
    {
        "file_hash": "1fece1a9fee0a57a208197d3231ad425",
        "create_time": 1704715213,
        "title": "#如此可爱的我们 谁都不许喜欢你，除了我  #田曦薇  #李明德",
        "author": "桃厂满分恋爱",
        "thumbnail": "https://p3-sign.douyinpic.com/tos-cn-p-0015/o0R245eUA9w2HPfsQg4CGen3eAHDbW3MACEbQE~tplv-dy-360p.jpeg?x-expires=1706511600&x-signature=w%2FwY6vzdCvwvls3%2BSR3rAwEU%2FK0%3D&from=3213915784&s=PackSourceEnum_FEED&se=false&sc=origin_cover&biz_tag=aweme_video&l=02170530235055700000000000000000000ffff0a1a2b98bbd23d",
        "videoPlayUrl": "https://api-hl.amemv.com/aweme/v1/play/?video_id=v0300fg10000cmdu7grc77ufvgjfgm80&line=1&file_id=575753b5617d44c1aa9754f48e6b0098&sign=1fece1a9fee0a57a208197d3231ad425&is_play_url=1&source=PackSourceEnum_FEED"
    },
    {
        "file_hash": "8fe8f080cb62d40172a4879a46dc7b4e",
        "create_time": 1703543400,
        "title": "三个动作养成一字肩 纤长手臂，告别拜拜肉#运动无处不在 #瘦手臂 #拜拜肉 #居家锻炼",
        "author": "安娜健身（早晚七点半直播）",
        "thumbnail": "https://p11-sign.douyinpic.com/tos-cn-p-0015/osOiDIAAnartUBTpgDbLAZBHEeyuTlAAcJf9RJ~tplv-dy-360p.jpeg?x-expires=1706511600&x-signature=y7u1BPkEugRtRQXg5CjmBEv1DVY%3D&from=3213915784&s=PackSourceEnum_FEED&se=false&sc=origin_cover&biz_tag=aweme_video&l=02170530222429200000000000000000000ffff0a1a2b987fbdc1",
        "videoPlayUrl": "https://api-hl.amemv.com/aweme/v1/play/?video_id=v0300fg10000cm4kmg3c77u4slpk4kvg&line=1&file_id=ef2f5ba04c134965b52be7445c962766&sign=8fe8f080cb62d40172a4879a46dc7b4e&is_play_url=1&source=PackSourceEnum_FEED"
    },
    {
        "file_hash": "cf2ed2facf336e6540e0191f3ae9216a",
        "create_time": 1703491270,
        "title": "频繁聊天会造成一种恋爱的假象",
        "author": "废物咯",
        "thumbnail": "https://p11-sign.douyinpic.com/tos-cn-p-0015/o4afEqi7eQigBNgBHLmAi1PJ4g2CACskeAtJgT~tplv-dy-360p.jpeg?x-expires=1706511600&x-signature=r%2BST4ZT1UUci77UKBCMYzd9DvlY%3D&from=3213915784&s=PackSourceEnum_FEED&se=false&sc=origin_cover&biz_tag=aweme_video&l=02170530208389500000000000000000000ffff0a1a2b982dc02a",
        "videoPlayUrl": "https://api-hl.amemv.com/aweme/v1/play/?video_id=v0d00fg10000cm4jdc3c77u1650gfvag&line=1&file_id=06fa130cdf94432da7e37b70fa5236ff&sign=cf2ed2facf336e6540e0191f3ae9216a&is_play_url=1&source=PackSourceEnum_FEED"
    },
    {
        "file_hash": "80db7deff5112f83780f84d27562221d",
        "create_time": 1703827933,
        "title": "成都人注意！晚高峰预计提前至14:30！拥堵将持续近6小时，今天你会提前下班吗？#本地新闻",
        "author": "四川交通广播",
        "thumbnail": "https://p11-sign.douyinpic.com/tos-cn-p-0015/oYemdPSljAuxAVmCDSelK9WBC8ObIUIOAjqgIn~tplv-dy-360p.jpeg?x-expires=1706511600&x-signature=QU5XSepRMunao9EKzx5ibH0MHCE%3D&from=3213915784&s=PackSourceEnum_FEED&se=false&sc=origin_cover&biz_tag=aweme_video&l=02170530220971800000000000000000000ffff0a1a2b9821d632",
        "videoPlayUrl": "https://api-hl.amemv.com/aweme/v1/play/?video_id=v0200fg10000cm75j9jc77u98vh32ll0&line=1&file_id=1950ed8cd7e64ec0a56d9947c0045cd8&sign=80db7deff5112f83780f84d27562221d&is_play_url=1&source=PackSourceEnum_FEED"
    }
]