[
    {
        "file_hash": "d965b41d3899b777cd9884ded5c3715c",
        "create_time": 1703488889,
        "title": "月底带毛毛去复查#好心态决定狗狗的一生",
        "author": "我是拉不拉金",
        "thumbnail": "https://p3-sign.douyinpic.com/tos-cn-p-0015/o8lBAgbnCQDx99lA7W4CEiHSSBvAfDyQeDNxAg~tplv-dy-360p.jpeg?x-expires=1706511600&x-signature=0ql1bHuVp250zW5BtempAETCHw0%3D&from=3213915784&s=PackSourceEnum_FEED&se=false&sc=origin_cover&biz_tag=aweme_video&l=02170530265888600000000000000000000ffff0a9f7dda3bfd87",
        "videoPlayUrl": "https://api-hl.amemv.com/aweme/v1/play/?video_id=v0200fg10000cm4ipcbc77u1uo61t3gg&line=1&file_id=33af30700ae74b809fe363bb58a62cf0&sign=d965b41d3899b777cd9884ded5c3715c&is_play_url=1&source=PackSourceEnum_FEED"
    },
    {
        "file_hash": "52bab8c371f0fac504fbbae0fd9ba487",
        "create_time": 1704690424,
        "title": "#老歌回顾",
        "author": "白云妹",
        "thumbnail": "https://p3-sign.douyinpic.com/tos-cn-p-0015/oocNCfzaeAAvNIaS0bhIoBBAgBigvGNjzyNhb6~tplv-dy-360p.jpeg?x-expires=1706511600&x-signature=xG7RSnCb386ECcsU2iP1C5ZS0yw%3D&from=3213915784&s=PackSourceEnum_FEED&se=false&sc=origin_cover&biz_tag=aweme_video&l=021705302524593fdbddc0200ff05004b3325c82d4e0598f58601",
        "videoPlayUrl": "https://api-hl.amemv.com/aweme/v1/play/?video_id=v0200fg10000cmdo193c77u66q4e4rgg&line=1&file_id=980382fe795e413a8f04abec171f3810&sign=52bab8c371f0fac504fbbae0fd9ba487&is_play_url=1&source=PackSourceEnum_FEED"
    },
    {
        "file_hash": "fddb201d53064981b456a7a1aa68a66c",
        "create_time": 1703862404,
        "title": "其实想要的真的不多，家人的微笑爱人暖心窝，就算再苦再累也值得#大大的城市小小的我 #音乐",
        "author": "好听音乐🎶",
        "thumbnail": "https://p26-sign.douyinpic.com/tos-cn-p-0015/oQAp49QgNpAeYDu4eZ9KBjbOSBnUAB5QtCIlEO~tplv-dy-360p.jpeg?x-expires=1706511600&x-signature=PT3m5q2KqQtqcpAHCuImyRQt9wk%3D&from=3213915784&s=PackSourceEnum_FEED&se=false&sc=origin_cover&biz_tag=aweme_video&l=02170530236841100000000000000000000ffff0a1a3ad8347f9f",
        "videoPlayUrl": "https://api-hl.amemv.com/aweme/v1/play/?video_id=v0d00fg10000cm7e0vbc77u0h1qjd560&line=1&file_id=d6df03742b084414b49e3c275e5e1558&sign=fddb201d53064981b456a7a1aa68a66c&is_play_url=1&source=PackSourceEnum_FEED"
    },
    {
        "file_hash": "d443c269f60a66bc4092d202b3043e82",
        "create_time": 1702981096,
        "title": "全国大降温，却释放了一个强烈信号！#降温#唯品会 #冲锋衣",
        "author": "燃点财经",
        "thumbnail": "https://p3-sign.douyinpic.com/tos-cn-p-0015/okklnCzmQA7BC96ogQeqg2NndbBBNeWDAABECA~tplv-dy-360p.jpeg?x-expires=1706511600&x-signature=3wcBvSHNBR6dMXX9APh2QV9nXOQ%3D&from=3213915784&s=PackSourceEnum_FEED&se=false&sc=origin_cover&biz_tag=aweme_video&l=021705302671828fdbddc0200ff05004b3325c82d4e05985dd20a",
        "videoPlayUrl": "https://api-hl.amemv.com/aweme/v1/play/?video_id=v0d00fg10000cm0mpnbc77u0p06cd0qg&line=1&file_id=9bb98562cadd4faf9fcfcf421af2abc0&sign=d443c269f60a66bc4092d202b3043e82&is_play_url=1&source=PackSourceEnum_FEED"
    },
    {
        "file_hash": "9d1df489668d110853820582a5f4e21c",
        "create_time": 1703152372,
        "title": "丰田全资子公司大发遭员工举报，被曝174项造假，全部车型暂停出货",
        "author": "齐鲁晚报·果然视频",
        "thumbnail": "https://p3-sign.douyinpic.com/tos-cn-p-0015/ocVAKANjCwABxCeCAogiIifhVXi3KyEvzQAgBy~tplv-dy-360p.jpeg?x-expires=1706511600&x-signature=sB%2Ba64GVcEmqxIutSJrNiO6pehI%3D&from=3213915784&s=PackSourceEnum_FEED&se=false&sc=origin_cover&biz_tag=aweme_video&l=021705302589938fdbddc0200ff05004b3325c82d4e0598c318c7",
        "videoPlayUrl": "https://api-hl.amemv.com/aweme/v1/play/?video_id=v0200fg10000cm20lk3c77ua08sa5nog&line=1&file_id=e906cba2ee8a469c8ceef19faa1c4bbd&sign=9d1df489668d110853820582a5f4e21c&is_play_url=1&source=PackSourceEnum_FEED"
    },
    {
        "file_hash": "0174f7c307e185bd585503c89c391b99",
        "create_time": 1704335409,
        "title": "顾客在餐饮店用餐发现筷子一擦就掉漆掉色#筷子 #餐饮 #消费者权益",
        "author": "都市现场",
        "thumbnail": "https://p6-sign.douyinpic.com/tos-cn-p-0015/okIWIBAXeGPyAPzybfOktaaG3wBAPhhgDGwDBl~tplv-dy-360p.jpeg?x-expires=1706511600&x-signature=lCYKbit0oPtuQTuBBl8WlKNyOyg%3D&from=3213915784&s=PackSourceEnum_FEED&se=false&sc=origin_cover&biz_tag=aweme_video&l=021705302635140fdbddc0200ff05004b3325c82d4e0598e4e08a",
        "videoPlayUrl": "https://api-hl.amemv.com/aweme/v1/play/?video_id=v0300fg10000cmb1g7rc77u1dhhscqrg&line=1&file_id=36e532ffd9c647a98538ee51896f79f3&sign=0174f7c307e185bd585503c89c391b99&is_play_url=1&source=PackSourceEnum_FEED"
    },
    {
        "file_hash": "bbb88d65418ae033e61a78cb53ce17c0",
        "create_time": 1703051844,
        "title": "千万粉丝博主白冰支援甘肃 连夜准备三辆十余米长挂车的物资 数千条棉被 5000件高档羽绒服 8万桶清真方便面#地震 #白冰 #社会",
        "author": "金蝉视频",
        "thumbnail": "https://p3-sign.douyinpic.com/tos-cn-p-0015/o4Clyf9N9lhFKNAoBXzCGHfo9kAggAIIXcgHAA~tplv-dy-360p.jpeg?x-expires=1706511600&x-signature=zOnzp9vZ%2FGWdtRcTwJzXvJaFLCI%3D&from=3213915784&s=PackSourceEnum_FEED&se=false&sc=origin_cover&biz_tag=aweme_video&l=021705302594699fdbddc0200ff05004b3325c82d4e0598b88bc6",
        "videoPlayUrl": "https://api-hl.amemv.com/aweme/v1/play/?video_id=v0d00fg10000cm183vjc77u8bsisd5ug&line=1&file_id=8b093f65956c402fbb27fc333a014b62&sign=bbb88d65418ae033e61a78cb53ce17c0&is_play_url=1&source=PackSourceEnum_FEED"
    },
    {
        "file_hash": "b72b65938ce6b71b556c4ecc3bb44a5c",
        "create_time": 1703506793,
        "title": "恩情难报童声版，小时候我是父母宝，长大后我要做父母的依靠，句句戳心#天籁童声 #杨大勇 #爱唱歌的小女孩 #一首唱哭天下亿万儿女的歌",
        "author": "杨大勇",
        "thumbnail": "https://p6-sign.douyinpic.com/tos-cn-p-0015/o0bWJt4AABBDabgGGRnqClA2iIGLIc97XefACP~tplv-dy-360p.jpeg?x-expires=1706511600&x-signature=UYgoY0GXO458Xi2j9e28X0LpDGY%3D&from=3213915784&s=PackSourceEnum_FEED&se=false&sc=origin_cover&biz_tag=aweme_video&l=02170530241008700000000000000000000ffff0a19474c20abed",
        "videoPlayUrl": "https://api-hl.amemv.com/aweme/v1/play/?video_id=v0200fg10000cm4n5u3c77u31htcrlfg&line=1&file_id=eebf62d650ca43d9ac566e4737d7c712&sign=b72b65938ce6b71b556c4ecc3bb44a5c&is_play_url=1&source=PackSourceEnum_FEED"
    },
    {
        "file_hash": "1274e92e7cf113ad34e162a03e674e81",
        "create_time": 1703931233,
        "title": "盘点那些语出惊人的熊孩子， #熊孩子  #语出惊人  #童言无忌 ",
        "author": "嘻哈逗你笑",
        "thumbnail": "https://p9-sign.douyinpic.com/tos-cn-p-0015/oYQFAofBCIzQ9MlAo76b2jNfPBWA2iaGiBIwIg~tplv-dy-360p.jpeg?x-expires=1706511600&x-signature=KuUdVxQW2t2%2FO7l1vF%2F%2F%2FktjntI%3D&from=3213915784&s=PackSourceEnum_FEED&se=false&sc=origin_cover&biz_tag=aweme_video&l=021705302410902fdbddc0200ff05004b3325c82d4e0598932d98",
        "videoPlayUrl": "https://api-hl.amemv.com/aweme/v1/play/?video_id=v0200fg10000cm7uqofog65jk1d0oddg&line=1&file_id=6747e85b53844ee5b1af1bbdb84a1c20&sign=1274e92e7cf113ad34e162a03e674e81&is_play_url=1&source=PackSourceEnum_FEED"
    },
    {
        "file_hash": "dfce0e3d5800bebc0a6dd90422f86bcf",
        "create_time": 1703945274,
        "title": "男子在新疆乘坐“雪国列车”，被冒着冷气的厕所惊到了 （来源：@兜里一块钱^ ）",
        "author": "潇湘晨报",
        "thumbnail": "https://p6-sign.douyinpic.com/tos-cn-p-0015/o4JDQAfVI0BuZDIWyQebCEA8yJ9tfhIY2AnODf~tplv-dy-360p.jpeg?x-expires=1706511600&x-signature=w3hQ6Yv6g%2FV5vCabCrZ63BAU1sM%3D&from=3213915784&s=PackSourceEnum_FEED&se=false&sc=origin_cover&biz_tag=aweme_video&l=021705302409947fdbddc0200ff05004b3325c82d4e059887dfb5",
        "videoPlayUrl": "https://api-hl.amemv.com/aweme/v1/play/?video_id=v0d00fg10000cm827vrc77u7615jvigg&line=1&file_id=30626a98f45d45d2846ee7f711667404&sign=dfce0e3d5800bebc0a6dd90422f86bcf&is_play_url=1&source=PackSourceEnum_FEED"
    }
]