[
    {
        "file_hash": "4ff71ee268cc03ec1b2e9159ab22f9b8",
        "create_time": 1704531742,
        "title": "1月6日（发布）河南郑州，老人做艾灸腿上起大泡？家人：医院诊断三度烧伤皮肤坏死，美容馆工作人员：我们积极配合解决#河南dou知道",
        "author": "河南广播电视台小莉帮忙",
        "thumbnail": "https://p11-sign.douyinpic.com/tos-cn-p-0015/oIIZIBAZ9FKmALnlfeCkbpqwdbbA2D2gDYRyBR~tplv-dy-360p.jpeg?x-expires=1706511600&x-signature=q5RSI85svGGQvQmTOfkjLFQgwlc%3D&from=3213915784&s=PackSourceEnum_FEED&se=false&sc=origin_cover&biz_tag=aweme_video&l=02170530284096600000000000000000000ffff0a92138b981d10",
        "videoPlayUrl": "https://api-hl.amemv.com/aweme/v1/play/?video_id=v0300fg10000cmchdtjc77udvs19h9eg&line=1&file_id=6b58bbc5609d4ff3b273cd09d2297381&sign=4ff71ee268cc03ec1b2e9159ab22f9b8&is_play_url=1&source=PackSourceEnum_FEED"
    },
    {
        "file_hash": "8ea93b57ff59aed5de73162f56a26c1d",
        "create_time": 1702832267,
        "title": "#零食 #吃货 #亲子互动 #零食推荐 #好吃到停不下来",
        "author": "家有俩宝贝👨‍👩‍👧‍👦",
        "thumbnail": "https://p6-sign.douyinpic.com/tos-cn-p-0015/beb6ec1bcc0449b28d57a20d17e58fd3_1702832271~tplv-dy-360p.jpeg?x-expires=1706511600&x-signature=h1A0Q1LGu8KrQwXMmtJidnhinrM%3D&from=3213915784&s=PackSourceEnum_FEED&se=false&sc=origin_cover&biz_tag=aweme_video&l=02170530288993900000000000000000000ffff0a92138b3061d6",
        "videoPlayUrl": "https://api-hl.amemv.com/aweme/v1/play/?video_id=v0200fg10000clvigq3c77udrbrh7kgg&line=1&file_id=265e79b49ee34a49b7092fa828b75996&sign=8ea93b57ff59aed5de73162f56a26c1d&is_play_url=1&source=PackSourceEnum_FEED"
    },
    {
        "file_hash": "86ab0a6ae50b94d26c6d70f01bcee989",
        "create_time": 1704247329,
        "title": "#每个小仙女都会喜欢的礼物 #生女儿就是用来打扮的 #这也太好看了 #过年就要美美哒 #做个美美的小仙女",
        "author": "鑫锂玩具",
        "thumbnail": "https://p9-sign.douyinpic.com/tos-cn-p-0015/ociBWM8KfQnYkwBAfGQAbjDgLpQa7e8BaNEXgC~tplv-dy-360p.jpeg?x-expires=1706511600&x-signature=Zg1lxsk9bQ%2BZZ5nNHuJ9v4o4X80%3D&from=3213915784&s=PackSourceEnum_FEED&se=false&sc=origin_cover&biz_tag=aweme_video&l=02170530256487600000000000000000000ffff0a93d29ac47b4b",
        "videoPlayUrl": "https://api-hl.amemv.com/aweme/v1/play/?video_id=v0d00fg10000cmabvp3c77uc427sbfhg&line=1&file_id=941c3dbe412e4629bd61d28908ff3427&sign=86ab0a6ae50b94d26c6d70f01bcee989&is_play_url=1&source=PackSourceEnum_FEED"
    },
    {
        "file_hash": "00c65f135347c76ccbb0440f1d320549",
        "create_time": 1705131127,
        "title": "今天，奥运冠军邓琳琳回阜阳办婚礼啦！奥运冠军许海峰、孟苏平等也来到婚礼现场为新人送上祝福。#安徽dou知道 #奥运冠军 #邓琳琳",
        "author": "阜阳·颍州晚报",
        "thumbnail": "https://p6-sign.douyinpic.com/tos-cn-p-0015/o4ceHU1RAhh7AgHPLzgqfG4yBZBIEH2eCRIEPw~tplv-dy-360p.jpeg?x-expires=1706511600&x-signature=u8zGGp%2BbnG1qmw2cFgOZIt%2Blu30%3D&from=3213915784&s=PackSourceEnum_FEED&se=false&sc=origin_cover&biz_tag=aweme_video&l=02170530253105500000000000000000000ffff0a92fe15231f9e",
        "videoPlayUrl": "https://api-hl.amemv.com/aweme/v1/play/?video_id=v0200fg10000cmh3objc77u459u7ck8g&line=1&file_id=4cb623a873fc4ce189ae85db6a5a1156&sign=00c65f135347c76ccbb0440f1d320549&is_play_url=1&source=PackSourceEnum_FEED"
    },
    {
        "file_hash": "0f8e1fc2622b9cf231008235cffe3297",
        "create_time": 1702774800,
        "title": "蛙泳划手换气#蛙泳 #游泳  #蛙泳换气 #蛙泳手",
        "author": "正经的陈教练",
        "thumbnail": "https://p26-sign.douyinpic.com/tos-cn-p-0015/940bd825f7fb4c0a99f23edaf9d3bbbb_1702521236~tplv-dy-360p.jpeg?x-expires=1706511600&x-signature=WM5X%2FnbNIS8qtQqtWWaDlVOJFpM%3D&from=3213915784&s=PackSourceEnum_FEED&se=false&sc=origin_cover&biz_tag=aweme_video&l=02170530282768900000000000000000000ffff0a92138b7ff073",
        "videoPlayUrl": "https://api-hl.amemv.com/aweme/v1/play/?video_id=v0300fg10000cltqpufog65pi8sdc6kg&line=1&file_id=f6d13f63575c421eb6d4a58bc40a6e44&sign=0f8e1fc2622b9cf231008235cffe3297&is_play_url=1&source=PackSourceEnum_FEED"
    },
    {
        "file_hash": "f69df2818e6a94d8b44ac889aaa81c6e",
        "create_time": 1703456178,
        "title": "#小孩子的快乐总是那么简单",
        "author": "开心快乐的姐弟三个",
        "thumbnail": "https://p9-sign.douyinpic.com/tos-cn-p-0015/oEBKAr4x8fi4QAFCIyhzKbNQAhNsgbNvACIXce~tplv-dy-360p.jpeg?x-expires=1706511600&x-signature=9Ffyt%2FMes694Z8AIoPeu%2FZ1sTGg%3D&from=3213915784&s=PackSourceEnum_FEED&se=false&sc=origin_cover&biz_tag=aweme_video&l=02170530265032300000000000000000000ffff0a92138bea9987",
        "videoPlayUrl": "https://api-hl.amemv.com/aweme/v1/play/?video_id=v0200fg10000cm4arbjc77ua8bplpo80&line=1&file_id=469d4b88f04f4e4eb7e479d8397b9163&sign=f69df2818e6a94d8b44ac889aaa81c6e&is_play_url=1&source=PackSourceEnum_FEED"
    },
    {
        "file_hash": "a05d93b4ab335b9867ae611d9add44db",
        "create_time": 1703313122,
        "title": "这个价格买到小黄鸭的宝宝棉服，质量也太好了妈妈们赶紧冲#冬季必备 #保暖又好看 #棉衣棉服",
        "author": "是子铭吖💛",
        "thumbnail": "https://p9-sign.douyinpic.com/tos-cn-p-0015/oYBk0LPC5YyDBVe7YFACgSAGsfAbGfZMF8DQun~tplv-dy-360p.jpeg?x-expires=1706511600&x-signature=74lhxshf07KdzFQp1beySoa57gA%3D&from=3213915784&s=PackSourceEnum_FEED&se=false&sc=origin_cover&biz_tag=aweme_video&l=02170530266260100000000000000000000ffff0a92138b30178f",
        "videoPlayUrl": "https://api-hl.amemv.com/aweme/v1/play/?video_id=v0300fg10000cm37snrc77ucucioo2hg&line=1&file_id=57889fe28ee940f28a359011bab1df10&sign=a05d93b4ab335b9867ae611d9add44db&is_play_url=1&source=PackSourceEnum_FEED"
    },
    {
        "file_hash": "890594d3654f465e2d868f468ed5cc52",
        "create_time": 1703666816,
        "title": "【聆听经典老歌 勾起儿时回忆】冲赛康 多布杰 #冲赛康 #经典老歌 #经典老歌怀旧金曲 #儿时回忆",
        "author": "萨嘎融媒体中心",
        "thumbnail": "https://p6-sign.douyinpic.com/tos-cn-p-0015/oMeII03JBn5FbEqLQce6AOID7ALqAOSbB6CLce~tplv-dy-360p.jpeg?x-expires=1706511600&x-signature=2qcnPCc8fjmswoGbrGe61XX%2BBWg%3D&from=3213915784&s=PackSourceEnum_FEED&se=false&sc=origin_cover&biz_tag=aweme_video&l=02170530263752900000000000000000000ffff0a92138bdd1eb0",
        "videoPlayUrl": "https://api-hl.amemv.com/aweme/v1/play/?video_id=v0200fg10000cm5u74jc77u5v2belne0&line=1&file_id=07d4ba8f5c3d4e29a08c265766440af9&sign=890594d3654f465e2d868f468ed5cc52&is_play_url=1&source=PackSourceEnum_FEED"
    },
    {
        "file_hash": "a177434241f767495ac77c727bf03e99",
        "create_time": 1704542013,
        "title": "#网恋奔现 网恋需谨慎，女孩子在外面要保护好自己#上热门",
        "author": "阿强侃片",
        "thumbnail": "https://p9-sign.douyinpic.com/tos-cn-p-0015/oIHeNzhyXrrzBZC0A38bPmgIzNAWfAApWBqyJI~tplv-dy-360p.jpeg?x-expires=1706511600&x-signature=31eKE2EtbRdxnv8DJDge5JoHb9s%3D&from=3213915784&s=PackSourceEnum_FEED&se=false&sc=origin_cover&biz_tag=aweme_video&l=02170530284096600000000000000000000ffff0a92138b981d10",
        "videoPlayUrl": "https://api-hl.amemv.com/aweme/v1/play/?video_id=v0200fg10000cmcjsdjc77udltqtd93g&line=1&file_id=92ec4813e6a944fcb8ce4d25ee66a23c&sign=a177434241f767495ac77c727bf03e99&is_play_url=1&source=PackSourceEnum_FEED"
    }
]