[
    {
        "file_hash": "1fc673edb22ee0c0a4bf7cc3713fb7d0",
        "create_time": 1704803827,
        "title": "#奇迹 #真实故事",
        "author": "蚊子（清浪麻栗坡）",
        "thumbnail": "https://p11-sign.douyinpic.com/tos-cn-p-0015/oIyf0AD4TCEc5DglZn8bABgF5erSr8gq9cn6AF~tplv-dy-360p.jpeg?x-expires=1706511600&x-signature=EZgpPsJPjNk9SpNS0KNEo92jM8Y%3D&from=3213915784&s=PackSourceEnum_FEED&se=false&sc=origin_cover&biz_tag=aweme_video&l=021705302516081fdbddc0200ff0500427aa650c67ae5ebe66efe",
        "videoPlayUrl": "https://api-hl.amemv.com/aweme/v1/play/?video_id=v0200fg10000cmejlhbc77uelb5p1ufg&line=1&file_id=26c715f0f8b4434eadbdde8797febbf8&sign=1fc673edb22ee0c0a4bf7cc3713fb7d0&is_play_url=1&source=PackSourceEnum_FEED"
    },
    {
        "file_hash": "bdd30183927d13f5da0125131a0b6a0f",
        "create_time": 1704693209,
        "title": "大树挡住了大象的去路，愤怒的大象直接将其推到 #动物 #大象 #动物的迷惑行为 #野生动物零距离",
        "author": "生物日记X",
        "thumbnail": "https://p3-sign.douyinpic.com/tos-cn-p-0015/oUzb5C2yIB2zrIhpdNejAwGAja8HcgQ2BvA7fy~tplv-dy-360p.jpeg?x-expires=1706511600&x-signature=1C4Gv5LeSezeo4beLa%2FAgCkyRBA%3D&from=3213915784&s=PackSourceEnum_FEED&se=false&sc=origin_cover&biz_tag=aweme_video&l=02170530252207900000000000000000000ffff0a1b401bf666e8",
        "videoPlayUrl": "https://api-hl.amemv.com/aweme/v1/play/?video_id=v0200fg10000cmdoqp3c77u6ntlfcg3g&line=1&file_id=b07f8ad9e53540528d12f1e12af84f2f&sign=bdd30183927d13f5da0125131a0b6a0f&is_play_url=1&source=PackSourceEnum_FEED"
    },
    {
        "file_hash": "7c5c9ec173b8615d79eb5610fe084dac",
        "create_time": 1704509973,
        "title": "长大后才明白\n父母从末为自己活过\n等我明白的时候\n我也再没办法为自己而活\n这一生谁都羁绊不了你\n唯有孩子\n春夏秋冬 寒来暑往\n让你心甘情愿的付出.…\n#当妈的都懂 #养娃#当妈妈后",
        "author": "可乐baby",
        "thumbnail": "https://p6-sign.douyinpic.com/tos-cn-p-0015/oQZEID69GzAhwXsdTGfAAeyAKAEgTBazI8NqYh~tplv-dy-360p.jpeg?x-expires=1706511600&x-signature=0zDYpEKB5W%2Fp7ED%2BljrRVTBrH3w%3D&from=3213915784&s=PackSourceEnum_FEED&se=false&sc=origin_cover&biz_tag=aweme_video&l=021705302533026fdbddc0200ff050070f52370c8ad3345138e1f",
        "videoPlayUrl": "https://api-hl.amemv.com/aweme/v1/play/?video_id=v0300fg10000cmcc433c77u0ulvg8jt0&line=1&file_id=f65fc3434e1846328973488a388d2850&sign=7c5c9ec173b8615d79eb5610fe084dac&is_play_url=1&source=PackSourceEnum_FEED"
    },
    {
        "file_hash": "c9590dba1764b524f76030104f630b20",
        "create_time": 1704456000,
        "title": "#男生宿舍日常 #暖气片 #暖气片放气 男生宿舍的暖气片漏了，男生们纷纷急着抢救鞋子，没多久宿舍就成了“桑拿房”。素材来源：@无聊的阿超（挑战30天粉丝破10w）",
        "author": "新闻晚高峰",
        "thumbnail": "https://p9-sign.douyinpic.com/tos-cn-p-0015/ooe9SlDcJuIhwsD3A7sqeXgQnbAo8ACsiBWlnQ~tplv-dy-360p.jpeg?x-expires=1706511600&x-signature=k%2Fcu8WUcWCQmQq2po0UR6YyBcmM%3D&from=3213915784&s=PackSourceEnum_FEED&se=false&sc=origin_cover&biz_tag=aweme_video&l=021705302698879fdbddc0200ff050070f52370c8ad3345f4bd8b",
        "videoPlayUrl": "https://api-hl.amemv.com/aweme/v1/play/?video_id=v0300fg10000cmb7majc77u4h3m9hb7g&line=1&file_id=270cd2a7ac1f4403a2154ad6f19e4052&sign=c9590dba1764b524f76030104f630b20&is_play_url=1&source=PackSourceEnum_FEED"
    },
    {
        "file_hash": "ffd7f6c34632151165c20128af579844",
        "create_time": 1702994294,
        "title": "当我坐上了狗狗公交车时 #狗狗 #萌宠 #金毛 #宠物",
        "author": "金毛世界",
        "thumbnail": "https://p11-sign.douyinpic.com/tos-cn-p-0015/ooaIXhFAAzowZCGBcofWgCAheAMcBVotAIByHN~tplv-dy-360p.jpeg?x-expires=1706511600&x-signature=wJvKKlIO2CZ0%2FkO%2B%2Fl90iEy6dnA%3D&from=3213915784&s=PackSourceEnum_FEED&se=false&sc=origin_cover&biz_tag=aweme_video&l=021705302672879fdbddc0200ff050070f52370c8ad334551f701",
        "videoPlayUrl": "https://api-hl.amemv.com/aweme/v1/play/?video_id=v0200fg10000cm0q2kbc77ucd034c5k0&line=1&file_id=378f8da794bf4f6eabb93a1ba237564c&sign=ffd7f6c34632151165c20128af579844&is_play_url=1&source=PackSourceEnum_FEED"
    },
    {
        "file_hash": "18e09d848f85d8dc9ec87356a31082e1",
        "create_time": 1702854000,
        "title": "",
        "author": "新文故事绘",
        "thumbnail": "https://p6-sign.douyinpic.com/tos-cn-p-0015/015d61ab7bd6460dac8dc5633a823e5e_1702690349~tplv-dy-360p.jpeg?x-expires=1706511600&x-signature=ifzHcJEhCttTERqEg4G4mFVF%2F8E%3D&from=3213915784&s=PackSourceEnum_FEED&se=false&sc=origin_cover&biz_tag=aweme_video&l=021705302610301fdbddc0200ff050070f52370c8ad3345536288",
        "videoPlayUrl": "https://api-hl.amemv.com/aweme/v1/play/?video_id=v0200fg10000clufqfbc77u7md40q1b0&line=1&file_id=2ddeee7f4ef549249e773acbafa81b3d&sign=18e09d848f85d8dc9ec87356a31082e1&is_play_url=1&source=PackSourceEnum_FEED"
    },
    {
        "file_hash": "f3817ad04ed59f921f72eac6e7ab0ac9",
        "create_time": 1703478664,
        "title": "为美女运动员的拼搏精神加油点赞#美女运动员 #体育的魅力 #视觉冲击 #运动治愈一切矫情 #大长腿",
        "author": "铁匠‖不止体育",
        "thumbnail": "https://p26-sign.douyinpic.com/tos-cn-p-0015/okbQBQZCiBA8Z2EQBAefEmArZKVgYlgdnA9JDC~tplv-dy-360p.jpeg?x-expires=1706511600&x-signature=OFnpnzWktiEDfICENltgIOZxptg%3D&from=3213915784&s=PackSourceEnum_FEED&se=false&sc=origin_cover&biz_tag=aweme_video&l=021705302446810fdbddc0200ff050070f52370c8ad3345a899d5",
        "videoPlayUrl": "https://api-hl.amemv.com/aweme/v1/play/?video_id=v0200fg10000cm4gambc77u119qpuch0&line=1&file_id=fbc0e329d4be4c8abd460a318c956928&sign=f3817ad04ed59f921f72eac6e7ab0ac9&is_play_url=1&source=PackSourceEnum_FEED"
    },
    {
        "file_hash": "15f32ee08e45d4d9bb106bd0795a1dcc",
        "create_time": 1702984981,
        "title": "@朱朱@ @贵州小凉妹🔥 今天是个好日子#户外唱歌🔥 #来生再去拥抱你 #热门音乐🔥",
        "author": "夏爱歌（兄妹组合）",
        "thumbnail": "https://p11-sign.douyinpic.com/tos-cn-p-0015/oECCxlcuDhxXAe7UJENQbgAfNaYgBGnPAARb9G~tplv-dy-360p.jpeg?x-expires=1706511600&x-signature=m7BxzU%2BmK%2FVmilhHH2dzoUjqCHI%3D&from=3213915784&s=PackSourceEnum_FEED&se=false&sc=origin_cover&biz_tag=aweme_video&l=021705302482657fdbddc0200ff0500a1603aca85b0923953a4c6",
        "videoPlayUrl": "https://api-hl.amemv.com/aweme/v1/play/?video_id=v0d00fg10000cm0nomjc77u7rjg4931g&line=1&file_id=04e1dddbdb9f4a19a831fabae8b8ffd7&sign=15f32ee08e45d4d9bb106bd0795a1dcc&is_play_url=1&source=PackSourceEnum_FEED"
    }
]