[
    {
        "file_hash": "642b5ab8ee2273c1ba3b6320bf0b370b",
        "create_time": 1703597395,
        "title": "女人进城打工，意外怀孕后却被老板欺负，差点连命都丢了#社会百态 #社会 #真实事件 #普法小剧场 #普法 ",
        "author": "明日纪实",
        "thumbnail": "https://p26-sign.douyinpic.com/tos-cn-p-0015/ogGgmIFAqI1FlL3BfEReWzMVVf5QC7ADKLIaAB~tplv-dy-360p.jpeg?x-expires=1706493600&x-signature=ij%2BkiuH5bcdG7P0uLduSFsWnkr4%3D&from=3213915784&s=PackSourceEnum_FEED&se=false&sc=origin_cover&biz_tag=aweme_video&l=02170528609702700000000000000000000ffff0a18680be55b7f",
        "videoPlayUrl": "https://api-hl.amemv.com/aweme/v1/play/?video_id=v0200fg10000cm5daknog65h8e1jvv80&line=1&file_id=af5cd803472a4ff59e1e1403f1dd4947&sign=642b5ab8ee2273c1ba3b6320bf0b370b&is_play_url=1&source=PackSourceEnum_FEED"
    },
    {
        "file_hash": "e8e355be0cbbbec8b874cf3740ae9d80",
        "create_time": 1705193757,
        "title": "一记霸气又灵性的“神龙摆尾”马库斯-麦吉终结比赛，直取UFC三连胜！#UFC",
        "author": "UFC终极格斗冠军赛",
        "thumbnail": "https://p9-sign.douyinpic.com/tos-cn-p-0015/o8JNzfBFARp95zMGIlMAfjh56EhAoltCgBBjIT~tplv-dy-360p.jpeg?x-expires=1706493600&x-signature=ZxbKOif3B%2Bzky1mDMhYlC70LxFs%3D&from=3213915784&s=PackSourceEnum_FEED&se=false&sc=origin_cover&biz_tag=aweme_video&l=02170528587097200000000000000000000ffff0a18680b73a11d",
        "videoPlayUrl": "https://api-hl.amemv.com/aweme/v1/play/?video_id=v0200fg10000cmhj0vjc77uchkv6i6ig&line=1&file_id=f5b50421e8fc46858a69679539294f89&sign=e8e355be0cbbbec8b874cf3740ae9d80&is_play_url=1&source=PackSourceEnum_FEED"
    },
    {
        "file_hash": "b19b380cb637a48b2a545c263a4f34a9",
        "create_time": 1703394000,
        "title": "#鲲鹏击浪  杨开慧给毛润之的一双新鞋，完美诠释了什么叫“能让你高兴的，我都会去做”。这一幕，谁看了不说一句好嗑呀~",
        "author": "电视剧鲲鹏击浪",
        "thumbnail": "https://p26-sign.douyinpic.com/tos-cn-p-0015/ocvcIC5RmnA6B1x90weCA9lAmA5geBOhAFblHD~tplv-dy-360p.jpeg?x-expires=1706493600&x-signature=ZZHKcfRr9xisXjYPej%2BLSDLQ5XA%3D&from=3213915784&s=PackSourceEnum_FEED&se=false&sc=origin_cover&biz_tag=aweme_video&l=02170528598573300000000000000000000ffff0a18680b8f4287",
        "videoPlayUrl": "https://api-hl.amemv.com/aweme/v1/play/?video_id=v0200fg10000cm3ge9jc77u14ekbpusg&line=1&file_id=c5bbc8d0e3c64cbaaf18c2eb9e7f2383&sign=b19b380cb637a48b2a545c263a4f34a9&is_play_url=1&source=PackSourceEnum_FEED"
    },
    {
        "file_hash": "691363cd6950fdfff1f2d62a276908f3",
        "create_time": 1704975557,
        "title": "她指定是会魔法，要不做不到\n#爱茶姑娘 #召唤茶友 #茶馆里的小日常  #功夫茶 #盖碗泡茶",
        "author": "赵梓彤·茶生活",
        "thumbnail": "https://p26-sign.douyinpic.com/tos-cn-p-0015/oMsb98yOAMt9jntlQY3AVoom8uDAnlpDgCBfQe~tplv-dy-360p.jpeg?x-expires=1706493600&x-signature=TfNSbyREcyr2G1iN%2Faje%2BioFwSw%3D&from=3213915784&s=PackSourceEnum_FEED&se=false&sc=origin_cover&biz_tag=aweme_video&l=02170528587816100000000000000000000ffff0a18680bd246f1",
        "videoPlayUrl": "https://api-hl.amemv.com/aweme/v1/play/?video_id=v0300fg10000cmftp5bc77ubd3qddim0&line=1&file_id=e8733cb783974e4ea99c344ff0c9a2bd&sign=691363cd6950fdfff1f2d62a276908f3&is_play_url=1&source=PackSourceEnum_FEED"
    },
    {
        "file_hash": "030a6dab67061c399db60b825870dac5",
        "create_time": 1703415815,
        "title": "不要花那么多时间难过 永远不要精神内耗 永远不要停下脚步#自律#励志#keep跑出更好的自己#keep跑步打卡",
        "author": "Una",
        "thumbnail": "https://p9-sign.douyinpic.com/tos-cn-p-0015/oUoI2DptWI0wDCCAEEIeKWfDAFnAZqAfeAb3AP~tplv-dy-360p.jpeg?x-expires=1706493600&x-signature=xSZdmJYjGpGYW3unMflxKhfLS%2Bg%3D&from=3213915784&s=PackSourceEnum_FEED&se=false&sc=origin_cover&biz_tag=aweme_video&l=02170528598199600000000000000000000ffff0a903bdcba1829",
        "videoPlayUrl": "https://api-hl.amemv.com/aweme/v1/play/?video_id=v0d00fg10000cm40vvjc77u069sbv8kg&line=1&file_id=747a78e9f579433ba7c6751391f3609e&sign=030a6dab67061c399db60b825870dac5&is_play_url=1&source=PackSourceEnum_FEED"
    },
    {
        "file_hash": "da051d84391dec61c0abb4de4a5fde2a",
        "create_time": 1704370319,
        "title": "这个早教神器特别好用，10000+拼音识字动画片儿歌，宝宝爱听",
        "author": "名校堂官方旗舰店",
        "thumbnail": "https://p9-sign.douyinpic.com/tos-cn-v-c9e10a/o4yA6ylSFO5xDvfI8pD82IQntgJClL9BCebGXy~tplv-dy-360p.jpeg?x-expires=1706493600&x-signature=mdyJg%2F%2BGr3rsbDTTjEhFsRdkmT0%3D&from=3213915784&s=PackSourceEnum_FEED&se=false&sc=origin_cover&biz_tag=aweme_video&l=02170528591940400000000000000000000ffff0a18680b873849",
        "videoPlayUrl": "https://api-hl.amemv.com/aweme/v1/play/?video_id=v02033g10000cmba13vog65q9ag7vj50&line=1&file_id=be7180f62fd649fdbf8eb538c12e4347&sign=da051d84391dec61c0abb4de4a5fde2a&is_play_url=1&source=PackSourceEnum_FEED"
    },
    {
        "file_hash": "9e2d566d5f00c30d4e6b282d76df873f",
        "create_time": 1704717097,
        "title": "#这声音不是小青吗 #天气预报 #山东天气 #最新天气预报 #山东天气预报",
        "author": "天气预报分析",
        "thumbnail": "https://p9-sign.douyinpic.com/tos-cn-p-0015/oANz2jAhhCXBIyfgluXAh6fNpUP9BwAmbIAAOs~tplv-dy-360p.jpeg?x-expires=1706493600&x-signature=N0AKS%2FRatQ%2BSXeG%2F0Lvnii%2F9mXI%3D&from=3213915784&s=PackSourceEnum_FEED&se=false&sc=origin_cover&biz_tag=aweme_video&l=021705286045642fdbddc0200ff05004b3325c82d4e0598d3fe45",
        "videoPlayUrl": "https://api-hl.amemv.com/aweme/v1/play/?video_id=v0d00fg10000cmduko3c77ufkjk6onr0&line=1&file_id=9b837fc1e97841c393f18490b33949c9&sign=9e2d566d5f00c30d4e6b282d76df873f&is_play_url=1&source=PackSourceEnum_FEED"
    },
    {
        "file_hash": "a1f2253580cca88ec35486ae136a7b30",
        "create_time": 1702968865,
        "title": "中国青基会紧急拨付首笔100万驰援灾区",
        "author": "共青团中央",
        "thumbnail": "https://p26-sign.douyinpic.com/tos-cn-p-0015/ocE4gQ8Ts1CAfc0EAGnAA4g29plgfBoA2TDQb9~tplv-dy-360p.jpeg?x-expires=1706493600&x-signature=B6g46hIZIjOByt%2BvDfeA70NCeUM%3D&from=3213915784&s=PackSourceEnum_FEED&se=false&sc=origin_cover&biz_tag=aweme_video&l=02170528601230800000000000000000000ffff0a18680b10d4ac",
        "videoPlayUrl": "https://api-hl.amemv.com/aweme/v1/play/?video_id=v0200fg10000cm0js03c77udl7ags720&line=1&file_id=d99588246ea5449e8346d1fe2c5e047f&sign=a1f2253580cca88ec35486ae136a7b30&is_play_url=1&source=PackSourceEnum_FEED"
    },
    {
        "file_hash": "434c1fa52424157710fe9d60a319a124",
        "create_time": 1704531601,
        "title": "去年种下的猫窝，今年收获了一窝小猫 #猫 #流浪猫 #种猫",
        "author": "小蛮蛮Youzai在画画（有崽）",
        "thumbnail": "https://p26-sign.douyinpic.com/tos-cn-p-0015/oYAACdlX1mlQfBEDpeD9EQaACl39E3FgH5RAC2~tplv-dy-360p.jpeg?x-expires=1706493600&x-signature=o3CFmgjQDlGefiUHzf0LZN5QmRw%3D&from=3213915784&s=PackSourceEnum_FEED&se=false&sc=origin_cover&biz_tag=aweme_video&l=02170528587809600000000000000000000ffff0a19474cbaaa79",
        "videoPlayUrl": "https://api-hl.amemv.com/aweme/v1/play/?video_id=v0200fg10000cmbtrmnog65kpmp24igg&line=1&file_id=15963b73d8204e30b2ccc34623b71095&sign=434c1fa52424157710fe9d60a319a124&is_play_url=1&source=PackSourceEnum_FEED"
    }
]