[
    {
        "file_hash": "ffa1038f115bf94943c5e0db1e718251",
        "create_time": 1703745956,
        "title": "优待证在哪里用处最大呢？#优待证 #优待证有什么用途 #退役军人",
        "author": "我的老班长",
        "thumbnail": "https://p9-sign.douyinpic.com/tos-cn-p-0015/oI2lYalleAyfB9ldgQ8ajGNnObG5GaRDAABKNQ~tplv-dy-360p.jpeg?x-expires=1706511600&x-signature=7%2FbTavtxXoo9322AiWWtyUixq1o%3D&from=3213915784&s=PackSourceEnum_FEED&se=false&sc=origin_cover&biz_tag=aweme_video&l=021705303325819fdbddc0200ff05004b3325c82d4e0598783a07",
        "videoPlayUrl": "https://api-hl.amemv.com/aweme/v1/play/?video_id=v0d00fg10000cm6hijjc77uftgqa6smg&line=1&file_id=fe94462e63fe4bfda8ffbfa415657f3e&sign=ffa1038f115bf94943c5e0db1e718251&is_play_url=1&source=PackSourceEnum_FEED"
    },
    {
        "file_hash": "c190629ca00c02d13670bd6400206d77",
        "create_time": 1704159461,
        "title": "狗狗雪地里生下孩子身上覆盖厚厚的雪 紧紧蜷缩一团把抱孩子护在怀里#万物皆有灵 #每个生命都应该被尊重 #愿每个小狗都能遇见好的主人",
        "author": "宠萌日记",
        "thumbnail": "https://p6-sign.douyinpic.com/tos-cn-p-0015/oMukDI3Inf3i2Ba3gDbOAYBvLeoTHlAAgUt9oT~tplv-dy-360p.jpeg?x-expires=1706511600&x-signature=NXhvBg10b56WL4pBfHU2Tvtflg0%3D&from=3213915784&s=PackSourceEnum_FEED&se=false&sc=origin_cover&biz_tag=aweme_video&l=021705303297037fdbddc0200ff05004b3325c82d4e0598994abe",
        "videoPlayUrl": "https://api-hl.amemv.com/aweme/v1/play/?video_id=v0300fg10000cm9mhdrc77uaa2fsnnmg&line=1&file_id=575abcbd135144f78b828e7cef77cd8b&sign=c190629ca00c02d13670bd6400206d77&is_play_url=1&source=PackSourceEnum_FEED"
    },
    {
        "file_hash": "34afd4aa00372b1e54f28f10e729360d",
        "create_time": 1703299032,
        "title": "周末补觉1小时 心血管病风险降六成",
        "author": "海报新闻",
        "thumbnail": "https://p3-sign.douyinpic.com/tos-cn-p-0015/o4D0AEkbI7XQMmB7jjDLfB8e8gfnxcABAzvPMC~tplv-dy-360p.jpeg?x-expires=1706511600&x-signature=Mq1AEanZacSq3C2PV6dHaZeN%2Buo%3D&from=3213915784&s=PackSourceEnum_FEED&se=false&sc=origin_cover&biz_tag=aweme_video&l=021705303356634fdbddc0200ff05004b3325c82d4e0598cdbaba",
        "videoPlayUrl": "https://api-hl.amemv.com/aweme/v1/play/?video_id=v0200fg10000cm34f8rc77ubvu4pjbv0&line=1&file_id=a78ab942174343adb33532479e1679cb&sign=34afd4aa00372b1e54f28f10e729360d&is_play_url=1&source=PackSourceEnum_FEED"
    },
    {
        "file_hash": "4ea203c11cc4a768fba1346cf5ef9bc8",
        "create_time": 1702708778,
        "title": "这个胡赛还真的牛逼！#抖音创作者大会 #以色列#胡塞武装 #巴以冲突 #红海",
        "author": "同频之约",
        "thumbnail": "https://p3-sign.douyinpic.com/tos-cn-p-0015/5a6f51ae556e4468a3a254193db43f0a_1702708782~tplv-dy-360p.jpeg?x-expires=1706511600&x-signature=OsIQdZCk6SPQvclviOa1yjqVV64%3D&from=3213915784&s=PackSourceEnum_FEED&se=false&sc=origin_cover&biz_tag=aweme_video&l=021705303506375fdbddc0200ff05004b3325c82d4e0598a74e3c",
        "videoPlayUrl": "https://api-hl.amemv.com/aweme/v1/play/?video_id=v0300fg10000clukbkbc77u6ciff3sq0&line=1&file_id=be330210a67248eeb691f34c794fe05c&sign=4ea203c11cc4a768fba1346cf5ef9bc8&is_play_url=1&source=PackSourceEnum_FEED"
    },
    {
        "file_hash": "ca2337f06e6bfdee42a49e92567a267d",
        "create_time": 1704621662,
        "title": "小米2000档以下几乎没有短板的手机。#红米Note13Pro+",
        "author": "数码手机站",
        "thumbnail": "https://p11-sign.douyinpic.com/tos-cn-p-0015/oY3ASZlNCb91DDUA8LAcqQQnxgeNmJHB8MbgMf~tplv-dy-360p.jpeg?x-expires=1706511600&x-signature=CiHeuRr5l9zEKoPh0z1iqc4nlWk%3D&from=3213915784&s=PackSourceEnum_FEED&se=false&sc=origin_cover&biz_tag=aweme_video&l=021705303269285fdbddc0200ff05004b3325c82d4e0598a00fea",
        "videoPlayUrl": "https://api-hl.amemv.com/aweme/v1/play/?video_id=v0d00fg10000cmcbcgrc77ufl1l47qv0&line=1&file_id=ec687e6f494d40fb83d3ba5b66a55f6d&sign=ca2337f06e6bfdee42a49e92567a267d&is_play_url=1&source=PackSourceEnum_FEED"
    },
    {
        "file_hash": "38635c25a86e7e8f6832f839b9fecda3",
        "create_time": 1703060088,
        "title": "曾跟着爸爸送外卖的小霏儿终于有了自己的“新房子”，一家人在新房子里尽情地奔跑。",
        "author": "柳州制造",
        "thumbnail": "https://p26-sign.douyinpic.com/tos-cn-p-0015/o4uCIqgwNAIkSEKJBzeynnBJohACfAh7LVuAHH~tplv-dy-360p.jpeg?x-expires=1706511600&x-signature=LeaPQjCpyaUL%2F%2F25PFWwjxiRJrw%3D&from=3213915784&s=PackSourceEnum_FEED&se=false&sc=origin_cover&biz_tag=aweme_video&l=021705303567831fdbddc0200ff05004b3325c82d4e0598264aa6",
        "videoPlayUrl": "https://api-hl.amemv.com/aweme/v1/play/?video_id=v0200fg10000cm1a443c77u75ptrna4g&line=1&file_id=5845752107884d5ca32d95ce20a4f2b7&sign=38635c25a86e7e8f6832f839b9fecda3&is_play_url=1&source=PackSourceEnum_FEED"
    },
    {
        "file_hash": "1476b85daca47d31b01213d46fb8fe20",
        "create_time": 1703764208,
        "title": "#电视剧三大队  特殊时刻特殊对待，四个男人睡一张床……也行~#秦昊  #迷雾剧场",
        "author": "爱奇艺",
        "thumbnail": "https://p6-sign.douyinpic.com/tos-cn-p-0015/o8ABCPVNJtLQbC7Seenr2Q48EGY7Df8AIHwBcz~tplv-dy-360p.jpeg?x-expires=1706511600&x-signature=hmNG%2BA3OSytEgXIN5S7c0SefR9k%3D&from=3213915784&s=PackSourceEnum_FEED&se=false&sc=origin_cover&biz_tag=aweme_video&l=021705303545001fdbddc0200ff05004b3325c82d4e0598fda147",
        "videoPlayUrl": "https://api-hl.amemv.com/aweme/v1/play/?video_id=v0200fg10000cm6lvu3c77ufbef1man0&line=1&file_id=95d44aed3ddc4d5d8c92a7590a1ee82f&sign=1476b85daca47d31b01213d46fb8fe20&is_play_url=1&source=PackSourceEnum_FEED"
    },
    {
        "file_hash": "a3d89df31b00ab5dff5218da6b4529e9",
        "create_time": 1703666040,
        "title": "@DOU+上热门 #哈哈哈娱乐一下😂😂😂 #一起长大一起玩耍 #给生活找点乐子 #无忧无虑的年纪",
        "author": "糖果小依依",
        "thumbnail": "https://p11-sign.douyinpic.com/tos-cn-p-0015/osSIDI4TgACkAAP99fNtflzBmDihdhAFXW81CL~tplv-dy-360p.jpeg?x-expires=1706511600&x-signature=jj%2FYG7y4XmBrYOhsrL55m4AzFpo%3D&from=3213915784&s=PackSourceEnum_FEED&se=false&sc=origin_cover&biz_tag=aweme_video&l=02170530332645600000000000000000000ffff0a1b5499ac1d1b",
        "videoPlayUrl": "https://api-hl.amemv.com/aweme/v1/play/?video_id=v0300fg10000cm5u2qjc77uf0bfgbteg&line=1&file_id=18200ca53c2b48f4a0eb9e9252ab76f7&sign=a3d89df31b00ab5dff5218da6b4529e9&is_play_url=1&source=PackSourceEnum_FEED"
    }
]