[
    {
        "file_hash": "df64070da68d2c20f3e762438bc7da51",
        "create_time": 1703567792,
        "title": "谢谢你们的爱！自积石山地震发生后，韩红基金会接收社会公众定向捐赠善款9201.51万元",
        "author": "半岛都市报",
        "thumbnail": "https://p11-sign.douyinpic.com/tos-cn-p-0015/ooJBHKLAKO6nRCOYAfGbMbDbeBA7CBFbLfilyI~tplv-dy-360p.jpeg?x-expires=1706511600&x-signature=Y%2BPlA8Nb6F8WOF2qea3IJbJtHdY%3D&from=3213915784&s=PackSourceEnum_FEED&se=false&sc=origin_cover&biz_tag=aweme_video&l=02170530333849400000000000000000000ffff0a18680b768a3a",
        "videoPlayUrl": "https://api-hl.amemv.com/aweme/v1/play/?video_id=v0300fg10000cm562nrc77udp9ot2tfg&line=1&file_id=d503729bd20d4bdf9bc7201c97195481&sign=df64070da68d2c20f3e762438bc7da51&is_play_url=1&source=PackSourceEnum_FEED"
    },
    {
        "file_hash": "98671aad4a063d09d2a3a0b892ddbeb7",
        "create_time": 1702870305,
        "title": "#京剧沙家浜 #军民鱼水情 @DOU+小助手",
        "author": "玫瑰《小品，反窜》",
        "thumbnail": "https://p3-sign.douyinpic.com/tos-cn-p-0015/381f64d705af4d23b44a35b9c4093aab_1702870310~tplv-dy-360p.jpeg?x-expires=1706511600&x-signature=qoHHj3Iibnkvk33L%2BIQgIimnANo%3D&from=3213915784&s=PackSourceEnum_FEED&se=false&sc=origin_cover&biz_tag=aweme_video&l=02170530357439200000000000000000000ffff0a1d61974ec5b4",
        "videoPlayUrl": "https://api-hl.amemv.com/aweme/v1/play/?video_id=v0d00fg10000clvrpjjc77u91ducorvg&line=1&file_id=d4e1f5022fa546c08a84e0af27c48a0e&sign=98671aad4a063d09d2a3a0b892ddbeb7&is_play_url=1&source=PackSourceEnum_FEED"
    },
    {
        "file_hash": "2785d1becb105d98b273051079b8481e",
        "create_time": 1704358571,
        "title": "小狗狗的异地恋见面@小南枫鸭",
        "author": "芒果➕榴莲",
        "thumbnail": "https://p6-sign.douyinpic.com/tos-cn-p-0015/oYw7ILDEpiUkesGVBQRe5SAQnbAOeBDZ0ClLOQ~tplv-dy-360p.jpeg?x-expires=1706511600&x-signature=VCjA%2F75mPD%2BOhLwpAKKez4TLzcE%3D&from=3213915784&s=PackSourceEnum_FEED&se=false&sc=origin_cover&biz_tag=aweme_video&l=021705303278322fdbddc0200ff0500c407fc1c4b494bca758f74",
        "videoPlayUrl": "https://api-hl.amemv.com/aweme/v1/play/?video_id=v0300fg10000cmb74fjc77u4522jkcs0&line=1&file_id=42069b449131431f83dc350750dd7ecc&sign=2785d1becb105d98b273051079b8481e&is_play_url=1&source=PackSourceEnum_FEED"
    },
    {
        "file_hash": "7d26fb0a5b3651deedea1e59e1e27a80",
        "create_time": 1704701726,
        "title": "#每天坚持锻炼会有不一样的收获 #变美变瘦变好看 #居家锻炼 #运动 @DOU+小助手",
        "author": "玲玲爱运动",
        "thumbnail": "https://p26-sign.douyinpic.com/tos-cn-p-0015/ogcLNIPDBBCHfe0a2BAAAKe501boYZi3ycI7Gr~tplv-dy-360p.jpeg?x-expires=1706511600&x-signature=Oicz5wKMDQUrtKflOQd8lR3Q8fg%3D&from=3213915784&s=PackSourceEnum_FEED&se=false&sc=origin_cover&biz_tag=aweme_video&l=021705303254960fdbddc0200ff0500191901312700ede2f46fe1",
        "videoPlayUrl": "https://api-hl.amemv.com/aweme/v1/play/?video_id=v0300fg10000cmdqtt3c77ueggsq0s9g&line=1&file_id=5a10749cfcf4401aab889019e9fe5374&sign=7d26fb0a5b3651deedea1e59e1e27a80&is_play_url=1&source=PackSourceEnum_FEED"
    },
    {
        "file_hash": "a92970d194613dfeefd26e4e6f72e60a",
        "create_time": 1704262558,
        "title": "1月2日广东广州，宠物狗走失两天被人捡到，狗主人给500对方索要1000。派出所：属于物品遗失只能协商。",
        "author": "直播长三角",
        "thumbnail": "https://p6-sign.douyinpic.com/tos-cn-p-0015/ocbHpBWAACBDGegBRHnaNlQ6lQmtZe9WP8uAEj~tplv-dy-360p.jpeg?x-expires=1706511600&x-signature=U44J%2FMe0pauSqeGuSchmsxIRoKo%3D&from=3213915784&s=PackSourceEnum_FEED&se=false&sc=origin_cover&biz_tag=aweme_video&l=021705303287838fdbddc0200ff0500c407fc1c4b494bca1d2808",
        "videoPlayUrl": "https://api-hl.amemv.com/aweme/v1/play/?video_id=v0d00fg10000cmafmljc77u48667udbg&line=1&file_id=d12b12a6dd4a4f709a97de7d367710a3&sign=a92970d194613dfeefd26e4e6f72e60a&is_play_url=1&source=PackSourceEnum_FEED"
    },
    {
        "file_hash": "821eb845597fd392992ca00f9f2390b7",
        "create_time": 1703387411,
        "title": "#农村猫自己找猫粮",
        "author": "野生山药",
        "thumbnail": "https://p11-sign.douyinpic.com/tos-cn-p-0015/oYOH960rlQNpABAFoBheMeDDAWnCqYAtIgboRD~tplv-dy-360p.jpeg?x-expires=1706511600&x-signature=0wMX237Ey29Qa26D4umzx0zoX18%3D&from=3213915784&s=PackSourceEnum_FEED&se=false&sc=origin_cover&biz_tag=aweme_video&l=02170530355684200000000000000000000ffff0a1d61973a7103",
        "videoPlayUrl": "https://api-hl.amemv.com/aweme/v1/play/?video_id=v0d00fg10000cm3q1i3c77u2qgddd7d0&line=1&file_id=544be03d32804a11af055c0aa19d15eb&sign=821eb845597fd392992ca00f9f2390b7&is_play_url=1&source=PackSourceEnum_FEED"
    },
    {
        "file_hash": "7b13d26a96f904b2491d1d275d88f5c0",
        "create_time": 1704407485,
        "title": "#抖音热点宝 #十种男人（6）#民间小调",
        "author": "张林",
        "thumbnail": "https://p9-sign.douyinpic.com/tos-cn-p-0015/o8M5yAIDiCzDg5AOI92ABndXrDfbeyHhFVR4ND~tplv-dy-360p.jpeg?x-expires=1706511600&x-signature=we0qEBzy0QyKkut8PcKGT6DYgsc%3D&from=3213915784&s=PackSourceEnum_FEED&se=false&sc=origin_cover&biz_tag=aweme_video&l=02170530327891100000000000000000000ffff0a1d6197a67828",
        "videoPlayUrl": "https://api-hl.amemv.com/aweme/v1/play/?video_id=v0300fg10000cmbj273c77u3s7f467lg&line=1&file_id=b2956a2a8c6541cdaf71e3c57bfb8d09&sign=7b13d26a96f904b2491d1d275d88f5c0&is_play_url=1&source=PackSourceEnum_FEED"
    },
    {
        "file_hash": "b79dfc8893ebaf05d2fcd3df23734bc0",
        "create_time": 1703473395,
        "title": "#人类幼崽 我努力仰起头，不让眼泪掉下来",
        "author": "大桐小璨",
        "thumbnail": "https://p3-sign.douyinpic.com/tos-cn-p-0015/oQnjcmAAHKPAI0n4eeERIWwGtYeC2DDBgReA2J~tplv-dy-360p.jpeg?x-expires=1706511600&x-signature=MOuUKtKwHjbmVhsikX%2BOiuf%2B6q4%3D&from=3213915784&s=PackSourceEnum_FEED&se=false&sc=origin_cover&biz_tag=aweme_video&l=02170530334390500000000000000000000ffff0a1b30c21c89ca",
        "videoPlayUrl": "https://api-hl.amemv.com/aweme/v1/play/?video_id=v0d00fg10000cm4f1hbc77u5np364g3g&line=1&file_id=8f35d06e1e724834afb2f8f565779f97&sign=b79dfc8893ebaf05d2fcd3df23734bc0&is_play_url=1&source=PackSourceEnum_FEED"
    }
]