[
    {
        "file_hash": "141ef2c61bbf6278a82dcf9705cb46cb",
        "create_time": 1704186335,
        "title": "男人被误导炒股失败，一瞬间倾家荡产#江苏卫视繁花",
        "author": "江苏卫视",
        "thumbnail": "https://p6-sign.douyinpic.com/tos-cn-p-0015/oko9lAQLFDnxgTAHQFUABaAncCee9ksDvMCabN~tplv-dy-360p.jpeg?x-expires=1706515200&x-signature=xylldtdEAstKzkL8S42g4NTLtkk%3D&from=3213915784&s=PackSourceEnum_FEED&se=false&sc=origin_cover&biz_tag=aweme_video&l=02170530799974800000000000000000000ffff0a97da6351b65d",
        "videoPlayUrl": "https://api-hl.amemv.com/aweme/v1/play/?video_id=v0200fg10000cm9t2hrc77u5mg17hm70&line=1&file_id=53d0ce4d66fd4279803ff72ed8a5b9f7&sign=141ef2c61bbf6278a82dcf9705cb46cb&is_play_url=1&source=PackSourceEnum_FEED"
    },
    {
        "file_hash": "fb31482aed8d9b7586bcd0c60badb733",
        "create_time": 1703134403,
        "title": "女贪官“蚂蚁搬家”式侵吞百万元：看到自己侵吞的一笔笔资金，她自己都被吓了一跳",
        "author": "反腐前沿",
        "thumbnail": "https://p9-sign.douyinpic.com/tos-cn-p-0015/osDtefJ1AM79UzBEAExAQ0NQ6vhAglpCgBBDIT~tplv-dy-360p.jpeg?x-expires=1706515200&x-signature=OT%2BHcxThbtI3TXGTfKzC%2Fiezyx0%3D&from=3213915784&s=PackSourceEnum_FEED&se=false&sc=origin_cover&biz_tag=aweme_video&l=02170530792745400000000000000000000ffff0a97da6325633e",
        "videoPlayUrl": "https://api-hl.amemv.com/aweme/v1/play/?video_id=v0200fg10000cm1s98bc77u1q4q3m420&line=1&file_id=81cb80cf38b5457db77dc0c871f3dc15&sign=fb31482aed8d9b7586bcd0c60badb733&is_play_url=1&source=PackSourceEnum_FEED"
    },
    {
        "file_hash": "449b713fcd58b5be4109fce37c0370b3",
        "create_time": 1703936388,
        "title": "12月30日，电影《一闪一闪亮星星》元旦档票房（含预售）突破3.72亿，下雪场有网友经历暴雪，有网友经历小雪",
        "author": "大象新闻",
        "thumbnail": "https://p9-sign.douyinpic.com/tos-cn-p-0015/o0Dn4Kf6D5ZIgh8glXEAMBAbdFG9BkAkAgAeN8~tplv-dy-360p.jpeg?x-expires=1706515200&x-signature=omylw8sJ3X%2BzRDZERyRIapsVS8k%3D&from=3213915784&s=PackSourceEnum_FEED&se=false&sc=origin_cover&biz_tag=aweme_video&l=021705308105938fdbddc0200ff050044ce8c7df0698f351675da",
        "videoPlayUrl": "https://api-hl.amemv.com/aweme/v1/play/?video_id=v0300fg10000cm802p3c77u1jkqcu170&line=1&file_id=73f09b0b12844e6ca73cbf5b01e59bb7&sign=449b713fcd58b5be4109fce37c0370b3&is_play_url=1&source=PackSourceEnum_FEED"
    },
    {
        "file_hash": "d304d1077e201d63272ad4c06d00a333",
        "create_time": 1705031958,
        "title": "",
        "author": "徐铁锤（已-35斤）",
        "thumbnail": "https://p11-sign.douyinpic.com/tos-cn-p-0015/oELlBgy1DIReWeuAWgXQoEuH9crVnACQAbkQEC~tplv-dy-360p.jpeg?x-expires=1706515200&x-signature=75lt7QvJIIsBblDxLs3YUWE9Z70%3D&from=3213915784&s=PackSourceEnum_FEED&se=false&sc=origin_cover&biz_tag=aweme_video&l=02170530814889100000000000000000000ffff0a9f93d3c0cef4",
        "videoPlayUrl": "https://api-hl.amemv.com/aweme/v1/play/?video_id=v0200fg10000cmgbe23c77u8bldam210&line=1&file_id=07805ead333d48d6a6eb46e95d5746a4&sign=d304d1077e201d63272ad4c06d00a333&is_play_url=1&source=PackSourceEnum_FEED"
    },
    {
        "file_hash": "e1c94f7ebbb4fa4107971d51240fd3b9",
        "create_time": 1705127952,
        "title": "毁三观！日本一外卖员给女友发“卖淫日历”，强迫女友卖淫给自己花钱#日本 #迷惑行为",
        "author": "鹿闻天下",
        "thumbnail": "https://p6-sign.douyinpic.com/tos-cn-p-0015/oI3pMRLNzIqBgiLgAIfBCteBMBtEyNAIh3gHA0~tplv-dy-360p.jpeg?x-expires=1706515200&x-signature=sIOp6NbIKZtUGZrrBVmgzt5etPk%3D&from=3213915784&s=PackSourceEnum_FEED&se=false&sc=origin_cover&biz_tag=aweme_video&l=02170530796131300000000000000000000ffff0a97da639ca4c0",
        "videoPlayUrl": "https://api-hl.amemv.com/aweme/v1/play/?video_id=v0200fg10000cmh300rc77ub6ht4gcg0&line=1&file_id=6f88c97651c044459594f5cb0cf4cbb7&sign=e1c94f7ebbb4fa4107971d51240fd3b9&is_play_url=1&source=PackSourceEnum_FEED"
    },
    {
        "file_hash": "80f76566344317b13e6b5c548c5374b4",
        "create_time": 1705237496,
        "title": "这球动作就像足球里的动作#dou来cba新赛季 #北京北汽男篮 #姜文",
        "author": "体育世界",
        "thumbnail": "https://p3-sign.douyinpic.com/tos-cn-p-0015/oEblNC91AFnoCHgDpteuzQGfAoiCQgBI9yCCGA~tplv-dy-360p.jpeg?x-expires=1706515200&x-signature=S91IwlobdmJq8B0cmzOAzvnbBts%3D&from=3213915784&s=PackSourceEnum_FEED&se=false&sc=origin_cover&biz_tag=aweme_video&l=021705307726533fdbddc0200ff05000f0b3d8a2df42c3a754f9f",
        "videoPlayUrl": "https://api-hl.amemv.com/aweme/v1/play/?video_id=v0200fg10000cmhtncrc77u41g842pa0&line=1&file_id=acd2878e2f624606bbe51b748e7d1932&sign=80f76566344317b13e6b5c548c5374b4&is_play_url=1&source=PackSourceEnum_FEED"
    },
    {
        "file_hash": "f39e3b470fd540d460e20c9043ca6575",
        "create_time": 1704229393,
        "title": "#抖音热歌#忘了吧，与家人们分享，忘了2023年不愉快，迎接2024年欢乐#山东云姐对口型唱歌#伤感音乐",
        "author": "山东云姐",
        "thumbnail": "https://p26-sign.douyinpic.com/tos-cn-p-0015/oQb9QAnpCQqUckFor6BOQjyegDehAlAHlunN3D~tplv-dy-360p.jpeg?x-expires=1706515200&x-signature=9gNwBlEDp4a1wcpLadOYsLKqupM%3D&from=3213915784&s=PackSourceEnum_FEED&se=false&sc=origin_cover&biz_tag=aweme_video&l=02170530784472700000000000000000000ffff0a97da63a9bb63",
        "videoPlayUrl": "https://api-hl.amemv.com/aweme/v1/play/?video_id=v0d00fg10000cma7jqjc77u8a8n5elgg&line=1&file_id=eaac191e67d848f8b85b056f85b33340&sign=f39e3b470fd540d460e20c9043ca6575&is_play_url=1&source=PackSourceEnum_FEED"
    }
]