[
    {
        "file_hash": "e54d92837cec53b64bdaff76bab41aa1",
        "create_time": 1704463134,
        "title": "清洁工一曲天籁之音，感动了全场#没人关心没人懂",
        "author": "娟儿♥",
        "thumbnail": "https://p9-sign.douyinpic.com/tos-cn-p-0015/okBWACazrfqh5AAAIyhzLytGIqCRgV9qACYvSe~tplv-dy-360p.jpeg?x-expires=1706493600&x-signature=3xpfyXXn%2B0RDLyk6cwsrPPA2wP4%3D&from=3213915784&s=PackSourceEnum_FEED&se=false&sc=origin_cover&biz_tag=aweme_video&l=02170528621193500000000000000000000ffff0a18659b16b6e5",
        "videoPlayUrl": "https://api-hl.amemv.com/aweme/v1/play/?video_id=v0200fg10000cmc0lnrc77ubsqnl4q30&line=1&file_id=e8daa69f5da14786878b36aeebee9800&sign=e54d92837cec53b64bdaff76bab41aa1&is_play_url=1&source=PackSourceEnum_FEED"
    },
    {
        "file_hash": "5832379181ac6a7f8d191f354aeb4944",
        "create_time": 1704878557,
        "title": "这只泰迪熊的颜色有点治愈，像一只玩具小熊一样也太乖了吧！#奶油色泰迪熊#萌宠出道计划#狗狗#可爱",
        "author": "狗爪爪萌宠宠物",
        "thumbnail": "https://p11-sign.douyinpic.com/tos-cn-p-0015/oEf5opggDFnAnCe8m6BEJlhHRKPA9AEsg53sby~tplv-dy-360p.jpeg?x-expires=1706493600&x-signature=p5t0EQr7Zh%2Fz5kAcKPCrfzjb7Ak%3D&from=3213915784&s=PackSourceEnum_FEED&se=false&sc=origin_cover&biz_tag=aweme_video&l=02170528614247800000000000000000000ffff0a18659b250252",
        "videoPlayUrl": "https://api-hl.amemv.com/aweme/v1/play/?video_id=v0200fg10000cmf63hbc77u49s99pb50&line=1&file_id=bddf4063e1d5464582a92f685cf3dfd5&sign=5832379181ac6a7f8d191f354aeb4944&is_play_url=1&source=PackSourceEnum_FEED"
    },
    {
        "file_hash": "98e1325f36dfab4f11be680d7e33ad70",
        "create_time": 1704204911,
        "title": "1月2日，韩国共同民主党发言人权七胜：李在明已恢复清醒。目前仍在重症监护室，手术持续了约2小时",
        "author": "大象新闻",
        "thumbnail": "https://p11-sign.douyinpic.com/tos-cn-p-0015/os009ACzyBGGs2Ffh5bg9AIhAAPUNyAgBeIn2A~tplv-dy-360p.jpeg?x-expires=1706493600&x-signature=avdsHAQGFrnulF9D%2B1PEETiMrzM%3D&from=3213915784&s=PackSourceEnum_FEED&se=false&sc=origin_cover&biz_tag=aweme_video&l=02170528593340500000000000000000000ffff0a18659bd8215a",
        "videoPlayUrl": "https://api-hl.amemv.com/aweme/v1/play/?video_id=v0200fg10000cma1k03c77u6gg9sbcq0&line=1&file_id=13997b1d2f6844459bde1cfe39c26008&sign=98e1325f36dfab4f11be680d7e33ad70&is_play_url=1&source=PackSourceEnum_FEED"
    },
    {
        "file_hash": "0c9c0b27e2276d5a9a85a36a2e63d3fb",
        "create_time": 1703072413,
        "title": "让你小子秀恩爱，掉沟里了吧！ #如此可爱的我们 #李明德 #谈宋",
        "author": "甜剧指南",
        "thumbnail": "https://p26-sign.douyinpic.com/tos-cn-p-0015/oQb9IAKcgbU4qwfCTEBCAFS0gAeqAlAtgQnDRD~tplv-dy-360p.jpeg?x-expires=1706493600&x-signature=fxOGWaHTqUXHpjkrYA3O9yEGqc8%3D&from=3213915784&s=PackSourceEnum_FEED&se=false&sc=origin_cover&biz_tag=aweme_video&l=02170528600317400000000000000000000ffff0a18659b2c3439",
        "videoPlayUrl": "https://api-hl.amemv.com/aweme/v1/play/?video_id=v0300fg10000cm1d553c77udn7q90jg0&line=1&file_id=20c350e4cc614c32999d033d52c24537&sign=0c9c0b27e2276d5a9a85a36a2e63d3fb&is_play_url=1&source=PackSourceEnum_FEED"
    },
    {
        "file_hash": "bfe803c823ef262ef9afc22d094318b4",
        "create_time": 1703210897,
        "title": "天津跳水大爷 “老镰刀”苏长海：每天强迫自己出门逃避孤独，热闹一场，剩下美好回忆一段。#又见2023",
        "author": "四川观察",
        "thumbnail": "https://p26-sign.douyinpic.com/tos-cn-p-0015/ogLGaBEDDCiQdAe7KBdAl5ODjCBwATbeXe7nDM~tplv-dy-360p.jpeg?x-expires=1706493600&x-signature=6eQC49OSUVJjWvtCt3ufj0sxIWs%3D&from=3213915784&s=PackSourceEnum_FEED&se=false&sc=origin_cover&biz_tag=aweme_video&l=02170528618542900000000000000000000ffff0a18659be2906a",
        "videoPlayUrl": "https://api-hl.amemv.com/aweme/v1/play/?video_id=v0d00fg10000cm2ev0rc77u50sn0th30&line=1&file_id=ca36ab09c0c7479ba894cf5b19c74b5f&sign=bfe803c823ef262ef9afc22d094318b4&is_play_url=1&source=PackSourceEnum_FEED"
    },
    {
        "file_hash": "24f8be583193db318b7c765233e1bc1b",
        "create_time": 1704152292,
        "title": "女儿剪出“爸爸”字样窗花，没想到阳光下的倒影竟然成了“狗狗”两字！#萌娃搞笑日常 #搞笑家庭欢乐多",
        "author": "头很大的十九",
        "thumbnail": "https://p11-sign.douyinpic.com/tos-cn-p-0015/o8gffD0GlA2YTFFTAnBCiXGk8DzQNQb9OAu6TI~tplv-dy-360p.jpeg?x-expires=1706493600&x-signature=eW3ORn6l8IjE2lo1jUTyQkhtpB0%3D&from=3213915784&s=PackSourceEnum_FEED&se=false&sc=origin_cover&biz_tag=aweme_video&l=021705285932957fdbddc02002805380000000000000025497c76",
        "videoPlayUrl": "https://api-hl.amemv.com/aweme/v1/play/?video_id=v0d00fg10000cm9kphbc77u4vas6v2i0&line=1&file_id=014c41a81c554950b6368658d7f80ee6&sign=24f8be583193db318b7c765233e1bc1b&is_play_url=1&source=PackSourceEnum_FEED"
    },
    {
        "file_hash": "0c2188bf0d3ecab1f42f647abc34a302",
        "create_time": 1702955601,
        "title": "#这谁顶得住啊 恢复锻炼了#好身材就要不断的雕刻",
        "author": "吴伟思",
        "thumbnail": "https://p3-sign.douyinpic.com/tos-cn-p-0015/osCMg6J9qIafACeADlQgjon386bBABlpmACBuX~tplv-dy-360p.jpeg?x-expires=1706493600&x-signature=44RQsRqv07HJBkU%2FBGqiPHZc5Ds%3D&from=3213915784&s=PackSourceEnum_FEED&se=false&sc=origin_cover&biz_tag=aweme_video&l=02170528612484100000000000000000000ffff0a18659b4fe354",
        "videoPlayUrl": "https://api-hl.amemv.com/aweme/v1/play/?video_id=v0200fg10000cm0gkejc77udrbrspat0&line=1&file_id=126d45dd51854bfead5e27c1e736fd29&sign=0c2188bf0d3ecab1f42f647abc34a302&is_play_url=1&source=PackSourceEnum_FEED"
    },
    {
        "file_hash": "0a7c9a1cbe00c208e60d3e6d96f3a9b3",
        "create_time": 1704374661,
        "title": "高手在民间，这一拜一般人确实拜不好#这一拜#民间歌手",
        "author": "探歌音乐（车载U盘）",
        "thumbnail": "https://p3-sign.douyinpic.com/tos-cn-p-0015/oY6PDZnrQeAFQPBlQBDCkYAPACreb90tlFxcgi~tplv-dy-360p.jpeg?x-expires=1706493600&x-signature=jfEzouXFHsh3DyWxsAQfNv%2F8rb4%3D&from=3213915784&s=PackSourceEnum_FEED&se=false&sc=origin_cover&biz_tag=aweme_video&l=02170528621290800000000000000000000ffff0a1b2b9c39a895",
        "videoPlayUrl": "https://api-hl.amemv.com/aweme/v1/play/?video_id=v0200fg10000cmbb2qrc77u1egn8fh40&line=1&file_id=98e0f1f6ee3c4db78261c2df21805654&sign=0a7c9a1cbe00c208e60d3e6d96f3a9b3&is_play_url=1&source=PackSourceEnum_FEED"
    }
]