[
    {
        "file_hash": "c560e1f7f4c58c32f5663457da7f9270",
        "create_time": 1703847600,
        "title": "“我拒绝参加在加沙的罪恶战争”#以色列18岁青年拒服兵役被判30天监禁 ，本轮冲突第一个因良心拒服兵役者！“我相信屠杀并不能解决‘屠杀问题’”#巴以冲突",
        "author": "看看新闻Knews",
        "thumbnail": "https://p11-sign.douyinpic.com/tos-cn-p-0015/oUCYaBxpyCA852zOBJfhgDzCAxAekb2IIatzDz~tplv-dy-360p.jpeg?x-expires=1706515200&x-signature=T7ZY7Qwsax5OpAsfG2eOlO2WuG4%3D&from=3213915784&s=PackSourceEnum_FEED&se=false&sc=origin_cover&biz_tag=aweme_video&l=021705308015158fdbddc0200ff05006c348c948416765ca877a0",
        "videoPlayUrl": "https://api-hl.amemv.com/aweme/v1/play/?video_id=v0300fg10000cm7631bc77u9d0mf7mkg&line=1&file_id=7351635488134a168fed42f117ad75cc&sign=c560e1f7f4c58c32f5663457da7f9270&is_play_url=1&source=PackSourceEnum_FEED"
    },
    {
        "file_hash": "3f6ca34fefc779a3ad786bd8bb851cac",
        "create_time": 1704447047,
        "title": "小流浪猫们翻墙越院去便便，难为它们了，给它们做个冬季猫咪公厕#流浪猫#依宝 #依起过暖冬 #依宝专利益生菌猫粮",
        "author": "五月妈和院儿里的小流浪们",
        "thumbnail": "https://p6-sign.douyinpic.com/tos-cn-p-0015/osJAnklIXfNn3BQqgUCY6bDKeAA9uDlWU1FodI~tplv-dy-360p.jpeg?x-expires=1706515200&x-signature=8EJXHpB8pGjbiJzRGx%2BznOB462M%3D&from=3213915784&s=PackSourceEnum_FEED&se=false&sc=origin_cover&biz_tag=aweme_video&l=02170530783782500000000000000000000ffff0a9fce24b1d748",
        "videoPlayUrl": "https://api-hl.amemv.com/aweme/v1/play/?video_id=v0200fg10000cmbqi53c77uba7q0adqg&line=1&file_id=4b27e2758f9147b2859d1ba7d4c3acd3&sign=3f6ca34fefc779a3ad786bd8bb851cac&is_play_url=1&source=PackSourceEnum_FEED"
    },
    {
        "file_hash": "b91556b3066c0e67b238f40a37272b30",
        "create_time": 1704418184,
        "title": "1月2日（发布），江苏；盲人姐弟的上学路 随地摆放的自行车值得深思，路人的善举让人感动。",
        "author": "爱义乌",
        "thumbnail": "https://p6-sign.douyinpic.com/tos-cn-p-0015/ogIzyyBEMM06ABk1dk2AbQzAh6D4X3qI3gNfeW~tplv-dy-360p.jpeg?x-expires=1706515200&x-signature=gOCmPtCesJ%2B7oudZGpgCmzZz%2F7s%3D&from=3213915784&s=PackSourceEnum_FEED&se=false&sc=origin_cover&biz_tag=aweme_video&l=02170530798984000000000000000000000ffff0a9fce24f0fa98",
        "videoPlayUrl": "https://api-hl.amemv.com/aweme/v1/play/?video_id=v0300fg10000cmblmq3c77u4qtph1ni0&line=1&file_id=fa3eaf584c594585a963f237c1da818a&sign=b91556b3066c0e67b238f40a37272b30&is_play_url=1&source=PackSourceEnum_FEED"
    },
    {
        "file_hash": "4c4ce2e2271b0d35f73e1d3ef7fe0e9c",
        "create_time": 1705194000,
        "title": "男子在散步路上发现一只松鼠 以为是冻住了 给它做心脏复苏",
        "author": "江西旅游广播",
        "thumbnail": "https://p6-sign.douyinpic.com/tos-cn-p-0015/ow40re4LRAq0BNaCHfJZK7zCGri2QHc6Be4AQP~tplv-dy-360p.jpeg?x-expires=1706515200&x-signature=EGHwABRtj3gdJPd3ser8bdJWz6M%3D&from=3213915784&s=PackSourceEnum_FEED&se=false&sc=origin_cover&biz_tag=aweme_video&l=02170530796263700000000000000000000ffff0a9fce242a98e9",
        "videoPlayUrl": "https://api-hl.amemv.com/aweme/v1/play/?video_id=v0300fg10000cmhct3bc77u7vh5pk6u0&line=1&file_id=f104be86f7224d798c0fcc4d95cafa29&sign=4c4ce2e2271b0d35f73e1d3ef7fe0e9c&is_play_url=1&source=PackSourceEnum_FEED"
    },
    {
        "file_hash": "b54d9efea96bdf2bee6828cb2852a61c",
        "create_time": 1703614800,
        "title": "#影视解说",
        "author": "姗姗影视",
        "thumbnail": "https://p11-sign.douyinpic.com/tos-cn-p-0015/oAnByWJlzIitnKFVAUfBN1eNLBtEyQAIhHgqAx~tplv-dy-360p.jpeg?x-expires=1706515200&x-signature=N0i4YR8T1sUVa42dqA9Aow1BOZg%3D&from=3213915784&s=PackSourceEnum_FEED&se=false&sc=origin_cover&biz_tag=aweme_video&l=02170530802845400000000000000000000ffff0a9fce243b4e64",
        "videoPlayUrl": "https://api-hl.amemv.com/aweme/v1/play/?video_id=v0d00fg10000cm5cl6rc77u5iqg58bjg&line=1&file_id=0d09d279c8d54470b781df035169cd86&sign=b54d9efea96bdf2bee6828cb2852a61c&is_play_url=1&source=PackSourceEnum_FEED"
    },
    {
        "file_hash": "e8226aa259a9ddf6075a188974b4b808",
        "create_time": 1703044448,
        "title": "灵石县中医院新建项目正在紧锣密鼓的建设中！#今日灵石",
        "author": "今日灵石",
        "thumbnail": "https://p11-sign.douyinpic.com/tos-cn-p-0015/ogsjCbvInAale05AFCDZmgIWgBNAye9gTP9ZVA~tplv-dy-360p.jpeg?x-expires=1706515200&x-signature=YZe4e0F3Sb3Yv%2Fxo0IqQngARjvg%3D&from=3213915784&s=PackSourceEnum_FEED&se=false&sc=origin_cover&biz_tag=aweme_video&l=02170530793389200000000000000000000ffff0a9fce2430a7c6",
        "videoPlayUrl": "https://api-hl.amemv.com/aweme/v1/play/?video_id=v0d00fg10000cm16ahbc77u9sh3jtnv0&line=1&file_id=a50dedd701164213a9a3e30ef44a92ee&sign=e8226aa259a9ddf6075a188974b4b808&is_play_url=1&source=PackSourceEnum_FEED"
    },
    {
        "file_hash": "49a6cd3c89df4904e3b1c69f9129e831",
        "create_time": 1704038271,
        "title": "老公笑这么开心是有原因的 因为小螃蟹特别会合唱🥹🫰🏻#王俊凯粉丝合唱",
        "author": "为小俊写诗",
        "thumbnail": "https://p6-sign.douyinpic.com/tos-cn-p-0015/o4RbJfB9CzlukFAejgtkAN4TItN7vBAhaVIlYA~tplv-dy-360p.jpeg?x-expires=1706515200&x-signature=3fqpSXxXi1gAPFi1blsDVdsV7Yg%3D&from=3213915784&s=PackSourceEnum_FEED&se=false&sc=origin_cover&biz_tag=aweme_video&l=02170530810390500000000000000000000ffff0a9fce24deb842",
        "videoPlayUrl": "https://api-hl.amemv.com/aweme/v1/play/?video_id=v0200fg10000cm8outrc77u9np0l6ddg&line=1&file_id=dce7eaedcf6e401f99de8391e38a15c8&sign=49a6cd3c89df4904e3b1c69f9129e831&is_play_url=1&source=PackSourceEnum_FEED"
    },
    {
        "file_hash": "5395a2b911eb5892970a17fa57a04869",
        "create_time": 1704467385,
        "title": "#哈尔滨 #哈尔滨小土豆 #现在尔滨提土豆老好使了 #",
        "author": "Kakuki",
        "thumbnail": "https://p26-sign.douyinpic.com/tos-cn-p-0015/o8sIgDDB9ttIlAGbYj5muB7qe3PnABe1NBtAXD~tplv-dy-360p.jpeg?x-expires=1706515200&x-signature=xua5ebe5z9ISzJVdxvDdTnEJbzo%3D&from=3213915784&s=PackSourceEnum_FEED&se=false&sc=origin_cover&biz_tag=aweme_video&l=02170530798630000000000000000000000ffff0a9fce249d0482",
        "videoPlayUrl": "https://api-hl.amemv.com/aweme/v1/play/?video_id=v0d00fg10000cmc1mtbc77u1gflk7nsg&line=1&file_id=ea58da807709405c9e450ab9552f45cc&sign=5395a2b911eb5892970a17fa57a04869&is_play_url=1&source=PackSourceEnum_FEED"
    },
    {
        "file_hash": "939c0b3d107a10fda8271e479342dd85",
        "create_time": 1704448529,
        "title": "经济日报:人民币资产具吸引力，人民币汇率有望延续回升态势 #人民币 #人民币汇率 #经济日报 #人民币资产 #财经",
        "author": "TVB明珠台财经",
        "thumbnail": "https://p9-sign.douyinpic.com/tos-cn-p-0015/o8LALjlIXx0zgBA0goDhethGfAA92AlKSkFE9I~tplv-dy-360p.jpeg?x-expires=1706515200&x-signature=Su1DhX%2B%2BDQd9Uxy1jkjw2qwEgCU%3D&from=3213915784&s=PackSourceEnum_FEED&se=false&sc=origin_cover&biz_tag=aweme_video&l=02170530809157000000000000000000000ffff0a9fce2490c910",
        "videoPlayUrl": "https://api-hl.amemv.com/aweme/v1/play/?video_id=v0300fg10000cmbt3kbc77ua2c80bki0&line=1&file_id=e09ab36be6aa4cf9947df0ee93b8c984&sign=939c0b3d107a10fda8271e479342dd85&is_play_url=1&source=PackSourceEnum_FEED"
    }
]