[
    {
        "file_hash": "f28239706d38195f53e8dbdffdc528c1",
        "create_time": 1703587790,
        "title": "鹦鹉小灰又因为骂人火了，饲养员：“太难了！很难掰过来！”#网红 #鹦鹉鹦鹉萌萌哒逗鹦鹉 #云南野生动物园",
        "author": "8099999",
        "thumbnail": "https://p11-sign.douyinpic.com/tos-cn-p-0015/oYAAB87K9zlINBmLL2zq1IG2Dir9hffg40jACV~tplv-dy-360p.jpeg?x-expires=1706515200&x-signature=ZQIPHf2ClwKPfOYml4YtTgB6lo0%3D&from=3213915784&s=PackSourceEnum_FEED&se=false&sc=origin_cover&biz_tag=aweme_video&l=02170530788990100000000000000000000ffff0a903bdcfb5de3",
        "videoPlayUrl": "https://api-hl.amemv.com/aweme/v1/play/?video_id=v0300fg10000cm5av33c77ubplcfbr10&line=1&file_id=ca2f768ffd07431191414e9cd2b057f5&sign=f28239706d38195f53e8dbdffdc528c1&is_play_url=1&source=PackSourceEnum_FEED"
    },
    {
        "file_hash": "b9640503b15e92a711d17bda7c87b5a3",
        "create_time": 1703341275,
        "title": "海上钻井平台喂鱼抢食！ #艺术在抖音 #探寻好生活的百种温度 #知识前沿派对",
        "author": "世界之最",
        "thumbnail": "https://p9-sign.douyinpic.com/tos-cn-p-0015/oklMQNRAAnDwKggaQ2TBbebIxANeSAwg9uh0GB~tplv-dy-360p.jpeg?x-expires=1706515200&x-signature=EDIBZzj43T8pQV9kEorLqTRMOnY%3D&from=3213915784&s=PackSourceEnum_FEED&se=false&sc=origin_cover&biz_tag=aweme_video&l=02170530790723800000000000000000000ffff0a91356633ac4c",
        "videoPlayUrl": "https://api-hl.amemv.com/aweme/v1/play/?video_id=v0d00fg10000cm3eokjc77u48638a8k0&line=1&file_id=9a202d35126c4cd9865d6b2603c0adf9&sign=b9640503b15e92a711d17bda7c87b5a3&is_play_url=1&source=PackSourceEnum_FEED"
    },
    {
        "file_hash": "7a01b042f0d765621956aacd9868ec09",
        "create_time": 1704876222,
        "title": "赵明：荣耀要超越华为的信号 苹果的拍照#荣耀 #华为 #数码科技",
        "author": "快科技",
        "thumbnail": "https://p26-sign.douyinpic.com/tos-cn-p-0015/oIeGf5C7EPL8PWBFWAZfA9LPQ2gS39BHz3QuLB~tplv-dy-360p.jpeg?x-expires=1706515200&x-signature=to08w38CiXuTwyQPiYry9GtO9gc%3D&from=3213915784&s=PackSourceEnum_FEED&se=false&sc=origin_cover&biz_tag=aweme_video&l=021705307734199fdbddc0200ff0500dd49e873a22f49f764ece4",
        "videoPlayUrl": "https://api-hl.amemv.com/aweme/v1/play/?video_id=v0200fg10000cmf5habc77ufuvtcfg1g&line=1&file_id=e908b84d8602459fb3bff687514c552c&sign=7a01b042f0d765621956aacd9868ec09&is_play_url=1&source=PackSourceEnum_FEED"
    },
    {
        "file_hash": "8972eefea47dcbc95439ba1ed6d0ab1f",
        "create_time": 1704859260,
        "title": "喊女儿下楼吃饭，没想到姐姐拿捏了全家 #家庭搞笑 #亲子搞笑 #姐弟日常",
        "author": "爱哆哆一家人",
        "thumbnail": "https://p6-sign.douyinpic.com/tos-cn-p-0015/oIhhnDg1UDL8rtllAACgQFQebVAUJBACgnd9ne~tplv-dy-360p.jpeg?x-expires=1706515200&x-signature=fPw2cmzkVvhJSLySLEIl3EdjUhA%3D&from=3213915784&s=PackSourceEnum_FEED&se=false&sc=origin_cover&biz_tag=aweme_video&l=021705307795183fdbddc0200ff05006d7cf199a51a40f6cee215",
        "videoPlayUrl": "https://api-hl.amemv.com/aweme/v1/play/?video_id=v0200fg10000cmf1aobc77ueqsl83g00&line=1&file_id=7f5f8bfbc5f141c8868126fda2f3b3d2&sign=8972eefea47dcbc95439ba1ed6d0ab1f&is_play_url=1&source=PackSourceEnum_FEED"
    },
    {
        "file_hash": "29172b95ec365a92c3f0ab8d2d35ed53",
        "create_time": 1703509452,
        "title": "#跑姿欣赏 #跑步训练",
        "author": "赛虎计时",
        "thumbnail": "https://p9-sign.douyinpic.com/tos-cn-p-0015/oUcpgY83ZmNwamSSACnAAyik9DlgfBMAfXDtbE~tplv-dy-360p.jpeg?x-expires=1706515200&x-signature=lmUxaBZ5Qa14YVikxqmosMw28yw%3D&from=3213915784&s=PackSourceEnum_FEED&se=false&sc=origin_cover&biz_tag=aweme_video&l=021705307897603fdbddc0200ff05006d7cf199a51a40f6565244",
        "videoPlayUrl": "https://api-hl.amemv.com/aweme/v1/play/?video_id=v0d00fg10000cm4npc3c77u90eddkpj0&line=1&file_id=ee7ab8ec8dbd41979eff76c3ba43953a&sign=29172b95ec365a92c3f0ab8d2d35ed53&is_play_url=1&source=PackSourceEnum_FEED"
    },
    {
        "file_hash": "7d4a9f430848ce65d6b1619e909175ab",
        "create_time": 1703941807,
        "title": "路招摇：好好好 真是好得很呐#招摇 #白鹿 #许凯 #路招摇 #厉尘澜",
        "author": "桃厂古装剧场",
        "thumbnail": "https://p6-sign.douyinpic.com/tos-cn-p-0015/oMFzfBcMAANxGmtQIA5rhtQVNFyzyIAvtAPeg4~tplv-dy-360p.jpeg?x-expires=1706515200&x-signature=HtgpO30Uf4aoGtwIZfV5zljjcFE%3D&from=3213915784&s=PackSourceEnum_FEED&se=false&sc=origin_cover&biz_tag=aweme_video&l=021705307863439fdbddc0200ff05006d7cf199a51a40f65a534c",
        "videoPlayUrl": "https://api-hl.amemv.com/aweme/v1/play/?video_id=v0d00fg10000cm81darc77ud6brgu680&line=1&file_id=cf4108da2c004332b3149ac1d6574614&sign=7d4a9f430848ce65d6b1619e909175ab&is_play_url=1&source=PackSourceEnum_FEED"
    },
    {
        "file_hash": "f950200fcd591e6f7b409e3d58ae9dfe",
        "create_time": 1703042401,
        "title": "“亿万富翁之子”解清帅重生（二十）：75岁奶奶见到孙子泪流满面，瘫痪在床多年，要见到孙子再走。#时间的答案2023  #抖音热点记忆2023",
        "author": "九派新闻",
        "thumbnail": "https://p9-sign.douyinpic.com/tos-cn-p-0015/oo7C9jl0lIC8AYA3MBgiRyLiARBAKGAmegf1wN~tplv-dy-360p.jpeg?x-expires=1706515200&x-signature=gYz6NZNGG5UfGo2U9eYyRyW64XI%3D&from=3213915784&s=PackSourceEnum_FEED&se=false&sc=origin_cover&biz_tag=aweme_video&l=02170530793311500000000000000000000ffff0a187112eda7e9",
        "videoPlayUrl": "https://api-hl.amemv.com/aweme/v1/play/?video_id=v0200fg10000cm135vfog65n53a6drig&line=1&file_id=c7681f3902ab40f0a69371ccdc0132e1&sign=f950200fcd591e6f7b409e3d58ae9dfe&is_play_url=1&source=PackSourceEnum_FEED"
    },
    {
        "file_hash": "1874e9f8d0390158414e79f4cf1d1791",
        "create_time": 1704122302,
        "title": "新郎接亲路上遇“拦门酒阵”，兄弟团二话不说直接开炫为新郎开路：一共有520杯，后面怕出事没让他们喝了【来源：@西澳 】#湘湘的晚安系列",
        "author": "潇湘晨报",
        "thumbnail": "https://p6-sign.douyinpic.com/tos-cn-p-0015/ooSyDgv6bASFBexygIfly1DzON4mI8WhAAB2SI~tplv-dy-360p.jpeg?x-expires=1706515200&x-signature=DSpm1ISNdUEzm3NfdollZvga5ew%3D&from=3213915784&s=PackSourceEnum_FEED&se=false&sc=origin_cover&biz_tag=aweme_video&l=021705308101450fdbddc0200ff05006d7cf199a51a40f6801608",
        "videoPlayUrl": "https://api-hl.amemv.com/aweme/v1/play/?video_id=v0300fg10000cm9df73c77u59e78h6ig&line=1&file_id=b3080f1ac14b4b6596cc2281514681fa&sign=1874e9f8d0390158414e79f4cf1d1791&is_play_url=1&source=PackSourceEnum_FEED"
    }
]