[
    {
        "file_hash": "359c243f6810d11a891a2cbae653334c",
        "create_time": 1703903005,
        "title": "火车上一男子接完电话崩溃大哭，22岁儿子出车祸身亡，刚退伍回家准备去深圳工作！",
        "author": "江西民生广播",
        "thumbnail": "https://p26-sign.douyinpic.com/tos-cn-p-0015/oIyvxXAMVHN9fvALAgEAgfge23BIsCBanPw7H4~tplv-dy-360p.jpeg?x-expires=1706515200&x-signature=jy0EPePwtGN3zyYBUQPe46IUCGY%3D&from=3213915784&s=PackSourceEnum_FEED&se=false&sc=origin_cover&biz_tag=aweme_video&l=021705307871273fdbddc0200ff0500c005a4187ae3cb7ffcca64",
        "videoPlayUrl": "https://api-hl.amemv.com/aweme/v1/play/?video_id=v0d00fg10000cm7ntubc77u63s0lbps0&line=1&file_id=f27b7a18112b41fe9ce77845ac3f3d6a&sign=359c243f6810d11a891a2cbae653334c&is_play_url=1&source=PackSourceEnum_FEED"
    },
    {
        "file_hash": "058a6a86beb47362ce0394665b6aa2ad",
        "create_time": 1704253533,
        "title": "这个系列怎么能少得了幼师！#文港六一艺术幼儿园 #解锁天天跺脚生闷气",
        "author": "六一吖",
        "thumbnail": "https://p11-sign.douyinpic.com/tos-cn-p-0015/owZsLGfklsAsWoupBT8DgZnkAlA9vfmggrb5CN~tplv-dy-360p.jpeg?x-expires=1706515200&x-signature=8kLWgfbIJNEaqom9Dka06nlz%2F4A%3D&from=3213915784&s=PackSourceEnum_FEED&se=false&sc=origin_cover&biz_tag=aweme_video&l=021705307997240fdbddc0200ff0500c005a4187ae3cb7f94a6a4",
        "videoPlayUrl": "https://api-hl.amemv.com/aweme/v1/play/?video_id=v0200fg10000cmadcp3c77u4tdjesq4g&line=1&file_id=bf6e31b6728248fd860f513672307970&sign=058a6a86beb47362ce0394665b6aa2ad&is_play_url=1&source=PackSourceEnum_FEED"
    },
    {
        "file_hash": "7b9963c65968cd8049239313ac23efb8",
        "create_time": 1703663721,
        "title": "12月22日 爸爸不敢在老大面前稀罕老二，老大回家爸爸上演极速切换，“端水大师秒上线”（来源：@夏天同学 ）",
        "author": "潮视频",
        "thumbnail": "https://p6-sign.douyinpic.com/tos-cn-p-0015/owSviACzlB2Ga3AfhkJeRAIwAA5LNiqg99IGSw~tplv-dy-360p.jpeg?x-expires=1706515200&x-signature=rxlRg0BQfaXyHkrbYBqgFLeNgS4%3D&from=3213915784&s=PackSourceEnum_FEED&se=false&sc=origin_cover&biz_tag=aweme_video&l=021705307838346fdbddc0200ff05001ce38fdad3b7b5fdfc5199",
        "videoPlayUrl": "https://api-hl.amemv.com/aweme/v1/play/?video_id=v0200fg10000cm5tfo3c77u6off40q90&line=1&file_id=4329a48b250143988601ae840f48fc16&sign=7b9963c65968cd8049239313ac23efb8&is_play_url=1&source=PackSourceEnum_FEED"
    },
    {
        "file_hash": "b02c36e5e57ba6327b2b84bf9c542ef3",
        "create_time": 1703240150,
        "title": "在关键时刻才知道人的潜能是无限的！哈哈哈@雷英琪 #势不可挡女选手掀翻肌肉男",
        "author": "罗雪阳",
        "thumbnail": "https://p6-sign.douyinpic.com/tos-cn-p-0015/oQKe98B9Cnl8hxAEwgBJAC6XQbFX9fADJHAoWD~tplv-dy-360p.jpeg?x-expires=1706515200&x-signature=IGSje6l%2BxP%2BREYU9uDbohYmD0wE%3D&from=3213915784&s=PackSourceEnum_FEED&se=false&sc=origin_cover&biz_tag=aweme_video&l=021705307879691fdbddc0200ff0500a6bf9cab15d3cceefa8d63",
        "videoPlayUrl": "https://api-hl.amemv.com/aweme/v1/play/?video_id=v0200fg10000cm2m25rc77uffkjhbhfg&line=1&file_id=66de0f3a547c4dde90fa28122efa9b43&sign=b02c36e5e57ba6327b2b84bf9c542ef3&is_play_url=1&source=PackSourceEnum_FEED"
    },
    {
        "file_hash": "bcce6d998657b8f16080ae6a557c134f",
        "create_time": 1703088006,
        "title": "国外玩家魔改PS5!#ps5 #playstation #主机游戏 #老外真会玩 #男人的玩具",
        "author": "老爱同学",
        "thumbnail": "https://p11-sign.douyinpic.com/tos-cn-p-0015/okOuAyD9QAgwuCzqATgfVg4SINDalmhBDCeIDA~tplv-dy-360p.jpeg?x-expires=1706515200&x-signature=wcEqvu4h%2Fzq3T75rHrGqnCZufcI%3D&from=3213915784&s=PackSourceEnum_FEED&se=false&sc=origin_cover&biz_tag=aweme_video&l=021705308048226fdbddc0200ff0500c005a4187ae3cb7f75da86",
        "videoPlayUrl": "https://api-hl.amemv.com/aweme/v1/play/?video_id=v0300fg10000cm1guj3c77u8n0raklp0&line=1&file_id=fa4b2572a4ec4e04a58324582412642e&sign=bcce6d998657b8f16080ae6a557c134f&is_play_url=1&source=PackSourceEnum_FEED"
    },
    {
        "file_hash": "43b86db230ec15a55dbc453a68c87030",
        "create_time": 1703209358,
        "title": "爸爸教2岁无臂女儿剥橘子，橘子是酸的但宝贝的笑是最甜的。网友：愿小朋友一生平安快乐~#凡人微光温暖你我   #有一种叫云南的生活   （感谢网友分享：@瑞瑞与爸爸  ）",
        "author": "云南日报",
        "thumbnail": "https://p11-sign.douyinpic.com/tos-cn-p-0015/ooLZ6l6CbABcBVn2AZTElcAgee9AOht0VCDIAJ~tplv-dy-360p.jpeg?x-expires=1706515200&x-signature=vDFcbHKW3DVuLTES%2Ff1H7NfrZU8%3D&from=3213915784&s=PackSourceEnum_FEED&se=false&sc=origin_cover&biz_tag=aweme_video&l=02170530813018800000000000000000000ffff0a1b46d56f3268",
        "videoPlayUrl": "https://api-hl.amemv.com/aweme/v1/play/?video_id=v0200fg10000cm2eitjc77ucn2npab4g&line=1&file_id=53991d61c86c47b5b193a9b18c281555&sign=43b86db230ec15a55dbc453a68c87030&is_play_url=1&source=PackSourceEnum_FEED"
    },
    {
        "file_hash": "5c52aa369157225265ddb65fc983fdc0",
        "create_time": 1704697200,
        "title": "奶奶煮饭做菜连灯都舍不得开，一个月网购花了几千块，“有种钱花在了刀把上”",
        "author": "江西旅游广播",
        "thumbnail": "https://p26-sign.douyinpic.com/tos-cn-p-0015/ogS1cJgkpDsKIddlAaC9QaQbbJAerBACqnd9me~tplv-dy-360p.jpeg?x-expires=1706515200&x-signature=Sxvz9kmNqGPywPjBcqd3%2F2yED34%3D&from=3213915784&s=PackSourceEnum_FEED&se=false&sc=origin_cover&biz_tag=aweme_video&l=021705307978101fdbddc0200ff0500c005a4187ae3cb7fff7c56",
        "videoPlayUrl": "https://api-hl.amemv.com/aweme/v1/play/?video_id=v0200fg10000cmdl4kjc77uei3mi9l6g&line=1&file_id=0d5d9eed516841db97ec9d29d9f78ab5&sign=5c52aa369157225265ddb65fc983fdc0&is_play_url=1&source=PackSourceEnum_FEED"
    },
    {
        "file_hash": "b16f4b33f29667a0420d7bf7e5c39ab7",
        "create_time": 1704456001,
        "title": "润之不听父亲的话，决意要去法国勤工俭学，父亲恼了要打他。#广东卫视鲲鹏击浪 #好剧推荐 #因为一个片段看了整部剧 #鲲鹏击浪",
        "author": "广东卫视",
        "thumbnail": "https://p6-sign.douyinpic.com/tos-cn-p-0015/oIlWOYglbAQqbLmCBn9lQwBqoDACeA4vvqeQCP~tplv-dy-360p.jpeg?x-expires=1706515200&x-signature=kKALmBPLNAFdKGhSMZ80GkBz5oM%3D&from=3213915784&s=PackSourceEnum_FEED&se=false&sc=origin_cover&biz_tag=aweme_video&l=021705307991559fdbddc0200ff0500c005a4187ae3cb7f601ff6",
        "videoPlayUrl": "https://api-hl.amemv.com/aweme/v1/play/?video_id=v0200fg10000cmba5jjc77u7rq2bfcag&line=1&file_id=9b75523aefd14881b1604f51e0a4468a&sign=b16f4b33f29667a0420d7bf7e5c39ab7&is_play_url=1&source=PackSourceEnum_FEED"
    },
    {
        "file_hash": "96d065fd8a1ba47663ed4205e6ca8673",
        "create_time": 1705229040,
        "title": "如果你的屁股不大，你的弹跳绝对好不到哪里去。",
        "author": "越动体育（弹跳专项训练）",
        "thumbnail": "https://p9-sign.douyinpic.com/tos-cn-p-0015/oIgAxDlngjFBlJSebgl9ABAXIfj50oIF4gn6BD~tplv-dy-360p.jpeg?x-expires=1706515200&x-signature=I6e6cMsaaIurh63i7u8sQsqWVU0%3D&from=3213915784&s=PackSourceEnum_FEED&se=false&sc=origin_cover&biz_tag=aweme_video&l=021705307782430fdbddc0200ff0500c005a4187ae3cb7faca1ab",
        "videoPlayUrl": "https://api-hl.amemv.com/aweme/v1/play/?video_id=v0300fg10000cmho4o3c77ubvucl53ig&line=1&file_id=71bdb9dd678e457c87e94bd0fc0f9cb8&sign=96d065fd8a1ba47663ed4205e6ca8673&is_play_url=1&source=PackSourceEnum_FEED"
    },
    {
        "file_hash": "c3c481e9d27701d1f8aa54c8c7501b1a",
        "create_time": 1703718454,
        "title": "专属狗狗的娱乐项目#专属狗狗的娱乐项目#抖音跨年许愿夜 #2024抖音跨年派对#萌宠出道计划",
        "author": "大圣驾到（灰泰迪）",
        "thumbnail": "https://p3-sign.douyinpic.com/tos-cn-p-0015/oIXB6HUPAB8Cexy42eL7BDAVg3ZsGGg3VAfMBE~tplv-dy-360p.jpeg?x-expires=1706515200&x-signature=FsYYPFodjVNrkblW5lr%2FTzhNSng%3D&from=3213915784&s=PackSourceEnum_FEED&se=false&sc=origin_cover&biz_tag=aweme_video&l=021705307883209fdbddc0200ff0500c005a4187ae3cb7f62cdf6",
        "videoPlayUrl": "https://api-hl.amemv.com/aweme/v1/play/?video_id=v0200fg10000cm6as83c77u2nfcup0ag&line=1&file_id=cdb3e01ce8bc4dd2b15317ed19967f11&sign=c3c481e9d27701d1f8aa54c8c7501b1a&is_play_url=1&source=PackSourceEnum_FEED"
    },
    {
        "file_hash": "b5fbcf860adfae54f18e76a5a65a7975",
        "create_time": 1703680332,
        "title": "美美哒",
        "author": "龙凤胎兄妹",
        "thumbnail": "https://p11-sign.douyinpic.com/tos-cn-p-0015/oc5iqBCnlBGIdOGeDTmBgAIfAAXMbjLgK9IVyn~tplv-dy-360p.jpeg?x-expires=1706515200&x-signature=t802hMsvM2SNeb92cdckTFnlyBw%3D&from=3213915784&s=PackSourceEnum_FEED&se=false&sc=origin_cover&biz_tag=aweme_video&l=021705308116096fdbddc0200ff0500c005a4187ae3cb7f9dd95f",
        "videoPlayUrl": "https://api-hl.amemv.com/aweme/v1/play/?video_id=v0200fg10000cm61h9rc77u4fiisctsg&line=1&file_id=08d1d16961bb4dce9cc7732e1b3ab39d&sign=b5fbcf860adfae54f18e76a5a65a7975&is_play_url=1&source=PackSourceEnum_FEED"
    }
]