[
    {
        "file_hash": "e677c975fdaa6b2ec014028d8f2ec4c5",
        "create_time": 1704610405,
        "title": "冬日阳光太给力了！",
        "author": "明仔明仔",
        "thumbnail": "https://p11-sign.douyinpic.com/tos-cn-p-0015/o42A0aemfInDbVCAo6ngb2DFlaIa92aACcmkSB~tplv-dy-360p.jpeg?x-expires=1706493600&x-signature=aKuyFaDU5bL2f%2B3%2FnIy08C2vxmo%3D&from=3213915784&s=PackSourceEnum_FEED&se=false&sc=origin_cover&biz_tag=aweme_video&l=02170528600162900000000000000000000ffff0a921eee34b0b3",
        "videoPlayUrl": "https://api-hl.amemv.com/aweme/v1/play/?video_id=v0200fg10000cmd4k6rc77uaheplkvt0&line=1&file_id=2fd0c035bd4d434fb7dc8851ddc286db&sign=e677c975fdaa6b2ec014028d8f2ec4c5&is_play_url=1&source=PackSourceEnum_FEED"
    },
    {
        "file_hash": "6cdc9ebcdc9707b988c6984a4f394026",
        "create_time": 1704527364,
        "title": "",
        "author": "君子兰手写",
        "thumbnail": "https://p6-sign.douyinpic.com/tos-cn-p-0015/oclBgAYkyiA2L5nZBEfhgMzAAzAeyWWIIcN9NI~tplv-dy-360p.jpeg?x-expires=1706493600&x-signature=6Oi6jy050gAP7IwxRu%2F%2BK6JR6%2Fw%3D&from=3213915784&s=PackSourceEnum_FEED&se=false&sc=origin_cover&biz_tag=aweme_video&l=02170528563974100000000000000000000ffff0a92d81127ec3c",
        "videoPlayUrl": "https://api-hl.amemv.com/aweme/v1/play/?video_id=v0d00fg10000cmcgc03c77u4e9cvrpi0&line=1&file_id=0c871698f7c748e1ad624aa85cb0ad61&sign=6cdc9ebcdc9707b988c6984a4f394026&is_play_url=1&source=PackSourceEnum_FEED"
    },
    {
        "file_hash": "ca463884571284344bcf5f911b535254",
        "create_time": 1704621525,
        "title": "#抖音热歌#百听不厌#梦儿音乐",
        "author": "梦儿音乐",
        "thumbnail": "https://p6-sign.douyinpic.com/tos-cn-p-0015/oYfkBu2PEBEf7iLBrrf5zNIOTCrAsHpw5MqcAA~tplv-dy-360p.jpeg?x-expires=1706493600&x-signature=oJDntYI4np17QG4m%2FeAlifly%2BwE%3D&from=3213915784&s=PackSourceEnum_FEED&se=false&sc=origin_cover&biz_tag=aweme_video&l=02170528566709800000000000000000000ffff0a921eee807404",
        "videoPlayUrl": "https://api-hl.amemv.com/aweme/v1/play/?video_id=v0200fg10000cmd7abjc77u8in4n8h3g&line=1&file_id=a94664ac0d584473a66c499a862dfc94&sign=ca463884571284344bcf5f911b535254&is_play_url=1&source=PackSourceEnum_FEED"
    },
    {
        "file_hash": "221b70a5552082b57c0bfde8e8d1a528",
        "create_time": 1704278465,
        "title": "搞了半天 生她 养她  最后就为了给我销户呗？值呀…#教孩子的崩溃瞬间 #绝对是亲生的 #辅导作业 #被逼疯的家长 #漏风的小棉袄",
        "author": "我是艾雯呦",
        "thumbnail": "https://p26-sign.douyinpic.com/tos-cn-p-0015/oMOAI0ByAggISCeUThMctBrAVv9zyfHypD4O0A~tplv-dy-360p.jpeg?x-expires=1706493600&x-signature=u1ftCD1SspYvtZ5VLydVtL%2FOXw0%3D&from=3213915784&s=PackSourceEnum_FEED&se=false&sc=origin_cover&biz_tag=aweme_video&l=02170528584458100000000000000000000ffff0a921eee6c026c",
        "videoPlayUrl": "https://api-hl.amemv.com/aweme/v1/play/?video_id=v0300fg10000cmajinrc77u7706jhba0&line=1&file_id=7063b26fc0ea4ce29e43fbf3982d5851&sign=221b70a5552082b57c0bfde8e8d1a528&is_play_url=1&source=PackSourceEnum_FEED"
    },
    {
        "file_hash": "3f178adefcdb3207a45250da7b1eb5fa",
        "create_time": 1704162005,
        "title": "张晓英《王强点兵》",
        "author": "豫戏缘",
        "thumbnail": "https://p6-sign.douyinpic.com/tos-cn-p-0015/oM8AHanf8fNqk5mIQ9xwABJAMTHggNFbgl3lMD~tplv-dy-360p.jpeg?x-expires=1706493600&x-signature=Z1WbMZKFZA7p7ZA%2F6DOzn7mi35k%3D&from=3213915784&s=PackSourceEnum_FEED&se=false&sc=origin_cover&biz_tag=aweme_video&l=02170528584961300000000000000000000ffff0a921eeebf0754",
        "videoPlayUrl": "https://api-hl.amemv.com/aweme/v1/play/?video_id=v0d00fg10000cm9n3qjc77u4pia74je0&line=1&file_id=4a22b70bdc24410a9a20db955749d906&sign=3f178adefcdb3207a45250da7b1eb5fa&is_play_url=1&source=PackSourceEnum_FEED"
    }
]