[
    {
        "file_hash": "12b4d0932049a5a1431f21f3c2f5d93a",
        "create_time": 1703756270,
        "title": "喜庆氛围感满满的旗袍裙，申请出战#女童中国风拜年服 #宝宝年服 #国风服饰",
        "author": "小沐沐定制女童",
        "thumbnail": "https://p11-sign.douyinpic.com/tos-cn-p-0015/oEQEglMcbABZCinQAfpaHLQgne9DUjSnxDDQAu~tplv-dy-360p.jpeg?x-expires=1706515200&x-signature=zx8G7H%2F31j6iTMWaNnrczAl%2Fo%2FI%3D&from=3213915784&s=PackSourceEnum_FEED&se=false&sc=origin_cover&biz_tag=aweme_video&l=021705307877667fdbddc0200ff05007069c7e82e0982d1b77408",
        "videoPlayUrl": "https://api-hl.amemv.com/aweme/v1/play/?video_id=v0300fg10000cm6k3k3c77u22safh8bg&line=1&file_id=9d48c1f8e7cd4960a9a9ff4b2d3bfa7a&sign=12b4d0932049a5a1431f21f3c2f5d93a&is_play_url=1&source=PackSourceEnum_FEED"
    },
    {
        "file_hash": "406c4041dc69782b5b05558584c88042",
        "create_time": 1704459442,
        "title": "王楚钦4比0邱党晋级决赛#乒乓球 #王楚钦 #国乒 #wtt #邱党",
        "author": "光荣世界",
        "thumbnail": "https://p3-sign.douyinpic.com/tos-cn-p-0015/oUAM5DfULBsOfUtVAnC8sYLLeCyQGQb7LB0HvQ~tplv-dy-360p.jpeg?x-expires=1706515200&x-signature=1%2B9Itq7AecX6oimMDkD5BgdQ4z4%3D&from=3213915784&s=PackSourceEnum_FEED&se=false&sc=origin_cover&biz_tag=aweme_video&l=02170530782761500000000000000000000ffff0a1b401bd6941f",
        "videoPlayUrl": "https://api-hl.amemv.com/aweme/v1/play/?video_id=v0300fg10000cmbvpbbc77uahuh9pa40&line=1&file_id=8df3fa9b334846b78b89008ad7544ce6&sign=406c4041dc69782b5b05558584c88042&is_play_url=1&source=PackSourceEnum_FEED"
    },
    {
        "file_hash": "75525e31aeea91f5cfcf2b245d3d9bd6",
        "create_time": 1704363960,
        "title": "五岁小女孩戏弄小日子#悬疑 #猎奇 #戏弄",
        "author": "松哥电影（收徒中）",
        "thumbnail": "https://p26-sign.douyinpic.com/tos-cn-p-0015/oU8vAbzAnAOle5eAnWDamYI8lBCIcDSgNs9UqA~tplv-dy-360p.jpeg?x-expires=1706515200&x-signature=1LboN7IIUGxWW%2FvXDb4ym45GX44%3D&from=3213915784&s=PackSourceEnum_FEED&se=false&sc=origin_cover&biz_tag=aweme_video&l=02170530783393200000000000000000000ffff0a97da637b226f",
        "videoPlayUrl": "https://api-hl.amemv.com/aweme/v1/play/?video_id=v0200fg10000cmb6l9rc77u6n03p5j1g&line=1&file_id=02963b782d714a39a8d99667acb2553f&sign=75525e31aeea91f5cfcf2b245d3d9bd6&is_play_url=1&source=PackSourceEnum_FEED"
    },
    {
        "file_hash": "ad2495974d77bd4f9e1ab2f6ca4b3a06",
        "create_time": 1703473175,
        "title": "姜莱阳团长为了制止歪风邪气，与战友打架被关了禁闭。#因为一个片段看了整部剧 #影视解说 #好剧推荐 #金典影视 #看了不后悔系列",
        "author": "江叔说剧",
        "thumbnail": "https://p11-sign.douyinpic.com/tos-cn-p-0015/ooBHA8Xiae6WZAOBIlDnPBbzAunog7spACIXf9~tplv-dy-360p.jpeg?x-expires=1706515200&x-signature=cD9qExJY%2FwmDAvPdGfxRw7kMpJc%3D&from=3213915784&s=PackSourceEnum_FEED&se=false&sc=origin_cover&biz_tag=aweme_video&l=02170530790215500000000000000000000ffff0a903bdca87143",
        "videoPlayUrl": "https://api-hl.amemv.com/aweme/v1/play/?video_id=v0200fg10000cm4etlrc77u7md6punpg&line=1&file_id=965a2a1e011e4db0b40ecd05a323729e&sign=ad2495974d77bd4f9e1ab2f6ca4b3a06&is_play_url=1&source=PackSourceEnum_FEED"
    },
    {
        "file_hash": "086cc340baaa0e13f3020d467f761495",
        "create_time": 1704371400,
        "title": "警察配枪丢失，找回后子弹全没了#重案六组第二部 #好剧推荐 #我的观影报告 #下集更精彩 ",
        "author": "枪手说剧",
        "thumbnail": "https://p9-sign.douyinpic.com/tos-cn-p-0015/ocDMykbeiIPvApZAiy1gyJB3i0fBABPEaIoWJW~tplv-dy-360p.jpeg?x-expires=1706515200&x-signature=4kizIZOm%2Ff8Xy1GHoEbTIUOG4ek%3D&from=3213915784&s=PackSourceEnum_FEED&se=false&sc=origin_cover&biz_tag=aweme_video&l=02170530783903900000000000000000000ffff0a1b401ba4f386",
        "videoPlayUrl": "https://api-hl.amemv.com/aweme/v1/play/?video_id=v0300fg10000cmba9qfog65n7mdsp2i0&line=1&file_id=3989b05153524cb7a5319c4a68326894&sign=086cc340baaa0e13f3020d467f761495&is_play_url=1&source=PackSourceEnum_FEED"
    },
    {
        "file_hash": "c991c673c40481c4d1d33c08c3ead58c",
        "create_time": 1703054596,
        "title": "12月20日，甘肃临夏。6000包卫生巾，6000个暖宝宝900件棉大衣，连夜送到地震灾区。",
        "author": "河南都市报道",
        "thumbnail": "https://p11-sign.douyinpic.com/tos-cn-p-0015/oYolBCKNDrQ8EejAvgBQgyub9yrenADPAbcAdN~tplv-dy-360p.jpeg?x-expires=1706515200&x-signature=yjgkdhxshpRSYywRZN6sXPmc140%3D&from=3213915784&s=PackSourceEnum_FEED&se=false&sc=origin_cover&biz_tag=aweme_video&l=02170530805319900000000000000000000ffff0a1b401bdd8604",
        "videoPlayUrl": "https://api-hl.amemv.com/aweme/v1/play/?video_id=v0d00fg10000cm18parc77u3tqns4esg&line=1&file_id=0517cc13a0cc4e9c9cf0d30d6e639d90&sign=c991c673c40481c4d1d33c08c3ead58c&is_play_url=1&source=PackSourceEnum_FEED"
    },
    {
        "file_hash": "f7fc73f2d6d5da1f3bf2ab7568bc5095",
        "create_time": 1703242745,
        "title": "",
        "author": "寒心，",
        "thumbnail": "https://p6-sign.douyinpic.com/tos-cn-p-0015/oMfA4bWKPgp9nXUACbeDArBD1Ah8QztLl7vlgU~tplv-dy-360p.jpeg?x-expires=1706515200&x-signature=DFCDMt16AycgRxQypS4cpknEZC0%3D&from=3213915784&s=PackSourceEnum_FEED&se=false&sc=origin_cover&biz_tag=aweme_video&l=02170530791930500000000000000000000ffff0a1b30c2cd022c",
        "videoPlayUrl": "https://api-hl.amemv.com/aweme/v1/play/?video_id=v0300fg10000cm2mnqrc77uf99dmftu0&line=1&file_id=69eeabb8eef044c0ad0af02f113e65ec&sign=f7fc73f2d6d5da1f3bf2ab7568bc5095&is_play_url=1&source=PackSourceEnum_FEED"
    },
    {
        "file_hash": "af12cdc5645d2934de08083e32af0410",
        "create_time": 1703497324,
        "title": "6070老大哥你们辛苦了#真情演绎 #改编歌曲 #支持农民歌手 ",
        "author": "滁州旋哥",
        "thumbnail": "https://p9-sign.douyinpic.com/tos-cn-p-0015/o0yhCFJDVBbIKAfeBAAA5nLA9xA3g8Ny8cTzhp~tplv-dy-360p.jpeg?x-expires=1706515200&x-signature=S3jvlYs2IFnrtXiR4z5eYX4jT3M%3D&from=3213915784&s=PackSourceEnum_FEED&se=false&sc=origin_cover&biz_tag=aweme_video&l=02170530790023500000000000000000000ffff0a1b401bc8b1cc",
        "videoPlayUrl": "https://api-hl.amemv.com/aweme/v1/play/?video_id=v0200fg10000cm4ksajc77u11ues0rkg&line=1&file_id=8aaf328285ad4bf89fd15cc260dbb7c9&sign=af12cdc5645d2934de08083e32af0410&is_play_url=1&source=PackSourceEnum_FEED"
    },
    {
        "file_hash": "e03e722b88d7dc5595e1fd4e4aeb0e6c",
        "create_time": 1704376420,
        "title": "WTT多哈男子总决赛王楚钦3-0横扫了张本智和#世乒联多哈男子总决赛 #王楚钦 #乒乓球 #国乒 #王楚钦vs张本智和",
        "author": "可盈聊体育",
        "thumbnail": "https://p3-sign.douyinpic.com/tos-cn-p-0015/oc8gQCDnPQbAnawDclrtA02QMBeWL9Ali4BTeg~tplv-dy-360p.jpeg?x-expires=1706515200&x-signature=mGL5aiRBDwoUj%2BDNilvaHJMV2u8%3D&from=3213915784&s=PackSourceEnum_FEED&se=false&sc=origin_cover&biz_tag=aweme_video&l=021705307990701fdbddc020028000a0000000000000043c0130e",
        "videoPlayUrl": "https://api-hl.amemv.com/aweme/v1/play/?video_id=v0200fg10000cmbbge3c77ud41e57qdg&line=1&file_id=28f0112220114b7d898198e6ca30b860&sign=e03e722b88d7dc5595e1fd4e4aeb0e6c&is_play_url=1&source=PackSourceEnum_FEED"
    }
]