[
    {
        "file_hash": "359c243f6810d11a891a2cbae653334c",
        "create_time": 1703903005,
        "title": "火车上一男子接完电话崩溃大哭，22岁儿子出车祸身亡，刚退伍回家准备去深圳工作！",
        "author": "江西民生广播",
        "thumbnail": "https://p26-sign.douyinpic.com/tos-cn-p-0015/oIyvxXAMVHN9fvALAgEAgfge23BIsCBanPw7H4~tplv-dy-360p.jpeg?x-expires=1706515200&x-signature=jy0EPePwtGN3zyYBUQPe46IUCGY%3D&from=3213915784&s=PackSourceEnum_FEED&se=false&sc=origin_cover&biz_tag=aweme_video&l=021705308809706fdbddc0200ff0500a7656b6d24310fc73b0cef",
        "videoPlayUrl": "https://api-hl.amemv.com/aweme/v1/play/?video_id=v0d00fg10000cm7ntubc77u63s0lbps0&line=1&file_id=f27b7a18112b41fe9ce77845ac3f3d6a&sign=359c243f6810d11a891a2cbae653334c&is_play_url=1&source=PackSourceEnum_FEED"
    },
    {
        "file_hash": "d85319a21dc893357760c64cea23004d",
        "create_time": 1702894080,
        "title": "美女没拉窗帘换衣服，把隔壁小伙馋哭了#影视解说 #电影推荐 #我的观影报告",
        "author": "不眠影视",
        "thumbnail": "https://p26-sign.douyinpic.com/tos-cn-p-0015/d233ace7c7a24964af151d9329a8b94a_1701759969~tplv-dy-360p.jpeg?x-expires=1706515200&x-signature=odulubWEluLqOO11PVE67%2Ft%2Fm5E%3D&from=3213915784&s=PackSourceEnum_FEED&se=false&sc=origin_cover&biz_tag=aweme_video&l=021705309099778fdbddc0200ff05001ce38fdad3b7b5fdc0b4a0",
        "videoPlayUrl": "https://api-hl.amemv.com/aweme/v1/play/?video_id=v0200fg10000clncmt3c77u72gt0d800&line=1&file_id=4c62798db93e449cbde6c748c664c9e7&sign=d85319a21dc893357760c64cea23004d&is_play_url=1&source=PackSourceEnum_FEED"
    },
    {
        "file_hash": "969fba035cb0a5911a006521ca01c30a",
        "create_time": 1704171600,
        "title": "有一种默契，叫心领神会却欲言又止。#脱轨大结局  #脱轨  #刘浩存  #林一",
        "author": "电视剧脱轨",
        "thumbnail": "https://p3-sign.douyinpic.com/tos-cn-p-0015/oYXACb3THgi9nUtIAdXDAXBDdAk8IbbflfUHgy~tplv-dy-360p.jpeg?x-expires=1706515200&x-signature=7S30aG%2FByY1F2kxnJ1RaRSVDysA%3D&from=3213915784&s=PackSourceEnum_FEED&se=false&sc=origin_cover&biz_tag=aweme_video&l=021705308953906fdbddc0200ff0500a7656b6d24310fc7848afa",
        "videoPlayUrl": "https://api-hl.amemv.com/aweme/v1/play/?video_id=v0300fg10000cm9na5rc77u5ovtq7v10&line=1&file_id=44f85762513b450b906b0e4929d536c5&sign=969fba035cb0a5911a006521ca01c30a&is_play_url=1&source=PackSourceEnum_FEED"
    },
    {
        "file_hash": "7c862a277d2d1ef5da4f762199c5a95e",
        "create_time": 1704940852,
        "title": "河南文旅别急！洛阳管铁总求来了“AD钙奶“动车讨好小金豆 #河南文旅洛阳出战 #洛阳文旅申请出战  #压力给到河南文旅 #河南各地文旅局长晒家底",
        "author": "洛阳晚报",
        "thumbnail": "https://p26-sign.douyinpic.com/tos-cn-p-0015/ogUeBjQD999xFgugfB8lAq5ng4CJHAxmb1nAmG~tplv-dy-360p.jpeg?x-expires=1706515200&x-signature=JSxetmRE0ykxPd7A%2FpwImj7fSeY%3D&from=3213915784&s=PackSourceEnum_FEED&se=false&sc=origin_cover&biz_tag=aweme_video&l=021705308726555fdbddc0200ff0500a7656b6d24310fc7bc8dd8",
        "videoPlayUrl": "https://api-hl.amemv.com/aweme/v1/play/?video_id=v0200fg10000cmfl80bc77u1kfrhj570&line=1&file_id=0376e67a52ba4fdc932fa3abe4ad7e41&sign=7c862a277d2d1ef5da4f762199c5a95e&is_play_url=1&source=PackSourceEnum_FEED"
    },
    {
        "file_hash": "3e4ba4f9928b88995ffb1ebe5f652ca2",
        "create_time": 1703667137,
        "title": "大杨哥到超哥数码直播间，被这样一个小小的音箱震惊到了#疯狂小杨哥 #超哥数码 #数码科技 #音箱 #低音炮",
        "author": "疯狂小杨弟(三只羊小卖部)",
        "thumbnail": "https://p11-sign.douyinpic.com/tos-cn-p-0015/oIQLQCBe75ZFASnLG8mHbepxWTbBlDsAa7ecCW~tplv-dy-360p.jpeg?x-expires=1706515200&x-signature=0%2BGBkBd72oi1VxtrIgM2CghQJ4g%3D&from=3213915784&s=PackSourceEnum_FEED&se=false&sc=origin_cover&biz_tag=aweme_video&l=021705308977550fdbddc0200ff0500a7656b6d24310fc7246adc",
        "videoPlayUrl": "https://api-hl.amemv.com/aweme/v1/play/?video_id=v0d00fg10000cm5u9pbc77u6or2ptv5g&line=1&file_id=9263c3d990a14397acddce1bb55875ac&sign=3e4ba4f9928b88995ffb1ebe5f652ca2&is_play_url=1&source=PackSourceEnum_FEED"
    },
    {
        "file_hash": "149b8aa8989f54f5a7589bf404495db2",
        "create_time": 1703288100,
        "title": "泰迪犬为什么喜欢睡在主人身边 #泰迪 #狗狗 #养狗小知识 #萌宠出道计划 #科学养宠攻略",
        "author": "狗狗知识小课堂",
        "thumbnail": "https://p9-sign.douyinpic.com/tos-cn-p-0015/oovpbAnhKZ8Afe9rlTLzKBNAgQiLBtlAlHZbDU~tplv-dy-360p.jpeg?x-expires=1706515200&x-signature=qWv78pdpwqjAZdtrqATWoceXEIc%3D&from=3213915784&s=PackSourceEnum_FEED&se=false&sc=origin_cover&biz_tag=aweme_video&l=021705308995534fdbddc0200ff0500a7656b6d24310fc760d378",
        "videoPlayUrl": "https://api-hl.amemv.com/aweme/v1/play/?video_id=v0d00fg10000cm2r5crc77ucktmmk5ig&line=1&file_id=13838c34e4a2410e8cad5e4d8b5c1bfa&sign=149b8aa8989f54f5a7589bf404495db2&is_play_url=1&source=PackSourceEnum_FEED"
    },
    {
        "file_hash": "4d795b7495850c4584284abad7f3154d",
        "create_time": 1703365209,
        "title": "点击↑上方（红色按钮）可看完整版#好剧推荐##影视剪辑 L-罪之缘2",
        "author": "飞跃上线",
        "thumbnail": "https://p3-sign.douyinpic.com/tos-cn-p-0015/o0gmwE0zlAMtScY0ADBlelKhFCpQCAf9lAUlHq~tplv-dy-360p.jpeg?x-expires=1706515200&x-signature=cCeKEwGS0PMY7ij7fwXSPWq2Tc4%3D&from=3213915784&s=PackSourceEnum_FEED&se=false&sc=origin_cover&biz_tag=aweme_video&l=021705309078181fdbddc0200ff0500a7656b6d24310fc7bee579",
        "videoPlayUrl": "https://api-hl.amemv.com/aweme/v1/play/?video_id=v0200fg10000cm3kkm7og65q9aj7geag&line=1&file_id=fe69dfe52cb344a1bfdb0f4c00436bff&sign=4d795b7495850c4584284abad7f3154d&is_play_url=1&source=PackSourceEnum_FEED"
    },
    {
        "file_hash": "daa983d7060b9b0807e6f4376e5b25b4",
        "create_time": 1703387378,
        "title": "赢荡天生神力，以武立国，竟然徒手抱摔一匹成年战马！ #大秦帝国之纵横 #富大龙 #嬴驷",
        "author": "妍妍叙事",
        "thumbnail": "https://p11-sign.douyinpic.com/tos-cn-p-0015/ooF7oHjDzfI1DHPLACCA7oeeObCZvNBGBnFCAo~tplv-dy-360p.jpeg?x-expires=1706515200&x-signature=EjP3mAPsVaP4yqXzgIIKuViKZgg%3D&from=3213915784&s=PackSourceEnum_FEED&se=false&sc=origin_cover&biz_tag=aweme_video&l=021705309077034fdbddc0200ff0500a7656b6d24310fc7b07a02",
        "videoPlayUrl": "https://api-hl.amemv.com/aweme/v1/play/?video_id=v0300fg10000cm3povrc77u2gnnehl2g&line=1&file_id=c414bb69a80740de947ccf56de8ce9fc&sign=daa983d7060b9b0807e6f4376e5b25b4&is_play_url=1&source=PackSourceEnum_FEED"
    },
    {
        "file_hash": "338b886c4b112c0f320a862331492bfa",
        "create_time": 1703167200,
        "title": "#职业拳手 #dou出真功夫 #拳王争霸赛 #职业选手 ",
        "author": "战神格斗",
        "thumbnail": "https://p11-sign.douyinpic.com/tos-cn-p-0015/ogbLBc7UBenBDHMDP4e3eQtDBKKaAACM9LCEHA~tplv-dy-360p.jpeg?x-expires=1706515200&x-signature=jVYNk8EFnZAfaKBX5op9foY78E4%3D&from=3213915784&s=PackSourceEnum_FEED&se=false&sc=origin_cover&biz_tag=aweme_video&l=021705308870136fdbddc0200ff0500a7656b6d24310fc748c7d5",
        "videoPlayUrl": "https://api-hl.amemv.com/aweme/v1/play/?video_id=v0200fg10000cm1utvjc77u61r86s5ig&line=1&file_id=6e5513a08ee542069066f93f9cdca9c4&sign=338b886c4b112c0f320a862331492bfa&is_play_url=1&source=PackSourceEnum_FEED"
    }
]