[
    {
        "file_hash": "0fa23212ad5e7d5b8140dfaa15a323e2",
        "create_time": 1704619800,
        "title": "宝宝常见的三种小疹子，一个视频教你处理！ #湿疹宝宝 #热疹 #荨麻疹 #医学科普 #皮肤科",
        "author": "皮肤科教授孙广政",
        "thumbnail": "https://p11-sign.douyinpic.com/tos-cn-p-0015/oo4BWD4nAeHC4M9ebhL7BBAYIcXW3LIteFN6gG~tplv-dy-360p.jpeg?x-expires=1706515200&x-signature=M%2F0MP7jv2ZIKgnW4WJdmiG5FwCM%3D&from=3213915784&s=PackSourceEnum_FEED&se=false&sc=origin_cover&biz_tag=aweme_video&l=021705308936174fdbddc02001a04080000000000000050308539",
        "videoPlayUrl": "https://api-hl.amemv.com/aweme/v1/play/?video_id=v0300fg10000cmbu61bc77uc72rhtus0&line=1&file_id=6cf9f48e3c5842219e8f0d3a5111e396&sign=0fa23212ad5e7d5b8140dfaa15a323e2&is_play_url=1&source=PackSourceEnum_FEED"
    },
    {
        "file_hash": "b208893110dc467302d4e6a34236558f",
        "create_time": 1703984105,
        "title": "老爸55岁那年，你突如其来的出现，让我措手不及！在否让你降生的问题上，我和你妈妈做了讨论，你妈妈的态度坚决，最后我们决定把你生下来，老爸56岁那年阴历三月初七，你顺利降生！从那天开始，老爸的幸福生活开始了，没一天后悔过当时的决定！幺女，谢谢你来陪着老爸慢慢变老！老爸要守护着你慢慢长大。。#陪你春夏秋冬陪你慢慢长大",
        "author": "六月♥",
        "thumbnail": "https://p6-sign.douyinpic.com/tos-cn-p-0015/ooJGdLRZnQE90hGuA8eEDm9pYBb0lbAQDegcAk~tplv-dy-360p.jpeg?x-expires=1706515200&x-signature=uQu8wBiuL1rv9AVHLHBl7GrWBgI%3D&from=3213915784&s=PackSourceEnum_FEED&se=false&sc=origin_cover&biz_tag=aweme_video&l=02170530880478500000000000000000000ffff0a18659b44ee9b",
        "videoPlayUrl": "https://api-hl.amemv.com/aweme/v1/play/?video_id=v0300fg10000cm8bnabc77u36bgdscd0&line=1&file_id=8ef1582823dc4d818a4b2345ac286b34&sign=b208893110dc467302d4e6a34236558f&is_play_url=1&source=PackSourceEnum_FEED"
    },
    {
        "file_hash": "9088ba67bb1df6b2a0f2bf9702ce0395",
        "create_time": 1703296944,
        "title": "也就我宠你们！好了！去告诉别人吧～#娱乐评论大赏",
        "author": "毒舌扒姨太",
        "thumbnail": "https://p11-sign.douyinpic.com/tos-cn-p-0015/osbLpf7aB5nDJG5DJPeeOI27BMt5AACRH1BEDA~tplv-dy-360p.jpeg?x-expires=1706515200&x-signature=aMO97cbluw%2B8KVFQUFtbRWgE%2Bkk%3D&from=3213915784&s=PackSourceEnum_FEED&se=false&sc=origin_cover&biz_tag=aweme_video&l=021705308863127fdbddc02001a04080000000000000050562abd",
        "videoPlayUrl": "https://api-hl.amemv.com/aweme/v1/play/?video_id=v0200fg10000cm33v3jc77u8gv4jvl60&line=1&file_id=ce8e849f168c495090b7b12279c8ab6e&sign=9088ba67bb1df6b2a0f2bf9702ce0395&is_play_url=1&source=PackSourceEnum_FEED"
    },
    {
        "file_hash": "ad0f6fa9f58a907470a49a2fdf9a8bb8",
        "create_time": 1705205341,
        "title": "我是真的羡慕你们 #爱国 #俄罗斯 #羡慕 #中俄友谊 #俄罗斯美女",
        "author": "🇷🇺玛莎",
        "thumbnail": "https://p26-sign.douyinpic.com/tos-cn-p-0015/oAGM4e6oQleDgSXALYMAKER8GE17ChBRFgB53e~tplv-dy-360p.jpeg?x-expires=1706515200&x-signature=p14Ax%2FNgKvH7zy4HVgw2dYfu3Hw%3D&from=3213915784&s=PackSourceEnum_FEED&se=false&sc=origin_cover&biz_tag=aweme_video&l=021705308723923fdbddc02001a04080000000000000050d703e8",
        "videoPlayUrl": "https://api-hl.amemv.com/aweme/v1/play/?video_id=v0300fg10000cmh8h47og65ukdn5f370&line=1&file_id=fe34d07c01bc44ca9252c2665055e37e&sign=ad0f6fa9f58a907470a49a2fdf9a8bb8&is_play_url=1&source=PackSourceEnum_FEED"
    },
    {
        "file_hash": "52ede4ea22a83d167de1ad1ce7e3ba27",
        "create_time": 1704443502,
        "title": "到了，到了，广西好果子开“炫”！第一批广西出发的砂糖橘已到达尔滨，在中华巴洛克免费发放！#北国好风光歌声里的黑龙江   #黑龙江杠杠滴  #冰雪奇缘原来是你  #龙腾冰雪逐梦亚冬",
        "author": "极光新闻",
        "thumbnail": "https://p11-sign.douyinpic.com/tos-cn-p-0015/ok3X97lmlIDUAMAAvBle6i5DIonBfKAhCgbGn6~tplv-dy-360p.jpeg?x-expires=1706515200&x-signature=m%2FFl7v9f%2Bkq3nWAVikoXNvhQFJM%3D&from=3213915784&s=PackSourceEnum_FEED&se=false&sc=origin_cover&biz_tag=aweme_video&l=021705308768887fdbddc0200ff0500191901312700ede24f0784",
        "videoPlayUrl": "https://api-hl.amemv.com/aweme/v1/play/?video_id=v0300fg10000cmbrsgjc77u0ful23nig&line=1&file_id=517b398ac3904638a511d15a09106d00&sign=52ede4ea22a83d167de1ad1ce7e3ba27&is_play_url=1&source=PackSourceEnum_FEED"
    },
    {
        "file_hash": "a982bf3489497b240ece5f0e80e5a8b7",
        "create_time": 1704252342,
        "title": "人生不就活这几个瞬间，这就是回家的意义！ #偷偷回家时爸妈的反应 #这就是回家的意义 #感动瞬间",
        "author": "爆笑盘点菌",
        "thumbnail": "https://p26-sign.douyinpic.com/tos-cn-p-0015/ocO9plE64Cm5mUC7A3O308gIDfAiFABpfBXlNI~tplv-dy-360p.jpeg?x-expires=1706515200&x-signature=rHPiKc1HOcrzPKQH2PT%2B4bcmJfc%3D&from=3213915784&s=PackSourceEnum_FEED&se=false&sc=origin_cover&biz_tag=aweme_video&l=021705309053060fdbddc02001a0408000000000000005061c1f6",
        "videoPlayUrl": "https://api-hl.amemv.com/aweme/v1/play/?video_id=v0200fg10000cmad7dvog65kpmvhv970&line=1&file_id=6ab1e53761ce4e9085e7ed97f0bdffdd&sign=a982bf3489497b240ece5f0e80e5a8b7&is_play_url=1&source=PackSourceEnum_FEED"
    },
    {
        "file_hash": "f2a5380a2fc1a2b5432b568980c75cf4",
        "create_time": 1704529607,
        "title": "七岁小女孩周日帮爸妈擀面皮#在路边摊感受人间烟火 #人间烟火 #山东大集 #泊里大集 #寻味大集的人间烟火",
        "author": "发哥吃地球",
        "thumbnail": "https://p11-sign.douyinpic.com/tos-cn-p-0015/oghSGeni7BBlxQffgZDQt0CADDHAsZgpMLbQAi~tplv-dy-360p.jpeg?x-expires=1706515200&x-signature=%2Beh928eKVrGVYUiGkXFAldK16kY%3D&from=3213915784&s=PackSourceEnum_FEED&se=false&sc=origin_cover&biz_tag=aweme_video&l=021705308766366fdbddc0200ff0500bc273f266bb75326f818f0",
        "videoPlayUrl": "https://api-hl.amemv.com/aweme/v1/play/?video_id=v0300fg10000cmcgt7rc77ucklmi7040&line=1&file_id=6b83ae52068749f9962632049caab282&sign=f2a5380a2fc1a2b5432b568980c75cf4&is_play_url=1&source=PackSourceEnum_FEED"
    }
]