[
    {
        "file_hash": "538a4cabd2213a554374fe2644a6535f",
        "create_time": 1702708586,
        "title": "以军承认在加沙误杀3名人质，以色列民众抗议 白宫：是悲剧性错误，拜登已听取简报 最新：#至少18890名巴勒斯坦人在本轮冲突中死亡",
        "author": "每日经济新闻",
        "thumbnail": "https://p6-sign.douyinpic.com/tos-cn-p-0015/ed331ec708634e64b6d09ed6d8e79683_1702708592~tplv-dy-360p.jpeg?x-expires=1706515200&x-signature=YDwlChAjb5O8tpU%2BEdy39TiPICE%3D&from=3213915784&s=PackSourceEnum_FEED&se=false&sc=origin_cover&biz_tag=aweme_video&l=021705309020344fdbddc0200ff05002519908599535853f01d3a",
        "videoPlayUrl": "https://api-hl.amemv.com/aweme/v1/play/?video_id=v0200fg10000clukamjc77u8r3is9f00&line=1&file_id=4606ee9696f14b22a49771715770527b&sign=538a4cabd2213a554374fe2644a6535f&is_play_url=1&source=PackSourceEnum_FEED"
    },
    {
        "file_hash": "8aa703393a03fd6ad84796d8bd0d3468",
        "create_time": 1703422867,
        "title": "",
        "author": "WaTaK WaTak",
        "thumbnail": "https://p11-sign.douyinpic.com/tos-cn-p-0015/oY9BnfAWAXetmBi35lMIAcDIX0IAA9ONzCKchg~tplv-dy-360p.jpeg?x-expires=1706515200&x-signature=dEtcjLI7aPpNNx78%2BcpbiCdefzQ%3D&from=3213915784&s=PackSourceEnum_FEED&se=false&sc=origin_cover&biz_tag=aweme_video&l=021705309077479fdbddc0200ff0500251990859953585357e1f5",
        "videoPlayUrl": "https://api-hl.amemv.com/aweme/v1/play/?video_id=v0300fg10000cm42jvbc77u1rlpksse0&line=1&file_id=e7d0af220cb343df98e3014427f42be8&sign=8aa703393a03fd6ad84796d8bd0d3468&is_play_url=1&source=PackSourceEnum_FEED"
    },
    {
        "file_hash": "78d925cb796cf1a7ced190450a099aa6",
        "create_time": 1704190050,
        "title": "😳😳😳生之前：奶睡不好 生完：奶睡不可怕 可怕的是奶不睡\n#生孩子之前VS生孩子之后#产后宝妈 #过于真实",
        "author": "污里叉叉-（月子中）",
        "thumbnail": "https://p6-sign.douyinpic.com/tos-cn-p-0015/osbBfIhqTNlA5JM4G4hdBfkA9AGzGgACIINm0m~tplv-dy-360p.jpeg?x-expires=1706515200&x-signature=5ld2CtiVO1g47U3rc%2B8jZRkMNyM%3D&from=3213915784&s=PackSourceEnum_FEED&se=false&sc=origin_cover&biz_tag=aweme_video&l=021705309052641fdbddc0200ff05007880f92fa5f5d9a7592d85",
        "videoPlayUrl": "https://api-hl.amemv.com/aweme/v1/play/?video_id=v0200fg10000cm9u0l3c77ud31h396sg&line=1&file_id=da8e11c309fc498ea6c4b6b86768b895&sign=78d925cb796cf1a7ced190450a099aa6&is_play_url=1&source=PackSourceEnum_FEED"
    },
    {
        "file_hash": "a00f77891cfc2db2eb65672cfe7c8c57",
        "create_time": 1703407607,
        "title": "痛别！一份早餐坚持27年卖5毛钱的\"早餐奶奶\"去世，享年90岁",
        "author": "封面新闻",
        "thumbnail": "https://p3-sign.douyinpic.com/tos-cn-p-0015/o4ikfJCOQDHehkZB93LBPnfCDAlDEyhbAAo887~tplv-dy-360p.jpeg?x-expires=1706515200&x-signature=5wyMToKiLXuQCnVaWKfa%2Bv9QmRs%3D&from=3213915784&s=PackSourceEnum_FEED&se=false&sc=origin_cover&biz_tag=aweme_video&l=021705308852858fdbddc0200ff05000f0b3d8a2df42c3a4da692",
        "videoPlayUrl": "https://api-hl.amemv.com/aweme/v1/play/?video_id=v0200fg10000cm3uvp3c77u2d07ti3jg&line=1&file_id=62bf337f74c3493991296ceefdff687c&sign=a00f77891cfc2db2eb65672cfe7c8c57&is_play_url=1&source=PackSourceEnum_FEED"
    },
    {
        "file_hash": "8fc282758d721d3f942e733c198f223e",
        "create_time": 1704122620,
        "title": "想说爱你不容易 | 能好好做朋友那就做朋友，你可想好了，爱情这东西太极端，一但打破，要么一生，要么陌生，你好，是开始，你好好的，是结局……#抖音热歌推荐🔥 #每日推荐音乐 #用音乐诉说情感 #伤感音乐 #一首歌一个故事",
        "author": "ℳ๓",
        "thumbnail": "https://p6-sign.douyinpic.com/tos-cn-p-0015/o0PxIkf5B5CTiDrSAAzAIxyFe7yg2BiAUWh5tz~tplv-dy-360p.jpeg?x-expires=1706515200&x-signature=VhHWtd3AOmox%2Fr7Pm9wH6wWgpkk%3D&from=3213915784&s=PackSourceEnum_FEED&se=false&sc=origin_cover&biz_tag=aweme_video&l=021705308951631fdbddc020028000a00000000000000436c8b08",
        "videoPlayUrl": "https://api-hl.amemv.com/aweme/v1/play/?video_id=v0200fg10000cm9dh9rc77u5tuf723i0&line=1&file_id=5131b131c77b4d9987115823f1a5bd6f&sign=8fc282758d721d3f942e733c198f223e&is_play_url=1&source=PackSourceEnum_FEED"
    },
    {
        "file_hash": "ad2495974d77bd4f9e1ab2f6ca4b3a06",
        "create_time": 1703473175,
        "title": "姜莱阳团长为了制止歪风邪气，与战友打架被关了禁闭。#因为一个片段看了整部剧 #影视解说 #好剧推荐 #金典影视 #看了不后悔系列",
        "author": "江叔说剧",
        "thumbnail": "https://p11-sign.douyinpic.com/tos-cn-p-0015/ooBHA8Xiae6WZAOBIlDnPBbzAunog7spACIXf9~tplv-dy-360p.jpeg?x-expires=1706515200&x-signature=cD9qExJY%2FwmDAvPdGfxRw7kMpJc%3D&from=3213915784&s=PackSourceEnum_FEED&se=false&sc=origin_cover&biz_tag=aweme_video&l=021705308848850fdbddc0200ff05002519908599535853c95b29",
        "videoPlayUrl": "https://api-hl.amemv.com/aweme/v1/play/?video_id=v0200fg10000cm4etlrc77u7md6punpg&line=1&file_id=965a2a1e011e4db0b40ecd05a323729e&sign=ad2495974d77bd4f9e1ab2f6ca4b3a06&is_play_url=1&source=PackSourceEnum_FEED"
    },
    {
        "file_hash": "f3c8ee8c7f66b7925fd948b628469103",
        "create_time": 1704628813,
        "title": "#科莫多巨蜥",
        "author": "阿搬动物世界",
        "thumbnail": "https://p26-sign.douyinpic.com/tos-cn-p-0015/oQAbAAklDDFDe9mQIMabBekmOnv7MpQX4EpsUg~tplv-dy-360p.jpeg?x-expires=1706515200&x-signature=h%2BOS1J9BhFIdKZU3X3MeN9gA5zU%3D&from=3213915784&s=PackSourceEnum_FEED&se=false&sc=origin_cover&biz_tag=aweme_video&l=021705308926549fdbddc0200ff050025199085995358534ef866",
        "videoPlayUrl": "https://api-hl.amemv.com/aweme/v1/play/?video_id=v0300fg10000cmd941bc77ubj2ip9s30&line=1&file_id=e60d6f8bddf646cbabe373379388498e&sign=f3c8ee8c7f66b7925fd948b628469103&is_play_url=1&source=PackSourceEnum_FEED"
    },
    {
        "file_hash": "2a1bdd12de8b60032283594775949676",
        "create_time": 1704115079,
        "title": "#人类幼崽成长记 #跳舞使我快乐 #萌娃跳舞 #新疆舞 谢谢艾布老师 @舞蹈 -Chacky  的付出。",
        "author": "舞蹈 Humar 328",
        "thumbnail": "https://p11-sign.douyinpic.com/tos-cn-p-0015/oQZSCugytAIlw2SOCzeyT4BQuhADfAxCnV9IjB~tplv-dy-360p.jpeg?x-expires=1706515200&x-signature=lPH%2Bye3nG5vuAeZvDVk1JdlfQzg%3D&from=3213915784&s=PackSourceEnum_FEED&se=false&sc=origin_cover&biz_tag=aweme_video&l=021705308794843fdbddc0200ff05002519908599535853cfe702",
        "videoPlayUrl": "https://api-hl.amemv.com/aweme/v1/play/?video_id=v0300fg10000cm9bm1bc77u1jkr45e80&line=1&file_id=8910e76bac434d6baa358e7e2950273f&sign=2a1bdd12de8b60032283594775949676&is_play_url=1&source=PackSourceEnum_FEED"
    }
]