[
    {
        "file_hash": "4d14640dc9337a73e9c000acbdf1bbc6",
        "create_time": 1704101211,
        "title": "黄色预警发布！太阳爆发了一个强耀斑！@抖音小助手 @DOU+小助手",
        "author": "惠州发布",
        "thumbnail": "https://p26-sign.douyinpic.com/tos-cn-p-0015/ow9SgApLAgWIeBVleoN8DUJkIBXbvm2SEgnhAn~tplv-dy-360p.jpeg?x-expires=1706515200&x-signature=90ie7ZOlWpIWzO0MpraWQYodyVA%3D&from=3213915784&s=PackSourceEnum_FEED&se=false&sc=origin_cover&biz_tag=aweme_video&l=021705308942610fdbddc02000c03730000000000000037dc5bfc",
        "videoPlayUrl": "https://api-hl.amemv.com/aweme/v1/play/?video_id=v0d00fg10000cm98aabc77u84teb4vf0&line=1&file_id=bc389adec81f4f3eb0dcaba8a5d275ac&sign=4d14640dc9337a73e9c000acbdf1bbc6&is_play_url=1&source=PackSourceEnum_FEED"
    },
    {
        "file_hash": "c2ab0730759b5c686886961321c0d2a6",
        "create_time": 1703068531,
        "title": "我让她那瓜子 半天没拿来 我出来一看我彻底惊呆了",
        "author": "老杨与小杨",
        "thumbnail": "https://p6-sign.douyinpic.com/tos-cn-p-0015/ospI38d4Azww3NrCTnfKgFAheACVBRzNAlBybW~tplv-dy-360p.jpeg?x-expires=1706515200&x-signature=wl1WpytNUEIbSLlxFeLLu64cpdI%3D&from=3213915784&s=PackSourceEnum_FEED&se=false&sc=origin_cover&biz_tag=aweme_video&l=021705309026752fdbddc020024062a00000000000000468a4aed",
        "videoPlayUrl": "https://api-hl.amemv.com/aweme/v1/play/?video_id=v0d00fg10000cm1c5pjc77u2ku6umtjg&line=1&file_id=fdb9715cb530492bb03b90391f0d0596&sign=c2ab0730759b5c686886961321c0d2a6&is_play_url=1&source=PackSourceEnum_FEED"
    },
    {
        "file_hash": "56760e705dd590e63aabb3841137a98d",
        "create_time": 1703252970,
        "title": "12月22日，山东烟台。滑雪场惊现烟台市最长冰溜子，不服来挑战。大自然的鬼斧神工妙哉！#惊不惊喜意不意外  #冰溜子  #烟台等你来玩雪",
        "author": "烟台广播电视台",
        "thumbnail": "https://p26-sign.douyinpic.com/tos-cn-p-0015/oAn29DNDPAJhieGADCxb0tqeuYxuB9gYLlQZAA~tplv-dy-360p.jpeg?x-expires=1706515200&x-signature=rxaA9lO%2Bsd1OJZls9rUVktsBfFs%3D&from=3213915784&s=PackSourceEnum_FEED&se=false&sc=origin_cover&biz_tag=aweme_video&l=021705309091960fdbddc02002803441b444f48a00000c3917d46",
        "videoPlayUrl": "https://api-hl.amemv.com/aweme/v1/play/?video_id=v0200fg10000cm2p7ojc77u6m6qqo1rg&line=1&file_id=c7f861f5ee6d49f3a6e75d2a48c3b08e&sign=56760e705dd590e63aabb3841137a98d&is_play_url=1&source=PackSourceEnum_FEED"
    },
    {
        "file_hash": "3731c44eafe6ef76aa9cc58798fccd97",
        "create_time": 1704805200,
        "title": "儿子：我这一天天的还得哄你玩！",
        "author": "嗨普陀",
        "thumbnail": "https://p11-sign.douyinpic.com/tos-cn-p-0015/owIKueBybzcwAfMEC32zKgBADnAtA9QddIQrhm~tplv-dy-360p.jpeg?x-expires=1706515200&x-signature=WPOQgsq8wTqhTFX%2BcdqCtiWFAZw%3D&from=3213915784&s=PackSourceEnum_FEED&se=false&sc=origin_cover&biz_tag=aweme_video&l=021705309059306fdbddc020024062a0000000000000046286292",
        "videoPlayUrl": "https://api-hl.amemv.com/aweme/v1/play/?video_id=v0300fg10000cmec0urc77u28arkp7rg&line=1&file_id=33fce7e1ece54b4b86f513df164a85bf&sign=3731c44eafe6ef76aa9cc58798fccd97&is_play_url=1&source=PackSourceEnum_FEED"
    },
    {
        "file_hash": "30169d594e4f479db976b5d5b2a62f1c",
        "create_time": 1703335831,
        "title": "12月23日（采访时间），江苏南京，男子用“无痕法”修补破洞衣服，“只要别人满意，我就很开心”。网友：闪闪发光的手艺人，佩服！#手艺人 #修补衣服",
        "author": "一切为了群众",
        "thumbnail": "https://p11-sign.douyinpic.com/tos-cn-p-0015/oQYGwFghbAQn8bG6Cn9lB5Bc1DANeAeBttcAZb~tplv-dy-360p.jpeg?x-expires=1706518800&x-signature=d2B%2FsQSqAAgobWktpiUAoOOWGgQ%3D&from=3213915784&s=PackSourceEnum_FEED&se=false&sc=origin_cover&biz_tag=aweme_video&l=021705309201926fdbddc020024062a00000000000000469e4fae",
        "videoPlayUrl": "https://api-hl.amemv.com/aweme/v1/play/?video_id=v0d00fg10000cm3dds3c77udr85g12n0&line=1&file_id=3844394969f844729e1254354ae1e639&sign=30169d594e4f479db976b5d5b2a62f1c&is_play_url=1&source=PackSourceEnum_FEED"
    },
    {
        "file_hash": "65df9cc3ac18b71afea3c14d1ff8bb2f",
        "create_time": 1703848324,
        "title": "#滑翔伞 #蓝天白云绿草地这风景太美了 #南方的冬天 #隆林 #热门 冬天就该晒晒太阳，运动运动💪",
        "author": "滑翔是一种生活",
        "thumbnail": "https://p9-sign.douyinpic.com/tos-cn-p-0015/o0tXObOAACBhVIg4KuzPCyIYxIHSVqe01fnA2O~tplv-dy-360p.jpeg?x-expires=1706515200&x-signature=BMiqsAZ%2FVKNwmHA%2FkqWUiuptInA%3D&from=3213915784&s=PackSourceEnum_FEED&se=false&sc=origin_cover&biz_tag=aweme_video&l=021705308978422fdbddc020024062a0000000000000046b9ea0c",
        "videoPlayUrl": "https://api-hl.amemv.com/aweme/v1/play/?video_id=v0200fg10000cm7ai7bc77uas3isgfjg&line=1&file_id=089c842233f749268f46b59123b8bc37&sign=65df9cc3ac18b71afea3c14d1ff8bb2f&is_play_url=1&source=PackSourceEnum_FEED"
    },
    {
        "file_hash": "2a179127bdaffd00842d2ac46a482806",
        "create_time": 1703826161,
        "title": "人民的名义：让沙瑞金都忌惮的刘生，生父是谁？最后依旧逍遥法外 #抖音野生娱评人  #人民的名义播出五周年 ",
        "author": "龙龙侃剧",
        "thumbnail": "https://p11-sign.douyinpic.com/tos-cn-p-0015/oAmxCI4IBiQlyBUWgifvAOA7PiAjuyAAAzWeZO~tplv-dy-360p.jpeg?x-expires=1706515200&x-signature=Ac%2BW%2BBS9mzW0QfQZsUy%2ByVQ2A7I%3D&from=3213915784&s=PackSourceEnum_FEED&se=false&sc=origin_cover&biz_tag=aweme_video&l=021705308980687fdbddc020024062a000000000000004615c294",
        "videoPlayUrl": "https://api-hl.amemv.com/aweme/v1/play/?video_id=v0200fg10000cm755sfog65j08s8umb0&line=1&file_id=9c9be25b197a4bea880ad3887e9c483b&sign=2a179127bdaffd00842d2ac46a482806&is_play_url=1&source=PackSourceEnum_FEED"
    },
    {
        "file_hash": "c791499924f5f40ab436eca785ac2080",
        "create_time": 1704895789,
        "title": "有一天你做到了，我也毫不意外#真实还原 #脑洞大开 #迷惑行为大赏 #艺术在抖音",
        "author": "何老师在发呆",
        "thumbnail": "https://p6-sign.douyinpic.com/tos-cn-p-0015/owS4gw89nrDa9QseADnAgNnd99lgpB0AeqDwb7~tplv-dy-360p.jpeg?x-expires=1706515200&x-signature=y5590Ai%2FLGLXrrgmXu1VHuiKie4%3D&from=3213915784&s=PackSourceEnum_FEED&se=false&sc=origin_cover&biz_tag=aweme_video&l=021705308901316fdbddc020024062a00000000000000461213e7",
        "videoPlayUrl": "https://api-hl.amemv.com/aweme/v1/play/?video_id=v0300fg10000cmfa6mjc77u7fmngs460&line=1&file_id=634c01c1dddf4effb0d29dd31a290421&sign=c791499924f5f40ab436eca785ac2080&is_play_url=1&source=PackSourceEnum_FEED"
    },
    {
        "file_hash": "8d0b4dd9353134ef9326d1f384a32b8e",
        "create_time": 1703893484,
        "title": "#搞笑 #改编歌曲 #小伟",
        "author": "小伟1",
        "thumbnail": "https://p11-sign.douyinpic.com/tos-cn-p-0015/oYPNCHnCMgsHK4fBJGz2YfQ92nM4C7AGeLgrAB~tplv-dy-360p.jpeg?x-expires=1706515200&x-signature=utcnGKRTIxGxJR91jQnHFV0gLak%3D&from=3213915784&s=PackSourceEnum_FEED&se=false&sc=origin_cover&biz_tag=aweme_video&l=021705308976658fdbddc020024062a00000000000000467e5331",
        "videoPlayUrl": "https://api-hl.amemv.com/aweme/v1/play/?video_id=v0300fg10000cm7lj1bc77u4scdvjif0&line=1&file_id=4247c592b3d64393a544504ee98d250c&sign=8d0b4dd9353134ef9326d1f384a32b8e&is_play_url=1&source=PackSourceEnum_FEED"
    }
]