[
    {
        "file_hash": "d544b8d2e48355b58d9422ae4c065ba2",
        "create_time": 1702816991,
        "title": "给女儿这样打扮，好看的不要不要了，你学会了吗？#萌娃穿搭#潮童搭配@抖音小助手",
        "author": "可乐童装",
        "thumbnail": "https://p11-sign.douyinpic.com/tos-cn-p-0015/bda5e04e014845e2a7921cac27f00f29_1702816996~tplv-dy-360p.jpeg?x-expires=1706515200&x-signature=2ZxYOYesG2zpKmrkXNcTGKCf7l4%3D&from=3213915784&s=PackSourceEnum_FEED&se=false&sc=origin_cover&biz_tag=aweme_video&l=02170530889588000000000000000000000ffff0a1c388dba9faf",
        "videoPlayUrl": "https://api-hl.amemv.com/aweme/v1/play/?video_id=v0300fg10000clvepmrc77u2ughil640&line=1&file_id=06b6208cc474420bb1e30b4158d1deae&sign=d544b8d2e48355b58d9422ae4c065ba2&is_play_url=1&source=PackSourceEnum_FEED"
    },
    {
        "file_hash": "5bfcc1123cfd087cdbe2d0a338e7b313",
        "create_time": 1703205415,
        "title": "#戏曲 #青年戏曲传播者 #豫剧 #刘墉会督 #谁说戏曲不抖音",
        "author": "豫见小龙",
        "thumbnail": "https://p3-sign.douyinpic.com/tos-cn-p-0015/okQ8JlfAfBN21g9IPzAAM8DAntn6VhCNzb0sFC~tplv-dy-360p.jpeg?x-expires=1706515200&x-signature=qhp4dmd56Usyfg%2FbPykEHCEjU4k%3D&from=3213915784&s=PackSourceEnum_FEED&se=false&sc=origin_cover&biz_tag=aweme_video&l=02170530908320200000000000000000000ffff0a1c388dfff2b5",
        "videoPlayUrl": "https://api-hl.amemv.com/aweme/v1/play/?video_id=v0200fg10000cm2djr3c77u3uchjvat0&line=1&file_id=382b104bcf7b474c849ccf3f3ab46b4c&sign=5bfcc1123cfd087cdbe2d0a338e7b313&is_play_url=1&source=PackSourceEnum_FEED"
    },
    {
        "file_hash": "30a1bf7c4da58cd27e6f90fc07bc4f62",
        "create_time": 1704102877,
        "title": "不怕沙雕多，就怕沙雕聚一窝，我这刚拖好的地，这兄妹俩就跑过来捣乱，随谁啊这是#你家孩子也这样吗 #神兽在家要翻天 #打扫卫生 #家里有娃 #一群戏精上线",
        "author": "涛哥与孟姐姐",
        "thumbnail": "https://p26-sign.douyinpic.com/tos-cn-p-0015/o0A23fIgDLAfihoi2893EkNjYuzFABRIJB9lxS~tplv-dy-360p.jpeg?x-expires=1706515200&x-signature=h1UOqmeoyfgib3%2Fo00UAd%2FKqkeA%3D&from=3213915784&s=PackSourceEnum_FEED&se=false&sc=origin_cover&biz_tag=aweme_video&l=02170530879987600000000000000000000ffff0a1c388d3ad33c",
        "videoPlayUrl": "https://api-hl.amemv.com/aweme/v1/play/?video_id=v0300fg10000cm98nfjc77u4oouojnh0&line=1&file_id=6fa710386ad745ec83953e254b552d4f&sign=30a1bf7c4da58cd27e6f90fc07bc4f62&is_play_url=1&source=PackSourceEnum_FEED"
    },
    {
        "file_hash": "f9bd493c3a6f99b0b6ef1a09b313bdfa",
        "create_time": 1703938362,
        "title": "",
        "author": "聆听💅💅💅💅",
        "thumbnail": "https://p6-sign.douyinpic.com/tos-cn-p-0015/o0AcPJIgDXAf1hACSzeTDytCKRzWABNInBTy4Q~tplv-dy-360p.jpeg?x-expires=1706515200&x-signature=MV1H0efQYJ2bCBoq%2Fmo%2FIenKEyg%3D&from=3213915784&s=PackSourceEnum_FEED&se=false&sc=origin_cover&biz_tag=aweme_video&l=02170530896280500000000000000000000ffff0a1c388de7631a",
        "videoPlayUrl": "https://api-hl.amemv.com/aweme/v1/play/?video_id=v0300fg10000cm80h4rc77u3s0jiejqg&line=1&file_id=551365b9860b41cbbc6e7b4da3e96f19&sign=f9bd493c3a6f99b0b6ef1a09b313bdfa&is_play_url=1&source=PackSourceEnum_FEED"
    },
    {
        "file_hash": "27f825f14a2a2f6c1381855519fa5689",
        "create_time": 1703671510,
        "title": "鸡的助人为乐，成全了自己，也舒服了猫咪#萌宠 #动物的迷惑行为",
        "author": "会飞的鱼🐠🐬",
        "thumbnail": "https://p26-sign.douyinpic.com/tos-cn-p-0015/os1llIsQgA0EB9RRgIf7i9DziNrkztfhAABqLI~tplv-dy-360p.jpeg?x-expires=1706515200&x-signature=AgYIbctQplLj7sb%2BcdG2ZbYrkaE%3D&from=3213915784&s=PackSourceEnum_FEED&se=false&sc=origin_cover&biz_tag=aweme_video&l=02170530883097500000000000000000000ffff0a1c388da7bb80",
        "videoPlayUrl": "https://api-hl.amemv.com/aweme/v1/play/?video_id=v0300fg10000cm5vch3c77u4qqq374tg&line=1&file_id=aee798b7d5324ce9ae1a624207c4fee7&sign=27f825f14a2a2f6c1381855519fa5689&is_play_url=1&source=PackSourceEnum_FEED"
    },
    {
        "file_hash": "2613deff986a68992e92355f2e9e5774",
        "create_time": 1703577841,
        "title": "12月26日，#象棋冠军回应肛珠作弊事件  ：没作弊，拉肚子实在没憋住，冲了浴缸没冲干净。",
        "author": "九派新闻",
        "thumbnail": "https://p9-sign.douyinpic.com/tos-cn-p-0015/o0SxDIOAzI8QUBijghNPAJBHRfWcJyAA0LbeAK~tplv-dy-360p.jpeg?x-expires=1706515200&x-signature=g1ABAamBaDjpLpRhU8sg5YefhxI%3D&from=3213915784&s=PackSourceEnum_FEED&se=false&sc=origin_cover&biz_tag=aweme_video&l=02170530898037900000000000000000000ffff0a1b46d5eee3c5",
        "videoPlayUrl": "https://api-hl.amemv.com/aweme/v1/play/?video_id=v0300fg10000cm58g73c77ubb71133dg&line=1&file_id=d9583fd3b94a4419a5178202482d213c&sign=2613deff986a68992e92355f2e9e5774&is_play_url=1&source=PackSourceEnum_FEED"
    },
    {
        "file_hash": "04137b6891cb2cfa4f8555a8b7210cf0",
        "create_time": 1702788049,
        "title": "女子遭丈夫打断腰椎住院时再被砍伤 家属：曾两次转院抢救10小时",
        "author": "帮女郎在行动",
        "thumbnail": "https://p26-sign.douyinpic.com/tos-cn-p-0015/ecd9d9509bde49ad9174f75dd8039de6_1702788053~tplv-dy-360p.jpeg?x-expires=1706515200&x-signature=xyGPQB0LNo%2BEi2bcPza83d7MUi8%3D&from=3213915784&s=PackSourceEnum_FEED&se=false&sc=origin_cover&biz_tag=aweme_video&l=021705308898697fdbddc0200ff0500b8ec5897ed7a485ebf8c29",
        "videoPlayUrl": "https://api-hl.amemv.com/aweme/v1/play/?video_id=v0300fg10000clv7nf3c77u4e278sil0&line=1&file_id=5f472387545d402790aa739bea1a7af0&sign=04137b6891cb2cfa4f8555a8b7210cf0&is_play_url=1&source=PackSourceEnum_FEED"
    },
    {
        "file_hash": "51ba411aa3398215d9646ac5b319b07c",
        "create_time": 1703027881,
        "title": "#观赏黑天鹅 #黑天鹅苗小青年黑天鹅 #神奇动物在抖音 #萌宠 #黑天鹅",
        "author": "嘉冉生态农场",
        "thumbnail": "https://p6-sign.douyinpic.com/tos-cn-p-0015/oMOlwqR7cAfQG9k0gQe0gJNnxbZr6KiDAABiCA~tplv-dy-360p.jpeg?x-expires=1706515200&x-signature=89hYHMq%2BAv%2FBGRVNaeI073RjpZk%3D&from=3213915784&s=PackSourceEnum_FEED&se=false&sc=origin_cover&biz_tag=aweme_video&l=02170530900648900000000000000000000ffff0a1c388d9420f9",
        "videoPlayUrl": "https://api-hl.amemv.com/aweme/v1/play/?video_id=v0d00fg10000cm128sbc77u83j7nqlt0&line=1&file_id=9807f72129b543a5925b609e526693f8&sign=51ba411aa3398215d9646ac5b319b07c&is_play_url=1&source=PackSourceEnum_FEED"
    }
]