[
    {
        "file_hash": "046362721489cfdaee6ecfb4c28d517b",
        "create_time": 1704366719,
        "title": "声音出来的那一刻 愣了一下！#音乐",
        "author": "古风音乐",
        "thumbnail": "https://p9-sign.douyinpic.com/tos-cn-p-0015/oAybpeJUAoH9InHAIskA0ZFiaEDAll3DgABWIe~tplv-dy-360p.jpeg?x-expires=1706515200&x-signature=jSJnC3H35oy7I2WISzYTI%2BgZcek%3D&from=3213915784&s=PackSourceEnum_FEED&se=false&sc=origin_cover&biz_tag=aweme_video&l=021705308778587fdbddc0200ff050070f52370c8ad33456ec511",
        "videoPlayUrl": "https://api-hl.amemv.com/aweme/v1/play/?video_id=v0300fg10000cmb94t3c77u3mfk8e0m0&line=1&file_id=1c0b0b7ceaaf4084969c048a49fc9d1a&sign=046362721489cfdaee6ecfb4c28d517b&is_play_url=1&source=PackSourceEnum_FEED"
    },
    {
        "file_hash": "6a7f7f243dd1cc45fe4fcff91f02d60c",
        "create_time": 1704519928,
        "title": "女特种兵去度假，一身换装迷倒众人，带你们旅行不一样的军旅#最美女兵 #这一辈子最美的遇见",
        "author": "口袋音乐",
        "thumbnail": "https://p11-sign.douyinpic.com/tos-cn-p-0015/owF6PAjMyaADN3oYBCfhgRz2AzAeFowIIONINH~tplv-dy-360p.jpeg?x-expires=1706515200&x-signature=izvV%2BhnNGfDKp6tIZolD6wqIY5Y%3D&from=3213915784&s=PackSourceEnum_FEED&se=false&sc=origin_cover&biz_tag=aweme_video&l=02170530876464300000000000000000000ffff0a187112420eb2",
        "videoPlayUrl": "https://api-hl.amemv.com/aweme/v1/play/?video_id=v0d00fg10000cmcehr3c77u271d0hn60&line=1&file_id=959dcec7c14e4fe9a6c0e49b9f6598b2&sign=6a7f7f243dd1cc45fe4fcff91f02d60c&is_play_url=1&source=PackSourceEnum_FEED"
    },
    {
        "file_hash": "fb633248a7655f3e0c6b9311dc4182a7",
        "create_time": 1704269008,
        "title": "车上的雪是两周前下的。。。是个狠人",
        "author": "A过程♊",
        "thumbnail": "https://p6-sign.douyinpic.com/tos-cn-p-0015/osXU0MDglZAe5ExUBc8DgKnRAlA9De7gglbiNR~tplv-dy-360p.jpeg?x-expires=1706515200&x-signature=zP3GbcAb6ogGb9aJlwaJC7O80e4%3D&from=3213915784&s=PackSourceEnum_FEED&se=false&sc=origin_cover&biz_tag=aweme_video&l=02170530894743500000000000000000000ffff0a1a47cdc08762",
        "videoPlayUrl": "https://api-hl.amemv.com/aweme/v1/play/?video_id=v0d00fg10000cmah54bc77u74lfhh140&line=1&file_id=c69a90aea25d43689b7732803f5d2ffc&sign=fb633248a7655f3e0c6b9311dc4182a7&is_play_url=1&source=PackSourceEnum_FEED"
    },
    {
        "file_hash": "1fdb424dd76e7c53704eb96143b2e192",
        "create_time": 1702909453,
        "title": "这个小八戒一岁了，身高80厘米，体重19斤，奶粉喂养，一次喝240毫升，一天吃两顿辅食三顿奶，能睡整夜觉，长了五颗乳牙，衣服80码拉拉裤XXL码，会坐会爬会扶站，还不会走路，有没有给虎宝宝拖后腿？#人类幼崽 #生娃就是拿来玩 #呆萌小屁孩 #宝妈带娃 #熬夜带娃",
        "author": "童童宝贝 (成长记)",
        "thumbnail": "https://p11-sign.douyinpic.com/tos-cn-p-0015/ocSPbAbfDgABRV9WA6gEIjeD36IFVlAgn3AFBI~tplv-dy-360p.jpeg?x-expires=1706515200&x-signature=r5bkMUThEm%2B5YzKDbP8gRLbC1t0%3D&from=3213915784&s=PackSourceEnum_FEED&se=false&sc=origin_cover&biz_tag=aweme_video&l=02170530888994000000000000000000000ffff0a1a47cded06dd",
        "videoPlayUrl": "https://api-hl.amemv.com/aweme/v1/play/?video_id=v0300fg10000cm059ejc77udjvoi658g&line=1&file_id=92bb9ab9f42842f6b013940ac45cf507&sign=1fdb424dd76e7c53704eb96143b2e192&is_play_url=1&source=PackSourceEnum_FEED"
    },
    {
        "file_hash": "75e3ed8aced9d6aae1617d78c4d9ca76",
        "create_time": 1702957705,
        "title": "#普京正式登记为总统候选人 普京签署法令！将与“不友好国家”公司从事交易的限制延长至2025年年底",
        "author": "每日经济新闻",
        "thumbnail": "https://p26-sign.douyinpic.com/tos-cn-p-0015/oEpgaZEuA4JARNCl9ByBAWY8oDAwQCeBpWfgbn~tplv-dy-360p.jpeg?x-expires=1706515200&x-signature=k9Ylr1MzVlym2kLbpoeI2sKT41c%3D&from=3213915784&s=PackSourceEnum_FEED&se=false&sc=origin_cover&biz_tag=aweme_video&l=021705309010722fdbddc0200280a080000000000000037a0f2c9",
        "videoPlayUrl": "https://api-hl.amemv.com/aweme/v1/play/?video_id=v0200fg10000cm0h4rjc77u6u39gmcsg&line=1&file_id=bd54648e22fb4237aea698bdeb596130&sign=75e3ed8aced9d6aae1617d78c4d9ca76&is_play_url=1&source=PackSourceEnum_FEED"
    },
    {
        "file_hash": "677b34152918875b6a60628ab6321460",
        "create_time": 1703240494,
        "title": "这个真的巨巨巨巨……巨好吃！挑战年前瘦15斤，已经瘦了7斤啦！#生活化减脂",
        "author": "肉肉丝",
        "thumbnail": "https://p6-sign.douyinpic.com/tos-cn-p-0015/oINQBtEMzAyyflwAWFhYruIywBCAPTAgI8enFA~tplv-dy-360p.jpeg?x-expires=1706515200&x-signature=aPugZV4JOeEx%2FQLxG2U3QlgqWNs%3D&from=3213915784&s=PackSourceEnum_FEED&se=false&sc=origin_cover&biz_tag=aweme_video&l=02170530886488500000000000000000000ffff0a1a47cd9ea3ba",
        "videoPlayUrl": "https://api-hl.amemv.com/aweme/v1/play/?video_id=v0200fg10000cm2m5bbc77u87j60049g&line=1&file_id=e1282d078ad248db97f33d32a3ba9d71&sign=677b34152918875b6a60628ab6321460&is_play_url=1&source=PackSourceEnum_FEED"
    },
    {
        "file_hash": "5d3c3cae2d16a055123713947b8f0f6a",
        "create_time": 1704450430,
        "title": "亚洲杯中国队为什么带4个门将 #亚洲杯   #中国男足  #dou来足球季 #宏哥侃球",
        "author": "刘建宏",
        "thumbnail": "https://p3-sign.douyinpic.com/tos-cn-p-0015/okhB6u9AIAANYIqXAlxgXWRrNBfym2lzeYjy7B~tplv-dy-360p.jpeg?x-expires=1706515200&x-signature=A%2FeJqViwdB9jQv9oHOznSSfn%2FUc%3D&from=3213915784&s=PackSourceEnum_FEED&se=false&sc=origin_cover&biz_tag=aweme_video&l=02170530875800200000000000000000000ffff0a93d69168034b",
        "videoPlayUrl": "https://api-hl.amemv.com/aweme/v1/play/?video_id=v0d00fg10000cmbtip3c77u18lvan6b0&line=1&file_id=84197cd575664aa3b0201902ef0c32a3&sign=5d3c3cae2d16a055123713947b8f0f6a&is_play_url=1&source=PackSourceEnum_FEED"
    },
    {
        "file_hash": "5aa63a3a4ff0ecf35a140bd41634f106",
        "create_time": 1704287058,
        "title": "媳妇平安#书法",
        "author": "神超、（收徒）",
        "thumbnail": "https://p6-sign.douyinpic.com/tos-cn-p-0015/oYIVIAAReW2yANzyrfyctxaoq2DAZhbgCSq1BD~tplv-dy-360p.jpeg?x-expires=1706515200&x-signature=g7CXozLIaD%2B6sM8DM68t5AokaJg%3D&from=3213915784&s=PackSourceEnum_FEED&se=false&sc=origin_cover&biz_tag=aweme_video&l=02170530878585000000000000000000000ffff0a1a47cdc43e08",
        "videoPlayUrl": "https://api-hl.amemv.com/aweme/v1/play/?video_id=v0200fg10000cmalmcrc77u3lq6p5hl0&line=1&file_id=1f01511f30ff4f54b4e08390afcdb365&sign=5aa63a3a4ff0ecf35a140bd41634f106&is_play_url=1&source=PackSourceEnum_FEED"
    }
]