[
    {
        "file_hash": "06a2290fc75a923a17b2abeb9e27efac",
        "create_time": 1702790569,
        "title": "有趣的田园生活 天冷了 带着孩子去菜园摘菜顺便看看田里放养的小鸡，能陪在孩子身边真的是一件很幸福的事#走在乡间的小路上回忆童年时光 #田园生活乐趣多 #农村生活 #最纯真的笑容#人类幼崽成长计划",
        "author": "李妹☞学厨",
        "thumbnail": "https://p11-sign.douyinpic.com/tos-cn-p-0015/9d6322f8d39b4f49bc0eb777f44ce260_1702790577~tplv-dy-360p.jpeg?x-expires=1706515200&x-signature=zHnfJr03i8%2FIPhOvyh2l0oXUqg8%3D&from=3213915784&s=PackSourceEnum_FEED&se=false&sc=origin_cover&biz_tag=aweme_video&l=021705308898320fdbddc0200ff0500191901312700ede2c3a39e",
        "videoPlayUrl": "https://api-hl.amemv.com/aweme/v1/play/?video_id=v0200fg10000clv87n3c77udf7tp6p30&line=1&file_id=feb6dd6bdd1e4d45b709704aff85e859&sign=06a2290fc75a923a17b2abeb9e27efac&is_play_url=1&source=PackSourceEnum_FEED"
    },
    {
        "file_hash": "dfff1b13d0e81ff346b06dbb73c72cf6",
        "create_time": 1703390686,
        "title": "和你普通朋友vs和你最好的朋友单挑#flyboy #让你的梦想生根发芽",
        "author": "九日炮killem",
        "thumbnail": "https://p3-sign.douyinpic.com/tos-cn-p-0015/oYHpAhnrQ8A1AlBhkBDNNWA2A76kb9BPlee8gq~tplv-dy-360p.jpeg?x-expires=1706515200&x-signature=3Ja6TnRbVrMCxZ2sahaRocKf95Q%3D&from=3213915784&s=PackSourceEnum_FEED&se=false&sc=origin_cover&biz_tag=aweme_video&l=021705308854441fdbddc0200ff0500191901312700ede27461b0",
        "videoPlayUrl": "https://api-hl.amemv.com/aweme/v1/play/?video_id=v0d00fg10000cm3qqqrc77ueovo39l90&line=1&file_id=754822c50762443386019c6050d0140b&sign=dfff1b13d0e81ff346b06dbb73c72cf6&is_play_url=1&source=PackSourceEnum_FEED"
    },
    {
        "file_hash": "922bfaab14949c89c539f5867690e07a",
        "create_time": 1704257747,
        "title": "这乐宝都不让别人抱的，没想到舅舅抱舅很亲，都不要我了😂",
        "author": "三千金成长记",
        "thumbnail": "https://p11-sign.douyinpic.com/tos-cn-p-0015/oMzUUNqMIB1yXIhmNte6AWGAcQuRngyhDHApfy~tplv-dy-360p.jpeg?x-expires=1706515200&x-signature=TO2l0HIIH%2Bvp1OglqSwf0MdMfF4%3D&from=3213915784&s=PackSourceEnum_FEED&se=false&sc=origin_cover&biz_tag=aweme_video&l=021705308785428fdbddc0200ff0500191901312700ede2a8a6bc",
        "videoPlayUrl": "https://api-hl.amemv.com/aweme/v1/play/?video_id=v0d00fg10000cmaeg6bc77u63oavbi8g&line=1&file_id=c6c47415517346d886acc5f7fac3f9d9&sign=922bfaab14949c89c539f5867690e07a&is_play_url=1&source=PackSourceEnum_FEED"
    },
    {
        "file_hash": "b1d6a95a7c1afa1d7659dc2e2ba5c307",
        "create_time": 1704202990,
        "title": "据澎湃新闻1月2日消息，男子卖父母三套房为再婚妻子还债，发现孩子出生证明是假的，目前，关于这起案件警方正在调查当中。",
        "author": "燕赵都市报",
        "thumbnail": "https://p3-sign.douyinpic.com/tos-cn-p-0015/oknUeDiVQBJl3QDXub9EA8ZAdLmUBgUJDZA4el~tplv-dy-360p.jpeg?x-expires=1706515200&x-signature=YfOwBBkvxfBHZHboadYJPvqguQ8%3D&from=3213915784&s=PackSourceEnum_FEED&se=false&sc=origin_cover&biz_tag=aweme_video&l=021705309051348fdbddc0200ff0500191901312700ede256591a",
        "videoPlayUrl": "https://api-hl.amemv.com/aweme/v1/play/?video_id=v0300fg10000cma15lbc77ucm97e9a50&line=1&file_id=14c8b1f384634b1aa2d5949da75e6ead&sign=b1d6a95a7c1afa1d7659dc2e2ba5c307&is_play_url=1&source=PackSourceEnum_FEED"
    },
    {
        "file_hash": "56e7517c6fcc2df936bed8784216470e",
        "create_time": 1704704740,
        "title": "女子贴膏药贴撕不下来\n网友：在长痛与短痛之间选了剧痛\n素材：@荣姐很温柔",
        "author": "藤县融媒",
        "thumbnail": "https://p3-sign.douyinpic.com/tos-cn-p-0015/oEuccEAx1BIYzsIAfeH3jYAdf51bfYfIQyisAd~tplv-dy-360p.jpeg?x-expires=1706515200&x-signature=pOOISp9W4%2FGkQee8bKbTfcPaX6s%3D&from=3213915784&s=PackSourceEnum_FEED&se=false&sc=origin_cover&biz_tag=aweme_video&l=021705308749099fdbddc0200ff0500191901312700ede28c019c",
        "videoPlayUrl": "https://api-hl.amemv.com/aweme/v1/play/?video_id=v0200fg10000cmdrlgrc77u5hu0ndcfg&line=1&file_id=fac6b973221a4d6fb1fc2a93afe0ebda&sign=56e7517c6fcc2df936bed8784216470e&is_play_url=1&source=PackSourceEnum_FEED"
    },
    {
        "file_hash": "13b160afe1d38bb755eeb76f74730b2a",
        "create_time": 1704241628,
        "title": "鳄鱼宝宝🐊",
        "author": "兔先森～",
        "thumbnail": "https://p9-sign.douyinpic.com/tos-cn-p-0015/oQgtahllyAt6qriJAzBUSSWyfBTINItedA7xUY~tplv-dy-360p.jpeg?x-expires=1706515200&x-signature=UFG1MUiZGE5BNR7KgtG2Kf1yfRY%3D&from=3213915784&s=PackSourceEnum_FEED&se=false&sc=origin_cover&biz_tag=aweme_video&l=021705308789051fdbddc0200ff0500191901312700ede2c70172",
        "videoPlayUrl": "https://api-hl.amemv.com/aweme/v1/play/?video_id=v0d00fg10000cmaajhbc77u9ousllbc0&line=1&file_id=3c22280c10dc4291a7e8c4dfa9213b2e&sign=13b160afe1d38bb755eeb76f74730b2a&is_play_url=1&source=PackSourceEnum_FEED"
    },
    {
        "file_hash": "388dbfa2e85508b02fbc353bb3b0b1a5",
        "create_time": 1703375509,
        "title": "为了梦想不服输，为了生活坚持住…加油✊ #努力赚钱才是硬道理 #勤劳致富靠双手 #迎接2024 @DOU+小助手",
        "author": "74年丽丽",
        "thumbnail": "https://p26-sign.douyinpic.com/tos-cn-p-0015/oAJla1EcPAvHB90ngI81hcDnubfTep3DAABmHA~tplv-dy-360p.jpeg?x-expires=1706515200&x-signature=DTs7nBnr3QJ%2FX30Hiy69f3eY7p8%3D&from=3213915784&s=PackSourceEnum_FEED&se=false&sc=origin_cover&biz_tag=aweme_video&l=021705308988205fdbddc0200ff0500191901312700ede2b29cde",
        "videoPlayUrl": "https://api-hl.amemv.com/aweme/v1/play/?video_id=v0300fg10000cm3n2bjc77u1p7tpsjqg&line=1&file_id=741016e772494603825dc0dc370cf688&sign=388dbfa2e85508b02fbc353bb3b0b1a5&is_play_url=1&source=PackSourceEnum_FEED"
    },
    {
        "file_hash": "35c8c470d82df8acbc8abe2896bc95d2",
        "create_time": 1705055660,
        "title": "感谢你当年“不贿之恩”#球员私吞李铁600万反救队友 #大v说 #大v说热点 @经视直播",
        "author": "直播微视评",
        "thumbnail": "https://p11-sign.douyinpic.com/tos-cn-p-0015/o0cSQBCnlBFCLxmeDyMRnAIGAAEhbo2ge9IauP~tplv-dy-360p.jpeg?x-expires=1706515200&x-signature=DJxXfsxwD7uWJVperTeer8eIyBc%3D&from=3213915784&s=PackSourceEnum_FEED&se=false&sc=origin_cover&biz_tag=aweme_video&l=021705308911256fdbddc0200ff0500191901312700ede28a5a50",
        "videoPlayUrl": "https://api-hl.amemv.com/aweme/v1/play/?video_id=v0200fg10000cmgh93rc77u11ngicbe0&line=1&file_id=05a203b59711405bacf25619429dc34f&sign=35c8c470d82df8acbc8abe2896bc95d2&is_play_url=1&source=PackSourceEnum_FEED"
    },
    {
        "file_hash": "8e542b347332a2fa4ae8eeb026a2636a",
        "create_time": 1705061917,
        "title": "#小姑娘唱得太感人了 #好的音乐总能触动人的心灵",
        "author": "专业承接混凝土找平，清光，切缝路面",
        "thumbnail": "https://p9-sign.douyinpic.com/tos-cn-p-0015/oQegeWXkAU3ASEDl9QEBAUvwDDQZQC8CHVNobn~tplv-dy-360p.jpeg?x-expires=1706515200&x-signature=QjDWFNOOwb%2F%2F9Mp5Mn5CaRbWRRw%3D&from=3213915784&s=PackSourceEnum_FEED&se=false&sc=origin_cover&biz_tag=aweme_video&l=021705309100085fdbddc0200ff0500191901312700ede2aab9ed",
        "videoPlayUrl": "https://api-hl.amemv.com/aweme/v1/play/?video_id=v0300fg10000cmgirp3c77u12jqukb10&line=1&file_id=7fbb5ee8ae1241f3b105de228c0860b5&sign=8e542b347332a2fa4ae8eeb026a2636a&is_play_url=1&source=PackSourceEnum_FEED"
    }
]