[
    {
        "file_hash": "c48613acab9d3713ad0c86f7cbbbe9a8",
        "create_time": 1704187149,
        "title": "网红“欧可爱”因车祸溺水离世，警方：肇事司机满16岁，已被刑拘",
        "author": "观察者网",
        "thumbnail": "https://p11-sign.douyinpic.com/tos-cn-p-0015/oYUAThn98P2gkqnRR9foABPAevNQQCCbgl9RQD~tplv-dy-360p.jpeg?x-expires=1706515200&x-signature=0xM6ukFmGAP0DQLdF7pwa0Pi9gU%3D&from=3213915784&s=PackSourceEnum_FEED&se=false&sc=origin_cover&biz_tag=aweme_video&l=021705308794658fdbddc0200ff05004b3325c82d4e0598a9ae17",
        "videoPlayUrl": "https://api-hl.amemv.com/aweme/v1/play/?video_id=v0200fg10000cm9t9o3c77ubvi4qfra0&line=1&file_id=94c5ae9844f64c03908ae96a959f9dc6&sign=c48613acab9d3713ad0c86f7cbbbe9a8&is_play_url=1&source=PackSourceEnum_FEED"
    },
    {
        "file_hash": "3a33629ff252f042299960cb8d000229",
        "create_time": 1704937077,
        "title": "陕西汉中9位“小朱鹮”到沈阳啦，头戴小熊帽 身穿红棉袄，东北的老铁“小朱鹮”拜托你们啦#陕西dou知道 #沈阳",
        "author": "陕视新闻",
        "thumbnail": "https://p11-sign.douyinpic.com/tos-cn-p-0015/ogBj9gnjnp0bYZNQeknZNf6DHkQ8gAlVAggAOo~tplv-dy-360p.jpeg?x-expires=1706515200&x-signature=YLnzOHo%2ByP3tltUTwkwkZFtIfk0%3D&from=3213915784&s=PackSourceEnum_FEED&se=false&sc=origin_cover&biz_tag=aweme_video&l=021705309029988fdbddc0200ff05004b3325c82d4e059839bc9f",
        "videoPlayUrl": "https://api-hl.amemv.com/aweme/v1/play/?video_id=v0d00fg10000cmfkcejc77u44higaq4g&line=1&file_id=f7a73393b5664f38af255ea1a3a2c30b&sign=3a33629ff252f042299960cb8d000229&is_play_url=1&source=PackSourceEnum_FEED"
    },
    {
        "file_hash": "b496e4ee4a480552054623b84780748d",
        "create_time": 1704700416,
        "title": "分别25年再重聚，此刻一家三代同堂的画面，温馨又温情。#贵州",
        "author": "百姓关注",
        "thumbnail": "https://p11-sign.douyinpic.com/tos-cn-p-0015/oIqSAKbheNONjKSiqgBdKIkzIAIyQNzS7kgAfB~tplv-dy-360p.jpeg?x-expires=1706515200&x-signature=gJD8gyCE65aB30U5Fj%2Bfr0zeC%2Bk%3D&from=3213915784&s=PackSourceEnum_FEED&se=false&sc=origin_cover&biz_tag=aweme_video&l=021705309035941fdbddc0200ff05004b3325c82d4e05981786ca",
        "videoPlayUrl": "https://api-hl.amemv.com/aweme/v1/play/?video_id=v0d00fg10000cmdqai3c77ud43i26ih0&line=1&file_id=aac72fb42faa458bbe78796c0ebf241a&sign=b496e4ee4a480552054623b84780748d&is_play_url=1&source=PackSourceEnum_FEED"
    },
    {
        "file_hash": "941bbee1767a727a1de728220582c82c",
        "create_time": 1702748719,
        "title": "忙忙碌碌又一年，除了挣得皱纹无数，好像一无是处……#歌词句句入心#生活不易#唱出了多少人的心酸和无奈#歌曲余额不足",
        "author": "晓晓音乐🎶🎸",
        "thumbnail": "https://p26-sign.douyinpic.com/tos-cn-p-0015/4242d8e5242e4f4da29a17c073e50306_1702748724~tplv-dy-360p.jpeg?x-expires=1706515200&x-signature=pTCHUYoqjvx7CruwPYuoqrCrCro%3D&from=3213915784&s=PackSourceEnum_FEED&se=false&sc=origin_cover&biz_tag=aweme_video&l=021705309094306fdbddc0200ff050027329a669929baf619942c",
        "videoPlayUrl": "https://api-hl.amemv.com/aweme/v1/play/?video_id=v0200fg10000cluu3ibc77u9rgc0cgdg&line=1&file_id=e1b7b10288914e7cbb07973512d6700c&sign=941bbee1767a727a1de728220582c82c&is_play_url=1&source=PackSourceEnum_FEED"
    },
    {
        "file_hash": "5dcaedcbc5971401c3dc581e2adc5889",
        "create_time": 1702893905,
        "title": "2023年终手机处理器排行榜！你的手机排第几？#学生党 #骁龙8gen3 #iphone #华为 #红米",
        "author": "开箱天后菜壹零",
        "thumbnail": "https://p9-sign.douyinpic.com/tos-cn-p-0015/98aabdf7331a47cbbb22044d0a771bbf_1702871807~tplv-dy-360p.jpeg?x-expires=1706515200&x-signature=hKS%2BFMAqkqXQyTClN877x396csc%3D&from=3213915784&s=PackSourceEnum_FEED&se=false&sc=origin_cover&biz_tag=aweme_video&l=021705309091274fdbddc0200ff05004b3325c82d4e0598bcb112",
        "videoPlayUrl": "https://api-hl.amemv.com/aweme/v1/play/?video_id=v0200fg10000clvs49rc77u4tvp9m3a0&line=1&file_id=fc92740baadb48dea8be2c0e642bdcbe&sign=5dcaedcbc5971401c3dc581e2adc5889&is_play_url=1&source=PackSourceEnum_FEED"
    },
    {
        "file_hash": "20d0889a5e0e09c0f737292bee824153",
        "create_time": 1704961842,
        "title": "留登保椒！小卡这波格局拉满~#伦纳德谈及降薪续约的原因  #泡椒说对续约非常乐观   #快船凝聚力",
        "author": "咪咕篮球",
        "thumbnail": "https://p6-sign.douyinpic.com/tos-cn-p-0015/osHgAWPgSNiTBeLgk80eBXDVfnbmbuAc7GC4pG~tplv-dy-360p.jpeg?x-expires=1706515200&x-signature=QCsIddjzX3gcnpnHQ3M4zhavzB4%3D&from=3213915784&s=PackSourceEnum_FEED&se=false&sc=origin_cover&biz_tag=aweme_video&l=021705308735630fdbddc0200ff05004b3325c82d4e05987eb646",
        "videoPlayUrl": "https://api-hl.amemv.com/aweme/v1/play/?video_id=v0300fg10000cmfqe7jc77u6qa8d3n40&line=1&file_id=593ddded2e2f4cc192a7ed236d824dfb&sign=20d0889a5e0e09c0f737292bee824153&is_play_url=1&source=PackSourceEnum_FEED"
    },
    {
        "file_hash": "20fc6c9782c925ec53b52f753c5c6bf0",
        "create_time": 1704456056,
        "title": "可以调节摇杆阻尼的手柄，你们见过吗？飞智八爪鱼4体验 #飞智 #飞智八爪鱼4 #飞智游戏手柄 #游戏手柄 #steam",
        "author": "大狸子切切里",
        "thumbnail": "https://p6-sign.douyinpic.com/tos-cn-p-0015/oMf56svDkwQHlYflAkCQ9mr8ubc3wKANAnGBgy~tplv-dy-360p.jpeg?x-expires=1706515200&x-signature=YUDQ8uixUv1C5XmG82JF6TAp9CY%3D&from=3213915784&s=PackSourceEnum_FEED&se=false&sc=origin_cover&biz_tag=aweme_video&l=021705309048121fdbddc0200ff05004b3325c82d4e05989cf9cd",
        "videoPlayUrl": "https://api-hl.amemv.com/aweme/v1/play/?video_id=v0d00fg10000cmb4ns3c77ufp5fji3hg&line=1&file_id=99184442f6d145d68f72629a28b59e07&sign=20fc6c9782c925ec53b52f753c5c6bf0&is_play_url=1&source=PackSourceEnum_FEED"
    },
    {
        "file_hash": "18c937b920563a4fadb935572117b2bf",
        "create_time": 1702693331,
        "title": "#哈哈娱乐一下",
        "author": "农村宝妈",
        "thumbnail": "https://p26-sign.douyinpic.com/tos-cn-p-0015/42f51b75a457418e8204d88af3cff25c_1702693336~tplv-dy-360p.jpeg?x-expires=1706515200&x-signature=dMECcyM2ABxLua0tPf5qmPoayFQ%3D&from=3213915784&s=PackSourceEnum_FEED&se=false&sc=origin_cover&biz_tag=aweme_video&l=021705309097169fdbddc0200ff05004b3325c82d4e0598ec7de6",
        "videoPlayUrl": "https://api-hl.amemv.com/aweme/v1/play/?video_id=v0300fg10000clugj53c77u8r2vjmmbg&line=1&file_id=800ff08f31cb41c586116280f13d8fb3&sign=18c937b920563a4fadb935572117b2bf&is_play_url=1&source=PackSourceEnum_FEED"
    },
    {
        "file_hash": "9927cb716c90ea6abea86c07ecd46cd6",
        "create_time": 1703995320,
        "title": "想跑？没门！ #老赖 #老赖无处可逃 #热点新闻事件",
        "author": "大调查",
        "thumbnail": "https://p9-sign.douyinpic.com/tos-cn-p-0015/oIE2dPDiOpfVSQIDDFfuAMAInbAweCBWKE0WfI~tplv-dy-360p.jpeg?x-expires=1706515200&x-signature=Kj77B3Z36FWt8%2B%2Fl%2F4QP7cS50m4%3D&from=3213915784&s=PackSourceEnum_FEED&se=false&sc=origin_cover&biz_tag=aweme_video&l=02170530896069900000000000000000000ffff0a1b46931d6992",
        "videoPlayUrl": "https://api-hl.amemv.com/aweme/v1/play/?video_id=v0200fg10000cm7vvrjc77uevh9okm20&line=1&file_id=0066e4dc3ace4992be11113d4cd51861&sign=9927cb716c90ea6abea86c07ecd46cd6&is_play_url=1&source=PackSourceEnum_FEED"
    },
    {
        "file_hash": "64d810ddee2889ae6cbb2415b0b6f370",
        "create_time": 1703934170,
        "title": "#品茶静心 #茶生活 #禅意生活 #茶室 #香道文化",
        "author": "䡷㩪",
        "thumbnail": "https://p3-sign.douyinpic.com/tos-cn-p-0015/o8s4BPbnEgEn7ULBteQYIHbffCNAsDh98IQPgA~tplv-dy-360p.jpeg?x-expires=1706515200&x-signature=d%2FWmuom2OBDLpKam0lOhmLIV03A%3D&from=3213915784&s=PackSourceEnum_FEED&se=false&sc=origin_cover&biz_tag=aweme_video&l=02170530880875300000000000000000000ffff0a187112c70829",
        "videoPlayUrl": "https://api-hl.amemv.com/aweme/v1/play/?video_id=v0200fg10000cm7vgjrc77u15ngfa6r0&line=1&file_id=cc90ead67aad4d15800165953a17c212&sign=64d810ddee2889ae6cbb2415b0b6f370&is_play_url=1&source=PackSourceEnum_FEED"
    }
]