[
    {
        "file_hash": "a817ed93886eee5faa9a3579f6493879",
        "create_time": 1703579888,
        "title": "世界上最幸运的事就是失而复得 #狗子走丢了 #失而复得 #幸运 #感动 #狗狗与主人重逢 #娱乐评论大赏 ",
        "author": "娱乐小楠瓜",
        "thumbnail": "https://p26-sign.douyinpic.com/tos-cn-p-0015/ogQaad7BgBA8eA4qELOA7gfFGCXHbQFMSKCjfO~tplv-dy-360p.jpeg?x-expires=1706518800&x-signature=6LVyDxNwOYWMecRaTiaKcgIqZx8%3D&from=3213915784&s=PackSourceEnum_FEED&se=false&sc=origin_cover&biz_tag=aweme_video&l=021705309797620fdbddc0200ff050070f52370c8ad33456f8a0a",
        "videoPlayUrl": "https://api-hl.amemv.com/aweme/v1/play/?video_id=v0300fg10000cm591sfog65prvmq2ms0&line=1&file_id=d18d4baba6034335ad551c05b31a2e41&sign=a817ed93886eee5faa9a3579f6493879&is_play_url=1&source=PackSourceEnum_FEED"
    },
    {
        "file_hash": "c99c6dfc4b7d3082b0e815bdc949d5e7",
        "create_time": 1704438533,
        "title": "#渔具用品 #钓鱼人就是这么疯狂 #爱生活爱钓鱼",
        "author": "尐丯孑",
        "thumbnail": "https://p26-sign.douyinpic.com/tos-cn-p-0015/o8uICIqAgArvAfjg98bC6lnBdql5EDAfwnrdCX~tplv-dy-360p.jpeg?x-expires=1706518800&x-signature=WLTIEvGy1ObdyGjMmBFxwfArJZg%3D&from=3213915784&s=PackSourceEnum_FEED&se=false&sc=origin_cover&biz_tag=aweme_video&l=02170530973281200000000000000000000ffff0a913566b7fd71",
        "videoPlayUrl": "https://api-hl.amemv.com/aweme/v1/play/?video_id=v0200fg10000cmbqlnbc77u8voanv020&line=1&file_id=ce002b6930874fb9b4863e394cc06d13&sign=c99c6dfc4b7d3082b0e815bdc949d5e7&is_play_url=1&source=PackSourceEnum_FEED"
    },
    {
        "file_hash": "57f3ed743bace0e35b1270340d5f560e",
        "create_time": 1704380520,
        "title": "你们说有地震那就是地震吧！我倒没感觉到，出门一看，只见村里的动物们都出来逛村了。",
        "author": "阿宝&",
        "thumbnail": "https://p26-sign.douyinpic.com/tos-cn-p-0015/oUNBMbYtDAN7nsCgCt4DAlCakBL8gf3WLoewf0~tplv-dy-360p.jpeg?x-expires=1706518800&x-signature=v0%2FsVNp46xe58ZnAvgQp4r25wMQ%3D&from=3213915784&s=PackSourceEnum_FEED&se=false&sc=origin_cover&biz_tag=aweme_video&l=02170531006409200000000000000000000ffff0a9135665ab385",
        "videoPlayUrl": "https://api-hl.amemv.com/aweme/v1/play/?video_id=v0d00fg10000cmbcf9bc77ue61dd1q1g&line=1&file_id=a565747a027a4595bb25605ee9cd3021&sign=57f3ed743bace0e35b1270340d5f560e&is_play_url=1&source=PackSourceEnum_FEED"
    },
    {
        "file_hash": "f0aee7ce9a218a5cd8f43b16191aec6b",
        "create_time": 1702865827,
        "title": "饲养员的魔法拖鞋 #涨知识 #动物的迷惑行为",
        "author": "熬夜科普",
        "thumbnail": "https://p26-sign.douyinpic.com/tos-cn-p-0015/74febbd7bf2149bdab0cef720c07e235_1702646211~tplv-dy-360p.jpeg?x-expires=1706518800&x-signature=ErS%2BkNJ%2F6hpFhNN49TtdvMwGBL0%3D&from=3213915784&s=PackSourceEnum_FEED&se=false&sc=origin_cover&biz_tag=aweme_video&l=02170530986489700000000000000000000ffff0a91356672189d",
        "videoPlayUrl": "https://api-hl.amemv.com/aweme/v1/play/?video_id=v0200fg10000clu52ijc77u06cbs3sd0&line=1&file_id=916d167ba2454e3a80771cffc815c0c9&sign=f0aee7ce9a218a5cd8f43b16191aec6b&is_play_url=1&source=PackSourceEnum_FEED"
    },
    {
        "file_hash": "89696a471c35e3e8a3e9b2e592ac53a1",
        "create_time": 1704688478,
        "title": "1月5日，辽宁。老师给学生拔河比赛加油，这架势像和人吵架，让人退退退呢。战斗力强，不上战场屈才了。#社会百态 #老师 #拔河比赛 #师生日常 #校园日常",
        "author": "看上虞",
        "thumbnail": "https://p11-sign.douyinpic.com/tos-cn-p-0015/osrAAmpNoQA3QCUkzL9r2bDfcgDVSBnclQQ9Be~tplv-dy-360p.jpeg?x-expires=1706518800&x-signature=USIW5KJpzE2vUfLj%2FbmTIIN3%2BEI%3D&from=3213915784&s=PackSourceEnum_FEED&se=false&sc=origin_cover&biz_tag=aweme_video&l=02170530988812100000000000000000000ffff0a9135669291d4",
        "videoPlayUrl": "https://api-hl.amemv.com/aweme/v1/play/?video_id=v0d00fg10000cmdnlqbc77uakkh1j870&line=1&file_id=330e7c7760f644f4822f36af0cdcf0ec&sign=89696a471c35e3e8a3e9b2e592ac53a1&is_play_url=1&source=PackSourceEnum_FEED"
    },
    {
        "file_hash": "be631b9711bda514c957d8de52f229f4",
        "create_time": 1704523164,
        "title": "美国国防部长被送医治疗，目前身体在康复中，副部长随时准备行使防长职权#海峡新干线#台海时刻",
        "author": "海峡新干线",
        "thumbnail": "https://p26-sign.douyinpic.com/tos-cn-p-0015/okgMjWlDeEemfA23fRgAp5HCp1PsSYEaJ244n0~tplv-dy-360p.jpeg?x-expires=1706518800&x-signature=48M4riLQ8JF1uDYb6SszL6Vwze8%3D&from=3213915784&s=PackSourceEnum_FEED&se=false&sc=origin_cover&biz_tag=aweme_video&l=02170530972319200000000000000000000ffff0a913566e3020d",
        "videoPlayUrl": "https://api-hl.amemv.com/aweme/v1/play/?video_id=v0d00fg10000cmcfaf3c77ufp7ehikn0&line=1&file_id=8570bf5eacd249aa8c030b1bccc7ef37&sign=be631b9711bda514c957d8de52f229f4&is_play_url=1&source=PackSourceEnum_FEED"
    },
    {
        "file_hash": "eaed11bce7b733abd1029248e8507e97",
        "create_time": 1704980403,
        "title": "下秒太精彩了···点击上方（红色按钮）可看完整版＃好剧推荐\n",
        "author": "小草🌱",
        "thumbnail": "https://p6-sign.douyinpic.com/tos-cn-p-0015/oIef79Q2LgEeBpBF7CPX7s9Qg8MDbaAtnA8A78~tplv-dy-360p.jpeg?x-expires=1706518800&x-signature=Tv0qRU1a8Zeu55RM5XG95AM41gU%3D&from=3213915784&s=PackSourceEnum_FEED&se=false&sc=origin_cover&biz_tag=aweme_video&l=02170531005198500000000000000000000ffff0a913566eb97f3",
        "videoPlayUrl": "https://api-hl.amemv.com/aweme/v1/play/?video_id=v0200fg10000cmfuvcvog65olnsubfi0&line=1&file_id=75b0214f20d148e6bb43e57f9a54ac35&sign=eaed11bce7b733abd1029248e8507e97&is_play_url=1&source=PackSourceEnum_FEED"
    }
]