[
    {
        "file_hash": "910885c8f292324a8e809efc4849ecb9",
        "create_time": 1704446718,
        "title": "大理一医院被曝院内摆贡品，众人围着“大师”吹吹打打做法，120救护车就停在一旁。医院回应：不清楚情况",
        "author": "极目新闻",
        "thumbnail": "https://p6-sign.douyinpic.com/tos-cn-p-0015/oAnXfDK4QB2lwQDwwb9yADDAcrYi8gksCTAZel~tplv-dy-360p.jpeg?x-expires=1706518800&x-signature=KRpbUEmWjj7ERSDAld8Gyo6YP7c%3D&from=3213915784&s=PackSourceEnum_FEED&se=false&sc=origin_cover&biz_tag=aweme_video&l=02170531006239100000000000000000000ffff0a1b578847a8ec",
        "videoPlayUrl": "https://api-hl.amemv.com/aweme/v1/play/?video_id=v0300fg10000cmbslu3c77u1ktj1mi8g&line=1&file_id=0da666808fd141a59c409211a2fbcfd4&sign=910885c8f292324a8e809efc4849ecb9&is_play_url=1&source=PackSourceEnum_FEED"
    },
    {
        "file_hash": "0147fab201429e8ac5c2ab684d75ab0b",
        "create_time": 1704425465,
        "title": "不懂不要乱讲，谁说2024是“寡妇年”#洛阳 #洛阳家纺实体店 #家纺床上用品  #被子 #四件套",
        "author": "洛阳圣路易丝家纺",
        "thumbnail": "https://p6-sign.douyinpic.com/tos-cn-p-0015/osCBlFcAc3hnIjEZD3s9AobdAcAeueDlgQEQCz~tplv-dy-360p.jpeg?x-expires=1706518800&x-signature=GMDCTYXmLwRXirrvMHAREJ7E0do%3D&from=3213915784&s=PackSourceEnum_FEED&se=false&sc=origin_cover&biz_tag=aweme_video&l=02170530973498200000000000000000000ffff0a1b578845ed1c",
        "videoPlayUrl": "https://api-hl.amemv.com/aweme/v1/play/?video_id=v0200fg10000cmbneq3c77u28ri22e10&line=1&file_id=cea05d6f984844a48aa99ecb99b8676e&sign=0147fab201429e8ac5c2ab684d75ab0b&is_play_url=1&source=PackSourceEnum_FEED"
    },
    {
        "file_hash": "22f6256663a0f4e985208ff039ead241",
        "create_time": 1703930585,
        "title": "#meme #足球 #曼联 #fyp",
        "author": "Funeral Blues",
        "thumbnail": "https://p3-sign.douyinpic.com/tos-cn-p-0015/oY1AtKfjqIz4lBBAVtzgNBhOlPIw9NRANatf6B~tplv-dy-360p.jpeg?x-expires=1706518800&x-signature=ZYxdo1O362HPlNxioT7wNlDxXFg%3D&from=3213915784&s=PackSourceEnum_FEED&se=false&sc=origin_cover&biz_tag=aweme_video&l=02170530991705700000000000000000000ffff0a1b57886c023c",
        "videoPlayUrl": "https://api-hl.amemv.com/aweme/v1/play/?video_id=v0d00fg10000cm7ulijc77u170a6ramg&line=1&file_id=238c4bb4c91446b0ae46311901a501b8&sign=22f6256663a0f4e985208ff039ead241&is_play_url=1&source=PackSourceEnum_FEED"
    },
    {
        "file_hash": "67a249693841fee27ea89cd4e86da609",
        "create_time": 1703408683,
        "title": "#辛酉刀法 #武术 #双手刀  夜战八方藏刀式教学！",
        "author": "止戈",
        "thumbnail": "https://p9-sign.douyinpic.com/tos-cn-p-0015/owohztIJAh5NAC9AnBlgfBlHIv9fAZkUyA4YXC~tplv-dy-360p.jpeg?x-expires=1706518800&x-signature=bd1J8my%2BJIkgMqNnbMKvUxm6K6Y%3D&from=3213915784&s=PackSourceEnum_FEED&se=false&sc=origin_cover&biz_tag=aweme_video&l=02170530975500800000000000000000000ffff0a187350f1b439",
        "videoPlayUrl": "https://api-hl.amemv.com/aweme/v1/play/?video_id=v0d00fg10000cm3v84rc77u8jpau80a0&line=1&file_id=abd94b15d8ed4a53b9066e40497a1541&sign=67a249693841fee27ea89cd4e86da609&is_play_url=1&source=PackSourceEnum_FEED"
    },
    {
        "file_hash": "a156948beeae17aa9d8bfae845337401",
        "create_time": 1704707057,
        "title": "记录美好生活，其实也是治愈自己的瞬间。#oppofindx7 #OPPOFindX7新品发布",
        "author": "小李是个摄象狮🦁️",
        "thumbnail": "https://p11-sign.douyinpic.com/tos-cn-p-0015/o4ZbP3ZDiS96CQxQwBelAqengIDynAiCb6mASV~tplv-dy-360p.jpeg?x-expires=1706518800&x-signature=gGYSfvsV%2BvCchqc5v%2FnCdIzZp%2FE%3D&from=3213915784&s=PackSourceEnum_FEED&se=false&sc=origin_cover&biz_tag=aweme_video&l=02170530988512900000000000000000000ffff0a1b5788332aaa",
        "videoPlayUrl": "https://api-hl.amemv.com/aweme/v1/play/?video_id=v0300fg10000cmdqcjrc77uatqbkici0&line=1&file_id=8e5ef31d0e7e47b9a11e4203bf2e41ac&sign=a156948beeae17aa9d8bfae845337401&is_play_url=1&source=PackSourceEnum_FEED"
    },
    {
        "file_hash": "ffff3a7818660ba478eceb4f69cb8412",
        "create_time": 1704288835,
        "title": "#人文地理 #dou是知识点 #百科知识 #人文社科 #知识科普仅供参考",
        "author": "元农实验室",
        "thumbnail": "https://p9-sign.douyinpic.com/tos-cn-p-0015/o0QnllDeiPnWABuVAXIAZZAADeCkV4QQbgb89Y~tplv-dy-360p.jpeg?x-expires=1706518800&x-signature=WlhUcdrRXEpWYbfdiQv%2FF1kiAKE%3D&from=3213915784&s=PackSourceEnum_FEED&se=false&sc=origin_cover&biz_tag=aweme_video&l=02170530974576300000000000000000000ffff0a1b578881628c",
        "videoPlayUrl": "https://api-hl.amemv.com/aweme/v1/play/?video_id=v0200fg10000cmam49rc77uf5bcupsbg&line=1&file_id=171012123b8d4f81b9f69d1290139393&sign=ffff3a7818660ba478eceb4f69cb8412&is_play_url=1&source=PackSourceEnum_FEED"
    },
    {
        "file_hash": "df1ccc9e05653f10e8007106b1f00421",
        "create_time": 1702980156,
        "title": "听老妹给你报歌名#东北甜妹",
        "author": "干炸小花鱼🐟",
        "thumbnail": "https://p6-sign.douyinpic.com/tos-cn-p-0015/oMWBoJsb8CfleAALQoHk918ngDoANqDmtvgYAs~tplv-dy-360p.jpeg?x-expires=1706518800&x-signature=7d%2FTxDvhsOKAghIxENT%2FKPQHChM%3D&from=3213915784&s=PackSourceEnum_FEED&se=false&sc=origin_cover&biz_tag=aweme_video&l=02170531003811000000000000000000000ffff0a1b578863fcbe",
        "videoPlayUrl": "https://api-hl.amemv.com/aweme/v1/play/?video_id=v0d00fg10000cm0mkb3c77u5rcqu9u90&line=1&file_id=4bccb5827fd44138a6269ebc4f0f0428&sign=df1ccc9e05653f10e8007106b1f00421&is_play_url=1&source=PackSourceEnum_FEED"
    },
    {
        "file_hash": "6da34978ac582627e411920b13413747",
        "create_time": 1703674837,
        "title": "消费券第三轮预约启动啦！#消费券  #广东dou知道",
        "author": "广州ing",
        "thumbnail": "https://p3-sign.douyinpic.com/tos-cn-p-0015/o0DvQCQbA6uQJfA95Bjl3CeOc7OnQUgAA3A2YB~tplv-dy-360p.jpeg?x-expires=1706518800&x-signature=SS5C%2FhZ2I6ri2uomHj6WXet0Vrs%3D&from=3213915784&s=PackSourceEnum_FEED&se=false&sc=origin_cover&biz_tag=aweme_video&l=021705309788266fdbddc0200ff0500aed06d9cb392fb8ebee1de",
        "videoPlayUrl": "https://api-hl.amemv.com/aweme/v1/play/?video_id=v0200fg10000cm607ebc77u0dq0jnn70&line=1&file_id=c29b0b3792954deda984bf1c033a04e0&sign=6da34978ac582627e411920b13413747&is_play_url=1&source=PackSourceEnum_FEED"
    },
    {
        "file_hash": "d6c6d8d1839ecaebadb9c1e542e769d0",
        "create_time": 1704126502,
        "title": "用油漆桶和纸皮做成的捕鼠器，老鼠一抓一个准！ #抓老鼠 #老鼠 #捕鼠器 #DIY  #创意手工",
        "author": "捕鼠大哥（捕鼠神器在主页）",
        "thumbnail": "https://p3-sign.douyinpic.com/tos-cn-p-0015/owqhr6GCI9MAD2yBMSczNAIePtAfBBXgrqzyI5~tplv-dy-360p.jpeg?x-expires=1706518800&x-signature=VuRjQ7vNgV%2FD2Kyn4U36otYJWAU%3D&from=3213915784&s=PackSourceEnum_FEED&se=false&sc=origin_cover&biz_tag=aweme_video&l=021705309751481fdbddc0200ff05005b371d5a47b0accfcef218",
        "videoPlayUrl": "https://api-hl.amemv.com/aweme/v1/play/?video_id=v0300fg10000cm9efmjc77ucuudccc40&line=1&file_id=eab2bb6e707f444689bcd8c1a486d2fe&sign=d6c6d8d1839ecaebadb9c1e542e769d0&is_play_url=1&source=PackSourceEnum_FEED"
    }
]