[
    {
        "file_hash": "026f179da4c7e8d11c13f86da052f2d2",
        "create_time": 1704942816,
        "title": "年少不知父母恩，懂时已是中年人，不管你在哪，不管你多大，在母亲眼里永远都是长不大的孩子，你永远是父母一辈子的牵挂，母爱是世界上最伟大的…#说不出的或许都在歌里 #一首唱哭天下亿万儿女的歌 #爹娘的恩情还也还不够 #听哭了多少有故事的人",
        "author": "黑子🎤",
        "thumbnail": "https://p6-sign.douyinpic.com/tos-cn-p-0015/oUnwfObzD9g1le0Aj0KBARNADnQAXQyg9DEJY1~tplv-dy-360p.jpeg?x-expires=1706518800&x-signature=eRphOjJEz8R6ZPmCJkPIcnxCBM8%3D&from=3213915784&s=PackSourceEnum_FEED&se=false&sc=origin_cover&biz_tag=aweme_video&l=021705309864936fdbddc0200ff05000b98c42e62efa7497f2bc6",
        "videoPlayUrl": "https://api-hl.amemv.com/aweme/v1/play/?video_id=v0d00fg10000cmflpkbc77u5c6bq3g00&line=1&file_id=1d3a084594c74c9990802c5e96781cc5&sign=026f179da4c7e8d11c13f86da052f2d2&is_play_url=1&source=PackSourceEnum_FEED"
    },
    {
        "file_hash": "565a1af808aed31a5db298eea9caa771",
        "create_time": 1703469885,
        "title": "今天又钓了一条大鱼#户外钓鱼",
        "author": "好优品鱼具精选",
        "thumbnail": "https://p11-sign.douyinpic.com/tos-cn-p-0015/ok4Ir1gADQnAiCpeOiBvSl4JTvfA9AAFI73dbU~tplv-dy-360p.jpeg?x-expires=1706518800&x-signature=d%2BgIdEwoHvt0m4%2FHPL56zKtnYgY%3D&from=3213915784&s=PackSourceEnum_FEED&se=false&sc=origin_cover&biz_tag=aweme_video&l=02170531002442300000000000000000000ffff0a186d917709e7",
        "videoPlayUrl": "https://api-hl.amemv.com/aweme/v1/play/?video_id=v0200fg10000cm4e4k3c77u9vrul8tlg&line=1&file_id=35293e46bf224e499da4178a2b1a0bfd&sign=565a1af808aed31a5db298eea9caa771&is_play_url=1&source=PackSourceEnum_FEED"
    },
    {
        "file_hash": "c467e618ddb1d89df51c109d20145dbe",
        "create_time": 1703646141,
        "title": "#中国跳水梦之队 这个集体太牛了，太优秀。#因为热爱所以坚持 #这该死的魅力",
        "author": "UP-sports",
        "thumbnail": "https://p6-sign.douyinpic.com/tos-cn-p-0015/oQxxAMuD9CwbmOocTgD5egGigA3l9uneXAvA8B~tplv-dy-360p.jpeg?x-expires=1706518800&x-signature=4ZLW2wBBY313nOZbrMnhN4Z74z4%3D&from=3213915784&s=PackSourceEnum_FEED&se=false&sc=origin_cover&biz_tag=aweme_video&l=02170530979222300000000000000000000ffff0a1b30c21a189f",
        "videoPlayUrl": "https://api-hl.amemv.com/aweme/v1/play/?video_id=v0200fg10000cm5p703c77ubmv1tjcbg&line=1&file_id=51ff4b12498c460aa68f0acf867e9770&sign=c467e618ddb1d89df51c109d20145dbe&is_play_url=1&source=PackSourceEnum_FEED"
    },
    {
        "file_hash": "4aa3ab7848dbc75984b7dfdb2e9ff5ef",
        "create_time": 1704610631,
        "title": "陶瓷无缝拼接手法#岩板拼接工艺",
        "author": "佛山宏卓工具",
        "thumbnail": "https://p11-sign.douyinpic.com/tos-cn-p-0015/og0NQiej1RCKmlVaACnAQsmG9ClgSBeAqkDVbi~tplv-dy-360p.jpeg?x-expires=1706518800&x-signature=1kBpCWM9ob51%2BN6997%2BHrvlI%2FyA%3D&from=3213915784&s=PackSourceEnum_FEED&se=false&sc=origin_cover&biz_tag=aweme_video&l=02170530971560300000000000000000000ffff0a18680bf14e9f",
        "videoPlayUrl": "https://api-hl.amemv.com/aweme/v1/play/?video_id=v0200fg10000cmd4m2jc77u30i5adiog&line=1&file_id=4f1fbbeb5c594018a7145fd30dfdc7de&sign=4aa3ab7848dbc75984b7dfdb2e9ff5ef&is_play_url=1&source=PackSourceEnum_FEED"
    },
    {
        "file_hash": "bdc59030ac6765a431a8574b5ae37425",
        "create_time": 1702940443,
        "title": "#适合中老年人的健身操推荐 #打造完美身材 #瘦肚子 #减肥 #适合女人的健身塑形方法",
        "author": "龙妹操舞健身有氧运动",
        "thumbnail": "https://p11-sign.douyinpic.com/tos-cn-p-0015/oExA0bMAngw9niIADWbDA3BCzAgeQyGNlX6vfK~tplv-dy-360p.jpeg?x-expires=1706518800&x-signature=7Wb1wN9vKle6pnqLs61%2B7P96Nf8%3D&from=3213915784&s=PackSourceEnum_FEED&se=false&sc=origin_cover&biz_tag=aweme_video&l=02170530996379400000000000000000000ffff0a18680bf2feab",
        "videoPlayUrl": "https://api-hl.amemv.com/aweme/v1/play/?video_id=v0200fg10000cm0ctdrc77udrpld7bt0&line=1&file_id=b47201bb1e244e729ecf7f356d3a246c&sign=bdc59030ac6765a431a8574b5ae37425&is_play_url=1&source=PackSourceEnum_FEED"
    },
    {
        "file_hash": "4adae08d625730af9da172ebdb19cc34",
        "create_time": 1704181200,
        "title": "#被迫营业的猫猫 #萌宠出道计划 #心思全写在脸上的猫猫 猫猫偷吃东西的时候，主人发现后把它拎了起来， 猫猫还不忘舔两下嘴巴素材来源@热心四咪",
        "author": "巴陵看点播报",
        "thumbnail": "https://p26-sign.douyinpic.com/tos-cn-p-0015/owg6gFAM9TvjAfnlu8IibI7IAPZAWDEgNTpfBu~tplv-dy-360p.jpeg?x-expires=1706518800&x-signature=9tQg8k8Rw27OqpQ8sL1p60Qx2DQ%3D&from=3213915784&s=PackSourceEnum_FEED&se=false&sc=origin_cover&biz_tag=aweme_video&l=02170530977593400000000000000000000ffff0a18680bf223db",
        "videoPlayUrl": "https://api-hl.amemv.com/aweme/v1/play/?video_id=v0d00fg10000cm797ljc77u6dohf9i00&line=1&file_id=52cbcd0b5ed8488f9e324a5bafcd4d50&sign=4adae08d625730af9da172ebdb19cc34&is_play_url=1&source=PackSourceEnum_FEED"
    },
    {
        "file_hash": "25a6f40e93ba63c4d6492b44efc5aaa4",
        "create_time": 1704104303,
        "title": "冬钓鲫鱼，钓友们线组搭配的合理吗，线组搭配合理，鲫鱼鱼获更多。#鱼线主线推荐 #钓鱼主线推荐 #鲫鱼线组搭配 #冬钓鲫鱼 #小凤仙官方旗舰店",
        "author": "刚哥户外渔具",
        "thumbnail": "https://p3-sign.douyinpic.com/tos-cn-p-0015/o8JzfBjBUAJN4KhSIBoXhtPwNkyYyIAyRAkegi~tplv-dy-360p.jpeg?x-expires=1706518800&x-signature=swvrCoOB%2F0hlKYm%2B1nrpwhcdHrk%3D&from=3213915784&s=PackSourceEnum_FEED&se=false&sc=origin_cover&biz_tag=aweme_video&l=02170530990838900000000000000000000ffff0a18680bd890aa",
        "videoPlayUrl": "https://api-hl.amemv.com/aweme/v1/play/?video_id=v0d00fg10000cm991obc77u90ske9o7g&line=1&file_id=f76330cb6bd94486819783548a286248&sign=25a6f40e93ba63c4d6492b44efc5aaa4&is_play_url=1&source=PackSourceEnum_FEED"
    }
]