[
    {
        "file_hash": "cc803a97f123821d4f2721c2de075f5d",
        "create_time": 1705023734,
        "title": "云台山、八里沟.....河南景区纷纷上演美男计，吸引外地游客！网友：河南上大分！#河南 #有事儿就找邻妹妹 #压力给到河南文旅",
        "author": "邻妹妹",
        "thumbnail": "https://p26-sign.douyinpic.com/tos-cn-p-0015/oA0AFBhEPxz0exgUxQlgfhgAtIDAGyIAmtIFWI~tplv-dy-360p.jpeg?x-expires=1706518800&x-signature=ymwaEcjhlo7Vw7jzRAh%2FgAno2nU%3D&from=3213915784&s=PackSourceEnum_FEED&se=false&sc=origin_cover&biz_tag=aweme_video&l=02170531005098600000000000000000000ffff0a1c388d52eaf3",
        "videoPlayUrl": "https://api-hl.amemv.com/aweme/v1/play/?video_id=v0300fg10000cmg9h2rc77u885lm0k2g&line=1&file_id=2b51a98b967045b5a796cb66330c4a71&sign=cc803a97f123821d4f2721c2de075f5d&is_play_url=1&source=PackSourceEnum_FEED"
    },
    {
        "file_hash": "c779f683173bd52b945796c8587c9fce",
        "create_time": 1704191400,
        "title": "狗狗从美容店出来后仿佛变成另外一个物种#萌宠 #狗狗成精了 #什么造型挺别致",
        "author": "朗陵视界",
        "thumbnail": "https://p11-sign.douyinpic.com/tos-cn-p-0015/ogQTQCAx9xRkAYnlYee6bKjQsTQAMD4gNk8RB5~tplv-dy-360p.jpeg?x-expires=1706518800&x-signature=iq9HHB52t2z5DK7RyOKQ51Lyi4E%3D&from=3213915784&s=PackSourceEnum_FEED&se=false&sc=origin_cover&biz_tag=aweme_video&l=02170530990856400000000000000000000ffff0a1c388db99366",
        "videoPlayUrl": "https://api-hl.amemv.com/aweme/v1/play/?video_id=v0d00fg10000cm9s9j3c77u8621345b0&line=1&file_id=bc813e5b92ab419e8fabfada8cd15e0d&sign=c779f683173bd52b945796c8587c9fce&is_play_url=1&source=PackSourceEnum_FEED"
    },
    {
        "file_hash": "2bfb7e20f7d00eda5ec2f6f753f9f267",
        "create_time": 1702724258,
        "title": "#小萌宠 #猫咪 \n以为是双向奔赴，谁知道看都没看一眼",
        "author": "杨愈灵",
        "thumbnail": "https://p11-sign.douyinpic.com/tos-cn-p-0015/3cbad2f284c34524a10fd151f44a1424_1702724263~tplv-dy-360p.jpeg?x-expires=1706518800&x-signature=BBA%2B7CGubR9BQJ18%2F9xyctOVkRY%3D&from=3213915784&s=PackSourceEnum_FEED&se=false&sc=origin_cover&biz_tag=aweme_video&l=02170530986175100000000000000000000ffff0a1c388d876d23",
        "videoPlayUrl": "https://api-hl.amemv.com/aweme/v1/play/?video_id=v0d00fg10000cluo4ljc77u7bsm6vuog&line=1&file_id=76b1a08ccbc641b481b94b75fc8f8d2e&sign=2bfb7e20f7d00eda5ec2f6f753f9f267&is_play_url=1&source=PackSourceEnum_FEED"
    },
    {
        "file_hash": "ede0f8c0eafd0e599eef41a98625589c",
        "create_time": 1703736149,
        "title": "12月26日，#云南昆明 ，老人上一秒还在和邻居聊天说笑，短短几分钟后却天人永隔，“一生相伴的人扶他走完了最后的路”#监控下的一幕 #老人去世 （视频来源@崔 师 ）",
        "author": "越牛新闻",
        "thumbnail": "https://p3-sign.douyinpic.com/tos-cn-p-0015/osNNMxJAABBhGwgUEgz5DyI1xIymR8e7nfNA6Z~tplv-dy-360p.jpeg?x-expires=1706518800&x-signature=YFxeeqlwop8HF629ichwxlLZD4Q%3D&from=3213915784&s=PackSourceEnum_FEED&se=false&sc=origin_cover&biz_tag=aweme_video&l=02170530992544300000000000000000000ffff0a1c388d4f6bd8",
        "videoPlayUrl": "https://api-hl.amemv.com/aweme/v1/play/?video_id=v0300fg10000cm6f64jc77u4a69n1p6g&line=1&file_id=640c57222e0d429799da57bd839fde4a&sign=ede0f8c0eafd0e599eef41a98625589c&is_play_url=1&source=PackSourceEnum_FEED"
    },
    {
        "file_hash": "a2c93618aa5e4893709ff41c0e4a7bd7",
        "create_time": 1703300844,
        "title": "和你在一起的那一刻起，我就没有想过要走散，在认真爱你的时候，我从来没有给自己留后路，我只是贪心的想和你一直在一起。#刘晓超 #爱情主演 @刘晓超 🎵",
        "author": "半颗糖🍬",
        "thumbnail": "https://p6-sign.douyinpic.com/tos-cn-p-0015/oUB0ATthTeiHFAkBIlDnTubYAX5mg7YeANGd09~tplv-dy-360p.jpeg?x-expires=1706518800&x-signature=r1jwyFo3U5itI6AML975Rp227yQ%3D&from=3213915784&s=PackSourceEnum_FEED&se=false&sc=origin_cover&biz_tag=aweme_video&l=02170530981814300000000000000000000ffff0a1c388db69aa0",
        "videoPlayUrl": "https://api-hl.amemv.com/aweme/v1/play/?video_id=v0d00fg10000cm34tnbc77u9hfj39dc0&line=1&file_id=826327ff9e8c49ca86721bcaa0a3515e&sign=a2c93618aa5e4893709ff41c0e4a7bd7&is_play_url=1&source=PackSourceEnum_FEED"
    },
    {
        "file_hash": "84f6be56ff30624e7bfc1a1edbceff6a",
        "create_time": 1703987548,
        "title": "这位具有传奇色彩的巾帼英雄你认识吗？",
        "author": "森林中的一粒沙",
        "thumbnail": "https://p26-sign.douyinpic.com/tos-cn-p-0015/o4eBSfA6CKUtCMyCVyx4AiDQcMIAIEPmzGyzhg~tplv-dy-360p.jpeg?x-expires=1706518800&x-signature=cvlQZQRZCQn7Md3fdN11QhlhR2s%3D&from=3213915784&s=PackSourceEnum_FEED&se=false&sc=origin_cover&biz_tag=aweme_video&l=02170530991435600000000000000000000ffff0a1c388db0807c",
        "videoPlayUrl": "https://api-hl.amemv.com/aweme/v1/play/?video_id=v0300fg10000cm8ciabc77uc12kovjh0&line=1&file_id=f6226f45dd6244fd8c6660ceda05a159&sign=84f6be56ff30624e7bfc1a1edbceff6a&is_play_url=1&source=PackSourceEnum_FEED"
    },
    {
        "file_hash": "273df445406969d23e069c75b71c5e68",
        "create_time": 1703148960,
        "title": "租的别墅一直漏水，跟房东协商退租后 门锁竟被换了？租客：里面有30多万的东西拿不出来#河南dou知道 #别墅",
        "author": "河南广播电视台小莉帮忙",
        "thumbnail": "https://p9-sign.douyinpic.com/tos-cn-p-0015/oMAKPjoGiPyof9LJZwDT99PfAQ5fIYfAHYeeAB~tplv-dy-360p.jpeg?x-expires=1706518800&x-signature=7fhztQQn4dSAI7i8zGvUj6wN1Uc%3D&from=3213915784&s=PackSourceEnum_FEED&se=false&sc=origin_cover&biz_tag=aweme_video&l=021705309811004fdbddc0200ff050061ae735e55c9642b5f67a7",
        "videoPlayUrl": "https://api-hl.amemv.com/aweme/v1/play/?video_id=v0d00fg10000cm1vr23c77u7vi1va0s0&line=1&file_id=de5584ce2b1f48679292e7648aa452b2&sign=273df445406969d23e069c75b71c5e68&is_play_url=1&source=PackSourceEnum_FEED"
    },
    {
        "file_hash": "28c9b65a9e1e6b96bcd0f2bedc363d72",
        "create_time": 1704417939,
        "title": "滑雪场“呲雪墙”摆拍失误，拍照者被高速冲来的人撞倒。网友：无论做什么还是安全最重要！#滑雪 #危险瞬间",
        "author": "历下融媒",
        "thumbnail": "https://p11-sign.douyinpic.com/tos-cn-p-0015/oI59QqnvIeApITBlHBDNXWAKAY1ib9eXl5pKgV~tplv-dy-360p.jpeg?x-expires=1706518800&x-signature=OQBHTJFQnSSwSldRpdpVABz%2FbM4%3D&from=3213915784&s=PackSourceEnum_FEED&se=false&sc=origin_cover&biz_tag=aweme_video&l=02170530973579200000000000000000000ffff0a1c388dbb5864",
        "videoPlayUrl": "https://api-hl.amemv.com/aweme/v1/play/?video_id=v0d00fg10000cmblkrrc77ucef7rql3g&line=1&file_id=d5138c30f901461a9ffcdb1fce1cb35f&sign=28c9b65a9e1e6b96bcd0f2bedc363d72&is_play_url=1&source=PackSourceEnum_FEED"
    },
    {
        "file_hash": "29673955596acac1adb21768944b2cbb",
        "create_time": 1704792608,
        "title": "身份证号只有18位，用完了该咋办？为啥有的身份证没有省或市？#身份证#身份证号#身份证没有省#科普#涨知识",
        "author": "久伴科普",
        "thumbnail": "https://p6-sign.douyinpic.com/tos-cn-p-0015/osHIvACDlBExKwNFE7JRbAIWAAcdfnIgf9Iiyg~tplv-dy-360p.jpeg?x-expires=1706518800&x-signature=JFxhmv4oq50tX3cgNFphGr2G2TE%3D&from=3213915784&s=PackSourceEnum_FEED&se=false&sc=origin_cover&biz_tag=aweme_video&l=02170531005419600000000000000000000ffff0a1c388d2f13e7",
        "videoPlayUrl": "https://api-hl.amemv.com/aweme/v1/play/?video_id=v0200fg10000cmeh487og65olnrgqa3g&line=1&file_id=c1dd2704e8b544229dcd0902577b5a0a&sign=29673955596acac1adb21768944b2cbb&is_play_url=1&source=PackSourceEnum_FEED"
    }
]