[
    {
        "file_hash": "6a1000252719342095a6674ea1737bfe",
        "create_time": 1703399045,
        "title": "",
        "author": "难言粉丝",
        "thumbnail": "https://p6-sign.douyinpic.com/tos-cn-p-0015/oUuEQkCLBAyAes7y4DlQbBfAPeEnD8Nm5GJnaB~tplv-dy-360p.jpeg?x-expires=1706493600&x-signature=soouKYTYYqhCIgRPr7D6hqGapGc%3D&from=3213915784&s=PackSourceEnum_FEED&se=false&sc=origin_cover&biz_tag=aweme_video&l=021705286846910fdbddc0200ff05007069c7e82e0982d1efabe4",
        "videoPlayUrl": "https://api-hl.amemv.com/aweme/v1/play/?video_id=v0300fg10000cm3spnjc77u3do8q4vsg&line=1&file_id=bb9213fe97f64a36b1bf2f9a3fe0882a&sign=6a1000252719342095a6674ea1737bfe&is_play_url=1&source=PackSourceEnum_FEED"
    },
    {
        "file_hash": "920a4d483f72a364d1757ae05bbe654a",
        "create_time": 1702870306,
        "title": "这么冷的天，谁要给我买个袄，我就立马跟谁跑，哈哈😄#穿搭 #皮羽绒#天气冷了注意保暖 @抖音小助手",
        "author": "“秋姐”服装店",
        "thumbnail": "https://p6-sign.douyinpic.com/tos-cn-p-0015/51e541b3f9374c15971cc0bd097e921d_1702870311~tplv-dy-360p.jpeg?x-expires=1706493600&x-signature=o2UNc9wrSxuaL%2BEDVxQ80wglKKY%3D&from=3213915784&s=PackSourceEnum_FEED&se=false&sc=origin_cover&biz_tag=aweme_video&l=021705286884850fdbddc0200ff05007069c7e82e0982d12ec586",
        "videoPlayUrl": "https://api-hl.amemv.com/aweme/v1/play/?video_id=v0300fg10000clvrptbc77u6ipg24d3g&line=1&file_id=e871eaf1c74f4c089eaee256941c84ee&sign=920a4d483f72a364d1757ae05bbe654a&is_play_url=1&source=PackSourceEnum_FEED"
    },
    {
        "file_hash": "813a3719f2e15a3bdc21e9375c4fc353",
        "create_time": 1704164036,
        "title": "",
        "author": "小胖说剧",
        "thumbnail": "https://p11-sign.douyinpic.com/tos-cn-p-0015/o4Wn8CdQvBg8u0UmgCfsDbweGeJELgAUAB67AH~tplv-dy-360p.jpeg?x-expires=1706493600&x-signature=TI9JMcT0V2JFaUGEFWdU3z7QjaA%3D&from=3213915784&s=PackSourceEnum_FEED&se=false&sc=origin_cover&biz_tag=aweme_video&l=02170528693929100000000000000000000ffff0a18659bbd9aa2",
        "videoPlayUrl": "https://api-hl.amemv.com/aweme/v1/play/?video_id=v0300fg10000cm9nl7jc77u8218ttbm0&line=1&file_id=7c260e7b24cc4a8ba14c3c9bae0166c3&sign=813a3719f2e15a3bdc21e9375c4fc353&is_play_url=1&source=PackSourceEnum_FEED"
    },
    {
        "file_hash": "b635f3f1c23f33ff8c187fa8899cad1a",
        "create_time": 1703061110,
        "title": "上个月体检身高没过，今天去复查身高长了0.7厘米，体重没长，儿保医生评估发育迟缓，让早睡早起，户外运动，营养均衡，给老母亲整焦虑了#生长发育 #如何促进孩子长高 #宝宝的标准身高体重",
        "author": "小杜家的仔仔",
        "thumbnail": "https://p11-sign.douyinpic.com/tos-cn-p-0015/oo6wNIKAzgNKVBpkghNnAcBMqfXZcyAAhHVemC~tplv-dy-360p.jpeg?x-expires=1706493600&x-signature=Yr5SV3nkwShzWi4N91QA75P0c5A%3D&from=3213915784&s=PackSourceEnum_FEED&se=false&sc=origin_cover&biz_tag=aweme_video&l=021705286870240fdbddc0200ff05006c9c12876d898e84605193",
        "videoPlayUrl": "https://api-hl.amemv.com/aweme/v1/play/?video_id=v0d00fg10000cm1aa53c77u7bmc2l4ag&line=1&file_id=eece9394519d48669760ce04ab2f0d60&sign=b635f3f1c23f33ff8c187fa8899cad1a&is_play_url=1&source=PackSourceEnum_FEED"
    },
    {
        "file_hash": "a959d53d44bbc109b7ea5d12eee59b4c",
        "create_time": 1704690883,
        "title": "#两手空空心空空",
        "author": "楷越同学",
        "thumbnail": "https://p26-sign.douyinpic.com/tos-cn-p-0015/owCzc1LohKcAIMfgyYjA2hctSIOeB8AzbIAMVM~tplv-dy-360p.jpeg?x-expires=1706493600&x-signature=r1lRNqkXP4VYktZeTc63ss%2Fr4MQ%3D&from=3213915784&s=PackSourceEnum_FEED&se=false&sc=origin_cover&biz_tag=aweme_video&l=021705286749906fdbddc0200ff05007069c7e82e0982d19bb78b",
        "videoPlayUrl": "https://api-hl.amemv.com/aweme/v1/play/?video_id=v0200fg10000cmdo8ubc77ue95eop3e0&line=1&file_id=f52298a3999e4a3c94971ba937c8abdf&sign=a959d53d44bbc109b7ea5d12eee59b4c&is_play_url=1&source=PackSourceEnum_FEED"
    },
    {
        "file_hash": "2d000282d0cf6557c09706671df083d9",
        "create_time": 1702980002,
        "title": "10岁孩子过大寿，预支鲜花透支未来 #发现母亲 #王东华 #母亲教育 #幼读 #识字",
        "author": "王东华母亲教育幼读",
        "thumbnail": "https://p26-sign.douyinpic.com/tos-cn-p-0015/oI9aBAIGWCBarDAl2gebABgYZauHh8If9onRAu~tplv-dy-360p.jpeg?x-expires=1706493600&x-signature=uC20X4TH0Fkd5w9tOcF7lW%2FBeqE%3D&from=3213915784&s=PackSourceEnum_FEED&se=false&sc=origin_cover&biz_tag=aweme_video&l=021705286988564fdbddc0200ff05007069c7e82e0982d1ebb38a",
        "videoPlayUrl": "https://api-hl.amemv.com/aweme/v1/play/?video_id=v0200fg10000cm0mgrjc77u8vvdcgpu0&line=1&file_id=3fc2353e1eff42daa0f614e31f0b7b38&sign=2d000282d0cf6557c09706671df083d9&is_play_url=1&source=PackSourceEnum_FEED"
    },
    {
        "file_hash": "a6ebe1689bf44636c945b2c513d9f79f",
        "create_time": 1704882700,
        "title": "东北“冻梨”到柳州，感受到了柳州人的热情，解锁新体验！#广西dou知道 #柳州 #东北冻梨到广西了  （视频来源：@老耿推文 ）",
        "author": "柳州日报社",
        "thumbnail": "https://p11-sign.douyinpic.com/tos-cn-p-0015/oczB5U8P0gnQeJHAMcJAbtDvLeg372vBGegOcC~tplv-dy-360p.jpeg?x-expires=1706493600&x-signature=6Bomdkqu2Ps5z6pmDfVYc1A24d4%3D&from=3213915784&s=PackSourceEnum_FEED&se=false&sc=origin_cover&biz_tag=aweme_video&l=02170528690653800000000000000000000ffff0a2eb6a69502ff",
        "videoPlayUrl": "https://api-hl.amemv.com/aweme/v1/play/?video_id=v0300fg10000cmf737jc77u2durfst3g&line=1&file_id=ddcb6c01a4d1457a9523ce51c380c29f&sign=a6ebe1689bf44636c945b2c513d9f79f&is_play_url=1&source=PackSourceEnum_FEED"
    },
    {
        "file_hash": "5e1d17e088cd066a92f69d10b9a1f312",
        "create_time": 1703002740,
        "title": "#猫咪的迷惑行为 #铲屎官的乐趣 #猫咪的日常 猫咪平时一剪指甲就急眼，如今指甲勾在了沙发上，猫咪急得直叫唤。素材来源：@火辣一只猹",
        "author": "新闻晚高峰",
        "thumbnail": "https://p11-sign.douyinpic.com/tos-cn-p-0015/oYLAbDhngSQBru1ebal9ABAdIfB3AgAuSNiSwC~tplv-dy-360p.jpeg?x-expires=1706493600&x-signature=V1Sc%2Finmj0ynwl0rVFAYtPS3OqU%3D&from=3213915784&s=PackSourceEnum_FEED&se=false&sc=origin_cover&biz_tag=aweme_video&l=02170528687736500000000000000000000ffff0a1b46935ad36e",
        "videoPlayUrl": "https://api-hl.amemv.com/aweme/v1/play/?video_id=v0200fg10000cm0in3bc77uevttfaigg&line=1&file_id=d669ee7e09374124a9d6a68831618748&sign=5e1d17e088cd066a92f69d10b9a1f312&is_play_url=1&source=PackSourceEnum_FEED"
    },
    {
        "file_hash": "06ca42f9090a5344921538f0dbcd1938",
        "create_time": 1703647925,
        "title": "保安劝阻游客投喂海鸥反被怼 12月27日，广东深圳，保安劝阻游客投喂海鸥，游客不听劝阻 ：关你什么事，保护区有明确规定，不允许投喂野生动物，网友：野生动物原本就禁止投喂。#广东dou知道 @抖音小助手",
        "author": "小强热线浙江教科",
        "thumbnail": "https://p9-sign.douyinpic.com/tos-cn-p-0015/ogIALfy8cBv8AXzcINTZ7DBghCmhJxBFS20Aer~tplv-dy-360p.jpeg?x-expires=1706493600&x-signature=7l1VXufqW8c9UFDSG7thlKlgS0o%3D&from=3213915784&s=PackSourceEnum_FEED&se=false&sc=origin_cover&biz_tag=aweme_video&l=021705286829152fdbddc0200ff05007069c7e82e0982d1f472e9",
        "videoPlayUrl": "https://api-hl.amemv.com/aweme/v1/play/?video_id=v0300fg10000cm5pk2jc77u1u8at5s4g&line=1&file_id=3203e104e4c24e28a3404a1c343b526f&sign=06ca42f9090a5344921538f0dbcd1938&is_play_url=1&source=PackSourceEnum_FEED"
    },
    {
        "file_hash": "fe39dd3579506dc4797de04ba9aa46dd",
        "create_time": 1703217553,
        "title": "12月22日（发布时间）天津，出租车司机遇奇葩乘客 男子打车到达后拒付60元车费，惊人发言给民警和司机都整沉默了（来源：@金蝉视频）",
        "author": "潮视频",
        "thumbnail": "https://p3-sign.douyinpic.com/tos-cn-p-0015/o0JossKuKwjcHTffEAAdfXqYTieA3wAfGTYIJE~tplv-dy-360p.jpeg?x-expires=1706493600&x-signature=2NOjOecCbrdhtwuHt5W6OzXfPO0%3D&from=3213915784&s=PackSourceEnum_FEED&se=false&sc=origin_cover&biz_tag=aweme_video&l=02170528697825600000000000000000000ffff0a1b46932945b6",
        "videoPlayUrl": "https://api-hl.amemv.com/aweme/v1/play/?video_id=v0300fg10000cm2gikjc77u1fehoifsg&line=1&file_id=47ff72c6f434484282a8cc822638f7fe&sign=fe39dd3579506dc4797de04ba9aa46dd&is_play_url=1&source=PackSourceEnum_FEED"
    }
]