[
    {
        "file_hash": "b629cde40a9f9a5d0b177a0e2659f13d",
        "create_time": 1704165823,
        "title": "够远的了……#陕西",
        "author": "楚楚",
        "thumbnail": "https://p11-sign.douyinpic.com/tos-cn-p-0015/owcAZtcTYgEezg8IAoPhAQBCgAyfI3kzyVB8Ny~tplv-dy-360p.jpeg?x-expires=1706518800&x-signature=H4d4g8NqBsyTxTh3EFvMqOMbG8k%3D&from=3213915784&s=PackSourceEnum_FEED&se=false&sc=origin_cover&biz_tag=aweme_video&l=02170530986745500000000000000000000ffff0a92f9e7c5637d",
        "videoPlayUrl": "https://api-hl.amemv.com/aweme/v1/play/?video_id=v0200fg10000cm9o18bc77ufuct1glcg&line=1&file_id=0696248634a04ecbb08aaaf75fc3597c&sign=b629cde40a9f9a5d0b177a0e2659f13d&is_play_url=1&source=PackSourceEnum_FEED"
    },
    {
        "file_hash": "ca0f10cfbd943a06ba3b62ff36a86961",
        "create_time": 1704251498,
        "title": "他心眼子比箱子上的洞还多！边牧玩打地鼠#萌宠出道计划 #狗狗 #抖in萌宠计划 #边牧",
        "author": "边牧木马Mua🌈",
        "thumbnail": "https://p9-sign.douyinpic.com/tos-cn-p-0015/o4BnA0HlseCFTANBIlDnTGbdIowUgBJeACUgW9~tplv-dy-360p.jpeg?x-expires=1706518800&x-signature=WaRwEfX342T3sLkIxD0iDtvx9VM%3D&from=3213915784&s=PackSourceEnum_FEED&se=false&sc=origin_cover&biz_tag=aweme_video&l=02170530995394400000000000000000000ffff0a92f9e78147eb",
        "videoPlayUrl": "https://api-hl.amemv.com/aweme/v1/play/?video_id=v0200fg10000cmad0o3c77u9kvh5c7eg&line=1&file_id=35e84589974e4109856b6c76c556108d&sign=ca0f10cfbd943a06ba3b62ff36a86961&is_play_url=1&source=PackSourceEnum_FEED"
    },
    {
        "file_hash": "941bbee1767a727a1de728220582c82c",
        "create_time": 1702748719,
        "title": "忙忙碌碌又一年，除了挣得皱纹无数，好像一无是处……#歌词句句入心#生活不易#唱出了多少人的心酸和无奈#歌曲余额不足",
        "author": "晓晓音乐🎶🎸",
        "thumbnail": "https://p26-sign.douyinpic.com/tos-cn-p-0015/4242d8e5242e4f4da29a17c073e50306_1702748724~tplv-dy-360p.jpeg?x-expires=1706518800&x-signature=gD1Q9%2BqrlFNLe%2BKydxsucaN0o78%3D&from=3213915784&s=PackSourceEnum_FEED&se=false&sc=origin_cover&biz_tag=aweme_video&l=02170530999092800000000000000000000ffff0a92f9e794d55b",
        "videoPlayUrl": "https://api-hl.amemv.com/aweme/v1/play/?video_id=v0200fg10000cluu3ibc77u9rgc0cgdg&line=1&file_id=e1b7b10288914e7cbb07973512d6700c&sign=941bbee1767a727a1de728220582c82c&is_play_url=1&source=PackSourceEnum_FEED"
    },
    {
        "file_hash": "3c755652d20d0bd0e9eba0bd156bdb34",
        "create_time": 1703422058,
        "title": "冷知识+1：你冬天盖被子的顺序，可能一直是错的。",
        "author": "江宁发布",
        "thumbnail": "https://p6-sign.douyinpic.com/tos-cn-p-0015/oAQQACAI9UAiAlnlWesfbttDOhEABDvgDMCNBP~tplv-dy-360p.jpeg?x-expires=1706518800&x-signature=q2bgY5Uo3T8%2FYEXedIeRHjBV4Bg%3D&from=3213915784&s=PackSourceEnum_FEED&se=false&sc=origin_cover&biz_tag=aweme_video&l=02170530971026100000000000000000000ffff0a92fe1555700e",
        "videoPlayUrl": "https://api-hl.amemv.com/aweme/v1/play/?video_id=v0300fg10000cm42ggbc77u25gc0cmjg&line=1&file_id=e731bc3e8b5c406ba280a88db585c007&sign=3c755652d20d0bd0e9eba0bd156bdb34&is_play_url=1&source=PackSourceEnum_FEED"
    },
    {
        "file_hash": "eadabd7954e2232fda5c9653ff776ff3",
        "create_time": 1702716304,
        "title": "12月16日（发布）河南郑州，买奔驰GLC开了不到俩月窗户关不上？女子：买的新车要换门 凭什么呀，4S店：偶发性现象，需要测试（2）#河南dou知道  #河南台中国节气冬至篇",
        "author": "河南广播电视台民生频道",
        "thumbnail": "https://p11-sign.douyinpic.com/tos-cn-p-0015/185c78622d354446b23239c8eff1fb1b_1702716308~tplv-dy-360p.jpeg?x-expires=1706518800&x-signature=486LWAjGy%2BvxlqU8vcr9zVMD%2BU8%3D&from=3213915784&s=PackSourceEnum_FEED&se=false&sc=origin_cover&biz_tag=aweme_video&l=02170530992571600000000000000000000ffff0a92f9e734dbdc",
        "videoPlayUrl": "https://api-hl.amemv.com/aweme/v1/play/?video_id=v0d00fg10000clum6d3c77u726mt87kg&line=1&file_id=ca63db3801cf4aca86e43839d269ffd2&sign=eadabd7954e2232fda5c9653ff776ff3&is_play_url=1&source=PackSourceEnum_FEED"
    },
    {
        "file_hash": "4d87c9e97571bb8145e4e2780d717a10",
        "create_time": 1704882769,
        "title": "#萌宠出道计划 #不养狗不知道养狗的乐趣 #萌宠日常记录 #狗狗 #狗子日常",
        "author": "饺子是只小法斗",
        "thumbnail": "https://p6-sign.douyinpic.com/tos-cn-p-0015/ooXfAubnDQ0s9FlA852IknQn8BKAfDJq8EBCQg~tplv-dy-360p.jpeg?x-expires=1706518800&x-signature=jhmrSfr2j6hj673hl3JQOQ99BAE%3D&from=3213915784&s=PackSourceEnum_FEED&se=false&sc=origin_cover&biz_tag=aweme_video&l=02170530999715900000000000000000000ffff0a92f9e7a5875b",
        "videoPlayUrl": "https://api-hl.amemv.com/aweme/v1/play/?video_id=v0300fg10000cmf74gjc77ud7jus5820&line=1&file_id=e24079f6f3784c0ea004e6c6a57988e8&sign=4d87c9e97571bb8145e4e2780d717a10&is_play_url=1&source=PackSourceEnum_FEED"
    },
    {
        "file_hash": "70cdadd1e183e812cb1ab824daf3dcbd",
        "create_time": 1703066315,
        "title": "#创作灵感 和妈妈一起玩奥尔夫音乐游戏，锻炼大运动和反应能力，培养节奏感和韵律#亲子互动 #奥尔夫音乐 #启蒙早教",
        "author": "K宝的妈妈",
        "thumbnail": "https://p9-sign.douyinpic.com/tos-cn-p-0015/oM1qICVD9nAsufJxDreGA9lCKA3g9B8gAgb9CD~tplv-dy-360p.jpeg?x-expires=1706518800&x-signature=gwuCNqUHGIwEFa5aQTBU7gffAiw%3D&from=3213915784&s=PackSourceEnum_FEED&se=false&sc=origin_cover&biz_tag=aweme_video&l=02170530977905900000000000000000000ffff0a92f9e731ab27",
        "videoPlayUrl": "https://api-hl.amemv.com/aweme/v1/play/?video_id=v0200fg10000cm1blfbc77u30vs3ftag&line=1&file_id=0559b9834d6d47bbbe916f1e49c48c27&sign=70cdadd1e183e812cb1ab824daf3dcbd&is_play_url=1&source=PackSourceEnum_FEED"
    },
    {
        "file_hash": "641522436e01c524766352dbe753740f",
        "create_time": 1703833876,
        "title": "大爷晕倒在路边，两位小姐姐挺身而出（LQ）",
        "author": "临沂市广播电视台",
        "thumbnail": "https://p26-sign.douyinpic.com/tos-cn-p-0015/owhigBNzyBcC2rafhW9zGAIQAAyONxYgWeIRyE~tplv-dy-360p.jpeg?x-expires=1706518800&x-signature=e7Xo%2BEjCCl3Gp9gVec9Hmr5oD%2Bs%3D&from=3213915784&s=PackSourceEnum_FEED&se=false&sc=origin_cover&biz_tag=aweme_video&l=02170530971707300000000000000000000ffff0a92f9e7d2339c",
        "videoPlayUrl": "https://api-hl.amemv.com/aweme/v1/play/?video_id=v0d00fg10000cm77223c77u285m9lmgg&line=1&file_id=a3bc1fe7c6614d5fa833887893846f23&sign=641522436e01c524766352dbe753740f&is_play_url=1&source=PackSourceEnum_FEED"
    }
]