[
    {
        "file_hash": "24451d4b66002390e6a142e165bd0d42",
        "create_time": 1704790814,
        "title": "老外一拳KO位宁辉不知足，甚至还想终结邱建良，结果被阿良给暴揍  #拳击 #格斗  #散打 ",
        "author": "小龙格斗录",
        "thumbnail": "https://p26-sign.douyinpic.com/tos-cn-p-0015/o0EE2b7BQBAfyQedCLFAaKUJECFYXCODh5Eemu~tplv-dy-360p.jpeg?x-expires=1706518800&x-signature=jEtfovsJ3ebHSTTKSqUxTyve8Y4%3D&from=3213915784&s=PackSourceEnum_FEED&se=false&sc=origin_cover&biz_tag=aweme_video&l=021705309988711fdbddc0200ff05008bde4961213f9c9aa923bb",
        "videoPlayUrl": "https://api-hl.amemv.com/aweme/v1/play/?video_id=v0200fg10000cmegm7nog65n53bc9big&line=1&file_id=b55efd67cf62461b9277aceb1b411291&sign=24451d4b66002390e6a142e165bd0d42&is_play_url=1&source=PackSourceEnum_FEED"
    },
    {
        "file_hash": "83a003e80d0fe08ab762808f32a7f1de",
        "create_time": 1704103323,
        "title": "#老人言 #涨见识涨知识",
        "author": "老人言",
        "thumbnail": "https://p6-sign.douyinpic.com/tos-cn-p-0015/oAUBgTLNiSSyfAAPIbZ1ejAzghdANwBHnlyJI6~tplv-dy-360p.jpeg?x-expires=1706518800&x-signature=jqbwBbT0m1m7pUJnhObW2lMz1r8%3D&from=3213915784&s=PackSourceEnum_FEED&se=false&sc=origin_cover&biz_tag=aweme_video&l=02170530975788800000000000000000000ffff0a1d6197246913",
        "videoPlayUrl": "https://api-hl.amemv.com/aweme/v1/play/?video_id=v0d00fg10000cm98r5jc77ufjhsl60qg&line=1&file_id=c4917f8ac3fb4bb49ddc07c302851534&sign=83a003e80d0fe08ab762808f32a7f1de&is_play_url=1&source=PackSourceEnum_FEED"
    },
    {
        "file_hash": "69069d42d870eb0026474e6d03eabdc8",
        "create_time": 1705142966,
        "title": "#空有人间自由身 #大潞 孙颖莎女单进决赛，精彩的强强对决，恭喜莎莎，鳗鱼也是好样的！#孙颖莎 #王曼昱",
        "author": "乐邦体育",
        "thumbnail": "https://p26-sign.douyinpic.com/tos-cn-p-0015/oUWAdplQiINnhBzagzCrmbDweAA9eBoChcH2nQ~tplv-dy-360p.jpeg?x-expires=1706518800&x-signature=fr53RZWsu2AvrEZS4yu7%2FNL%2BNHs%3D&from=3213915784&s=PackSourceEnum_FEED&se=false&sc=origin_cover&biz_tag=aweme_video&l=021705309681608fdbddc0200ff050027329a669929baf61267cb",
        "videoPlayUrl": "https://api-hl.amemv.com/aweme/v1/play/?video_id=v0200fg10000cmh6ksrc77u1dh3676n0&line=1&file_id=87085a6abc404c088f8b78b0b726af0d&sign=69069d42d870eb0026474e6d03eabdc8&is_play_url=1&source=PackSourceEnum_FEED"
    },
    {
        "file_hash": "9698c69c56e25b31f5163756926ddc05",
        "create_time": 1703584329,
        "title": "《躲在防空洞》加拿大歌手将著名的圣诞歌进行改编并献给加沙儿童\n#巴以冲突",
        "author": "来点石锤",
        "thumbnail": "https://p9-sign.douyinpic.com/tos-cn-p-0015/o0tyDDeSAHzxJKphsofEGIPkARVmIgBFVkCNaA~tplv-dy-360p.jpeg?x-expires=1706518800&x-signature=q8x43pPSsWDIJQabHP4Qoocw3tE%3D&from=3213915784&s=PackSourceEnum_FEED&se=false&sc=origin_cover&biz_tag=aweme_video&l=021705309800087fdbddc0200ff050027329a669929baf687a27a",
        "videoPlayUrl": "https://api-hl.amemv.com/aweme/v1/play/?video_id=v0d00fg10000cm5a43bc77u5d9h4748g&line=1&file_id=55784341a2bb47e8b72699903969b89e&sign=9698c69c56e25b31f5163756926ddc05&is_play_url=1&source=PackSourceEnum_FEED"
    },
    {
        "file_hash": "8f220dc12bd781fd1e1db821e7f7fb51",
        "create_time": 1704787392,
        "title": "人类首次商业化太空葬启航，国内一公司太空葬停止线上服务",
        "author": "极目新闻",
        "thumbnail": "https://p3-sign.douyinpic.com/tos-cn-p-0015/oUcAAnkC1QAPINKvRwf25bEMAgDdzBnclQc9ae~tplv-dy-360p.jpeg?x-expires=1706518800&x-signature=qTgsEurfZp3a%2BEy%2Bx0NKzr5%2FcgI%3D&from=3213915784&s=PackSourceEnum_FEED&se=false&sc=origin_cover&biz_tag=aweme_video&l=021705309988711fdbddc0200ff05008bde4961213f9c9aa923bb",
        "videoPlayUrl": "https://api-hl.amemv.com/aweme/v1/play/?video_id=v0200fg10000cmefr93c77uesttoh400&line=1&file_id=411b9098f9564529bbbdcc14d9ebda3b&sign=8f220dc12bd781fd1e1db821e7f7fb51&is_play_url=1&source=PackSourceEnum_FEED"
    },
    {
        "file_hash": "88b9569c86665165d8df834716d27a41",
        "create_time": 1703052084,
        "title": "气温再回冰点！陕西将迎新一轮冷空气。 #陕西  #天气预报",
        "author": "陕西交通广播",
        "thumbnail": "https://p26-sign.douyinpic.com/tos-cn-p-0015/o8blqw9mAingNCvDXgeMbINzAlTrAgBMoxBDeA~tplv-dy-360p.jpeg?x-expires=1706518800&x-signature=eWG%2FcDoPIjiQyo81TsEQheZB6h4%3D&from=3213915784&s=PackSourceEnum_FEED&se=false&sc=origin_cover&biz_tag=aweme_video&l=021705309842460fdbddc0200ff0500b8ec5897ed7a485e5fa34b",
        "videoPlayUrl": "https://api-hl.amemv.com/aweme/v1/play/?video_id=v0300fg10000cm1866rc77u6fapn1hig&line=1&file_id=010d9dd4f8f84602adf2975dc3f7fe60&sign=88b9569c86665165d8df834716d27a41&is_play_url=1&source=PackSourceEnum_FEED"
    },
    {
        "file_hash": "f34331356ff0660530a7b9c9665c17a6",
        "create_time": 1704606526,
        "title": "1月4日，湖南；养了半年的八哥，拔主人的腿毛做窝，网友：可以考虑开个脱毛馆，员工工资还低。",
        "author": "爱义乌",
        "thumbnail": "https://p11-sign.douyinpic.com/tos-cn-p-0015/ooBlILHCRpXDBq876BQEfHAEedAbWfl0rsNQon~tplv-dy-360p.jpeg?x-expires=1706518800&x-signature=Zsp6tOpgg3xxH7xMO95AP%2FtS49I%3D&from=3213915784&s=PackSourceEnum_FEED&se=false&sc=origin_cover&biz_tag=aweme_video&l=021705310057693fdbddc0200ff0500ffda2b6d084330e24d1002",
        "videoPlayUrl": "https://api-hl.amemv.com/aweme/v1/play/?video_id=v0200fg10000cmd3lvrc77u9a6bt90lg&line=1&file_id=bd6225156b024e36a531d95f22799012&sign=f34331356ff0660530a7b9c9665c17a6&is_play_url=1&source=PackSourceEnum_FEED"
    },
    {
        "file_hash": "cf0d29c340d2e6d6eb0c42a361a3b3da",
        "create_time": 1704614440,
        "title": "宝宝启蒙早教亲子互动儿歌动画：#0到3岁早教儿歌 #儿歌100首最火 #启蒙早教 #两只老虎爱跳舞 #特效",
        "author": "小兰早教儿歌",
        "thumbnail": "https://p3-sign.douyinpic.com/tos-cn-p-0015/oQgPBttBzA6yfcCA7ahWSkIizBDIzH5gCreNzA~tplv-dy-360p.jpeg?x-expires=1706518800&x-signature=2tCsS1hdboEZorMlmLKFz480TIU%3D&from=3213915784&s=PackSourceEnum_FEED&se=false&sc=origin_cover&biz_tag=aweme_video&l=02170530988885100000000000000000000ffff0a1b2b9c556bd9",
        "videoPlayUrl": "https://api-hl.amemv.com/aweme/v1/play/?video_id=v0300fg10000cmd5jtrc77u2pg8bjd3g&line=1&file_id=c1062cfdcfbd4dcaaf6ddfbfa14110dd&sign=cf0d29c340d2e6d6eb0c42a361a3b3da&is_play_url=1&source=PackSourceEnum_FEED"
    },
    {
        "file_hash": "fc26c5ee9ccadc5a4ad6782e56591d64",
        "create_time": 1703171621,
        "title": "赛场上温馨一刻：我在这陪着你，你接着干！ #中式台球单挑第四季 #康溪盛世台球桌品质打感信得过",
        "author": "康溪盛世官方旗舰店",
        "thumbnail": "https://p11-sign.douyinpic.com/tos-cn-p-0015/oEkQCArUgAXFAEVg9eb9FlnBfIhWADAnEZW0CI~tplv-dy-360p.jpeg?x-expires=1706518800&x-signature=nU2iKbgyH8kxDnwIq6r3PLwRfxM%3D&from=3213915784&s=PackSourceEnum_FEED&se=false&sc=origin_cover&biz_tag=aweme_video&l=021705310032193fdbddc0200ff050027329a669929baf6f1a65b",
        "videoPlayUrl": "https://api-hl.amemv.com/aweme/v1/play/?video_id=v0200fg10000cm25bt3c77uah7ld7g00&line=1&file_id=edaad874a5b3423aa590d318f0e0f75f&sign=fc26c5ee9ccadc5a4ad6782e56591d64&is_play_url=1&source=PackSourceEnum_FEED"
    },
    {
        "file_hash": "3ae11a268cce36dd90e111e27da9717f",
        "create_time": 1705195625,
        "title": "两部门：建立城市房地产融资协调机制",
        "author": "央广网",
        "thumbnail": "https://p11-sign.douyinpic.com/tos-cn-p-0015/osuzfBCIZADtDKwjIAkGht8XCO0dyIACBACegR~tplv-dy-360p.jpeg?x-expires=1706518800&x-signature=iKnQS%2BFo7PVD59nOsvOUPCOAupE%3D&from=3213915784&s=PackSourceEnum_FEED&se=false&sc=origin_cover&biz_tag=aweme_video&l=021705309977948fdbddc0200ff050027329a669929baf67fa11c",
        "videoPlayUrl": "https://api-hl.amemv.com/aweme/v1/play/?video_id=v0200fg10000cmhjgbrc77u340g843u0&line=1&file_id=7b451b3b767c484c84755d1e8c57b017&sign=3ae11a268cce36dd90e111e27da9717f&is_play_url=1&source=PackSourceEnum_FEED"
    }
]