[
    {
        "file_hash": "7d4b1a614377dcdc99341121fd5395d1",
        "create_time": 1704979779,
        "title": "部分80后的现状（仅代表个人观点，不作参考依据。）#自律#跑步 #变美变瘦变好看#完美身材#文案",
        "author": "独步天下vs星辰",
        "thumbnail": "https://p3-sign.douyinpic.com/tos-cn-p-0015/oMzBks8PbQnYF4BA0o1AbIDfLfQc7g6BaYUe7C~tplv-dy-360p.jpeg?x-expires=1706518800&x-signature=EuoHvRQzTDRA6pS%2FTb3nUUdwu3w%3D&from=3213915784&s=PackSourceEnum_FEED&se=false&sc=origin_cover&biz_tag=aweme_video&l=02170530986891100000000000000000000ffff0a9f93d3bd9bdf",
        "videoPlayUrl": "https://api-hl.amemv.com/aweme/v1/play/?video_id=v0d00fg10000cmfuq1bc77ue7p3l4dq0&line=1&file_id=bd09a0c5923f4c5587e406743dfde839&sign=7d4b1a614377dcdc99341121fd5395d1&is_play_url=1&source=PackSourceEnum_FEED"
    },
    {
        "file_hash": "abd7b3474c03a5b0f1cf15e4490035cc",
        "create_time": 1704963405,
        "title": "#陈戌源曾说刚到足协睡觉都不踏实 #陈戌源 #足协 #忏悔",
        "author": "D视频",
        "thumbnail": "https://p9-sign.douyinpic.com/tos-cn-p-0015/oc9lBm0KxADIB9CmgQeQnrCnsbI5YV6DAABMfQ~tplv-dy-360p.jpeg?x-expires=1706518800&x-signature=TFj6oEAIPYN%2FKujrwB%2BF6%2BOjK6M%3D&from=3213915784&s=PackSourceEnum_FEED&se=false&sc=origin_cover&biz_tag=aweme_video&l=02170530987030500000000000000000000ffff0a9f7dda91d05e",
        "videoPlayUrl": "https://api-hl.amemv.com/aweme/v1/play/?video_id=v0200fg10000cmfqqb3c77u4f90kosk0&line=1&file_id=4ae6e3cad1924d32af5e1bf85f680a17&sign=abd7b3474c03a5b0f1cf15e4490035cc&is_play_url=1&source=PackSourceEnum_FEED"
    },
    {
        "file_hash": "acf67a93e1e7e36f088249bdb74169e6",
        "create_time": 1704272070,
        "title": "今天是古灵精怪豆～#亲子手势舞 #日常带娃❤❤ #来自妈妈的拍摄 #萌娃",
        "author": "旋风小土豆🥔",
        "thumbnail": "https://p3-sign.douyinpic.com/tos-cn-p-0015/oACABMzjfuzgyIV13eX5AB7ATGFIIDANgypg3h~tplv-dy-360p.jpeg?x-expires=1706518800&x-signature=15NpZBJhD51z75ulzLv8zSERG%2BM%3D&from=3213915784&s=PackSourceEnum_FEED&se=false&sc=origin_cover&biz_tag=aweme_video&l=021705309903716fdbddc0200ff05005b371d5a47b0accf253e68",
        "videoPlayUrl": "https://api-hl.amemv.com/aweme/v1/play/?video_id=v0300fg10000cmai1g3c77u69o0nnjsg&line=1&file_id=e541e5e9bbcb4730a59d48c05c69bc3c&sign=acf67a93e1e7e36f088249bdb74169e6&is_play_url=1&source=PackSourceEnum_FEED"
    },
    {
        "file_hash": "69ea8229f18c0ff347342ef1cfb630b0",
        "create_time": 1702787345,
        "title": "俺家滴小宝贝来啦，给宝贝们弄点好吃的#周末陪娃 #陪伴孩子的美好时光",
        "author": "民间小调刘晓燕！",
        "thumbnail": "https://p11-sign.douyinpic.com/tos-cn-p-0015/4610d56f4f4e47aab7337a036b451740_1702787349~tplv-dy-360p.jpeg?x-expires=1706518800&x-signature=ldDri2C%2Bualcv03ymwfGsmzyx94%3D&from=3213915784&s=PackSourceEnum_FEED&se=false&sc=origin_cover&biz_tag=aweme_video&l=021705309970717fdbddc0200ff05005b371d5a47b0accf941e4e",
        "videoPlayUrl": "https://api-hl.amemv.com/aweme/v1/play/?video_id=v0300fg10000clv7h4rc77ufmgja4g9g&line=1&file_id=d6b8b19eaf444c87b8319b9ed021cb10&sign=69ea8229f18c0ff347342ef1cfb630b0&is_play_url=1&source=PackSourceEnum_FEED"
    },
    {
        "file_hash": "5e9db290311c09fce4f80e684c831e4b",
        "create_time": 1705056192,
        "title": "不要小瞧一个emo男孩的决心#健身 #撸铁男孩 #自律 #要做一个猛男 #健身氮泵",
        "author": "阿尔法α健身",
        "thumbnail": "https://p6-sign.douyinpic.com/tos-cn-p-0015/oo89Foh2qZzIHhD8AJbeFmgIztAWfABtvBglRI~tplv-dy-360p.jpeg?x-expires=1706518800&x-signature=xMUq0UIai3wgDujxCIMc%2FiAgyjQ%3D&from=3213915784&s=PackSourceEnum_FEED&se=false&sc=origin_cover&biz_tag=aweme_video&l=021705309870712fdbddc0200ff05005b371d5a47b0accfd5262e",
        "videoPlayUrl": "https://api-hl.amemv.com/aweme/v1/play/?video_id=v0300fg10000cmghdvbc77u5pidavdu0&line=1&file_id=d415a37066fd49eaad9ea8e0b1f94598&sign=5e9db290311c09fce4f80e684c831e4b&is_play_url=1&source=PackSourceEnum_FEED"
    },
    {
        "file_hash": "3c755652d20d0bd0e9eba0bd156bdb34",
        "create_time": 1703422058,
        "title": "冷知识+1：你冬天盖被子的顺序，可能一直是错的。",
        "author": "江宁发布",
        "thumbnail": "https://p6-sign.douyinpic.com/tos-cn-p-0015/oAQQACAI9UAiAlnlWesfbttDOhEABDvgDMCNBP~tplv-dy-360p.jpeg?x-expires=1706518800&x-signature=q2bgY5Uo3T8%2FYEXedIeRHjBV4Bg%3D&from=3213915784&s=PackSourceEnum_FEED&se=false&sc=origin_cover&biz_tag=aweme_video&l=021705309808819fdbddc0200ff05005b371d5a47b0accf5b3549",
        "videoPlayUrl": "https://api-hl.amemv.com/aweme/v1/play/?video_id=v0300fg10000cm42ggbc77u25gc0cmjg&line=1&file_id=e731bc3e8b5c406ba280a88db585c007&sign=3c755652d20d0bd0e9eba0bd156bdb34&is_play_url=1&source=PackSourceEnum_FEED"
    },
    {
        "file_hash": "27517db31a5446006e8743284ddf8093",
        "create_time": 1702979203,
        "title": "#美美视频 #视频通话换背景 哈哈哈妈妈怎么又回来了呀？#抖音短剧 @抖音短剧",
        "author": "宁夏小黄鸭一家",
        "thumbnail": "https://p26-sign.douyinpic.com/tos-cn-p-0015/oMN9BtCXzAKyf22A8BhOJgI0wBNABrAgE7eGyA~tplv-dy-360p.jpeg?x-expires=1706518800&x-signature=Eb9TSDAsME1e3NFvigdEzXxcWl4%3D&from=3213915784&s=PackSourceEnum_FEED&se=false&sc=origin_cover&biz_tag=aweme_video&l=021705309962736fdbddc0200ff05005b371d5a47b0accf69d4eb",
        "videoPlayUrl": "https://api-hl.amemv.com/aweme/v1/play/?video_id=v0d00fg10000cm0jiubc77u40luo02lg&line=1&file_id=c62bee82a12f41fe86a4a5b0e8ea2b3a&sign=27517db31a5446006e8743284ddf8093&is_play_url=1&source=PackSourceEnum_FEED"
    },
    {
        "file_hash": "d96b2925b243a2bb01e907523cd20a47",
        "create_time": 1702786424,
        "title": "#生女儿就是用来打扮的 #高品质童装 #女宝穿搭 #儿童羽绒服 #冬季搭配",
        "author": "艾可豆叮童装旗舰店",
        "thumbnail": "https://p26-sign.douyinpic.com/tos-cn-p-0015/5b272aceb1d5471198b9a27ffd3a6acd_1702786430~tplv-dy-360p.jpeg?x-expires=1706518800&x-signature=fvBDGzP%2BaR%2FTGd%2FkUxP2sF5AbWM%3D&from=3213915784&s=PackSourceEnum_FEED&se=false&sc=origin_cover&biz_tag=aweme_video&l=021705310043634fdbddc0200ff05005b371d5a47b0accf959142",
        "videoPlayUrl": "https://api-hl.amemv.com/aweme/v1/play/?video_id=v0200fg10000clv7asjc77u2eb6bkmfg&line=1&file_id=b0e9514583154a409c2c0d0ba93018be&sign=d96b2925b243a2bb01e907523cd20a47&is_play_url=1&source=PackSourceEnum_FEED"
    },
    {
        "file_hash": "149b8aa8989f54f5a7589bf404495db2",
        "create_time": 1703288100,
        "title": "泰迪犬为什么喜欢睡在主人身边 #泰迪 #狗狗 #养狗小知识 #萌宠出道计划 #科学养宠攻略",
        "author": "狗狗知识小课堂",
        "thumbnail": "https://p9-sign.douyinpic.com/tos-cn-p-0015/oovpbAnhKZ8Afe9rlTLzKBNAgQiLBtlAlHZbDU~tplv-dy-360p.jpeg?x-expires=1706518800&x-signature=otJ60ulzUOcpGQSRTisPo%2Bsn7MY%3D&from=3213915784&s=PackSourceEnum_FEED&se=false&sc=origin_cover&biz_tag=aweme_video&l=021705309948446fdbddc0200ff05005b371d5a47b0accf7257ea",
        "videoPlayUrl": "https://api-hl.amemv.com/aweme/v1/play/?video_id=v0d00fg10000cm2r5crc77ucktmmk5ig&line=1&file_id=13838c34e4a2410e8cad5e4d8b5c1bfa&sign=149b8aa8989f54f5a7589bf404495db2&is_play_url=1&source=PackSourceEnum_FEED"
    }
]