[
    {
        "file_hash": "45da9a371c7ab103f9de606c21502797",
        "create_time": 1703417420,
        "title": "跟对的人 找个周边城市 聊聊天 跟着感觉松弛感旅游 真好！#吉列剃须刀 #神券节",
        "author": "小郑今天也很乖",
        "thumbnail": "https://p6-sign.douyinpic.com/tos-cn-p-0015/owBzeXzsw61tg4gvGJYKNLvhAgLfIAy9AAgAJE~tplv-dy-360p.jpeg?x-expires=1706518800&x-signature=0rYMMZXP2AjhDzKeausCWXJGAIM%3D&from=3213915784&s=PackSourceEnum_FEED&se=false&sc=origin_cover&biz_tag=aweme_video&l=02170530994391600000000000000000000ffff0a9fce24f6e18f",
        "videoPlayUrl": "https://api-hl.amemv.com/aweme/v1/play/?video_id=v0d00fg10000cm3b0nrc77ub4ilvq4g0&line=1&file_id=2aa488e5a0ce4d29a82d69b8f9737273&sign=45da9a371c7ab103f9de606c21502797&is_play_url=1&source=PackSourceEnum_FEED"
    },
    {
        "file_hash": "3bd5dea264745971ab2c46fada427e35",
        "create_time": 1705075815,
        "title": "#731罪证陈列馆 为何“侵华日军731部队罪证陈列馆”门前排起了长队？因为想看看亲人们。#薇观察 #聚v计划",
        "author": "吴薇",
        "thumbnail": "https://p6-sign.douyinpic.com/tos-cn-p-0015/oUH0ztP2AhRDIGZA0BygfBIhIneLAQ53aAsVIC~tplv-dy-360p.jpeg?x-expires=1706518800&x-signature=%2FoftAOm1eU7wqINMtKvGK4MPGvw%3D&from=3213915784&s=PackSourceEnum_FEED&se=false&sc=origin_cover&biz_tag=aweme_video&l=02170530967385400000000000000000000ffff0a9fce2455a908",
        "videoPlayUrl": "https://api-hl.amemv.com/aweme/v1/play/?video_id=v0300fg10000cmgm7rbc77ufq213i0rg&line=1&file_id=b7da2aeb65684de798ff09f980ef2e49&sign=3bd5dea264745971ab2c46fada427e35&is_play_url=1&source=PackSourceEnum_FEED"
    },
    {
        "file_hash": "314f5ef19cfcfbb69602a53b2cbd4004",
        "create_time": 1703073222,
        "title": "狗不是比人好，而是比人简单#狗狗 #养狗的乐趣 #养狗人 #训犬 #养狗经验分享",
        "author": "明亮与狗",
        "thumbnail": "https://p26-sign.douyinpic.com/tos-cn-p-0015/o0eFSTAADfnABE5eamCXsLqqHhEB7BCnQw4bbJ~tplv-dy-360p.jpeg?x-expires=1706518800&x-signature=nzUOeOXH0IFzClA9vdxuHFUKoOI%3D&from=3213915784&s=PackSourceEnum_FEED&se=false&sc=origin_cover&biz_tag=aweme_video&l=021705309835697fdbddc0200ff0500bc1675fcf697acf61ec184",
        "videoPlayUrl": "https://api-hl.amemv.com/aweme/v1/play/?video_id=v0200fg10000cm1danrc77u3h2t69dkg&line=1&file_id=3ab542045a814eeea5629343ef0ee8ba&sign=314f5ef19cfcfbb69602a53b2cbd4004&is_play_url=1&source=PackSourceEnum_FEED"
    },
    {
        "file_hash": "4b6ee729ff8ce76255bee55d0f221df1",
        "create_time": 1704604370,
        "title": "漠河收到广西荔浦寄来的砂糖橘！跨越4000公里的橙红谢意！这波双向奔赴太暖了！#漠河#砂糖橘",
        "author": "大美漠河",
        "thumbnail": "https://p3-sign.douyinpic.com/tos-cn-p-0015/oQy6IaCAAzhQbgqh9M2BtftCkAD7cIGAeRz3kC~tplv-dy-360p.jpeg?x-expires=1706518800&x-signature=A%2FXjVaINIoIdyMZgGIEuCxceWS0%3D&from=3213915784&s=PackSourceEnum_FEED&se=false&sc=origin_cover&biz_tag=aweme_video&l=021705309991830fdbddc0200ff0500281b0ef8b4be4f28a36d84",
        "videoPlayUrl": "https://api-hl.amemv.com/aweme/v1/play/?video_id=v0300fg10000cmd34ebc77u201mtm2ug&line=1&file_id=c319783bfc1548c8885570de59301bc8&sign=4b6ee729ff8ce76255bee55d0f221df1&is_play_url=1&source=PackSourceEnum_FEED"
    },
    {
        "file_hash": "0f6271da596084fdbae3e3896c9d0030",
        "create_time": 1704675397,
        "title": "跳得很high，就是投不进 #库里 #金州勇士 #勇士vs猛龙",
        "author": "民工成",
        "thumbnail": "https://p26-sign.douyinpic.com/tos-cn-p-0015/ootLGNEGay9hIghdShOfxA2zB8CqzIebQCCACA~tplv-dy-360p.jpeg?x-expires=1706518800&x-signature=UAQIrosfOdXnZwoJLsI7KBnkeIY%3D&from=3213915784&s=PackSourceEnum_FEED&se=false&sc=origin_cover&biz_tag=aweme_video&l=02170530970870800000000000000000000ffff0a9fce24dca648",
        "videoPlayUrl": "https://api-hl.amemv.com/aweme/v1/play/?video_id=v0200fg10000cmdkg5rc77u2ovc4sdl0&line=1&file_id=bd1d7d64f4914b51a57de14ae4fceb0a&sign=0f6271da596084fdbae3e3896c9d0030&is_play_url=1&source=PackSourceEnum_FEED"
    },
    {
        "file_hash": "9c03256edb01f36f30c3d83bf5429b2b",
        "create_time": 1704356429,
        "title": "#关节性紫癜  第二次复发，从今天开始休学养病，什么也干不了，每天陪着你，又一次让我心态崩塌😭这是个费钱又害身体的病？希望能快点治愈🙏目前没有好的办法？只能输液治疗！",
        "author": "໑ຼₒ₂₄ 🙏🙏",
        "thumbnail": "https://p6-sign.douyinpic.com/tos-cn-p-0015/ocWNFfBeDzySycAUag2BAqkvItBMX9AhvaIwzA~tplv-dy-360p.jpeg?x-expires=1706518800&x-signature=VbdkC4YU4tWhHpSAnNtkRn7xdfA%3D&from=3213915784&s=PackSourceEnum_FEED&se=false&sc=origin_cover&biz_tag=aweme_video&l=02170530990173200000000000000000000ffff0a9fce2423deb8",
        "videoPlayUrl": "https://api-hl.amemv.com/aweme/v1/play/?video_id=v0300fg10000cmb6k6bc77u5bgbiu16g&line=1&file_id=ddded1b9c2fa43ec9208c7c71ee7d7f8&sign=9c03256edb01f36f30c3d83bf5429b2b&is_play_url=1&source=PackSourceEnum_FEED"
    },
    {
        "file_hash": "b0ac3e92d0b6a72f6201fbee244aab2c",
        "create_time": 1704794314,
        "title": "《繁花》的植入有多牛？遍地广告竟无人反感 #繁花 #广告 #王家卫 #爷叔 #抖音野生娱评人 ",
        "author": "鲫娱扒扒",
        "thumbnail": "https://p26-sign.douyinpic.com/tos-cn-p-0015/oAiP9PQvMwYidBIAsGsmABzyVZZIU0ZsI73MB~tplv-dy-360p.jpeg?x-expires=1706518800&x-signature=Z5DCJR2DQ3U5X6fLqlaclV%2F5TQs%3D&from=3213915784&s=PackSourceEnum_FEED&se=false&sc=origin_cover&biz_tag=aweme_video&l=02170530969851500000000000000000000ffff0a9fce249749a6",
        "videoPlayUrl": "https://api-hl.amemv.com/aweme/v1/play/?video_id=v0300fg10000cmehhinog65n7m86pcm0&line=1&file_id=e039c68d16104e8ba9079ccc8c360ea2&sign=b0ac3e92d0b6a72f6201fbee244aab2c&is_play_url=1&source=PackSourceEnum_FEED"
    },
    {
        "file_hash": "ca071539cc39cbad40b9db0ba827c678",
        "create_time": 1703498437,
        "title": "更新咯🤞🏻#抖音小助手#抖音热门",
        "author": "代尔娜🌻",
        "thumbnail": "https://p6-sign.douyinpic.com/tos-cn-p-0015/okJD1FXA9AZAsCYbZeQE3xnlShWeDArVBgFDUi~tplv-dy-360p.jpeg?x-expires=1706518800&x-signature=GkfjgELMqa7EBrPu7aFWQ4loc3Q%3D&from=3213915784&s=PackSourceEnum_FEED&se=false&sc=origin_cover&biz_tag=aweme_video&l=021705310023713fdbddc0200ff05006c5c80f9298a04d3c68040",
        "videoPlayUrl": "https://api-hl.amemv.com/aweme/v1/play/?video_id=v0200fg10000cm4l1qrc77ucmev23qlg&line=1&file_id=4bfe3cfd15bd4662a4eac793a6883be7&sign=ca071539cc39cbad40b9db0ba827c678&is_play_url=1&source=PackSourceEnum_FEED"
    },
    {
        "file_hash": "751c9948896db43ab9de3d27ea5783f1",
        "create_time": 1705061995,
        "title": "职业橄榄球运动员 麦金农的超强身体素质#美式橄榄球 #橄榄球 #NFL星计划",
        "author": "美式橄榄球营地",
        "thumbnail": "https://p26-sign.douyinpic.com/tos-cn-p-0015/okIUWeByC0hKIfmZFh2zbgAANIANAOy9FI85hJ~tplv-dy-360p.jpeg?x-expires=1706518800&x-signature=iNxY%2F85sNhbSPCTmQtcMYVyVRO0%3D&from=3213915784&s=PackSourceEnum_FEED&se=false&sc=origin_cover&biz_tag=aweme_video&l=02170531004901500000000000000000000ffff0a1b401bd85598",
        "videoPlayUrl": "https://api-hl.amemv.com/aweme/v1/play/?video_id=v0d00fg10000cmgi873c77u5pe8mc8gg&line=1&file_id=edaa61616e724adebf4484795e17e96e&sign=751c9948896db43ab9de3d27ea5783f1&is_play_url=1&source=PackSourceEnum_FEED"
    }
]