[
    {
        "file_hash": "ffa1038f115bf94943c5e0db1e718251",
        "create_time": 1703745956,
        "title": "优待证在哪里用处最大呢？#优待证 #优待证有什么用途 #退役军人",
        "author": "我的老班长",
        "thumbnail": "https://p9-sign.douyinpic.com/tos-cn-p-0015/oI2lYalleAyfB9ldgQ8ajGNnObG5GaRDAABKNQ~tplv-dy-360p.jpeg?x-expires=1706518800&x-signature=NRZWC2hJMRWWVeP3NhVqI2c4nCw%3D&from=3213915784&s=PackSourceEnum_FEED&se=false&sc=origin_cover&biz_tag=aweme_video&l=021705309786141fdbddc0200ff050003e4861f574b2a3cb0f935",
        "videoPlayUrl": "https://api-hl.amemv.com/aweme/v1/play/?video_id=v0d00fg10000cm6hijjc77uftgqa6smg&line=1&file_id=fe94462e63fe4bfda8ffbfa415657f3e&sign=ffa1038f115bf94943c5e0db1e718251&is_play_url=1&source=PackSourceEnum_FEED"
    },
    {
        "file_hash": "3fea55ab5023d3886e0b9829802bd888",
        "create_time": 1703584980,
        "title": "高品质羽绒服，大人小孩都能穿 #高品质羽绒服  #被10后的时尚感秀到了  #抖in宝贝计划  #萌宝总动员  #秋冬新款",
        "author": "雅鹿品牌童装",
        "thumbnail": "https://p6-sign.douyinpic.com/tos-cn-p-0015/o4lTrngibAQ2hQsyCn9lTGBqqDACeAa2qdyAfQ~tplv-dy-360p.jpeg?x-expires=1706518800&x-signature=dsP0dC1FEgWR%2FLPNRklLSbzpk%2Fs%3D&from=3213915784&s=PackSourceEnum_FEED&se=false&sc=origin_cover&biz_tag=aweme_video&l=021705309801504fdbddc0200ff050003e4861f574b2a3cbcfd26",
        "videoPlayUrl": "https://api-hl.amemv.com/aweme/v1/play/?video_id=v0200fg10000cm4t8arc77u8aiebmjqg&line=1&file_id=0fca12532af8478e80009bda5cda968e&sign=3fea55ab5023d3886e0b9829802bd888&is_play_url=1&source=PackSourceEnum_FEED"
    },
    {
        "file_hash": "9d0dfe4cc3a81ebe54ad7b362ea67acd",
        "create_time": 1703057936,
        "title": "iphone竟然还有这么好玩的事！！ #万万没想到 #内容过于真实 #iphone小技巧",
        "author": "猪妹超有料",
        "thumbnail": "https://p9-sign.douyinpic.com/tos-cn-p-0015/oIU1NfzueAAGkA22PChISyBAmBOghAS1wyNqgK~tplv-dy-360p.jpeg?x-expires=1706518800&x-signature=uv6%2B7ZITYPrEgHMrWx2EWhSxJGg%3D&from=3213915784&s=PackSourceEnum_FEED&se=false&sc=origin_cover&biz_tag=aweme_video&l=021705309956928fdbddc0200ff05004b3325c82d4e0598a29ab0",
        "videoPlayUrl": "https://api-hl.amemv.com/aweme/v1/play/?video_id=v0d00fg10000cm19ir3c77u0qkmkt0l0&line=1&file_id=32079c75ccd34e279d1f6325b545b7cc&sign=9d0dfe4cc3a81ebe54ad7b362ea67acd&is_play_url=1&source=PackSourceEnum_FEED"
    },
    {
        "file_hash": "d8624d6e39c5a800c5601b9e7697a6ad",
        "create_time": 1704448401,
        "title": "空调这东西，也别太离谱行吗？？#城晚辣么说 #格力门店回应玫瑰空调销量差 #董明珠 #玫瑰空调",
        "author": "城晚辣么说",
        "thumbnail": "https://p11-sign.douyinpic.com/tos-cn-p-0015/oUyq0eRMzIWZXXFiA8fBDn9WQBNClIAIhKgOAl~tplv-dy-360p.jpeg?x-expires=1706518800&x-signature=7I7lsiIXYgQ%2FUtwV5sin8c7i%2FEI%3D&from=3213915784&s=PackSourceEnum_FEED&se=false&sc=origin_cover&biz_tag=aweme_video&l=021705309732117fdbddc0200ff050003e4861f574b2a3c6a28c0",
        "videoPlayUrl": "https://api-hl.amemv.com/aweme/v1/play/?video_id=v0300fg10000cmbt2b3c77u563lbogbg&line=1&file_id=27a7c76b327a480ca0dcefb910bfa0b0&sign=d8624d6e39c5a800c5601b9e7697a6ad&is_play_url=1&source=PackSourceEnum_FEED"
    },
    {
        "file_hash": "14b03a3d69938d7c450874d5f1690f39",
        "create_time": 1704680485,
        "title": "1月7日，湖南长沙。50万宝马4系刚提1天失控就撞损，车主质疑4S店销售人员误导或车辆本身质量问题。#宝马4系 #质量问题 #本地民生资讯",
        "author": "都市1时间",
        "thumbnail": "https://p9-sign.douyinpic.com/tos-cn-p-0015/oMkAhafzJIzGRGBA3pVgNjhrybIZeKNADUCaXB~tplv-dy-360p.jpeg?x-expires=1706518800&x-signature=NuTYPj8%2BGZTercxgr73LywbmeFw%3D&from=3213915784&s=PackSourceEnum_FEED&se=false&sc=origin_cover&biz_tag=aweme_video&l=021705309991301fdbddc0200ff050003e4861f574b2a3caee890",
        "videoPlayUrl": "https://api-hl.amemv.com/aweme/v1/play/?video_id=v0300fg10000cmdln8jc77u6lopm29kg&line=1&file_id=5c51c58d6bd147ada1a7782bb0831c30&sign=14b03a3d69938d7c450874d5f1690f39&is_play_url=1&source=PackSourceEnum_FEED"
    },
    {
        "file_hash": "cbafdbd5e802b119e78e09e449ac5766",
        "create_time": 1704861169,
        "title": "#男子花9万买宝马7系提车3小时自燃 车子到底有没有“泡水”？双方各执一词！二手车商：车子还给我，就退钱！#杭州 #二手车",
        "author": "杭州日报",
        "thumbnail": "https://p26-sign.douyinpic.com/tos-cn-p-0015/ooW85ODQQAglhonboO8D8BEJUf2E9AAxnBh9Df~tplv-dy-360p.jpeg?x-expires=1706518800&x-signature=AI24G5g7T0NQi7PJ4TUpPtVrvmg%3D&from=3213915784&s=PackSourceEnum_FEED&se=false&sc=origin_cover&biz_tag=aweme_video&l=021705309876213fdbddc0200ff050003e4861f574b2a3c804bf4",
        "videoPlayUrl": "https://api-hl.amemv.com/aweme/v1/play/?video_id=v0300fg10000cmf1r8bc77ufsd089sl0&line=1&file_id=2f8b7cfa37584f73aef8c3092711d8a2&sign=cbafdbd5e802b119e78e09e449ac5766&is_play_url=1&source=PackSourceEnum_FEED"
    },
    {
        "file_hash": "94d54a667745839c941f29a4a86d53c0",
        "create_time": 1703997064,
        "title": "#减肥 #减肥经验分享 ",
        "author": "䕧䯨㗕高",
        "thumbnail": "https://p3-sign.douyinpic.com/tos-cn-p-0015/oINDRJAAczfAhYry3fIe5suHLrgEsHFfBfidYk~tplv-dy-360p.jpeg?x-expires=1706518800&x-signature=teFBaZEQylfYm5N25hUIXFRYbeo%3D&from=3213915784&s=PackSourceEnum_FEED&se=false&sc=origin_cover&biz_tag=aweme_video&l=021705309915095fdbddc0200ff050003e4861f574b2a3caacb54",
        "videoPlayUrl": "https://api-hl.amemv.com/aweme/v1/play/?video_id=v0300fg10000cm8esfjc77u8n0u4p3l0&line=1&file_id=f260fa1f82314ad0b8274e0e89197aed&sign=94d54a667745839c941f29a4a86d53c0&is_play_url=1&source=PackSourceEnum_FEED"
    }
]