[
    {
        "file_hash": "6930e5ffc920e8bfbecd61dfab4ec67b",
        "create_time": 1703060045,
        "title": "有时候还是老歌有韵味#百听不厌的旋律 #纯音乐dj #器乐合奏 #民族乐器 #大海航行靠舵手",
        "author": "雅逸纯音乐（可够U盘）",
        "thumbnail": "https://p26-sign.douyinpic.com/tos-cn-p-0015/oI0AIJn38afTgRFWX9LSABiAr2VQANCbglqJfD~tplv-dy-360p.jpeg?x-expires=1706518800&x-signature=fVkTfp3Uim3DXKCzDgZAwDenhTE%3D&from=3213915784&s=PackSourceEnum_FEED&se=false&sc=origin_cover&biz_tag=aweme_video&l=02170530983727900000000000000000000ffff0a2eb6a6c76309",
        "videoPlayUrl": "https://api-hl.amemv.com/aweme/v1/play/?video_id=v0d00fg10000cm1a44rc77udlcilhfkg&line=1&file_id=bbd43f694f8643ef9b5e3c80d6574ce3&sign=6930e5ffc920e8bfbecd61dfab4ec67b&is_play_url=1&source=PackSourceEnum_FEED"
    },
    {
        "file_hash": "be8c98befe9b8dc3df53c2c5c090d13e",
        "create_time": 1704240189,
        "title": "#熊孩子系列 #搞怪日常",
        "author": "小意一家人的快乐生活",
        "thumbnail": "https://p6-sign.douyinpic.com/tos-cn-p-0015/osEAE08lAgnPKWEAQkvgbAD3lpgf9HJACeHKSB~tplv-dy-360p.jpeg?x-expires=1706518800&x-signature=V%2FrR1j4EIVvYIZWsZIlYWo45GBA%3D&from=3213915784&s=PackSourceEnum_FEED&se=false&sc=origin_cover&biz_tag=aweme_video&l=02170531000227600000000000000000000ffff0a2eb6a62aa827",
        "videoPlayUrl": "https://api-hl.amemv.com/aweme/v1/play/?video_id=v0200fg10000cmaa82jc77u5ms09204g&line=1&file_id=a26523a238504da8900e6a7cdf1e89d2&sign=be8c98befe9b8dc3df53c2c5c090d13e&is_play_url=1&source=PackSourceEnum_FEED"
    },
    {
        "file_hash": "860efa50106da8ca9652a6ca72c987bb",
        "create_time": 1702982507,
        "title": "花一百多养小丑鱼，宝们说不得劲，这次我们干200多换个60-30-30侧滤缸。整#小丑鱼 #观赏鱼 #海缸 #养鱼日记 #小丑鱼尼莫",
        "author": "黎小叔",
        "thumbnail": "https://p11-sign.douyinpic.com/tos-cn-p-0015/o4HBeLnRyIN5AEAHcBwfoalhAkzBcxAZrgtV2O~tplv-dy-360p.jpeg?x-expires=1706518800&x-signature=DuJyOGUueshF%2F4wL3%2FF%2BRTKg5wc%3D&from=3213915784&s=PackSourceEnum_FEED&se=false&sc=origin_cover&biz_tag=aweme_video&l=02170531003725800000000000000000000ffff0a2eb6a6a694ee",
        "videoPlayUrl": "https://api-hl.amemv.com/aweme/v1/play/?video_id=v0d00fg10000cm0n5lrc77u7e3khi7jg&line=1&file_id=3e3c4f58888340519d5f815d9fa70979&sign=860efa50106da8ca9652a6ca72c987bb&is_play_url=1&source=PackSourceEnum_FEED"
    },
    {
        "file_hash": "4998f7bd9de77743512a9a191053f02e",
        "create_time": 1703895429,
        "title": "如果你还不知道这些，赶紧去试试吧 #涨知识 #探索未知 #生活中的科学 #知识前沿派对",
        "author": "晓瑞科普",
        "thumbnail": "https://p3-sign.douyinpic.com/tos-cn-p-0015/ogNLBNQ4zAKyfLvABPhY71IYxBNIjKGgAbeDBA~tplv-dy-360p.jpeg?x-expires=1706518800&x-signature=n6U%2FOeGqwoCYdQ4q3lfFbnoDHkU%3D&from=3213915784&s=PackSourceEnum_FEED&se=false&sc=origin_cover&biz_tag=aweme_video&l=021705309918264fdbddc02001a04080000000000000050e5d6e9",
        "videoPlayUrl": "https://api-hl.amemv.com/aweme/v1/play/?video_id=v0d00fg10000cm7m10jc77u0hu5scg50&line=1&file_id=58010f7697664ff39143877b8a0d0dfe&sign=4998f7bd9de77743512a9a191053f02e&is_play_url=1&source=PackSourceEnum_FEED"
    },
    {
        "file_hash": "7c94954be003863a14e37ac2130e0fff",
        "create_time": 1704457800,
        "title": "“我们的女儿必须听得见！”",
        "author": "嗨普陀",
        "thumbnail": "https://p9-sign.douyinpic.com/tos-cn-p-0015/o0z7XuNsBW49yfiAioIBApDZhyIAtIXgevuSlt~tplv-dy-360p.jpeg?x-expires=1706518800&x-signature=uXfz%2BNCGnZf8XKQ7inTeN0uQpNo%3D&from=3213915784&s=PackSourceEnum_FEED&se=false&sc=origin_cover&biz_tag=aweme_video&l=02170530989524900000000000000000000ffff0a2eb6a69544d7",
        "videoPlayUrl": "https://api-hl.amemv.com/aweme/v1/play/?video_id=v0300fg10000cmbrckjc77u8tlqqvocg&line=1&file_id=6882fef150144264a32e43aa34ce9654&sign=7c94954be003863a14e37ac2130e0fff&is_play_url=1&source=PackSourceEnum_FEED"
    },
    {
        "file_hash": "2bbe4cac27c30c6d17a30abec054a184",
        "create_time": 1703458188,
        "title": "#早安 #游泳健身",
        "author": "沐曦.",
        "thumbnail": "https://p6-sign.douyinpic.com/tos-cn-p-0015/ogPWVdByQDj23ObALtlAInYBiAppDqmbgA6ee9~tplv-dy-360p.jpeg?x-expires=1706518800&x-signature=XJa95C%2B3CBapLnFLsU%2FcJLzchkY%3D&from=3213915784&s=PackSourceEnum_FEED&se=false&sc=origin_cover&biz_tag=aweme_video&l=021705309753791fdbddc0200ff05002be2834e917032502fd99d",
        "videoPlayUrl": "https://api-hl.amemv.com/aweme/v1/play/?video_id=v0300fg10000cm4baljc77ueul7dahsg&line=1&file_id=7758b656e1c04803b55b389912418165&sign=2bbe4cac27c30c6d17a30abec054a184&is_play_url=1&source=PackSourceEnum_FEED"
    },
    {
        "file_hash": "67a2009ea5c6d569ad06cf48b691cf15",
        "create_time": 1704683187,
        "title": "抖音第二天，粉丝不到1000#入驻抖音第一天 #刚来抖音一个粉丝都没有 #小猫咪怼脸杀视频 #互粉",
        "author": "胖墩与元宝",
        "thumbnail": "https://p6-sign.douyinpic.com/tos-cn-p-0015/oMIBV9BlCmbZZeRgPYunrgAAD0AbARfXDIzTD2~tplv-dy-360p.jpeg?x-expires=1706518800&x-signature=%2BYze4z6OZigs%2FqHBrlTl17mImRM%3D&from=3213915784&s=PackSourceEnum_FEED&se=false&sc=origin_cover&biz_tag=aweme_video&l=02170530971099400000000000000000000ffff0a2eb6a6d8b077",
        "videoPlayUrl": "https://api-hl.amemv.com/aweme/v1/play/?video_id=v0300fg10000cmdmckbc77u7vkod3kc0&line=1&file_id=6d4778ad82114494869af7873691f3ba&sign=67a2009ea5c6d569ad06cf48b691cf15&is_play_url=1&source=PackSourceEnum_FEED"
    }
]