[
    {
        "file_hash": "7e997997e8a038c8f449532c65d68791",
        "create_time": 1703585908,
        "title": "#抢先观看《商总别装了，夫人是隐藏大佬》 #抖音短剧新番计划 #超火短剧抢先看全集 #好看又上头的短剧来了 #因为一个片段看了整部剧",
        "author": "豆豆爱追剧",
        "thumbnail": "https://p26-sign.douyinpic.com/tos-cn-p-0015/o8IFKyFAZBVE8ge7HtIA6fhAPqzCNxBgxtmDHC~tplv-dy-360p.jpeg?x-expires=1706518800&x-signature=tpAXOx0sQZP2Ck7gAEACJnknvpw%3D&from=3213915784&s=PackSourceEnum_FEED&se=false&sc=origin_cover&biz_tag=aweme_video&l=021705309934175fdbddc0200ff0500e133e973bd3b735c10a637",
        "videoPlayUrl": "https://api-hl.amemv.com/aweme/v1/play/?video_id=v0200fg10000cm5af1rc77u7outkadj0&line=1&file_id=8a1d247ce9f547f989f7017bdc71efbe&sign=7e997997e8a038c8f449532c65d68791&is_play_url=1&source=PackSourceEnum_FEED"
    },
    {
        "file_hash": "6264b2326c7b15e87fa0fc15f15d9fe9",
        "create_time": 1703501780,
        "title": "从丈母娘家跑21公里回家，经过五个村庄，用时84分钟#跑步 #马拉松 #体育生",
        "author": "大正爱跑步",
        "thumbnail": "https://p26-sign.douyinpic.com/tos-cn-p-0015/oICBiDMAOVyz13FzBgL99BtfAPAfJXhlgI0ArY~tplv-dy-360p.jpeg?x-expires=1706518800&x-signature=t0gzTk8RLH%2B9hsj175P3rjwq8N4%3D&from=3213915784&s=PackSourceEnum_FEED&se=false&sc=origin_cover&biz_tag=aweme_video&l=021705309763506fdbddc0200ff050039bae05cee0c14cdda112c",
        "videoPlayUrl": "https://api-hl.amemv.com/aweme/v1/play/?video_id=v0200fg10000cm4lv0rc77u5rj6amfq0&line=1&file_id=c21a6f2f2b5c461d9df92f2ccbbdf70e&sign=6264b2326c7b15e87fa0fc15f15d9fe9&is_play_url=1&source=PackSourceEnum_FEED"
    },
    {
        "file_hash": "18982c138c6b27e2a12640d4bd1a9c2f",
        "create_time": 1702810811,
        "title": "大嫂可不能受委屈，强哥麻烦快点行动让大嫂消气。 #狂飙 #张颂文 #高叶",
        "author": "桃厂看不停",
        "thumbnail": "https://p6-sign.douyinpic.com/tos-cn-p-0015/b01aea8510bf4e3982894c750e267ca9_1702810816~tplv-dy-360p.jpeg?x-expires=1706518800&x-signature=Tp1ifFQJ0LOLBUYMOi5InkQS9qQ%3D&from=3213915784&s=PackSourceEnum_FEED&se=false&sc=origin_cover&biz_tag=aweme_video&l=02170530985210100000000000000000000ffff0a1b4f5540e5bb",
        "videoPlayUrl": "https://api-hl.amemv.com/aweme/v1/play/?video_id=v0d00fg10000clvd9d3c77ucqgj4rq8g&line=1&file_id=e94a81a1e07747d5a4c521688aad728a&sign=18982c138c6b27e2a12640d4bd1a9c2f&is_play_url=1&source=PackSourceEnum_FEED"
    },
    {
        "file_hash": "7a800db285fdf9a8da64fb8bdfeb352d",
        "create_time": 1703304680,
        "title": "“清华大学铊中毒”受害者朱令去世。#清华大学 #朱令铊中毒 #清华 @抖音小助手",
        "author": "浪涨小青岛",
        "thumbnail": "https://p26-sign.douyinpic.com/tos-cn-p-0015/oELDU2yuAsLgCwfBgufM2BAvD75enG2CiAMPuH~tplv-dy-360p.jpeg?x-expires=1706518800&x-signature=eA8JOOrJ9ZBh9J3mh8xneN2xaXU%3D&from=3213915784&s=PackSourceEnum_FEED&se=false&sc=origin_cover&biz_tag=aweme_video&l=021705310029218fdbddc0200ff0500e133e973bd3b735c846025",
        "videoPlayUrl": "https://api-hl.amemv.com/aweme/v1/play/?video_id=v0300fg10000cm35rlrc77uers4cock0&line=1&file_id=0842cdff7e4b4bc28d2a0be6f8fb1b6c&sign=7a800db285fdf9a8da64fb8bdfeb352d&is_play_url=1&source=PackSourceEnum_FEED"
    },
    {
        "file_hash": "4c66f203033593a5287e25ed853673b6",
        "create_time": 1703754129,
        "title": "体测热门跑鞋大盘点#跑鞋 #中考体测选鞋 #跑鞋测评 #学生党 #鞋狗的日常",
        "author": "杰哥聊鞋",
        "thumbnail": "https://p6-sign.douyinpic.com/tos-cn-p-0015/oEBAYmfxyIz64HAAxJsgNch0yNIMeT0AD9ZpOB~tplv-dy-360p.jpeg?x-expires=1706518800&x-signature=n8nFd5K%2FNJYgSSnOmWf669uGVeE%3D&from=3213915784&s=PackSourceEnum_FEED&se=false&sc=origin_cover&biz_tag=aweme_video&l=021705309925997fdbddc0200ff0500e133e973bd3b735cbdbb0d",
        "videoPlayUrl": "https://api-hl.amemv.com/aweme/v1/play/?video_id=v0300fg10000cm6jhs3c77u7q76hhi4g&line=1&file_id=06c6c412576e410dbc6653f4bc5eca82&sign=4c66f203033593a5287e25ed853673b6&is_play_url=1&source=PackSourceEnum_FEED"
    },
    {
        "file_hash": "5dd4ae35d67bd11b5cff3939d221ddfb",
        "create_time": 1703663903,
        "title": "这样的妈妈，必须安排到位#内容过于真实 #好剧推荐 #秦海璐",
        "author": "爱追剧小钰",
        "thumbnail": "https://p6-sign.douyinpic.com/tos-cn-p-0015/oobGXNbAABBD2HgtJOnEDlQkiQcios9e9eyAsr~tplv-dy-360p.jpeg?x-expires=1706518800&x-signature=Ix%2FxiPRfBq7h%2FUJt0K3XdveOD%2B4%3D&from=3213915784&s=PackSourceEnum_FEED&se=false&sc=origin_cover&biz_tag=aweme_video&l=021705310019291fdbddc0200ff0500e133e973bd3b735ccee626",
        "videoPlayUrl": "https://api-hl.amemv.com/aweme/v1/play/?video_id=v0300fg10000cm5th6rc77u4rdcc72cg&line=1&file_id=c077cd0df3444ea1bd95c5ef18822c20&sign=5dd4ae35d67bd11b5cff3939d221ddfb&is_play_url=1&source=PackSourceEnum_FEED"
    },
    {
        "file_hash": "95618ac1a1e184469763b7f163dde716",
        "create_time": 1704792168,
        "title": "你往前走 不要回头#奶牛猫 #记录猫咪日常",
        "author": "大鹏·",
        "thumbnail": "https://p11-sign.douyinpic.com/tos-cn-p-0015/o4xAEmfzvIz7vABAgDrgNZh4ydIoesRANHGoEB~tplv-dy-360p.jpeg?x-expires=1706518800&x-signature=K3NS8%2BoFgjBiHTTjSORoIGMlWpw%3D&from=3213915784&s=PackSourceEnum_FEED&se=false&sc=origin_cover&biz_tag=aweme_video&l=021705309880550fdbddc0200ff05001ce38fdad3b7b5fd3d1e31",
        "videoPlayUrl": "https://api-hl.amemv.com/aweme/v1/play/?video_id=v0d00fg10000cmeh0njc77u0s6a49f1g&line=1&file_id=f945942b068146b999d8d144272be096&sign=95618ac1a1e184469763b7f163dde716&is_play_url=1&source=PackSourceEnum_FEED"
    },
    {
        "file_hash": "e771fbba4fcbf43eb9a9ab4887551f1c",
        "create_time": 1703176245,
        "title": "#好剧推荐 #抖音追剧推荐 #短剧来了",
        "author": "喵琪琪追剧",
        "thumbnail": "https://p9-sign.douyinpic.com/tos-cn-p-0015/oUAzywBHHDIjABciXnPAkB3AhODEEMaI6gNfea~tplv-dy-360p.jpeg?x-expires=1706518800&x-signature=EvcCzT9F7LXS7IXtH0ENXb8DyjU%3D&from=3213915784&s=PackSourceEnum_FEED&se=false&sc=origin_cover&biz_tag=aweme_video&l=02170530994998100000000000000000000ffff0a97da631d6618",
        "videoPlayUrl": "https://api-hl.amemv.com/aweme/v1/play/?video_id=v0300fg10000cm26f43c77u7hegc2ce0&line=1&file_id=54c7ae3da93a48f294cd3315e8c0e7e6&sign=e771fbba4fcbf43eb9a9ab4887551f1c&is_play_url=1&source=PackSourceEnum_FEED"
    },
    {
        "file_hash": "7c5c9ec173b8615d79eb5610fe084dac",
        "create_time": 1704509973,
        "title": "长大后才明白\n父母从末为自己活过\n等我明白的时候\n我也再没办法为自己而活\n这一生谁都羁绊不了你\n唯有孩子\n春夏秋冬 寒来暑往\n让你心甘情愿的付出.…\n#当妈的都懂 #养娃#当妈妈后",
        "author": "可乐baby",
        "thumbnail": "https://p6-sign.douyinpic.com/tos-cn-p-0015/oQZEID69GzAhwXsdTGfAAeyAKAEgTBazI8NqYh~tplv-dy-360p.jpeg?x-expires=1706518800&x-signature=%2BI%2FioRdTXDgR03J5mmquEdQCs%2FA%3D&from=3213915784&s=PackSourceEnum_FEED&se=false&sc=origin_cover&biz_tag=aweme_video&l=021705309894085fdbddc0200ff0500e133e973bd3b735ce2e8ad",
        "videoPlayUrl": "https://api-hl.amemv.com/aweme/v1/play/?video_id=v0300fg10000cmcc433c77u0ulvg8jt0&line=1&file_id=f65fc3434e1846328973488a388d2850&sign=7c5c9ec173b8615d79eb5610fe084dac&is_play_url=1&source=PackSourceEnum_FEED"
    },
    {
        "file_hash": "6da6daa91e1087849088f92e3561b4d9",
        "create_time": 1704524400,
        "title": "我的观影报告",
        "author": "小蓉儿",
        "thumbnail": "https://p9-sign.douyinpic.com/tos-cn-p-0015/okxhgmnCkQlU88mteCbB9Ixl676nlMARADAeaQ~tplv-dy-360p.jpeg?x-expires=1706518800&x-signature=RBLn0XvfEZqBAICY1Ezyl7QLBQk%3D&from=3213915784&s=PackSourceEnum_FEED&se=false&sc=origin_cover&biz_tag=aweme_video&l=021705309722095fdbddc0200ff05002eb6e04b3b3ccb9a701e0f",
        "videoPlayUrl": "https://api-hl.amemv.com/aweme/v1/play/?video_id=v0200fg10000cmccmsbc77uep22hjeng&line=1&file_id=5f2056e8f1164d1a85fe94a1407d4415&sign=6da6daa91e1087849088f92e3561b4d9&is_play_url=1&source=PackSourceEnum_FEED"
    },
    {
        "file_hash": "7d26fb0a5b3651deedea1e59e1e27a80",
        "create_time": 1704701726,
        "title": "#每天坚持锻炼会有不一样的收获 #变美变瘦变好看 #居家锻炼 #运动 @DOU+小助手",
        "author": "玲玲爱运动",
        "thumbnail": "https://p26-sign.douyinpic.com/tos-cn-p-0015/ogcLNIPDBBCHfe0a2BAAAKe501boYZi3ycI7Gr~tplv-dy-360p.jpeg?x-expires=1706518800&x-signature=KoQVa18YG1K8l34kkXtp6xCz1uA%3D&from=3213915784&s=PackSourceEnum_FEED&se=false&sc=origin_cover&biz_tag=aweme_video&l=02170530970679400000000000000000000ffff0a9fce242b1df6",
        "videoPlayUrl": "https://api-hl.amemv.com/aweme/v1/play/?video_id=v0300fg10000cmdqtt3c77ueggsq0s9g&line=1&file_id=5a10749cfcf4401aab889019e9fe5374&sign=7d26fb0a5b3651deedea1e59e1e27a80&is_play_url=1&source=PackSourceEnum_FEED"
    },
    {
        "file_hash": "faeb5895c4e3c605bf425409bb8f27b4",
        "create_time": 1704763747,
        "title": "男子在洗浴中心花1000多元开房间，多要一个被子需支付100元，男子怒斥：欺负我们啊？不合理！ #dou",
        "author": "顶端新闻",
        "thumbnail": "https://p26-sign.douyinpic.com/tos-cn-p-0015/oEoZbewADICIgDneKcbFrGXA9JzVlnDFABHWBi~tplv-dy-360p.jpeg?x-expires=1706518800&x-signature=V0EsW27y2tyFDwcvfpOvWTFAchw%3D&from=3213915784&s=PackSourceEnum_FEED&se=false&sc=origin_cover&biz_tag=aweme_video&l=021705309987845fdbddc0200ff0500e133e973bd3b735ceebdb2",
        "videoPlayUrl": "https://api-hl.amemv.com/aweme/v1/play/?video_id=v0300fg10000cmea2lrc77ucs6cbsrlg&line=1&file_id=173108acea2946f7afd7323ef6282700&sign=faeb5895c4e3c605bf425409bb8f27b4&is_play_url=1&source=PackSourceEnum_FEED"
    }
]