[
    {
        "file_hash": "998a4d9aa391e4f81d7e7f1f0659ed4c",
        "create_time": 1702985288,
        "title": "“没有穿外套的往前来！”甘肃地震老师带着孩子们从宿舍安全撤离，给没来得及穿外套的孩子发放衣服@@💖花姐",
        "author": "洛阳网",
        "thumbnail": "https://p6-sign.douyinpic.com/tos-cn-p-0015/og5BwAoLLDACfAwhkeAHYUf6eejAgAfAR8y2efa~tplv-dy-360p.jpeg?x-expires=1706518800&x-signature=Pcd0fJ3Dd8socCghoWAnkqJWNKg%3D&from=3213915784&s=PackSourceEnum_FEED&se=false&sc=origin_cover&biz_tag=aweme_video&l=02170530978786100000000000000000000ffff0a92f1de995fce",
        "videoPlayUrl": "https://api-hl.amemv.com/aweme/v1/play/?video_id=v0300fg10000cm0ns0rc77u3skcfmg10&line=1&file_id=67ab531c0b7848258695faaecbda3484&sign=998a4d9aa391e4f81d7e7f1f0659ed4c&is_play_url=1&source=PackSourceEnum_FEED"
    },
    {
        "file_hash": "ee83c2d47ac3d4029f5e794097e4fb69",
        "create_time": 1703671256,
        "title": "公主，请准备开心过龙年啦！ #是时候龙重登场了#安踏儿童新年龙服#穿新年龙服各有一套#儿童外套",
        "author": "卡哇又伊伊",
        "thumbnail": "https://p11-sign.douyinpic.com/tos-cn-p-0015/oMghghfqlAN76ERNAzBuOBzifBQIDIN9MA5nLt~tplv-dy-360p.jpeg?x-expires=1706518800&x-signature=naF8NbGgchlarvOkcJV%2BQZ9CIeA%3D&from=3213915784&s=PackSourceEnum_FEED&se=false&sc=origin_cover&biz_tag=aweme_video&l=02170530988696000000000000000000000ffff0a92f1deb4f0c5",
        "videoPlayUrl": "https://api-hl.amemv.com/aweme/v1/play/?video_id=v0300fg10000cm5ug8jc77udjuda04mg&line=1&file_id=5ed0df4e7917410092f6f59655cb1038&sign=ee83c2d47ac3d4029f5e794097e4fb69&is_play_url=1&source=PackSourceEnum_FEED"
    },
    {
        "file_hash": "867c6ce8252f787596575238413c3f53",
        "create_time": 1702733530,
        "title": "小瓜皮又套路我，还好妈妈不在家，要不要铁定挨打#亲子日常 #童言无忌 #童言童语 #宝爸带娃 #萌娃日常 @抖音小助手 @抖音创作者中心",
        "author": "怨种李小淼",
        "thumbnail": "https://p26-sign.douyinpic.com/tos-cn-p-0015/9c11934442cb49819f6f7165069aeeac_1702733535~tplv-dy-360p.jpeg?x-expires=1706518800&x-signature=0DFvi8cyZMjVv9l5LPOkbjiCot8%3D&from=3213915784&s=PackSourceEnum_FEED&se=false&sc=origin_cover&biz_tag=aweme_video&l=02170530999037500000000000000000000ffff0a92c91320b3c3",
        "videoPlayUrl": "https://api-hl.amemv.com/aweme/v1/play/?video_id=v0300fg10000cluqcdbc77u0go1s236g&line=1&file_id=daeb6c3dedb34409ab13ad6cc45c7d82&sign=867c6ce8252f787596575238413c3f53&is_play_url=1&source=PackSourceEnum_FEED"
    },
    {
        "file_hash": "4adae08d625730af9da172ebdb19cc34",
        "create_time": 1704181200,
        "title": "#被迫营业的猫猫 #萌宠出道计划 #心思全写在脸上的猫猫 猫猫偷吃东西的时候，主人发现后把它拎了起来， 猫猫还不忘舔两下嘴巴素材来源@热心四咪",
        "author": "巴陵看点播报",
        "thumbnail": "https://p26-sign.douyinpic.com/tos-cn-p-0015/owg6gFAM9TvjAfnlu8IibI7IAPZAWDEgNTpfBu~tplv-dy-360p.jpeg?x-expires=1706518800&x-signature=9tQg8k8Rw27OqpQ8sL1p60Qx2DQ%3D&from=3213915784&s=PackSourceEnum_FEED&se=false&sc=origin_cover&biz_tag=aweme_video&l=02170530971652100000000000000000000ffff0a92f1deab1f5e",
        "videoPlayUrl": "https://api-hl.amemv.com/aweme/v1/play/?video_id=v0d00fg10000cm797ljc77u6dohf9i00&line=1&file_id=52cbcd0b5ed8488f9e324a5bafcd4d50&sign=4adae08d625730af9da172ebdb19cc34&is_play_url=1&source=PackSourceEnum_FEED"
    },
    {
        "file_hash": "4c351c04aa33e9934bb987f2583d677d",
        "create_time": 1705056851,
        "title": "作为宝宝口粮选圣特拉慕羊奶粉@圣特拉慕#圣特拉慕#纯羊小分子3益宝护力#奶粉怎么选#圣特拉慕羊奶粉#羊奶粉",
        "author": "裪裪妈咪",
        "thumbnail": "https://p3-sign.douyinpic.com/tos-cn-p-0015/osLHDAAevQUHl9CgZiAosmQQ1aEcnb9BN4elhC~tplv-dy-360p.jpeg?x-expires=1706518800&x-signature=vYYARIEM0dnTVn9C8QwqCERbtGQ%3D&from=3213915784&s=PackSourceEnum_FEED&se=false&sc=origin_cover&biz_tag=aweme_video&l=02170530981926200000000000000000000ffff0a92f1de59d0fe",
        "videoPlayUrl": "https://api-hl.amemv.com/aweme/v1/play/?video_id=v0d00fg10000cmggj73c77u3mc4nfm6g&line=1&file_id=303fa17506b14e84b855e314a29d3888&sign=4c351c04aa33e9934bb987f2583d677d&is_play_url=1&source=PackSourceEnum_FEED"
    },
    {
        "file_hash": "c935843a1869f08750a0936866059bdf",
        "create_time": 1704520327,
        "title": "论南方小土豆在东北的精神状态：一块冰带给南方小土豆的快乐！",
        "author": "光明日报",
        "thumbnail": "https://p11-sign.douyinpic.com/tos-cn-p-0015/ogExYgzgfefB1I1mAcYRAPDefyL12sEHmV0sIx~tplv-dy-360p.jpeg?x-expires=1706518800&x-signature=kFNYt297AXESLwt9yoPLuMWmNx4%3D&from=3213915784&s=PackSourceEnum_FEED&se=false&sc=origin_cover&biz_tag=aweme_video&l=02170530984654100000000000000000000ffff0a92f1deab1041",
        "videoPlayUrl": "https://api-hl.amemv.com/aweme/v1/play/?video_id=v0300fg10000cmcek3jc77u9abqvfpmg&line=1&file_id=fb06fd0546934bbe92e36f355765adb0&sign=c935843a1869f08750a0936866059bdf&is_play_url=1&source=PackSourceEnum_FEED"
    },
    {
        "file_hash": "34260b4bd98e1594cd9320fa6052818f",
        "create_time": 1702859018,
        "title": "寂寞的烟抽过，伤心的酒醉过",
        "author": "棉袄姥爷",
        "thumbnail": "https://p11-sign.douyinpic.com/tos-cn-p-0015/f72bc7e157cb4d039a00a79d89c4dfd1_1702859024~tplv-dy-360p.jpeg?x-expires=1706518800&x-signature=0eshS4tOUaXpwxm0zP4Kyy0PLn0%3D&from=3213915784&s=PackSourceEnum_FEED&se=false&sc=origin_cover&biz_tag=aweme_video&l=02170530991963800000000000000000000ffff0a92c913e9ac16",
        "videoPlayUrl": "https://api-hl.amemv.com/aweme/v1/play/?video_id=v0d00fg10000clvov83c77u755232jgg&line=1&file_id=363eadbe8c304669bec590e5db166d6d&sign=34260b4bd98e1594cd9320fa6052818f&is_play_url=1&source=PackSourceEnum_FEED"
    },
    {
        "file_hash": "d0fb0b09228a26a96892681b0d1ac014",
        "create_time": 1702946465,
        "title": "2-6月内耳前庭训练来啦，爸爸一人也能很轻松搞定，妈妈们转发给爸爸给宝宝试试吧#内耳前庭训练#感统训练#亲子互动#爸爸带娃",
        "author": "拉拉小盆友",
        "thumbnail": "https://p11-sign.douyinpic.com/tos-cn-p-0015/oobAaGfwAIzEoIBAMUCgNhhIyAALesrACYqH5B~tplv-dy-360p.jpeg?x-expires=1706518800&x-signature=0kGGp6hI%2Fji%2B6mYKuRyXLf8kcCc%3D&from=3213915784&s=PackSourceEnum_FEED&se=false&sc=origin_cover&biz_tag=aweme_video&l=02170530979087700000000000000000000ffff0a92f1de6b0a65",
        "videoPlayUrl": "https://api-hl.amemv.com/aweme/v1/play/?video_id=v0200fg10000cm0eck3c77u848ddk0a0&line=1&file_id=9d1c0a1d98d7464989a6ca31344823e2&sign=d0fb0b09228a26a96892681b0d1ac014&is_play_url=1&source=PackSourceEnum_FEED"
    }
]