[
    {
        "file_hash": "c251816a756386f3e8a3b1983bdab90a",
        "create_time": 1705128319,
        "title": "央视曝光一县医院全链条式腐败：院长接受医药代表1400多万贿赂、科长半年挪用2424万公款去网络赌博",
        "author": "Vista看天下",
        "thumbnail": "https://p11-sign.douyinpic.com/tos-cn-p-0015/oQiec8B9DnliogAFMgetAjYcQbLKoEADNGQNjD~tplv-dy-360p.jpeg?x-expires=1706518800&x-signature=N2WNp2%2F1UKyNHhVGWOig8sy680w%3D&from=3213915784&s=PackSourceEnum_FEED&se=false&sc=origin_cover&biz_tag=aweme_video&l=02170531093320300000000000000000000ffff0a9135667514fc",
        "videoPlayUrl": "https://api-hl.amemv.com/aweme/v1/play/?video_id=v0300fg10000cmh32ijc77u752r0e2vg&line=1&file_id=3a88b867b2574b62b71a196645ab4bf1&sign=c251816a756386f3e8a3b1983bdab90a&is_play_url=1&source=PackSourceEnum_FEED"
    },
    {
        "file_hash": "c1f46bc5f91935fb3fdc619cd455a3fe",
        "create_time": 1704278071,
        "title": "#创作灵感 #长得很潦草的狗子 #此炸毛小狗非彼炸毛小狗 说谁呢天天滴😂😂",
        "author": "🌈Hi~萌宠日常",
        "thumbnail": "https://p11-sign.douyinpic.com/tos-cn-p-0015/osw8DBAeqQjCe7BAqhBKHeQmSQOHnb3CGDVL6V~tplv-dy-360p.jpeg?x-expires=1706518800&x-signature=vJQK5Do2MxR3ZoCv0zdLZCOsWI4%3D&from=3213915784&s=PackSourceEnum_FEED&se=false&sc=origin_cover&biz_tag=aweme_video&l=021705310854771fdbddc0200ff0500be2b99ffa6fbc7079f0c3d",
        "videoPlayUrl": "https://api-hl.amemv.com/aweme/v1/play/?video_id=v0300fg10000cmajf1rc77u1anb1a3k0&line=1&file_id=0675d29719144cf7ac92f436f3355ae3&sign=c1f46bc5f91935fb3fdc619cd455a3fe&is_play_url=1&source=PackSourceEnum_FEED"
    },
    {
        "file_hash": "3721a2fd1290640ea43de9c2c57aff41",
        "create_time": 1703585621,
        "title": "偏心的爸爸 #探索新奇",
        "author": "默默探索",
        "thumbnail": "https://p6-sign.douyinpic.com/tos-cn-p-0015/owQeFxhyGggAcKN1AmOcpDgIztASfABSbB6yVI~tplv-dy-360p.jpeg?x-expires=1706518800&x-signature=Kb9u8EqiMHcOtVjGiFnVLyLBijg%3D&from=3213915784&s=PackSourceEnum_FEED&se=false&sc=origin_cover&biz_tag=aweme_video&l=021705310889144fdbddc0200ff0500be2b99ffa6fbc707fee52c",
        "videoPlayUrl": "https://api-hl.amemv.com/aweme/v1/play/?video_id=v0d00fg10000cm5aeebc77u5g9gpmi80&line=1&file_id=dbb5a76a3e084aebbc6c60c9dac2648d&sign=3721a2fd1290640ea43de9c2c57aff41&is_play_url=1&source=PackSourceEnum_FEED"
    },
    {
        "file_hash": "883b6e4cded994b3baabce285e8ef67e",
        "create_time": 1704705315,
        "title": "昭苏湿地公园景区\n1月16日正式对外开放",
        "author": "新疆广播电视台维吾尔语",
        "thumbnail": "https://p26-sign.douyinpic.com/tos-cn-p-0015/o4QyABNzNIEQe4yAIv5KCzTdbBSABh66fBELIg~tplv-dy-360p.jpeg?x-expires=1706518800&x-signature=VBgOeYwb%2FcZtxWFtsGbchn6hia0%3D&from=3213915784&s=PackSourceEnum_FEED&se=false&sc=origin_cover&biz_tag=aweme_video&l=02170531061373500000000000000000000ffff0a1a2b98bc15cd",
        "videoPlayUrl": "https://api-hl.amemv.com/aweme/v1/play/?video_id=v0d00fg10000cmdrq5jc77u44cg7gj50&line=1&file_id=aecd240c791d4dd691b1a192b9d68181&sign=883b6e4cded994b3baabce285e8ef67e&is_play_url=1&source=PackSourceEnum_FEED"
    },
    {
        "file_hash": "30d1433ae33d218c2cb34d53da8f98ee",
        "create_time": 1703239837,
        "title": "#精神小伙 今天老爸实力抢镜啦😀#父子时光",
        "author": "豪妈童装",
        "thumbnail": "https://p26-sign.douyinpic.com/tos-cn-p-0015/oMJFD1gwtAIBkB2lBzeynKBZYhADfAh9krwA0F~tplv-dy-360p.jpeg?x-expires=1706518800&x-signature=%2B1%2F9LvBslxi2JVewbayFYGI03Ms%3D&from=3213915784&s=PackSourceEnum_FEED&se=false&sc=origin_cover&biz_tag=aweme_video&l=02170531077081900000000000000000000ffff0a9f7ddafc66d7",
        "videoPlayUrl": "https://api-hl.amemv.com/aweme/v1/play/?video_id=v0300fg10000cm2m11rc77u5i9p7rlcg&line=1&file_id=3ce86861d1fd4ddbafcfea8600415c1f&sign=30d1433ae33d218c2cb34d53da8f98ee&is_play_url=1&source=PackSourceEnum_FEED"
    },
    {
        "file_hash": "b37a6dd77b4741b567f17cf5f41adcc9",
        "create_time": 1704802425,
        "title": "#电视剧繁花 麒麟会给宝总留出一分钟的考虑时间，没曾想宝总完全不慌，侃侃而谈，开出了让麒麟会妥协的条件。#来央八看好剧",
        "author": "CCTV电视剧",
        "thumbnail": "https://p11-sign.douyinpic.com/tos-cn-p-0015/o0OATDMngg1BbgLebfl9ABAXQbd1HnQPTRu2rD~tplv-dy-360p.jpeg?x-expires=1706518800&x-signature=mdxCVbEdt3V%2FyK77e%2BOB7E5sDCQ%3D&from=3213915784&s=PackSourceEnum_FEED&se=false&sc=origin_cover&biz_tag=aweme_video&l=021705310643328fdbddc0200ff0500be2b99ffa6fbc70765b370",
        "videoPlayUrl": "https://api-hl.amemv.com/aweme/v1/play/?video_id=v0300fg10000cmejg4bc77ubmulmbg30&line=1&file_id=7df6ec6a81a645b49159331f33de1554&sign=b37a6dd77b4741b567f17cf5f41adcc9&is_play_url=1&source=PackSourceEnum_FEED"
    },
    {
        "file_hash": "53e7f0e3ccd0737593122de9467f0386",
        "create_time": 1704015737,
        "title": "网文审核：儿童读物？封了！#小说 #番茄 #全民抖包袱 #年度搞笑pk赛",
        "author": "键盘徐⌨️（斗破苍穹版）",
        "thumbnail": "https://p11-sign.douyinpic.com/tos-cn-p-0015/oYBbMx7teyhSmCAhBrzRzsfJL4KygAOIkCNVIA~tplv-dy-360p.jpeg?x-expires=1706518800&x-signature=429ZyqMq8nGCBZeCzI0aX0MrD18%3D&from=3213915784&s=PackSourceEnum_FEED&se=false&sc=origin_cover&biz_tag=aweme_video&l=021705310684455fdbddc0200ff05000f0b3d8a2df42c3a2b468b",
        "videoPlayUrl": "https://api-hl.amemv.com/aweme/v1/play/?video_id=v0200fg10000cm8jcorc77uei35f6rtg&line=1&file_id=d51cfd6cf697463b9d455de91c400d96&sign=53e7f0e3ccd0737593122de9467f0386&is_play_url=1&source=PackSourceEnum_FEED"
    },
    {
        "file_hash": "7df4fa1a64a8361b6c60871ce66a360f",
        "create_time": 1704774094,
        "title": "一转头惊艳了#孩子静悄悄必定在作妖 #歌曲走马过红尘",
        "author": "青岛焦点",
        "thumbnail": "https://p6-sign.douyinpic.com/tos-cn-p-0015/o8lyIcxAAnDARgcaeyFBbedKmANAwIbn9MnK9B~tplv-dy-360p.jpeg?x-expires=1706518800&x-signature=wXB4kNueq14vnPuMo0ojpbr75w4%3D&from=3213915784&s=PackSourceEnum_FEED&se=false&sc=origin_cover&biz_tag=aweme_video&l=021705310617438fdbddc0200ff050039029951e90f87fc1423e3",
        "videoPlayUrl": "https://api-hl.amemv.com/aweme/v1/play/?video_id=v0d00fg10000cmecjc3c77u59rckhov0&line=1&file_id=00af916c8cc344389e57778ed309c26f&sign=7df4fa1a64a8361b6c60871ce66a360f&is_play_url=1&source=PackSourceEnum_FEED"
    },
    {
        "file_hash": "05526db9c810f3c393f9b33619306cf3",
        "create_time": 1704009243,
        "title": "#生姜#显微镜#科普知识",
        "author": "微观小阿蛋",
        "thumbnail": "https://p26-sign.douyinpic.com/tos-cn-p-0015/oMNbRe4hAhR90nG7I1HABfZgWDDAklaDgCBRIz~tplv-dy-360p.jpeg?x-expires=1706518800&x-signature=3Puc9M%2F5mIOwBTzN76g8KIzuvsw%3D&from=3213915784&s=PackSourceEnum_FEED&se=false&sc=origin_cover&biz_tag=aweme_video&l=021705310966232fdbddc0200ff0500be2b99ffa6fbc707c427d9",
        "videoPlayUrl": "https://api-hl.amemv.com/aweme/v1/play/?video_id=v0300fg10000cm8hs0bc77u3fss13rqg&line=1&file_id=aea17e0d73f949da8697effee4bf5be7&sign=05526db9c810f3c393f9b33619306cf3&is_play_url=1&source=PackSourceEnum_FEED"
    },
    {
        "file_hash": "4c171354c0e902b01fffcaa18a82f009",
        "create_time": 1702710324,
        "title": "外媒：以军连续轰炸使援助车队几乎无法行进，加沙民众控诉：\"要么被炸死，要么被饿死\"",
        "author": "温州瓯海发布",
        "thumbnail": "https://p11-sign.douyinpic.com/tos-cn-p-0015/6caf12acc997409db344eaaaf30dfda5_1702710328~tplv-dy-360p.jpeg?x-expires=1706518800&x-signature=EiUNn0VqaadHZDx5XoxUPMy3umA%3D&from=3213915784&s=PackSourceEnum_FEED&se=false&sc=origin_cover&biz_tag=aweme_video&l=021705310930082fdbddc0200ff0500be2b99ffa6fbc70739f2a4",
        "videoPlayUrl": "https://api-hl.amemv.com/aweme/v1/play/?video_id=v0d00fg10000cluko4jc77u16ub9a0i0&line=1&file_id=f6e9773d5f3f4929b0e4df23617dd863&sign=4c171354c0e902b01fffcaa18a82f009&is_play_url=1&source=PackSourceEnum_FEED"
    }
]