[
    {
        "file_hash": "f3e3995386cfa5774f38001f1dd34698",
        "create_time": 1703221200,
        "title": "#问苍茫 遇到事情不要慌，先填饱肚子在进行下一步！#问苍茫郑业成安全感给足了  #白客  #郑业成",
        "author": "电视剧问苍茫",
        "thumbnail": "https://p11-sign.douyinpic.com/tos-cn-p-0015/osy5CIE1iBRIjAfeDArA102BUwAigGNC9FYzhr~tplv-dy-360p.jpeg?x-expires=1706493600&x-signature=UIhVPic3dJOjQMx3e94IhnBlAEY%3D&from=3213915784&s=PackSourceEnum_FEED&se=false&sc=origin_cover&biz_tag=aweme_video&l=02170528705515700000000000000000000ffff0a1b578891606c",
        "videoPlayUrl": "https://api-hl.amemv.com/aweme/v1/play/?video_id=v0200fg10000cm265h3c77u3qtcamhlg&line=1&file_id=f2c1852717a5456a9aca6719e6d3a3d3&sign=f3e3995386cfa5774f38001f1dd34698&is_play_url=1&source=PackSourceEnum_FEED"
    },
    {
        "file_hash": "ac2d2674bce80218437e142324a10c6e",
        "create_time": 1704688691,
        "title": "三星小折叠 一千多💰安排到家\n8➕256G内存 全网通喜欢安排#精品二手手机",
        "author": "合众鑫通讯",
        "thumbnail": "https://p11-sign.douyinpic.com/tos-cn-p-0015/oYwTHAbqDmQEof9EAdg1QreDLXobZl2Dn1A3Br~tplv-dy-360p.jpeg?x-expires=1706493600&x-signature=UB6OXRJs1Pc%2BnJQCQzKktx89uqM%3D&from=3213915784&s=PackSourceEnum_FEED&se=false&sc=origin_cover&biz_tag=aweme_video&l=02170528691466400000000000000000000ffff0a186d91a9295b",
        "videoPlayUrl": "https://api-hl.amemv.com/aweme/v1/play/?video_id=v0300fg10000cmdno7bc77u3ktbbbdq0&line=1&file_id=33afc3e796bc4b978410a8ae6de8419b&sign=ac2d2674bce80218437e142324a10c6e&is_play_url=1&source=PackSourceEnum_FEED"
    },
    {
        "file_hash": "a4c57d40547d704a5138aeab6914743c",
        "create_time": 1704185738,
        "title": "听说你们都很想要看我的猫戴假发 哈哈哈哈哈哈哈哈哈哈哈哈哈哈太可爱了  #被迫营业的猫猫 #一看就没什么心眼的猫猫",
        "author": "贱贱和布丁是只猫🐱",
        "thumbnail": "https://p6-sign.douyinpic.com/tos-cn-p-0015/oIegNgzKgAyjASGx98bM8lnB2YkFMDAJ4eSVGT~tplv-dy-360p.jpeg?x-expires=1706493600&x-signature=j8F59leuGqUOCFCIaYfmf%2Bzp58c%3D&from=3213915784&s=PackSourceEnum_FEED&se=false&sc=origin_cover&biz_tag=aweme_video&l=021705287028617fdbddc0200ff05007069c7e82e0982d1290b7e",
        "videoPlayUrl": "https://api-hl.amemv.com/aweme/v1/play/?video_id=v0d00fg10000cm9sp5bc77u1i8oi4s9g&line=1&file_id=a498baf0dad0437caeb6f9454906adfd&sign=a4c57d40547d704a5138aeab6914743c&is_play_url=1&source=PackSourceEnum_FEED"
    },
    {
        "file_hash": "208ba2ea6d7e051dac8be772c97f23cb",
        "create_time": 1704277246,
        "title": "当你一不小心生了个又美又乖的天使宝宝～#骗你生女儿 #大眼萌娃 #人类幼崽 #一页蛋黄油面霜 #newpage一页",
        "author": "恬恬宝贝",
        "thumbnail": "https://p26-sign.douyinpic.com/tos-cn-p-0015/oQfA4R3FAo3BePGL7g4CB7BcUDQZQEen9MaJbn~tplv-dy-360p.jpeg?x-expires=1706493600&x-signature=oD33ZUVE5Zm10YZEfs%2BQLNWe3Uc%3D&from=3213915784&s=PackSourceEnum_FEED&se=false&sc=origin_cover&biz_tag=aweme_video&l=021705287080139fdbddc0200ff0500a7656b6d24310fc7ce658b",
        "videoPlayUrl": "https://api-hl.amemv.com/aweme/v1/play/?video_id=v0300fg10000cm9urhbc77u7q703r8u0&line=1&file_id=2ba2acb1b09b44ecbf0526c15c23b0fd&sign=208ba2ea6d7e051dac8be772c97f23cb&is_play_url=1&source=PackSourceEnum_FEED"
    },
    {
        "file_hash": "44cd704022db2611817938a83ab70448",
        "create_time": 1704775155,
        "title": "",
        "author": "꧁꫞꯭女王💔冷血꫞꧂",
        "thumbnail": "https://p11-sign.douyinpic.com/tos-cn-p-0015/ogb9gA35EQtI5vHzMABpgehNgC8eAlAMnRnCjD~tplv-dy-360p.jpeg?x-expires=1706493600&x-signature=na6iYF6lMUa03hf2O0uBd39XYEM%3D&from=3213915784&s=PackSourceEnum_FEED&se=false&sc=origin_cover&biz_tag=aweme_video&l=021705287009180fdbddc0200ff05007069c7e82e0982d1289459",
        "videoPlayUrl": "https://api-hl.amemv.com/aweme/v1/play/?video_id=v0200fg10000cmecrrbc77u474f18j0g&line=1&file_id=82365fee222842138763e1ce62393545&sign=44cd704022db2611817938a83ab70448&is_play_url=1&source=PackSourceEnum_FEED"
    }
]