[
    {
        "file_hash": "e9d6e6f421d2c3854dd4c9b8f3a0802e",
        "create_time": 1704534522,
        "title": "购物分享&周边上新",
        "author": "周淼",
        "thumbnail": "https://p3-sign.douyinpic.com/tos-cn-p-0015/oohMnbIeBDkGQIRzhDLAeC5yQk7jARGMMBfBmz~tplv-dy-360p.jpeg?x-expires=1706493600&x-signature=AINiudPU8zwutva3Uju3CpDkH30%3D&from=3213915784&s=PackSourceEnum_FEED&se=false&sc=origin_cover&biz_tag=aweme_video&l=021705287016304fdbddc0200ff05004b3325c82d4e0598476ef2",
        "videoPlayUrl": "https://api-hl.amemv.com/aweme/v1/play/?video_id=v0300fg10000cmchofjc77u48f6c6pj0&line=1&file_id=0f524c632e0942a69236b9cbe51944d8&sign=e9d6e6f421d2c3854dd4c9b8f3a0802e&is_play_url=1&source=PackSourceEnum_FEED"
    },
    {
        "file_hash": "a7d9eef5dc766903225804f1266d8fc8",
        "create_time": 1705041000,
        "title": "老师批改完试卷后崩溃 素材来源@心田芬芳",
        "author": "巴陵看点播报",
        "thumbnail": "https://p26-sign.douyinpic.com/tos-cn-p-0015/oEyxfA7b1EBr5HQLEP52BCAqfrJN2eQV7XPLB8~tplv-dy-360p.jpeg?x-expires=1706493600&x-signature=4XH5H9lkNFFuelQJx5lxkmwHyUM%3D&from=3213915784&s=PackSourceEnum_FEED&se=false&sc=origin_cover&biz_tag=aweme_video&l=021705286742049fdbddc0200ff05004b3325c82d4e05986bc714",
        "videoPlayUrl": "https://api-hl.amemv.com/aweme/v1/play/?video_id=v0200fg10000cmfqtnjc77u9dbisuvvg&line=1&file_id=0a3bd123b656479494b82656b4735e71&sign=a7d9eef5dc766903225804f1266d8fc8&is_play_url=1&source=PackSourceEnum_FEED"
    },
    {
        "file_hash": "755bf323233952bd8fd407d9fc9fd185",
        "create_time": 1703032230,
        "title": "吓得我都不敢在这里钓了。#原来钓鱼才是抖音运动顶流 #路亚 #钓鱼人",
        "author": "江河野生淡水鱼研究员",
        "thumbnail": "https://p9-sign.douyinpic.com/tos-cn-p-0015/oQFA9UegEQn7ABEAWwHgbbDWlEAH9fsANo1jaB~tplv-dy-360p.jpeg?x-expires=1706493600&x-signature=HCSX2HyHNxo28YXLq%2BXFkYqrK9I%3D&from=3213915784&s=PackSourceEnum_FEED&se=false&sc=origin_cover&biz_tag=aweme_video&l=021705286986025fdbddc0200ff05004b3325c82d4e059893c15a",
        "videoPlayUrl": "https://api-hl.amemv.com/aweme/v1/play/?video_id=v0d00fg10000cm13b03c77u0ljept2c0&line=1&file_id=a52fd5f1898b4d748a9756488e72bd87&sign=755bf323233952bd8fd407d9fc9fd185&is_play_url=1&source=PackSourceEnum_FEED"
    },
    {
        "file_hash": "3d570ee24eb69e954ca4fb0d72dbd741",
        "create_time": 1703915998,
        "title": "听说发这首歌会🔥？",
        "author": "养蜂人阿亮",
        "thumbnail": "https://p3-sign.douyinpic.com/tos-cn-p-0015/o4OYArfD9Nwb2HIwYgG7CgjjgARl92nItHeA8B~tplv-dy-360p.jpeg?x-expires=1706493600&x-signature=DQqpsLb2mfvgwQjw8ETDKBJxYX4%3D&from=3213915784&s=PackSourceEnum_FEED&se=false&sc=origin_cover&biz_tag=aweme_video&l=021705287036202fdbddc0200ff050003e4861f574b2a3c86e4b2",
        "videoPlayUrl": "https://api-hl.amemv.com/aweme/v1/play/?video_id=v0d00fg10000cm7r3hrc77udi71tr660&line=1&file_id=0b210aa32a244d4fa8e00a8dd355fd8b&sign=3d570ee24eb69e954ca4fb0d72dbd741&is_play_url=1&source=PackSourceEnum_FEED"
    },
    {
        "file_hash": "9f3fcd7fa386d2f2b3e3c0b34b4de44e",
        "create_time": 1703922553,
        "title": "河南人真的很有礼数！#河南 #河南人 #人情世故 #礼数 #中国 ",
        "author": "辉常定位",
        "thumbnail": "https://p9-sign.douyinpic.com/tos-cn-p-0015/ow2LGj7YBfPHzf1HQl4Z4gQvBcptgAC556EEfA~tplv-dy-360p.jpeg?x-expires=1706493600&x-signature=aFP8VLytIOZcxkitnyU1mCiSlE4%3D&from=3213915784&s=PackSourceEnum_FEED&se=false&sc=origin_cover&biz_tag=aweme_video&l=021705286779228fdbddc0200ff0500a6bf9cab15d3cceeba0967",
        "videoPlayUrl": "https://api-hl.amemv.com/aweme/v1/play/?video_id=v0200fg10000cm7smf3c77u77urjhujg&line=1&file_id=bfb29ca631944571b2676e59a9625593&sign=9f3fcd7fa386d2f2b3e3c0b34b4de44e&is_play_url=1&source=PackSourceEnum_FEED"
    },
    {
        "file_hash": "5e74d35b76e8e968397184ab072c3478",
        "create_time": 1703198095,
        "title": "#你的孩子也是这样玩吗😂😂😂😄 #儿童乐园滑滑梯玩耍视频 #陪你们疯陪你们闹陪你们一起笑 #哈哈哈娱乐一下😂😂😂 #农村这几个老太太为了拍作品整得这一招也太损了吧",
        "author": "淘气小三宝",
        "thumbnail": "https://p9-sign.douyinpic.com/tos-cn-p-0015/o4e1gNMVYnAyekOIwL8bA9lHIAZgCB3hAObnSD~tplv-dy-360p.jpeg?x-expires=1706493600&x-signature=AVW38AtHOyMuB30YaTroMjRKEZg%3D&from=3213915784&s=PackSourceEnum_FEED&se=false&sc=origin_cover&biz_tag=aweme_video&l=021705286859124fdbddc0200ff05007248357673d196867cfe4f",
        "videoPlayUrl": "https://api-hl.amemv.com/aweme/v1/play/?video_id=v0d00fg10000cm2bqm3c77u6qm8ecghg&line=1&file_id=ac6f7101e9b542d0931fca7e4c4087dd&sign=5e74d35b76e8e968397184ab072c3478&is_play_url=1&source=PackSourceEnum_FEED"
    },
    {
        "file_hash": "c99c6dfc4b7d3082b0e815bdc949d5e7",
        "create_time": 1704438533,
        "title": "#渔具用品 #钓鱼人就是这么疯狂 #爱生活爱钓鱼",
        "author": "尐丯孑",
        "thumbnail": "https://p26-sign.douyinpic.com/tos-cn-p-0015/o8uICIqAgArvAfjg98bC6lnBdql5EDAfwnrdCX~tplv-dy-360p.jpeg?x-expires=1706493600&x-signature=4qcxivWmaTQum2PZeQZETKJBNLo%3D&from=3213915784&s=PackSourceEnum_FEED&se=false&sc=origin_cover&biz_tag=aweme_video&l=021705286778536fdbddc0200ff05004b3325c82d4e059899674c",
        "videoPlayUrl": "https://api-hl.amemv.com/aweme/v1/play/?video_id=v0200fg10000cmbqlnbc77u8voanv020&line=1&file_id=ce002b6930874fb9b4863e394cc06d13&sign=c99c6dfc4b7d3082b0e815bdc949d5e7&is_play_url=1&source=PackSourceEnum_FEED"
    }
]