[
    {
        "file_hash": "e3541628cc094101506a78bf0d64bf8e",
        "create_time": 1703591536,
        "title": "神仙打架！法老、FreeOut、JonyJ #法老 #freeout #说唱 #jonyj #thomeboydontkill",
        "author": "SWAG嘻哈电台",
        "thumbnail": "https://p11-sign.douyinpic.com/tos-cn-p-0015/okAeLzIgN0AeODrvaL9sMib044nNABRITCnluK~tplv-dy-360p.jpeg?x-expires=1706518800&x-signature=HhV2m4xov6QBhiBThPOGzfBNxSg%3D&from=3213915784&s=PackSourceEnum_FEED&se=false&sc=origin_cover&biz_tag=aweme_video&l=021705310980458fdbddc0200ff0500191901312700ede2b36613",
        "videoPlayUrl": "https://api-hl.amemv.com/aweme/v1/play/?video_id=v0d00fg10000cm5bscrc77u6bmjp7c70&line=1&file_id=1696472448c74022a205301c8aa695c5&sign=e3541628cc094101506a78bf0d64bf8e&is_play_url=1&source=PackSourceEnum_FEED"
    },
    {
        "file_hash": "6cef6a245a61828eb13ef2ec5a75f134",
        "create_time": 1704161536,
        "title": "韩国最大在野党党首李在明出席活动时遇袭，颈部受伤流血",
        "author": "长江云新闻",
        "thumbnail": "https://p11-sign.douyinpic.com/tos-cn-p-0015/o03bQrgMbh6IcmMyAzBOIcITNhAiTBANTzAeyf~tplv-dy-360p.jpeg?x-expires=1706518800&x-signature=u9KXNMSYb9JvCYN9ab7Rku%2Bf9Kc%3D&from=3213915784&s=PackSourceEnum_FEED&se=false&sc=origin_cover&biz_tag=aweme_video&l=021705310697986fdbddc0200ff0500191901312700ede23afa74",
        "videoPlayUrl": "https://api-hl.amemv.com/aweme/v1/play/?video_id=v0d00fg10000cm9n1rjc77u0e33emjpg&line=1&file_id=0451d4bafe7843bd86b3cc63783c4a3c&sign=6cef6a245a61828eb13ef2ec5a75f134&is_play_url=1&source=PackSourceEnum_FEED"
    },
    {
        "file_hash": "454f60944054b2dd1036177df4a7aa34",
        "create_time": 1702732882,
        "title": "#老照片 #武汉 #汉阳 #城市记忆",
        "author": "蜡笔老新",
        "thumbnail": "https://p9-sign.douyinpic.com/tos-cn-p-0015/b61be07cc4484508966a9633d54409a7_1702732886~tplv-dy-360p.jpeg?x-expires=1706518800&x-signature=I1d4pbHTf25gUSKBJjeJoewCdF8%3D&from=3213915784&s=PackSourceEnum_FEED&se=false&sc=origin_cover&biz_tag=aweme_video&l=021705310808910fdbddc0200ff0500191901312700ede2831fb0",
        "videoPlayUrl": "https://api-hl.amemv.com/aweme/v1/play/?video_id=v0300fg10000cluq7ubc77ud36kcqaug&line=1&file_id=d033ec3e08a74086be5dac1fd8d65d6f&sign=454f60944054b2dd1036177df4a7aa34&is_play_url=1&source=PackSourceEnum_FEED"
    },
    {
        "file_hash": "c56c8d6981841f31a5a1ce560e695e61",
        "create_time": 1704845820,
        "title": "早教儿歌:兔子舞#好玩的汤姆猫 #儿童动画 #儿歌100首最火 #0到3岁早教儿歌 #亲子教育",
        "author": "好玩的汤姆猫",
        "thumbnail": "https://p9-sign.douyinpic.com/tos-cn-p-0015/o4WAmnCU68uWABCxXlfu9QgiCDQEbAEnQ6wiye~tplv-dy-360p.jpeg?x-expires=1706518800&x-signature=tcG%2BI7QyeOEVUx%2FDMg4O19Y9in0%3D&from=3213915784&s=PackSourceEnum_FEED&se=false&sc=origin_cover&biz_tag=aweme_video&l=021705310826877fdbddc0200ff0500cef9f97167bae896819222",
        "videoPlayUrl": "https://api-hl.amemv.com/aweme/v1/play/?video_id=v0200fg10000cmem1bjc77ufukpfe25g&line=1&file_id=7affb22884194390b8f190b3042a8404&sign=c56c8d6981841f31a5a1ce560e695e61&is_play_url=1&source=PackSourceEnum_FEED"
    },
    {
        "file_hash": "8f1c0168b99682f3ac02c1f21166d4ad",
        "create_time": 1703673744,
        "title": "短短两月连续3起死鱼潮，日本辟谣和排放核废水无关，你相信不？ #知识领航者 #日本 #核污水",
        "author": "璐哥看透彻",
        "thumbnail": "https://p26-sign.douyinpic.com/tos-cn-p-0015/oI7Co5BoDNW2kfFs5LJAAeaXWnQBQjMDP8fYHA~tplv-dy-360p.jpeg?x-expires=1706518800&x-signature=TW7FrdFDVqoV5HQgNEvX6FE680E%3D&from=3213915784&s=PackSourceEnum_FEED&se=false&sc=origin_cover&biz_tag=aweme_video&l=021705310732600fdbddc0200ff0500191901312700ede29f0765",
        "videoPlayUrl": "https://api-hl.amemv.com/aweme/v1/play/?video_id=v0d00fg10000cm5ua2rc77uftgq3667g&line=1&file_id=e72737410a4d4ce5820460ac98305b5b&sign=8f1c0168b99682f3ac02c1f21166d4ad&is_play_url=1&source=PackSourceEnum_FEED"
    },
    {
        "file_hash": "8e4f84daaf08088160650abeace182aa",
        "create_time": 1704892269,
        "title": "期待荣耀加速走向世界，打造新的“世界荣耀”！#荣耀magicos8.0 #荣耀魔法OS来了",
        "author": "Vista看天下",
        "thumbnail": "https://p11-sign.douyinpic.com/tos-cn-p-0015/ooGYAJQsfH5Ia8fpEfAyf92bBYlaszcI2IF1eA~tplv-dy-360p.jpeg?x-expires=1706518800&x-signature=ibrcArAHiOZn%2FytjApnHUlozuo4%3D&from=3213915784&s=PackSourceEnum_FEED&se=false&sc=origin_cover&biz_tag=aweme_video&l=021705310600834fdbddc020108005116444f48a0000028a664b6",
        "videoPlayUrl": "https://api-hl.amemv.com/aweme/v1/play/?video_id=v0200fg10000cmf90bjc77ubaqr6l7sg&line=1&file_id=fbf0d7abf6224ff7895584ef2177ec36&sign=8e4f84daaf08088160650abeace182aa&is_play_url=1&source=PackSourceEnum_FEED"
    },
    {
        "file_hash": "201f706a9bd7371ae0bf55c56c841f8a",
        "create_time": 1702699200,
        "title": "恋爱助攻型博主，属于是当代月老了",
        "author": "老外的世界",
        "thumbnail": "https://p9-sign.douyinpic.com/tos-cn-p-0015/d78a08da0cc74ac39676ec60068c9820_1702655905~tplv-dy-360p.jpeg?x-expires=1706518800&x-signature=vF1gT8ecXNU0adbQ6Ph8Z5UIB3I%3D&from=3213915784&s=PackSourceEnum_FEED&se=false&sc=origin_cover&biz_tag=aweme_video&l=021705311010937fdbddc0200ff050044ce8c7df0698f3531dc0e",
        "videoPlayUrl": "https://api-hl.amemv.com/aweme/v1/play/?video_id=v0300fg10000clu3upbc77u31jbfcrmg&line=1&file_id=a96fac05988a454e99b3c745e25a691a&sign=201f706a9bd7371ae0bf55c56c841f8a&is_play_url=1&source=PackSourceEnum_FEED"
    }
]