[
    {
        "file_hash": "6a6e31d966e86a6f05c7f01ca6635980",
        "create_time": 1703506672,
        "title": "孩子成绩差？阅读作文是关键，快来试试这套礼盒吧，仅需29元！",
        "author": "猿力教育图书专营店素养提升",
        "thumbnail": "https://p26-sign.douyinpic.com/tos-cn-p-0051/ok6BcDCnlBctZnu8DFCXlAIfDAhJbi1gONQEeJ~tplv-dy-360p.jpeg?x-expires=1706518800&x-signature=h6yZm7dB82yXRWcaGWAWJ926iz8%3D&from=3213915784&s=PackSourceEnum_FEED&se=false&sc=origin_cover&biz_tag=aweme_video&l=021705310892169fdbddc0200ff0500aed06d9cb392fb8e30511a",
        "videoPlayUrl": "https://api-hl.amemv.com/aweme/v1/play/?video_id=v02033g10000cm4n5s7og65h8e1dmrd0&line=1&file_id=81b8c7a2c6924cd984d4ab7f26bec52b&sign=6a6e31d966e86a6f05c7f01ca6635980&is_play_url=1&source=PackSourceEnum_FEED"
    },
    {
        "file_hash": "ccc35f6e15f5f6dbdb9784aaf4d29c08",
        "create_time": 1702985400,
        "title": "12月18日，河南郑州。30盏路灯为啥五年不亮?秋冬季学生摸黑上下学，居民:安全隐患太多。",
        "author": "河南都市报道",
        "thumbnail": "https://p9-sign.douyinpic.com/tos-cn-p-0015/ooLBPeggbAI2ObW2Bn9lSwBQVDANeAvtDVdANC~tplv-dy-360p.jpeg?x-expires=1706518800&x-signature=ERK5wr%2BD0PGAoVMouiFfl%2FB10Cg%3D&from=3213915784&s=PackSourceEnum_FEED&se=false&sc=origin_cover&biz_tag=aweme_video&l=021705310793427fdbddc0200ff05001ce38fdad3b7b5fda90bc4",
        "videoPlayUrl": "https://api-hl.amemv.com/aweme/v1/play/?video_id=v0d00fg10000cm0ldjrc77u10q8ndu80&line=1&file_id=52b7f5c27c9542eaa904d40f44d1ccfa&sign=ccc35f6e15f5f6dbdb9784aaf4d29c08&is_play_url=1&source=PackSourceEnum_FEED"
    },
    {
        "file_hash": "470a7c06026bf7275c59e2fdf934c040",
        "create_time": 1703326384,
        "title": "徽派工艺是否听说过，一生痴绝处，无梦到徽州。徽州的人文特色不仅包括徽派中堂，也包括徽州木雕工艺。#纯手工打造 #榫卯结构 #匠心制作 #民间手艺 #八仙桌",
        "author": "徽派手艺·博达家具",
        "thumbnail": "https://p6-sign.douyinpic.com/tos-cn-p-0015/og2wCIzAzg7j1BsGghNrASCGxf6AbyAAmCreUG~tplv-dy-360p.jpeg?x-expires=1706518800&x-signature=khNSnXmbYPL6iVitEqjKQJbWfuw%3D&from=3213915784&s=PackSourceEnum_FEED&se=false&sc=origin_cover&biz_tag=aweme_video&l=021705310899194fdbddc0200ff05001ce38fdad3b7b5fdbc434e",
        "videoPlayUrl": "https://api-hl.amemv.com/aweme/v1/play/?video_id=v0200fg10000cm3b3pjc77u2t04326lg&line=1&file_id=241dfbe7602a4085a5c607e4e0429a2a&sign=470a7c06026bf7275c59e2fdf934c040&is_play_url=1&source=PackSourceEnum_FEED"
    },
    {
        "file_hash": "ce98676a6ebdb3625c0ae6df400e6003",
        "create_time": 1702954911,
        "title": "兔兔祝大家开开心心莓烦恼🍓#萌宠出道计划 #兔子 #田园小萌宠",
        "author": "田园小萌宠",
        "thumbnail": "https://p9-sign.douyinpic.com/tos-cn-p-0015/oED74RuteyhjmDAcB2zBFOfIz6HwgALIuFBKAA~tplv-dy-360p.jpeg?x-expires=1706518800&x-signature=CfMaxCH%2BuBjjum6QzbFbFWYTW5k%3D&from=3213915784&s=PackSourceEnum_FEED&se=false&sc=origin_cover&biz_tag=aweme_video&l=021705310917398fdbddc0200ff05001ce38fdad3b7b5fd98ab9d",
        "videoPlayUrl": "https://api-hl.amemv.com/aweme/v1/play/?video_id=v0300fg10000cm0ge8rc77ubne6obrn0&line=1&file_id=8d0e260ac500423abc4dff35cc29a8f0&sign=ce98676a6ebdb3625c0ae6df400e6003&is_play_url=1&source=PackSourceEnum_FEED"
    },
    {
        "file_hash": "d9a31a320ff610faede0f389a67584ea",
        "create_time": 1703938742,
        "title": "",
        "author": "张小胖（你笑起来真好看)",
        "thumbnail": "https://p26-sign.douyinpic.com/tos-cn-p-0015/oAsAqWnf8k6tkFgDb9qYAB0AfJIQQDCbglAbDD~tplv-dy-360p.jpeg?x-expires=1706518800&x-signature=vZ1oQiv9wSdYxIl251Sul%2Bxbbew%3D&from=3213915784&s=PackSourceEnum_FEED&se=false&sc=origin_cover&biz_tag=aweme_video&l=02170531071098500000000000000000000ffff0a18659b9cde1b",
        "videoPlayUrl": "https://api-hl.amemv.com/aweme/v1/play/?video_id=v0300fg10000cm80lbbc77u2frchkt60&line=1&file_id=0b3b7d73fe784bdeb32c549226f91a0e&sign=d9a31a320ff610faede0f389a67584ea&is_play_url=1&source=PackSourceEnum_FEED"
    },
    {
        "file_hash": "59ca691af3a45b8bbe32d469e58e6ae8",
        "create_time": 1704800830,
        "title": "陪你度过漫长岁月@韩安冉Abby(直播🔍宋浩然)",
        "author": "宋浩然（奶爸版）",
        "thumbnail": "https://p3-sign.douyinpic.com/tos-cn-p-0015/oIDzAB8ihOqCIkfgyDsAQMpNGkOeBIAzdIAwNm~tplv-dy-360p.jpeg?x-expires=1706518800&x-signature=5o5FrlteunPeK3ZBAfIWxXk9Jqs%3D&from=3213915784&s=PackSourceEnum_FEED&se=false&sc=origin_cover&biz_tag=aweme_video&l=02170531061228100000000000000000000ffff0a9f8ed226f78c",
        "videoPlayUrl": "https://api-hl.amemv.com/aweme/v1/play/?video_id=v0300fg10000cmej443c77ue33a2dc00&line=1&file_id=1de76cb49fc8426583b8db2dd2c721a6&sign=59ca691af3a45b8bbe32d469e58e6ae8&is_play_url=1&source=PackSourceEnum_FEED"
    },
    {
        "file_hash": "66f76c119a7fcc184efb82927766d0a5",
        "create_time": 1703061628,
        "title": "12月18日，#马来西亚歌手许佳玲被粉丝杀害  ，事发前一天刚和男友拍完婚纱照，44岁嫌犯追求其多年，听说她要结婚行凶。",
        "author": "九派新闻",
        "thumbnail": "https://p26-sign.douyinpic.com/tos-cn-p-0015/oIABP22SBHPEAPUJXDLA4CfFg47VA800EBre6f~tplv-dy-360p.jpeg?x-expires=1706518800&x-signature=H1SBR1vOC5frtR7U4GWf8%2FIsvWE%3D&from=3213915784&s=PackSourceEnum_FEED&se=false&sc=origin_cover&biz_tag=aweme_video&l=021705310996252fdbddc0200ff05007248357673d1968643ab37",
        "videoPlayUrl": "https://api-hl.amemv.com/aweme/v1/play/?video_id=v0200fg10000cm1ag2bc77u6pfvqq2eg&line=1&file_id=7cdf15b4a8bd4717a3a70db6b8502311&sign=66f76c119a7fcc184efb82927766d0a5&is_play_url=1&source=PackSourceEnum_FEED"
    },
    {
        "file_hash": "ee05fdccc6195119376252fcf1b1fc49",
        "create_time": 1703491322,
        "title": "甘肃获捐款和中央部委下拨资金超18亿元",
        "author": "新华每日电讯",
        "thumbnail": "https://p26-sign.douyinpic.com/tos-cn-p-0015/oMT7CenB9AAu3A0wmJDQDbBANCngvW76ilbGce~tplv-dy-360p.jpeg?x-expires=1706518800&x-signature=F%2FexiO6aB7Qgkt0HhOx4IZj9wko%3D&from=3213915784&s=PackSourceEnum_FEED&se=false&sc=origin_cover&biz_tag=aweme_video&l=021705310734369fdbddc0200ff0500539d98e2bea7afe5cc45f5",
        "videoPlayUrl": "https://api-hl.amemv.com/aweme/v1/play/?video_id=v0200fg10000cm4jds3c77ubeofl7e1g&line=1&file_id=45530710cff0489d8b57cd443cf7b46a&sign=ee05fdccc6195119376252fcf1b1fc49&is_play_url=1&source=PackSourceEnum_FEED"
    },
    {
        "file_hash": "8eda34829c331721989889f16bdc3f2b",
        "create_time": 1703859248,
        "title": "快过年了，朋友聚会多了，这个陈皮白茶也天天爆火了，真的不错啊，兄弟们可以买回去尝尝3泡，不满意可以退#陈皮白茶 #送礼佳品 #茶叶 #白茶 #茶",
        "author": "【三只羊】臻选百货返场",
        "thumbnail": "https://p26-sign.douyinpic.com/tos-cn-p-0015/o86WCbjinB8Le4tBfdDqaeQGHCaQzwjAGs7LbA~tplv-dy-360p.jpeg?x-expires=1706518800&x-signature=zwbhV6L2C9CZcc35K%2B6DjXflVek%3D&from=3213915784&s=PackSourceEnum_FEED&se=false&sc=origin_cover&biz_tag=aweme_video&l=021705310874728fdbddc0200ff05001ce38fdad3b7b5fd9507d5",
        "videoPlayUrl": "https://api-hl.amemv.com/aweme/v1/play/?video_id=v0d00fg10000cm7d6vrc77u3csar3hs0&line=1&file_id=42cf4bdf2c8240fd943786f18e71f5b5&sign=8eda34829c331721989889f16bdc3f2b&is_play_url=1&source=PackSourceEnum_FEED"
    }
]