[
    {
        "file_hash": "b9da39964eda8e9f805ba0d7aae2956a",
        "create_time": 1704319200,
        "title": "有些痛只适合藏在心里。有些苦只留在回忆的路上，艰辛的过程自己知道就好；没必要把自己的苦楚，展示给别人看，别人看得只是热闹，心痛的只有自己#真人真唱 #抖音热歌 #合拍唱歌",
        "author": "彭大耳🎤",
        "thumbnail": "https://p26-sign.douyinpic.com/tos-cn-p-0015/osAeI3BlAgTIAG9cUDnzbBAAVKDnleDGWDNYtA~tplv-dy-360p.jpeg?x-expires=1706518800&x-signature=dC4L5Tu%2FWMIyIVQ%2BCWWSBbyQFgI%3D&from=3213915784&s=PackSourceEnum_FEED&se=false&sc=origin_cover&biz_tag=aweme_video&l=021705310959731fdbddc0200ff05004b5e2b79359642d2268f76",
        "videoPlayUrl": "https://api-hl.amemv.com/aweme/v1/play/?video_id=v0300fg10000cmam32jc77u1g7lkq0e0&line=1&file_id=a39a06d849344b4fb8773367a5ba6f51&sign=b9da39964eda8e9f805ba0d7aae2956a&is_play_url=1&source=PackSourceEnum_FEED"
    },
    {
        "file_hash": "ea783832bbd01a563d88111bede4fc0e",
        "create_time": 1702976979,
        "title": "《红唇》分享给大家#用音乐诉说情感 #好的音乐总能触动人的心灵 #伤感音乐 #就怕歌词入了心",
        "author": "情感音乐",
        "thumbnail": "https://p6-sign.douyinpic.com/tos-cn-p-0015/oEwA3BhKdlzmeqga70kjfVBAtNNA2yAAXdIK32~tplv-dy-360p.jpeg?x-expires=1706518800&x-signature=s1gKBhDfxWeiY9MozazPN0Jdv0E%3D&from=3213915784&s=PackSourceEnum_FEED&se=false&sc=origin_cover&biz_tag=aweme_video&l=021705310918467fdbddc0200ff05004b5e2b79359642d222616e",
        "videoPlayUrl": "https://api-hl.amemv.com/aweme/v1/play/?video_id=v0d00fg10000cm0lr5bc77udqdrm6qrg&line=1&file_id=a13a5e131c9f4beab093c6f7295c18f4&sign=ea783832bbd01a563d88111bede4fc0e&is_play_url=1&source=PackSourceEnum_FEED"
    },
    {
        "file_hash": "19b53df1ece262841eeae4d6620c1676",
        "create_time": 1705130684,
        "title": "1月12日，河南许昌。曹魏古城汉服配簪花“火”了，多家汉服店急招化妆师、造型师，妆造不断升级，只为让游客满意！#许昌 #曹魏古城 #汉服 #簪花 #传统文化",
        "author": "许昌时刻",
        "thumbnail": "https://p9-sign.douyinpic.com/tos-cn-p-0015/oUAVCljBf2nDAc89vDQFteADTdgbQ6rEEVoQXn~tplv-dy-360p.jpeg?x-expires=1706518800&x-signature=DXn5nJaer82eemh9iYAuyg6g6oo%3D&from=3213915784&s=PackSourceEnum_FEED&se=false&sc=origin_cover&biz_tag=aweme_video&l=021705310631348fdbddc0200ff05004b5e2b79359642d221667f",
        "videoPlayUrl": "https://api-hl.amemv.com/aweme/v1/play/?video_id=v0300fg10000cmh3jujc77uavql7m1k0&line=1&file_id=e84b4fc938254532b534945f2db0e401&sign=19b53df1ece262841eeae4d6620c1676&is_play_url=1&source=PackSourceEnum_FEED"
    },
    {
        "file_hash": "c90df6324a67bae4193f432916f86a04",
        "create_time": 1704383303,
        "title": "阿根廷科学家 用核技术给蚊子绝育",
        "author": "听陕西",
        "thumbnail": "https://p6-sign.douyinpic.com/tos-cn-p-0015/oMfQgKlQuSf0AJlwu8tsAKDaWnB0biAK9CBMOC~tplv-dy-360p.jpeg?x-expires=1706518800&x-signature=2CnPOlF3S%2BkUrMuFYDNrAYaDvmY%3D&from=3213915784&s=PackSourceEnum_FEED&se=false&sc=origin_cover&biz_tag=aweme_video&l=021705310672085fdbddc0200ff0500c7d782ca0c1ec128a27ba0",
        "videoPlayUrl": "https://api-hl.amemv.com/aweme/v1/play/?video_id=v0200fg10000cmbd6b3c77u0dqsiv5c0&line=1&file_id=4d6d1ac0fe9f4e7c80a81d760b06b16c&sign=c90df6324a67bae4193f432916f86a04&is_play_url=1&source=PackSourceEnum_FEED"
    },
    {
        "file_hash": "d0308e38272663542afac61b842d60bf",
        "create_time": 1703077620,
        "title": "#画室日常 #画画 #闻神 #久陆唐画室  #利闻安 @@久陆唐美术●赵宸 @梅溪 @",
        "author": "番盖炒茄蛋饭",
        "thumbnail": "https://p11-sign.douyinpic.com/tos-cn-p-0015/oEJLcCAB2Ag1Tx4ZHP7LLeCgmHBG4BDzfccAfK~tplv-dy-360p.jpeg?x-expires=1706518800&x-signature=xbSaQkvXaQxeQjKrH82wNS0SIHs%3D&from=3213915784&s=PackSourceEnum_FEED&se=false&sc=origin_cover&biz_tag=aweme_video&l=02170531077557900000000000000000000ffff0a2e378c39e5e5",
        "videoPlayUrl": "https://api-hl.amemv.com/aweme/v1/play/?video_id=v0300fg10000cm1ecbjc77u1bsm9pgk0&line=1&file_id=5bb08f2d8d4c4bb899df00d66e57b847&sign=d0308e38272663542afac61b842d60bf&is_play_url=1&source=PackSourceEnum_FEED"
    },
    {
        "file_hash": "7a6da46e9ccf7bbba5f2bfef10446f8e",
        "create_time": 1704883314,
        "title": "提问：男朋友在什么情况下才能真正入睡？\n#猫咪 #情侣 #情侣日常 #内容过于真实 #又是被小猫可爱到的一天",
        "author": "有趣-",
        "thumbnail": "https://p9-sign.douyinpic.com/tos-cn-p-0015/oM2slfsEHAPenemHPd5fKgAHE8flgAIHcUFQ5A~tplv-dy-360p.jpeg?x-expires=1706518800&x-signature=hHr%2Bh5AuHxXtGgFSyHYwMxzWlfw%3D&from=3213915784&s=PackSourceEnum_FEED&se=false&sc=origin_cover&biz_tag=aweme_video&l=021705310642709fdbddc0200ff05002eb6e04b3b3ccb9ad0663a",
        "videoPlayUrl": "https://api-hl.amemv.com/aweme/v1/play/?video_id=v0200fg10000cmf77pbc77u8vj5jvl7g&line=1&file_id=426606459b104ccf948457db95f5078b&sign=7a6da46e9ccf7bbba5f2bfef10446f8e&is_play_url=1&source=PackSourceEnum_FEED"
    },
    {
        "file_hash": "e46fd856dee8ba7853d255cc7cbcdccb",
        "create_time": 1705141415,
        "title": "福建非遗省会福州咚咚咚，蓝马夫跳好高啊还轻松丝滑，带头起飞开路打探回头牵马禀报。#庙会文化 #一起晒年味 #一种很新的新年祈福方式 #非遗文化里的年味有多浓 #过年习俗的文化输出有多火",
        "author": "林梵希",
        "thumbnail": "https://p6-sign.douyinpic.com/tos-cn-p-0015/oo026iHtfJyi3EMeDY9evMAgP2AI4CJYlEfWXg~tplv-dy-360p.jpeg?x-expires=1706518800&x-signature=tUFNJognEm6VPaLWUDV0wkyJprw%3D&from=3213915784&s=PackSourceEnum_FEED&se=false&sc=origin_cover&biz_tag=aweme_video&l=021705310572238fdbddc0200ff05006cbdf607bbf07aa5383fc6",
        "videoPlayUrl": "https://api-hl.amemv.com/aweme/v1/play/?video_id=v0300fg10000cmh5vnrc77u7b4ovim6g&line=1&file_id=a316a5f1e965429296c83ada204d363a&sign=e46fd856dee8ba7853d255cc7cbcdccb&is_play_url=1&source=PackSourceEnum_FEED"
    },
    {
        "file_hash": "95f98ab25fb4d2c87d3bac00bb669483",
        "create_time": 1703063369,
        "title": "一方有难 八方支援！喀什疆果果紧急筹备价值105万元物资驰援地震灾区。#一方有难八方支援这就是中国力量 #灾难无情人有情 @疆果果信息中心",
        "author": "疏附县融媒体中心（爱尚疏附）",
        "thumbnail": "https://p3-sign.douyinpic.com/tos-cn-p-0015/oMACCeAS7gY0nrCf9bmBqqABgNDPAmaA0lQbQM~tplv-dy-360p.jpeg?x-expires=1706518800&x-signature=B5s3x8MYpagHv9kyIu1ppStbjTQ%3D&from=3213915784&s=PackSourceEnum_FEED&se=false&sc=origin_cover&biz_tag=aweme_video&l=021705310994294fdbddc0200ff05004b5e2b79359642d21fcf5c",
        "videoPlayUrl": "https://api-hl.amemv.com/aweme/v1/play/?video_id=v0d00fg10000cm1atkjc77u0m4pm0q30&line=1&file_id=97ab15d761fb42d58e2b8c8d76049b96&sign=95f98ab25fb4d2c87d3bac00bb669483&is_play_url=1&source=PackSourceEnum_FEED"
    },
    {
        "file_hash": "f56c3ad1ec69aac3188a661a9410744e",
        "create_time": 1703289900,
        "title": "被你艾特的人 要回复一句爸爸.\n#周深璀璨冒险人 \n#我也是璀璨冒险人",
        "author": "Transparent.",
        "thumbnail": "https://p11-sign.douyinpic.com/tos-cn-p-0015/owSalAA7WFnHgJATQX0AB3ELkC8e9hfD4NECbU~tplv-dy-360p.jpeg?x-expires=1706518800&x-signature=3EIBlyNhGLAg0ndmCE712N8Lg8U%3D&from=3213915784&s=PackSourceEnum_FEED&se=false&sc=origin_cover&biz_tag=aweme_video&l=02170531098972400000000000000000000ffff0a1c602a568417",
        "videoPlayUrl": "https://api-hl.amemv.com/aweme/v1/play/?video_id=v0200fg10000cm2qb4rc77ueo8893vp0&line=1&file_id=a3bf47aea16f4351b589b447779e497d&sign=f56c3ad1ec69aac3188a661a9410744e&is_play_url=1&source=PackSourceEnum_FEED"
    },
    {
        "file_hash": "d08d6e3af6f3695502fd478fcd922bb5",
        "create_time": 1703147649,
        "title": "#阿厦 #拳击",
        "author": "二亮（搞笑分享）",
        "thumbnail": "https://p9-sign.douyinpic.com/tos-cn-p-0015/oganAMG7tBOfMknJBmAe3BIpQbeGLsDCnChcHA~tplv-dy-360p.jpeg?x-expires=1706518800&x-signature=7siDzwKjy5Pv6lFvYva%2B%2FoSwMl4%3D&from=3213915784&s=PackSourceEnum_FEED&se=false&sc=origin_cover&biz_tag=aweme_video&l=02170531077980700000000000000000000ffff0a1b2b9c8f5ed3",
        "videoPlayUrl": "https://api-hl.amemv.com/aweme/v1/play/?video_id=v0300fg10000cm1vgr3c77ue34sc9rj0&line=1&file_id=4e3b657f7b434edc979fe8cd59daa7dd&sign=d08d6e3af6f3695502fd478fcd922bb5&is_play_url=1&source=PackSourceEnum_FEED"
    },
    {
        "file_hash": "984e0ecdc830d94569a93e3325be6871",
        "create_time": 1703063211,
        "title": "如何培养一个内心强大的孩子，推荐这本漫画版#素书 ，让你的孩子情商和格局都让人赞叹！#育儿",
        "author": "熹阅书屋",
        "thumbnail": "https://p6-sign.douyinpic.com/tos-cn-p-0051/oUkBaOfw9EzolNBADpbQtPhuyCI9m2WgmCdTYA~tplv-dy-360p.jpeg?x-expires=1706518800&x-signature=QdpGn8GShfkKO3dL4zCDV%2FIGERo%3D&from=3213915784&s=PackSourceEnum_FEED&se=false&sc=origin_cover&biz_tag=aweme_video&l=021705310786288fdbddc0200ff05004c76836fa091ab7c3f0720",
        "videoPlayUrl": "https://api-hl.amemv.com/aweme/v1/play/?video_id=v03033g10000cm1atavog65ohvfm6ftg&line=1&file_id=08f8211ca49a4e3bb0113e31f2496ad7&sign=984e0ecdc830d94569a93e3325be6871&is_play_url=1&source=PackSourceEnum_FEED"
    }
]