[
    {
        "file_hash": "2f4be70ce9b54c2fc898977b09479ac9",
        "create_time": 1702885266,
        "title": "王心凌《大眠》如果不失去理智，爱情要从何开始#王心凌 #一开口就是全场大合唱 #你一票我一票王心凌80还唱跳 #王心凌大眠 #王心凌sugarhigh世界巡回演唱会",
        "author": "王心凌安利电台",
        "thumbnail": "https://p26-sign.douyinpic.com/tos-cn-p-0015/79aa8b429d6c425290046d20b5d78208_1702885270~tplv-dy-360p.jpeg?x-expires=1706518800&x-signature=lRDC4te65R2eCucAa9QQydTdCz4%3D&from=3213915784&s=PackSourceEnum_FEED&se=false&sc=origin_cover&biz_tag=aweme_video&l=02170531090166200000000000000000000ffff0a92f9e79faa6a",
        "videoPlayUrl": "https://api-hl.amemv.com/aweme/v1/play/?video_id=v0200fg10000clvvelbc77u4s6uk4k60&line=1&file_id=c09334403bc24732bbff3ba0d4c12d9b&sign=2f4be70ce9b54c2fc898977b09479ac9&is_play_url=1&source=PackSourceEnum_FEED"
    },
    {
        "file_hash": "389454564922812e1e02898a3541252a",
        "create_time": 1704768017,
        "title": "#法国总理博尔内辞职  ：比以往任何时候都更有必要推进改革，#博尔内继续留任直至新总理接任",
        "author": "看看新闻Knews",
        "thumbnail": "https://p11-sign.douyinpic.com/tos-cn-p-0015/ooI8clqAcBLwpg9jIuIAKeDAHsnlnnBIdbfxhN~tplv-dy-360p.jpeg?x-expires=1706518800&x-signature=pDzRPXNZslk5%2FS5oqmrMRGVrxh8%3D&from=3213915784&s=PackSourceEnum_FEED&se=false&sc=origin_cover&biz_tag=aweme_video&l=02170531100397500000000000000000000ffff0a92f9e74a8ccf",
        "videoPlayUrl": "https://api-hl.amemv.com/aweme/v1/play/?video_id=v0d00fg10000cmeb3sbc77u47cetajvg&line=1&file_id=33f091e6951d4725af68c9a0ad9b6055&sign=389454564922812e1e02898a3541252a&is_play_url=1&source=PackSourceEnum_FEED"
    },
    {
        "file_hash": "79c853338277589964a5d7687aa7123b",
        "create_time": 1704449384,
        "title": "此刻三生教育的意义具像化了 #三生教育 #云南",
        "author": "电竞熊猫酱",
        "thumbnail": "https://p9-sign.douyinpic.com/tos-cn-p-0015/oI5ZAPXh9CxtlUq51gB9qIolIAblDKzWCfWAfB~tplv-dy-360p.jpeg?x-expires=1706518800&x-signature=oLUkCDhcC0oL9mKsb7uqkqA60Uk%3D&from=3213915784&s=PackSourceEnum_FEED&se=false&sc=origin_cover&biz_tag=aweme_video&l=02170531093615900000000000000000000ffff0a93d74c34c881",
        "videoPlayUrl": "https://api-hl.amemv.com/aweme/v1/play/?video_id=v0200fg10000cmbtafrc77uads8eapsg&line=1&file_id=537f15fdb8354e2295ece2e911d4a9d6&sign=79c853338277589964a5d7687aa7123b&is_play_url=1&source=PackSourceEnum_FEED"
    },
    {
        "file_hash": "9bcfe504fd18bbfa6dad27330cfd155f",
        "create_time": 1705138764,
        "title": "NASA 预测，一个特别的小行星“贝努”直径约为492米，可能会在2182年9月24日冲向地球，威力相当于22颗原子弹的爆炸能量，完全可以摧毁一座大型城市",
        "author": "未知宇宙",
        "thumbnail": "https://p3-sign.douyinpic.com/tos-cn-p-0015/oMBVAFiheDuNk06UWgCS1I40IAgy9Fz9EikAfB~tplv-dy-360p.jpeg?x-expires=1706518800&x-signature=40EQeWOrw2z%2BIDeyrMRYPHCdZzA%3D&from=3213915784&s=PackSourceEnum_FEED&se=false&sc=origin_cover&biz_tag=aweme_video&l=02170531078434300000000000000000000ffff0a92f9e73b5cbb",
        "videoPlayUrl": "https://api-hl.amemv.com/aweme/v1/play/?video_id=v0300fg10000cmh5kh3c77u5gbnm8la0&line=1&file_id=3e522af3951d405f8ac3982aa181aff9&sign=9bcfe504fd18bbfa6dad27330cfd155f&is_play_url=1&source=PackSourceEnum_FEED"
    },
    {
        "file_hash": "5079653bac2c54f1208abef46e612649",
        "create_time": 1703649090,
        "title": "酸豆角加工场环境恶劣，产品销往深圳、东莞等多地 #食品安全",
        "author": "人民网深圳",
        "thumbnail": "https://p11-sign.douyinpic.com/tos-cn-p-0015/oYI8O9BlJiLn6e7kbv6n0gBANVAbAtvFZIleD5~tplv-dy-360p.jpeg?x-expires=1706518800&x-signature=8JjW02GVv7c2aOlG8odIj3RKaTI%3D&from=3213915784&s=PackSourceEnum_FEED&se=false&sc=origin_cover&biz_tag=aweme_video&l=02170531086689600000000000000000000ffff0a92f9e782d81e",
        "videoPlayUrl": "https://api-hl.amemv.com/aweme/v1/play/?video_id=v0d00fg10000cm5ptbbc77udrvj7mlng&line=1&file_id=bdd6e94a09274feca5f8a12ad4378f8d&sign=5079653bac2c54f1208abef46e612649&is_play_url=1&source=PackSourceEnum_FEED"
    },
    {
        "file_hash": "33dfd70c4fc3ac3d7d0b51ebead26a7d",
        "create_time": 1704441060,
        "title": "草原上的鬣狗",
        "author": "老六",
        "thumbnail": "https://p6-sign.douyinpic.com/tos-cn-p-0015/oEaAoEgDgmqB8TyFfpl9AFA8Q4v1clQx7j3UeN~tplv-dy-360p.jpeg?x-expires=1706518800&x-signature=YVkwNVgK78wczi74iBHHoMvR3gc%3D&from=3213915784&s=PackSourceEnum_FEED&se=false&sc=origin_cover&biz_tag=aweme_video&l=02170531063760600000000000000000000ffff0a92f9e742c2f4",
        "videoPlayUrl": "https://api-hl.amemv.com/aweme/v1/play/?video_id=v0d00fg10000cmbr9ovog65ue6npij80&line=1&file_id=721908a558ca431aa8a8a49ad78558c7&sign=33dfd70c4fc3ac3d7d0b51ebead26a7d&is_play_url=1&source=PackSourceEnum_FEED"
    },
    {
        "file_hash": "9289415935b76b2487b8fde2c1909083",
        "create_time": 1704356374,
        "title": "当东北虎被喊咪咪… #当东北虎被喊咪咪 #东北虎都变得陌生了",
        "author": "汉咖",
        "thumbnail": "https://p26-sign.douyinpic.com/tos-cn-p-0015/ocD9PlQsQ0yJRenVBgbOeYANClQtD8F4Amll1A~tplv-dy-360p.jpeg?x-expires=1706518800&x-signature=Ega%2Bsn53xpYfQItjYOXofz6zNNo%3D&from=3213915784&s=PackSourceEnum_FEED&se=false&sc=origin_cover&biz_tag=aweme_video&l=02170531094095400000000000000000000ffff0a92f9e7902f12",
        "videoPlayUrl": "https://api-hl.amemv.com/aweme/v1/play/?video_id=v0d00fg10000cmb6iu3c77u8614ulmjg&line=1&file_id=6dd98c836e3c4d43a309c79293a2613c&sign=9289415935b76b2487b8fde2c1909083&is_play_url=1&source=PackSourceEnum_FEED"
    },
    {
        "file_hash": "2b5e6c821619e0624c3971814bb56c22",
        "create_time": 1702946200,
        "title": "#孙晓云",
        "author": "当代名家作品交流",
        "thumbnail": "https://p26-sign.douyinpic.com/tos-cn-p-0015/oAhepzAAMaRNxOzABgNkfiADAKIoZvqLAHwy5A~tplv-dy-360p.jpeg?x-expires=1706518800&x-signature=puPuUv1SaIUANeKwHSqhTwYPwcs%3D&from=3213915784&s=PackSourceEnum_FEED&se=false&sc=origin_cover&biz_tag=aweme_video&l=02170531098628300000000000000000000ffff0a92f9e7d31730",
        "videoPlayUrl": "https://api-hl.amemv.com/aweme/v1/play/?video_id=v0300fg10000cm0ea5jc77uch3d418i0&line=1&file_id=486c235b8bc845dbb689432d02012287&sign=2b5e6c821619e0624c3971814bb56c22&is_play_url=1&source=PackSourceEnum_FEED"
    },
    {
        "file_hash": "d8a7a4a3c1041b2fb528ac603c5792ec",
        "create_time": 1704010111,
        "title": "大清十二帝 #办公室日常",
        "author": "江南办公室-祎偲文化",
        "thumbnail": "https://p26-sign.douyinpic.com/tos-cn-p-0015/o0PAWIIwgTBhE2hQHnAJAIZiITRk9wkiYtiZP~tplv-dy-360p.jpeg?x-expires=1706518800&x-signature=QCWenY5Xc10xnFD365%2BG5cEigHg%3D&from=3213915784&s=PackSourceEnum_FEED&se=false&sc=origin_cover&biz_tag=aweme_video&l=02170531062669100000000000000000000ffff0a93d6265114d6",
        "videoPlayUrl": "https://api-hl.amemv.com/aweme/v1/play/?video_id=v0300fg10000cm8i307og65ggksi9dh0&line=1&file_id=afb082ad58ab4bb0a4d1aa42efca88a1&sign=d8a7a4a3c1041b2fb528ac603c5792ec&is_play_url=1&source=PackSourceEnum_FEED"
    }
]