[
    {
        "file_hash": "e34488c214c88fed91540184cd2c5553",
        "create_time": 1704364200,
        "title": "小男孩帮奶奶整理菜园，勤快是勤快，但是……@李李吖",
        "author": "AHTV第一时间",
        "thumbnail": "https://p11-sign.douyinpic.com/tos-cn-p-0015/oMhfsAVBMaFOBDQL8LebBCA3Vz4J56QS75nWBe~tplv-dy-360p.jpeg?x-expires=1706518800&x-signature=g7xPU2dRuvmf70BiKBQgPX5wQFs%3D&from=3213915784&s=PackSourceEnum_FEED&se=false&sc=origin_cover&biz_tag=aweme_video&l=021705311027766fdbddc0200ff0500bc1675fcf697acf673fd99",
        "videoPlayUrl": "https://api-hl.amemv.com/aweme/v1/play/?video_id=v0d00fg10000cmb6efjc77ub4k42laug&line=1&file_id=6346bdd6ebad47e3bf13556ce0efa94a&sign=e34488c214c88fed91540184cd2c5553&is_play_url=1&source=PackSourceEnum_FEED"
    },
    {
        "file_hash": "7aded1732709ad0ed29169b78dfdbfdc",
        "create_time": 1703681891,
        "title": "12月26日，河南。萌娃拉着妈妈给女同学买衣服，奶声奶气说“我喜欢她”的小表情绝了，一定要看到最后#人类幼崽又开始作妖了 #可可爱爱古灵精怪",
        "author": "闪电新闻",
        "thumbnail": "https://p6-sign.douyinpic.com/tos-cn-p-0015/osnH2CiOlmAlCutMBSeDg9nTAjA9SVeQQnbVDB~tplv-dy-360p.jpeg?x-expires=1706518800&x-signature=OgYpOJoFpMqvSJ%2BhxSWfwp9Tvj8%3D&from=3213915784&s=PackSourceEnum_FEED&se=false&sc=origin_cover&biz_tag=aweme_video&l=02170531069330900000000000000000000ffff0a1b2c4c8a0c4a",
        "videoPlayUrl": "https://api-hl.amemv.com/aweme/v1/play/?video_id=v0300fg10000cm61ukrc77u99suqln3g&line=1&file_id=c6183b1a1f014063bfae27686e5a8769&sign=7aded1732709ad0ed29169b78dfdbfdc&is_play_url=1&source=PackSourceEnum_FEED"
    },
    {
        "file_hash": "8f220dc12bd781fd1e1db821e7f7fb51",
        "create_time": 1704787392,
        "title": "人类首次商业化太空葬启航，国内一公司太空葬停止线上服务",
        "author": "极目新闻",
        "thumbnail": "https://p3-sign.douyinpic.com/tos-cn-p-0015/oUcAAnkC1QAPINKvRwf25bEMAgDdzBnclQc9ae~tplv-dy-360p.jpeg?x-expires=1706518800&x-signature=qTgsEurfZp3a%2BEy%2Bx0NKzr5%2FcgI%3D&from=3213915784&s=PackSourceEnum_FEED&se=false&sc=origin_cover&biz_tag=aweme_video&l=02170531094266500000000000000000000ffff0a97da631b1527",
        "videoPlayUrl": "https://api-hl.amemv.com/aweme/v1/play/?video_id=v0200fg10000cmefr93c77uesttoh400&line=1&file_id=411b9098f9564529bbbdcc14d9ebda3b&sign=8f220dc12bd781fd1e1db821e7f7fb51&is_play_url=1&source=PackSourceEnum_FEED"
    },
    {
        "file_hash": "7debd224d12ea5d501be2feb4669062f",
        "create_time": 1704166791,
        "title": "#记录远嫁日常生活 2024新任务:  我想自由  我想赚钱  我想旅游   我想好好生活.#一拖三带娃的生活 #远嫁姑娘",
        "author": "小燕一家",
        "thumbnail": "https://p6-sign.douyinpic.com/tos-cn-p-0015/oInTfN6iQB8kTQDybb9hACdA3TpG4g4WElAOel~tplv-dy-360p.jpeg?x-expires=1706518800&x-signature=klYIRNdSQh5vHqT2DBO4%2F7ug4E4%3D&from=3213915784&s=PackSourceEnum_FEED&se=false&sc=origin_cover&biz_tag=aweme_video&l=02170531069699900000000000000000000ffff0a1b4f55970b29",
        "videoPlayUrl": "https://api-hl.amemv.com/aweme/v1/play/?video_id=v0d00fg10000cm9o9ojc77uepap7ss1g&line=1&file_id=c6b2033ab0464586803b220b2809d48d&sign=7debd224d12ea5d501be2feb4669062f&is_play_url=1&source=PackSourceEnum_FEED"
    },
    {
        "file_hash": "edd9ce7dc5767b646e56530a2398f3c4",
        "create_time": 1703325034,
        "title": "与其玩手机不如让她玩这个#发烧hifi #家庭影院#这条龙让我来接",
        "author": "润声大师一小牛",
        "thumbnail": "https://p9-sign.douyinpic.com/tos-cn-p-0015/oUbNWqAChBA8wreQCAs2mFA9Gy1gtlegnA9NDk~tplv-dy-360p.jpeg?x-expires=1706518800&x-signature=E8rt7IMewYfxm%2BilVcrJd%2BhjFwY%3D&from=3213915784&s=PackSourceEnum_FEED&se=false&sc=origin_cover&biz_tag=aweme_video&l=02170531089830300000000000000000000ffff0a186d912f502f",
        "videoPlayUrl": "https://api-hl.amemv.com/aweme/v1/play/?video_id=v0200fg10000cm3aqg3c77u9ma1gm1ng&line=1&file_id=b5906891b0df4a7db03923a3230d1f03&sign=edd9ce7dc5767b646e56530a2398f3c4&is_play_url=1&source=PackSourceEnum_FEED"
    },
    {
        "file_hash": "969fba035cb0a5911a006521ca01c30a",
        "create_time": 1704171600,
        "title": "有一种默契，叫心领神会却欲言又止。#脱轨大结局  #脱轨  #刘浩存  #林一",
        "author": "电视剧脱轨",
        "thumbnail": "https://p3-sign.douyinpic.com/tos-cn-p-0015/oYXACb3THgi9nUtIAdXDAXBDdAk8IbbflfUHgy~tplv-dy-360p.jpeg?x-expires=1706518800&x-signature=cOsOuaDM0B5seylTKll8d8ZaWb0%3D&from=3213915784&s=PackSourceEnum_FEED&se=false&sc=origin_cover&biz_tag=aweme_video&l=02170531086071000000000000000000000ffff0a9f7ddac1b566",
        "videoPlayUrl": "https://api-hl.amemv.com/aweme/v1/play/?video_id=v0300fg10000cm9na5rc77u5ovtq7v10&line=1&file_id=44f85762513b450b906b0e4929d536c5&sign=969fba035cb0a5911a006521ca01c30a&is_play_url=1&source=PackSourceEnum_FEED"
    },
    {
        "file_hash": "0e02fb609b77083a7288f3ec3ebb259c",
        "create_time": 1703325218,
        "title": "用父母的钱游历世界，和自己赚的能一样吗？#旅行 #答案在路上自由在风里 #Ai",
        "author": "去你的山河",
        "thumbnail": "https://p6-sign.douyinpic.com/tos-cn-p-0015/owqUDena9AAg3A0OHGDIu2BArBqgiXGfhlbSVu~tplv-dy-360p.jpeg?x-expires=1706518800&x-signature=xXgRgXo3L7SPTf2Tj4vyNtq1GB8%3D&from=3213915784&s=PackSourceEnum_FEED&se=false&sc=origin_cover&biz_tag=aweme_video&l=021705310988889fdbddc0200ff0500bc1675fcf697acf62a6ac9",
        "videoPlayUrl": "https://api-hl.amemv.com/aweme/v1/play/?video_id=v0300fg10000cm3ar3jc77ubl5rukl90&line=1&file_id=4d81cd49249c40719cebf8573110525c&sign=0e02fb609b77083a7288f3ec3ebb259c&is_play_url=1&source=PackSourceEnum_FEED"
    },
    {
        "file_hash": "02b0478ff19bdde3b28459ccb5366fca",
        "create_time": 1703312035,
        "title": "#一本正经胡说八道 #幽默风趣 #大实话 #个人爱好 #赚钱养家",
        "author": "俊豪 唱歌",
        "thumbnail": "https://p6-sign.douyinpic.com/tos-cn-p-0015/ogGA5qlLEe9pDEIA8nAMBQAnMgCNhmnBYTbCqf~tplv-dy-360p.jpeg?x-expires=1706518800&x-signature=Frp4rbZwi3L%2BB4JBckqgSau2%2BlQ%3D&from=3213915784&s=PackSourceEnum_FEED&se=false&sc=origin_cover&biz_tag=aweme_video&l=021705310900643fdbddc0200ff0500191901312700ede2336a27",
        "videoPlayUrl": "https://api-hl.amemv.com/aweme/v1/play/?video_id=v0d00fg10000cm37l13c77ufi1fj7km0&line=1&file_id=afb9dcedadcf47a3b5f85919f401b7d7&sign=02b0478ff19bdde3b28459ccb5366fca&is_play_url=1&source=PackSourceEnum_FEED"
    }
]