[
    {
        "file_hash": "1ebe71a4fef6d32b7e6dcef2940060e8",
        "create_time": 1704627029,
        "title": "宝总爷叔因为汪小姐产生分歧？希望爷俩赶紧和好！#繁花宝总爷叔闹掰了  #繁花",
        "author": "巨星火火",
        "thumbnail": "https://p3-sign.douyinpic.com/tos-cn-p-0015/o8rlZunGOAPcB9O1gIekmiCn4beum1oDAAB6aI~tplv-dy-360p.jpeg?x-expires=1706518800&x-signature=Gxhiv13SUx4L6U0G1TsFC4XW72M%3D&from=3213915784&s=PackSourceEnum_FEED&se=false&sc=origin_cover&biz_tag=aweme_video&l=021705310620066fdbddc0200ff050039029951e90f87fcc32119",
        "videoPlayUrl": "https://api-hl.amemv.com/aweme/v1/play/?video_id=v0200fg10000cmd8ju3c77ueavgqdei0&line=1&file_id=5428781b4b454681968550be89ae2e18&sign=1ebe71a4fef6d32b7e6dcef2940060e8&is_play_url=1&source=PackSourceEnum_FEED"
    },
    {
        "file_hash": "6dc17050d4440b4a7f390e7e210e5414",
        "create_time": 1703944857,
        "title": "下班回家赶紧给我们展示新技能#人类幼崽",
        "author": "养树日记",
        "thumbnail": "https://p26-sign.douyinpic.com/tos-cn-p-0015/oAClBQDeDVqeEqIADgiQkqTx9JOjnACRAbbQ6C~tplv-dy-360p.jpeg?x-expires=1706518800&x-signature=vjy1s8LgE57GOwqERXLQGhTdd90%3D&from=3213915784&s=PackSourceEnum_FEED&se=false&sc=origin_cover&biz_tag=aweme_video&l=021705310710095fdbddc0200ff05008bde4961213f9c9a7ab63f",
        "videoPlayUrl": "https://api-hl.amemv.com/aweme/v1/play/?video_id=v0200fg10000cm824lbc77u8kpq64tag&line=1&file_id=0fdabfce68824576a2d5e8d85444687a&sign=6dc17050d4440b4a7f390e7e210e5414&is_play_url=1&source=PackSourceEnum_FEED"
    },
    {
        "file_hash": "6e4894aad4eaf509191f801d1d528465",
        "create_time": 1705236706,
        "title": "还得靠他！尽管一度被森保一弃用，当球队陷入困境，南野拓实站了出来，用梅开二度稳住了局势！#日本vs越南 #南野拓实 #dou来亚洲杯 #唯有足球不可辜负 #卡塔尔亚洲杯",
        "author": "咪咕体育",
        "thumbnail": "https://p26-sign.douyinpic.com/tos-cn-p-0015/oU9A1oC1o86gABDe5ld29lgWhDgfbA6ngHscjP~tplv-dy-360p.jpeg?x-expires=1706518800&x-signature=gPHqKvvV4T5BbOvDHUxxZ4BsGEA%3D&from=3213915784&s=PackSourceEnum_FEED&se=false&sc=origin_cover&biz_tag=aweme_video&l=02170531062047100000000000000000000ffff0a1d6197d11f20",
        "videoPlayUrl": "https://api-hl.amemv.com/aweme/v1/play/?video_id=v0300fg10000cmhtgtjc77u7d3bptek0&line=1&file_id=b70555fbfe2f43dc8c42aa6d181c5fd1&sign=6e4894aad4eaf509191f801d1d528465&is_play_url=1&source=PackSourceEnum_FEED"
    },
    {
        "file_hash": "0a85b9f0368ae80c802d8ca55802ac5a",
        "create_time": 1703642842,
        "title": "电影《失孤》原型郭刚堂之子被拐案一审宣判 人贩子呼富吉被判死缓、限制减刑#热点追踪 #郭刚堂 #人贩子 #拐卖儿童",
        "author": "海报新闻",
        "thumbnail": "https://p6-sign.douyinpic.com/tos-cn-p-0015/o8eiFbR0nAel85bAULDh4FgtiBCg4AygKx9HYA~tplv-dy-360p.jpeg?x-expires=1706518800&x-signature=glnesGp%2BIaf161MTz6q%2Bo%2F%2F6SvU%3D&from=3213915784&s=PackSourceEnum_FEED&se=false&sc=origin_cover&biz_tag=aweme_video&l=021705310886199fdbddc0200ff05008bde4961213f9c9a6e4eaa",
        "videoPlayUrl": "https://api-hl.amemv.com/aweme/v1/play/?video_id=v0200fg10000cm5oc53c77u2n38rp480&line=1&file_id=4b3041ddd781496b989c2cc0dd757941&sign=0a85b9f0368ae80c802d8ca55802ac5a&is_play_url=1&source=PackSourceEnum_FEED"
    },
    {
        "file_hash": "0fd014a0a094386f99010babeac32292",
        "create_time": 1705114866,
        "title": "看呆，没想到还有藏在江里的博物馆！#重庆#白鹤梁#博物馆#小众旅游",
        "author": "摸娱妙妙屋",
        "thumbnail": "https://p26-sign.douyinpic.com/tos-cn-p-0015/o0LQFI2fQ4fMCoZBQqWDvBAUC7ePNabGSA4nzD~tplv-dy-360p.jpeg?x-expires=1706518800&x-signature=%2BL5OVKoYwJ%2B5KBFYY57Cynod2y0%3D&from=3213915784&s=PackSourceEnum_FEED&se=false&sc=origin_cover&biz_tag=aweme_video&l=021705311013799fdbddc0200ff05008bde4961213f9c9ab0137e",
        "videoPlayUrl": "https://api-hl.amemv.com/aweme/v1/play/?video_id=v0d00fg10000cmgvpqjc77u468rh8r30&line=1&file_id=18162b0148e84e488f5ff1a3db84a646&sign=0fd014a0a094386f99010babeac32292&is_play_url=1&source=PackSourceEnum_FEED"
    }
]