[
    {
        "file_hash": "73acb0763a91cd537b6e53ca7cd0961e",
        "create_time": 1704514260,
        "title": "",
        "author": "童我一起",
        "thumbnail": "https://p11-sign.douyinpic.com/tos-cn-p-0015/ockvYjWHaQg4M51LAFLg7Sj5f2Jk3fBGBPECAf~tplv-dy-360p.jpeg?x-expires=1706518800&x-signature=f3fsY%2BWcf8hKK5tyKRyJNORPFcc%3D&from=3213915784&s=PackSourceEnum_FEED&se=false&sc=origin_cover&biz_tag=aweme_video&l=021705310842022fdbddc0200ff05004b5e2b79359642d237894d",
        "videoPlayUrl": "https://api-hl.amemv.com/aweme/v1/play/?video_id=v0300fg10000cmcd5i3c77ucgb3nvu0g&line=1&file_id=9b66b8272dde4f2b835c4ecc6d0b1f4b&sign=73acb0763a91cd537b6e53ca7cd0961e&is_play_url=1&source=PackSourceEnum_FEED"
    },
    {
        "file_hash": "cb33e67c8b2fc8d4fcbb6a426cd4d9b4",
        "create_time": 1704440346,
        "title": "你们学会了吗#戏精上线 #一学就会系列 #大头来啦",
        "author": "大头来啦",
        "thumbnail": "https://p11-sign.douyinpic.com/tos-cn-p-0015/oEiXvngIDznAlDue76BeSlsHOWRA9AB8IQhqbb~tplv-dy-360p.jpeg?x-expires=1706518800&x-signature=Wu8W7%2FtgyFVk6TnPUtl4aHcehTM%3D&from=3213915784&s=PackSourceEnum_FEED&se=false&sc=origin_cover&biz_tag=aweme_video&l=021705310672802fdbddc02002805380000000000000025aa3c57",
        "videoPlayUrl": "https://api-hl.amemv.com/aweme/v1/play/?video_id=v0300fg10000cmbr3src77u74fktnang&line=1&file_id=90a46c0ded674d948b7b1fde05656426&sign=cb33e67c8b2fc8d4fcbb6a426cd4d9b4&is_play_url=1&source=PackSourceEnum_FEED"
    },
    {
        "file_hash": "5a36a745f5d7f94a01808899700b8640",
        "create_time": 1704533580,
        "title": "一个袋子扔海里 海水立马变淡水 甚至还能无限续杯 ？ #海水 #科技改变生活",
        "author": "科技昕知",
        "thumbnail": "https://p6-sign.douyinpic.com/tos-cn-p-0015/o8NjI2ByAgoI0SeLqhlaNAsAZ4UzzfOCIDWAyA~tplv-dy-360p.jpeg?x-expires=1706518800&x-signature=rLT%2BH6SawPyYv3U6oV70UXXcoOQ%3D&from=3213915784&s=PackSourceEnum_FEED&se=false&sc=origin_cover&biz_tag=aweme_video&l=02170531094898300000000000000000000ffff0a1c602a2b369f",
        "videoPlayUrl": "https://api-hl.amemv.com/aweme/v1/play/?video_id=v0300fg10000cmcg2s3c77ue6ou9dc5g&line=1&file_id=3b7efb007e3e476ab0711bb061130a97&sign=5a36a745f5d7f94a01808899700b8640&is_play_url=1&source=PackSourceEnum_FEED"
    },
    {
        "file_hash": "8e3f66eb22f909af13071ab17befae56",
        "create_time": 1703839981,
        "title": "被人当众表白不可怕，可怕的是认错表白对象！#鸣龙少年",
        "author": "鸣龙少年",
        "thumbnail": "https://p9-sign.douyinpic.com/tos-cn-p-0015/oEx8OfIQQBAL57Ge5pLGaO8eI3dFbBA2GCq7B0~tplv-dy-360p.jpeg?x-expires=1706518800&x-signature=S9MSjfwpT%2FuqfIf3I6HtU8RPIkQ%3D&from=3213915784&s=PackSourceEnum_FEED&se=false&sc=origin_cover&biz_tag=aweme_video&l=021705310879584fdbddc0200ff05004b5e2b79359642d2baf1ac",
        "videoPlayUrl": "https://api-hl.amemv.com/aweme/v1/play/?video_id=v0300fg10000cm6l7f7og65t6ri5u720&line=1&file_id=7f4866df61184f9da79247f8aa4c56bb&sign=8e3f66eb22f909af13071ab17befae56&is_play_url=1&source=PackSourceEnum_FEED"
    },
    {
        "file_hash": "78a59a0677b80992c7de8c0a1231030d",
        "create_time": 1703156908,
        "title": "“在错的时间，遇到对的人”#情感 #真实故事 #民间故事 #纪实故事会 #听人间故事品百味人生",
        "author": "卡门·故事会",
        "thumbnail": "https://p6-sign.douyinpic.com/tos-cn-p-0015/oYNywBzpIABhOiOptAAgAvlfKgEcxcL1MbBeDH~tplv-dy-360p.jpeg?x-expires=1706518800&x-signature=cWn4X0eMfKOeVxOsotr9Ltepx5g%3D&from=3213915784&s=PackSourceEnum_FEED&se=false&sc=origin_cover&biz_tag=aweme_video&l=021705310900680fdbddc020024062a000000000000004699d6fe",
        "videoPlayUrl": "https://api-hl.amemv.com/aweme/v1/play/?video_id=v0300fg10000cm21lebc77ue0j9aibe0&line=1&file_id=0d5c180f2c114a60945fcd93775270b9&sign=78a59a0677b80992c7de8c0a1231030d&is_play_url=1&source=PackSourceEnum_FEED"
    },
    {
        "file_hash": "9b916289b3fdddfd434d00535526070c",
        "create_time": 1704417341,
        "title": "#每日一笑生活美妙 #阳光爱笑的男孩 #表情丰富 #传承弘扬中国传统文化 黄梅戏经典唱段",
        "author": "宋金逗",
        "thumbnail": "https://p11-sign.douyinpic.com/tos-cn-p-0015/oQ46FzyaIADCwiAAAAUhmCjiMICeghfryXB1vt~tplv-dy-360p.jpeg?x-expires=1706518800&x-signature=lhVK3KePL7nAyWnqfG9LUndVffE%3D&from=3213915784&s=PackSourceEnum_FEED&se=false&sc=origin_cover&biz_tag=aweme_video&l=021705310677885fdbddc0200ff05004b5e2b79359642d2ea6103",
        "videoPlayUrl": "https://api-hl.amemv.com/aweme/v1/play/?video_id=v0300fg10000cmbl31bc77u0oddc52ng&line=1&file_id=f6f4d3bf9a454d23bb81ba7fb96251ac&sign=9b916289b3fdddfd434d00535526070c&is_play_url=1&source=PackSourceEnum_FEED"
    },
    {
        "file_hash": "8aa1b3b4e05a92ef71150e89d3842282",
        "create_time": 1704966228,
        "title": "“车位既然卖给我了，为啥又卖给别人！”1月10日，轩苑尚品B区业主谭女士向华商报-二三里资讯反映，她买的地下车位因为小区物业的失误再次售卖给别人。",
        "author": "宝鸡二三里",
        "thumbnail": "https://p6-sign.douyinpic.com/tos-cn-p-0015/ooLuGLfCUCjQ2Ae7GB5QbFWCWPBqAgbMmeunD0~tplv-dy-360p.jpeg?x-expires=1706518800&x-signature=goP12ygLowcZtoE6hHqGuRAm9w4%3D&from=3213915784&s=PackSourceEnum_FEED&se=false&sc=origin_cover&biz_tag=aweme_video&l=021705310638970fdbddc0200ff05004b5e2b79359642d2577de7",
        "videoPlayUrl": "https://api-hl.amemv.com/aweme/v1/play/?video_id=v0300fg10000cmfrf53c77u30jelpht0&line=1&file_id=88b63e51aa01454489a30d0066014a25&sign=8aa1b3b4e05a92ef71150e89d3842282&is_play_url=1&source=PackSourceEnum_FEED"
    },
    {
        "file_hash": "2bbe4cac27c30c6d17a30abec054a184",
        "create_time": 1703458188,
        "title": "#早安 #游泳健身",
        "author": "沐曦.",
        "thumbnail": "https://p6-sign.douyinpic.com/tos-cn-p-0015/ogPWVdByQDj23ObALtlAInYBiAppDqmbgA6ee9~tplv-dy-360p.jpeg?x-expires=1706518800&x-signature=XJa95C%2B3CBapLnFLsU%2FcJLzchkY%3D&from=3213915784&s=PackSourceEnum_FEED&se=false&sc=origin_cover&biz_tag=aweme_video&l=021705310753080fdbddc0200ff05004b5e2b79359642d24a0080",
        "videoPlayUrl": "https://api-hl.amemv.com/aweme/v1/play/?video_id=v0300fg10000cm4baljc77ueul7dahsg&line=1&file_id=7758b656e1c04803b55b389912418165&sign=2bbe4cac27c30c6d17a30abec054a184&is_play_url=1&source=PackSourceEnum_FEED"
    },
    {
        "file_hash": "65d1098e510c3c77496249dd0b2441ef",
        "create_time": 1704706395,
        "title": "哈尔滨索菲亚教堂网红蛋糕供不应求，预约已经排到1月底",
        "author": "陕视新闻",
        "thumbnail": "https://p11-sign.douyinpic.com/tos-cn-p-0015/o0D0IDwb8VgIeAA95wmlHCeEJjInzCgAAaB0bB~tplv-dy-360p.jpeg?x-expires=1706518800&x-signature=yC97DhgtKMaOlUPULEiDGGh3S8w%3D&from=3213915784&s=PackSourceEnum_FEED&se=false&sc=origin_cover&biz_tag=aweme_video&l=021705310835240fdbddc0200ff05004b5e2b79359642d2f70346",
        "videoPlayUrl": "https://api-hl.amemv.com/aweme/v1/play/?video_id=v0300fg10000cmds2ebc77u0hufpl04g&line=1&file_id=9efcfcc5fb7441488617fdb96c9ac6b3&sign=65d1098e510c3c77496249dd0b2441ef&is_play_url=1&source=PackSourceEnum_FEED"
    },
    {
        "file_hash": "bbf9aeda96c552c336ad053009ab0b5c",
        "create_time": 1704865460,
        "title": "东北人卖糖葫芦另类吆喝！“卖不完不让回家，可邪乎了！”😂#街头随拍 #冰糖葫芦 #东北男人的家庭地位",
        "author": "吉林日报",
        "thumbnail": "https://p6-sign.douyinpic.com/tos-cn-p-0015/o0qUQiN9QAYipsndA3ge6nrlQbL7lmDBOC6YeA~tplv-dy-360p.jpeg?x-expires=1706518800&x-signature=6YXUB3PTlRNSIYXTwZl%2FrBpWSGY%3D&from=3213915784&s=PackSourceEnum_FEED&se=false&sc=origin_cover&biz_tag=aweme_video&l=021705310939128fdbddc0200ff050070f52370c8ad3345893400",
        "videoPlayUrl": "https://api-hl.amemv.com/aweme/v1/play/?video_id=v0d00fg10000cmf2t9jc77uca9rmtt8g&line=1&file_id=c1800eac8e1547c28c71c88d65b29611&sign=bbf9aeda96c552c336ad053009ab0b5c&is_play_url=1&source=PackSourceEnum_FEED"
    }
]