[
    {
        "file_hash": "d910695a2e2aa871be3b86027a62f704",
        "create_time": 1704425511,
        "title": "高铁车票怎么一分钱不花？！保姆级教程来啦！#高铁 #保姆级教程 #坐高铁 #坐高铁攻略 #攻略",
        "author": "余儿宝（发光版）",
        "thumbnail": "https://p9-sign.douyinpic.com/tos-cn-p-0015/osCAKb2u7gt9njZQBJGDA0BCeAl8QOKelb3o8U~tplv-dy-360p.jpeg?x-expires=1706493600&x-signature=Ye8YJLC%2Fi7BHbHZx858LVKvhZzc%3D&from=3213915784&s=PackSourceEnum_FEED&se=false&sc=origin_cover&biz_tag=aweme_video&l=021705287019355fdbddc0200ff0500bc273f266bb75326e8d2b0",
        "videoPlayUrl": "https://api-hl.amemv.com/aweme/v1/play/?video_id=v0200fg10000cmbmrt3c77u1l3ojrdig&line=1&file_id=47b7cbf8c844474fb3b3d88a22e1936e&sign=d910695a2e2aa871be3b86027a62f704&is_play_url=1&source=PackSourceEnum_FEED"
    },
    {
        "file_hash": "af29c9d544b1a40541e61edf623a80c3",
        "create_time": 1704607904,
        "title": "小虎牙今天有心事不愿意配合，只打了几个哇哇😂#生个孩子就是为了玩的 @晶晶和小虎牙",
        "author": "虎牙哥晶晶夫妇",
        "thumbnail": "https://p26-sign.douyinpic.com/tos-cn-p-0015/osXyK0AKaABCBeMHgIfNzQNz3NM6TKShAABiaI~tplv-dy-360p.jpeg?x-expires=1706493600&x-signature=2RG1Re3grJ34gcukPC69jGW%2BoWM%3D&from=3213915784&s=PackSourceEnum_FEED&se=false&sc=origin_cover&biz_tag=aweme_video&l=021705287013237fdbddc0200ff0500bc273f266bb75326c09292",
        "videoPlayUrl": "https://api-hl.amemv.com/aweme/v1/play/?video_id=v0d00fg10000cmd40rjc77u2bj197q6g&line=1&file_id=67fadd88e2954286aca312f04d4a4cf1&sign=af29c9d544b1a40541e61edf623a80c3&is_play_url=1&source=PackSourceEnum_FEED"
    },
    {
        "file_hash": "ec257a6b5c33b3ec4be30dacd007335d",
        "create_time": 1705200431,
        "title": "醴陵首届半马第一名冲线#醴陵 #马拉松",
        "author": "醴陵发布",
        "thumbnail": "https://p26-sign.douyinpic.com/tos-cn-p-0015/ocrwjAbtDoQEeS9OA6giQu8DsHlXeljzn4A0Bg~tplv-dy-360p.jpeg?x-expires=1706493600&x-signature=6gDbWc6PCHrgvzkDH4F49o9xY6A%3D&from=3213915784&s=PackSourceEnum_FEED&se=false&sc=origin_cover&biz_tag=aweme_video&l=021705286895654fdbddc0200ff0500bc273f266bb753261ec4ad",
        "videoPlayUrl": "https://api-hl.amemv.com/aweme/v1/play/?video_id=v0300fg10000cmhklujc77u8u2r2n5vg&line=1&file_id=f3f133b1456242e9a03e6806f0d01a0c&sign=ec257a6b5c33b3ec4be30dacd007335d&is_play_url=1&source=PackSourceEnum_FEED"
    },
    {
        "file_hash": "29e49f35cdfb3ecf3387b7edadb4a7dc",
        "create_time": 1704793504,
        "title": "结局太精彩了，点击上方《红色按钮》可免费看完整版#一定要看到最后 -刑警队长",
        "author": "爱吃大西瓜",
        "thumbnail": "https://p11-sign.douyinpic.com/tos-cn-p-0015/o4062WmtdUeIDKetCAQ9ViZef4QAQLQGCkIEOF~tplv-dy-360p.jpeg?x-expires=1706493600&x-signature=OPfDLlf99tl5ByMiakdS49ebVbk%3D&from=3213915784&s=PackSourceEnum_FEED&se=false&sc=origin_cover&biz_tag=aweme_video&l=02170528707160700000000000000000000ffff0a1d61973f0411",
        "videoPlayUrl": "https://api-hl.amemv.com/aweme/v1/play/?video_id=v0200fg10000cmehb7vog65olnrh4ajg&line=1&file_id=e1262d90727c450d97fd0c5d6c87b211&sign=29e49f35cdfb3ecf3387b7edadb4a7dc&is_play_url=1&source=PackSourceEnum_FEED"
    },
    {
        "file_hash": "40d73fa227cc4d5d60e03fabd8def4b4",
        "create_time": 1704189754,
        "title": "真是🈶太多太多的无奈，怎样才能两全齐美呢",
        "author": "茶芙茶可(王楼店)",
        "thumbnail": "https://p11-sign.douyinpic.com/tos-cn-p-0015/oMhzTAfK9NCwnDQlek8bABgHV3l03CQ19FnKAm~tplv-dy-360p.jpeg?x-expires=1706493600&x-signature=Blp4LLFwAwfFHkD4N%2Fckpzdqd8I%3D&from=3213915784&s=PackSourceEnum_FEED&se=false&sc=origin_cover&biz_tag=aweme_video&l=021705286797544fdbddc0200ff0500bc273f266bb75326fe78e0",
        "videoPlayUrl": "https://api-hl.amemv.com/aweme/v1/play/?video_id=v0d00fg10000cm9trpjc77u2mm37vagg&line=1&file_id=208aefb152c84371919f6b4dac429ac7&sign=40d73fa227cc4d5d60e03fabd8def4b4&is_play_url=1&source=PackSourceEnum_FEED"
    },
    {
        "file_hash": "2a010db035e64ad8e43131a611ecf248",
        "create_time": 1703747650,
        "title": "“1人1年赢牌友70多万”央视揭秘打麻将只赢不输的套路",
        "author": "央视网快看",
        "thumbnail": "https://p9-sign.douyinpic.com/tos-cn-p-0015/owBye3zIxGptA1DBNBgbDMAhAmCfIAylAIgAEa~tplv-dy-360p.jpeg?x-expires=1706493600&x-signature=rW4vkSIXoYPw7iR7DntC5ACpslY%3D&from=3213915784&s=PackSourceEnum_FEED&se=false&sc=origin_cover&biz_tag=aweme_video&l=021705287038135fdbddc0200ff0500bc273f266bb75326f36fab",
        "videoPlayUrl": "https://api-hl.amemv.com/aweme/v1/play/?video_id=v0300fg10000cm6i00bc77u20mo6aqj0&line=1&file_id=56e30da6ae5f4362ac18d48ff873631f&sign=2a010db035e64ad8e43131a611ecf248&is_play_url=1&source=PackSourceEnum_FEED"
    },
    {
        "file_hash": "5e9db290311c09fce4f80e684c831e4b",
        "create_time": 1705056192,
        "title": "不要小瞧一个emo男孩的决心#健身 #撸铁男孩 #自律 #要做一个猛男 #健身氮泵",
        "author": "阿尔法α健身",
        "thumbnail": "https://p6-sign.douyinpic.com/tos-cn-p-0015/oo89Foh2qZzIHhD8AJbeFmgIztAWfABtvBglRI~tplv-dy-360p.jpeg?x-expires=1706493600&x-signature=VEQ0TB%2Bi5YxlM2QiWU9DR2zOwfo%3D&from=3213915784&s=PackSourceEnum_FEED&se=false&sc=origin_cover&biz_tag=aweme_video&l=021705286732044fdbddc0200ff0500a7656b6d24310fc7d0b06f",
        "videoPlayUrl": "https://api-hl.amemv.com/aweme/v1/play/?video_id=v0300fg10000cmghdvbc77u5pidavdu0&line=1&file_id=d415a37066fd49eaad9ea8e0b1f94598&sign=5e9db290311c09fce4f80e684c831e4b&is_play_url=1&source=PackSourceEnum_FEED"
    }
]