[
    {
        "file_hash": "87ca72733b04b66df80e944f9a4a04c9",
        "create_time": 1704198845,
        "title": "20天的小崽崽#仓鼠宝宝的日常 #金丝熊日常 #养鼠日常 #仓鼠熊 #萌宠萌不萌",
        "author": "樱都的小熊🐻（出熊🐻）",
        "thumbnail": "https://p6-sign.douyinpic.com/tos-cn-p-0015/o8CnAoHbD08CQY8glWAAeBAbXKV9BiAloQAftQ~tplv-dy-360p.jpeg?x-expires=1706493600&x-signature=bq1IGcGNoWCWh1WY7hehmAgICuM%3D&from=3213915784&s=PackSourceEnum_FEED&se=false&sc=origin_cover&biz_tag=aweme_video&l=02170528678994400000000000000000000ffff0a1a2b98e61cfb",
        "videoPlayUrl": "https://api-hl.amemv.com/aweme/v1/play/?video_id=v0200fg10000cma058jc77u5aursg000&line=1&file_id=aa850afa2294471ba2f71b6980384595&sign=87ca72733b04b66df80e944f9a4a04c9&is_play_url=1&source=PackSourceEnum_FEED"
    },
    {
        "file_hash": "4c66f203033593a5287e25ed853673b6",
        "create_time": 1703754129,
        "title": "体测热门跑鞋大盘点#跑鞋 #中考体测选鞋 #跑鞋测评 #学生党 #鞋狗的日常",
        "author": "杰哥聊鞋",
        "thumbnail": "https://p6-sign.douyinpic.com/tos-cn-p-0015/oEBAYmfxyIz64HAAxJsgNch0yNIMeT0AD9ZpOB~tplv-dy-360p.jpeg?x-expires=1706493600&x-signature=cLF6PLNIzWEeTM%2BPCISkwIJGxcE%3D&from=3213915784&s=PackSourceEnum_FEED&se=false&sc=origin_cover&biz_tag=aweme_video&l=02170528677187400000000000000000000ffff0a962f0c9fdfa2",
        "videoPlayUrl": "https://api-hl.amemv.com/aweme/v1/play/?video_id=v0300fg10000cm6jhs3c77u7q76hhi4g&line=1&file_id=06c6c412576e410dbc6653f4bc5eca82&sign=4c66f203033593a5287e25ed853673b6&is_play_url=1&source=PackSourceEnum_FEED"
    },
    {
        "file_hash": "37c3c5aaaaefece4d3ca0b0c3f3b6972",
        "create_time": 1704875007,
        "title": "#21岁中国女芭蕾舞演员在德国失联5天，知情人：总领馆已联系警方和家人",
        "author": "澎湃新闻",
        "thumbnail": "https://p11-sign.douyinpic.com/tos-cn-p-0015/okKDAYeD9CXb3PESVgClDQtnQA6lsXnldpAAeB~tplv-dy-360p.jpeg?x-expires=1706493600&x-signature=mf%2Fd2IvlkoO0%2FVqD5BeabaKciHc%3D&from=3213915784&s=PackSourceEnum_FEED&se=false&sc=origin_cover&biz_tag=aweme_video&l=02170528700620100000000000000000000ffff0a1a2b9869a511",
        "videoPlayUrl": "https://api-hl.amemv.com/aweme/v1/play/?video_id=v0200fg10000cmf57qbc77ubuiupn1kg&line=1&file_id=26a5700bc4f6473d8da0cceca1ff2c58&sign=37c3c5aaaaefece4d3ca0b0c3f3b6972&is_play_url=1&source=PackSourceEnum_FEED"
    },
    {
        "file_hash": "a00f77891cfc2db2eb65672cfe7c8c57",
        "create_time": 1703407607,
        "title": "痛别！一份早餐坚持27年卖5毛钱的\"早餐奶奶\"去世，享年90岁",
        "author": "封面新闻",
        "thumbnail": "https://p3-sign.douyinpic.com/tos-cn-p-0015/o4ikfJCOQDHehkZB93LBPnfCDAlDEyhbAAo887~tplv-dy-360p.jpeg?x-expires=1706493600&x-signature=58c3etFmJ0oAs8Hc%2BCCMlYbsfFY%3D&from=3213915784&s=PackSourceEnum_FEED&se=false&sc=origin_cover&biz_tag=aweme_video&l=021705286970698fdbddc0200ff0500be2b99ffa6fbc707be5778",
        "videoPlayUrl": "https://api-hl.amemv.com/aweme/v1/play/?video_id=v0200fg10000cm3uvp3c77u2d07ti3jg&line=1&file_id=62bf337f74c3493991296ceefdff687c&sign=a00f77891cfc2db2eb65672cfe7c8c57&is_play_url=1&source=PackSourceEnum_FEED"
    },
    {
        "file_hash": "8d5dfc602084c50f7119882de3796a99",
        "create_time": 1704859321,
        "title": "广西为了招待好东北老铁有多拼？广西夏威夷果、咸豆腐脑、甘蔗摆盘等通通整上…阿桂，你让我陌生了！#广西dou知道 #意不意外",
        "author": "新闻夜班",
        "thumbnail": "https://p9-sign.douyinpic.com/tos-cn-p-0015/oAD9Zzge38DQfBnwBgb48DACJagUrDxuAhnlFA~tplv-dy-360p.jpeg?x-expires=1706493600&x-signature=y8Sus24BvJQsgYs8gD%2FEiGIZ9ZM%3D&from=3213915784&s=PackSourceEnum_FEED&se=false&sc=origin_cover&biz_tag=aweme_video&l=02170528700824900000000000000000000ffff0a1a2b987216f4",
        "videoPlayUrl": "https://api-hl.amemv.com/aweme/v1/play/?video_id=v0200fg10000cmf1dbjc77udod0po570&line=1&file_id=dc9c2144d9fe46d69885925486d24124&sign=8d5dfc602084c50f7119882de3796a99&is_play_url=1&source=PackSourceEnum_FEED"
    },
    {
        "file_hash": "39aa674bda083d6fa258aa3c2c10059e",
        "create_time": 1703942780,
        "title": "小伙与领导女儿相识3个月后闪婚，女方陪嫁房、车、钱后被指不做家务还被禁止找家政、出国旅游，因观念差距大法院判决离婚 #小伙娶领导女儿因观念差距大闪离",
        "author": "豫视频",
        "thumbnail": "https://p9-sign.douyinpic.com/tos-cn-p-0015/o8IX09BlBkQGpeHAWiunngAANbAbApeL1I6mDB~tplv-dy-360p.jpeg?x-expires=1706493600&x-signature=hJM7ld3zcVptU3Bbu8djuRIfcFk%3D&from=3213915784&s=PackSourceEnum_FEED&se=false&sc=origin_cover&biz_tag=aweme_video&l=02170528694652300000000000000000000ffff0a1a2b981dcd79",
        "videoPlayUrl": "https://api-hl.amemv.com/aweme/v1/play/?video_id=v0d00fg10000cm81kqbc77ubf9mkerh0&line=1&file_id=fa7ac6efea08431592061cd53cff3c8f&sign=39aa674bda083d6fa258aa3c2c10059e&is_play_url=1&source=PackSourceEnum_FEED"
    },
    {
        "file_hash": "4737a5208781ebffc67d617c226ff2c5",
        "create_time": 1703578502,
        "title": "张茹中国女篮全能型锋卫摇摆人！进攻可突可传防守成功抢断必进球 #张茹 #wcba助威团",
        "author": "辽宁飞豹篮球",
        "thumbnail": "https://p11-sign.douyinpic.com/tos-cn-p-0015/oIsK7L7qF21DBhBJBAAtnQ0bef9AReInAPGCXQ~tplv-dy-360p.jpeg?x-expires=1706493600&x-signature=X4eWbJssqugRiQQShBibQamvmTA%3D&from=3213915784&s=PackSourceEnum_FEED&se=false&sc=origin_cover&biz_tag=aweme_video&l=021705286962646fdbddc0200280a080000000000000037d8b90e",
        "videoPlayUrl": "https://api-hl.amemv.com/aweme/v1/play/?video_id=v0300fg10000cm58d7jc77u8amnsv7bg&line=1&file_id=8273f8f3b56c47c39d563ada94d171bf&sign=4737a5208781ebffc67d617c226ff2c5&is_play_url=1&source=PackSourceEnum_FEED"
    },
    {
        "file_hash": "26f764d19d9458f2f6a01cc4d38cbf74",
        "create_time": 1703419681,
        "title": "【厂家直销】99元一次品鉴五大花绿茶组合，还送精美玻璃茶具+两袋高品质花茶",
        "author": "木子李茶叶店个体店",
        "thumbnail": "https://p9-sign.douyinpic.com/tos-cn-v-c9e10a/ooFcyCWb5lD9sCAiBOnQWEeBTfOigDAIbsIAQI~tplv-dy-360p.jpeg?x-expires=1706493600&x-signature=1j4JDz4uPfjv1QubnXAl3AHc3V4%3D&from=3213915784&s=PackSourceEnum_FEED&se=false&sc=origin_cover&biz_tag=aweme_video&l=02170528704878600000000000000000000ffff0a1a2b98e6d783",
        "videoPlayUrl": "https://api-hl.amemv.com/aweme/v1/play/?video_id=v02033g10000cm41u8fog65ggq5k8rb0&line=1&file_id=9607b94a3fb64effad2c7cef2b5cd7b8&sign=26f764d19d9458f2f6a01cc4d38cbf74&is_play_url=1&source=PackSourceEnum_FEED"
    }
]