[
    {
        "file_hash": "f8b2a55395dd2abae8b9c3c56210b3f5",
        "create_time": 1702952047,
        "title": "这球真帅#杨舒予",
        "author": "篮梦",
        "thumbnail": "https://p9-sign.douyinpic.com/tos-cn-p-0015/ooxgnbcdADqCAHfd8ClgeB9BQS9PApHscAHqPT~tplv-dy-360p.jpeg?x-expires=1706518800&x-signature=jSD36KHCsnKnt8fn55eTDZ0hN9Q%3D&from=3213915784&s=PackSourceEnum_FEED&se=false&sc=origin_cover&biz_tag=aweme_video&l=021705310795001fdbddc02002a00260000000000000014e01a2f",
        "videoPlayUrl": "https://api-hl.amemv.com/aweme/v1/play/?video_id=v0200fg10000cm0fonbc77uef7ku7er0&line=1&file_id=00c7d8feb2ee4f2ab3a691dc3e0ce79c&sign=f8b2a55395dd2abae8b9c3c56210b3f5&is_play_url=1&source=PackSourceEnum_FEED"
    },
    {
        "file_hash": "5fa7a14579ce4661d91896772b9627bc",
        "create_time": 1703780253,
        "title": "#灵魂拷问#手写文案实话实说而已，大家也不认识 #说说心里话 #日常手写 #文字共情",
        "author": "❤️竩yì纳🍎",
        "thumbnail": "https://p9-sign.douyinpic.com/tos-cn-p-0015/oEzBsGACHeXeACEDzLVN7JAveDIObBOnINn59c~tplv-dy-360p.jpeg?x-expires=1706518800&x-signature=d3vlwkIpRfAXVmSXcngtRAo2SYo%3D&from=3213915784&s=PackSourceEnum_FEED&se=false&sc=origin_cover&biz_tag=aweme_video&l=021705310724427fdbddc0200ff0500a7656b6d24310fc7d95aad",
        "videoPlayUrl": "https://api-hl.amemv.com/aweme/v1/play/?video_id=v0200fg10000cm6pv3bc77uahtj6n7f0&line=1&file_id=c266c0df27464c488965d8fbb3496499&sign=5fa7a14579ce4661d91896772b9627bc&is_play_url=1&source=PackSourceEnum_FEED"
    },
    {
        "file_hash": "9f823ef03a60a2a159fd82c039b48e42",
        "create_time": 1702862466,
        "title": "倾我所有，爱我所爱，每个孙子孙女都是奶奶掌心里的宝，天冷了，给我的孙子孙女添件棉衣，奶奶爱你们宝贝们，每个孩子都是奶奶心里的最爱。",
        "author": "老靳",
        "thumbnail": "https://p6-sign.douyinpic.com/tos-cn-p-0015/098f645a0d4f477ea5c2b3c317d803ed_1702862470~tplv-dy-360p.jpeg?x-expires=1706518800&x-signature=94SZeDpec20YQfAQXAMwQTBPhqI%3D&from=3213915784&s=PackSourceEnum_FEED&se=false&sc=origin_cover&biz_tag=aweme_video&l=021705311004647fdbddc02002a0026000000000000001453b0bf",
        "videoPlayUrl": "https://api-hl.amemv.com/aweme/v1/play/?video_id=v0d00fg10000clvpnkrc77u66ob92cfg&line=1&file_id=d9a91da0ce3841999b504e877e140664&sign=9f823ef03a60a2a159fd82c039b48e42&is_play_url=1&source=PackSourceEnum_FEED"
    },
    {
        "file_hash": "b7a6ba29165a699eb61612d55cfc65c2",
        "create_time": 1705066810,
        "title": "有时候帮忙鸣不平，但好像忘记在乎了她人的自尊心。但占用残疾人通道是肯定不对的嗷！#外婆的新世界  #闫妮  #姚晨",
        "author": "桃厂迷雾剧场",
        "thumbnail": "https://p11-sign.douyinpic.com/tos-cn-p-0015/oARfgLil2ACfClPmBnGCJOQA857ioQ0jYEHQBe~tplv-dy-360p.jpeg?x-expires=1706518800&x-signature=32U8BlBymiaeJT62r0j2tQJR120%3D&from=3213915784&s=PackSourceEnum_FEED&se=false&sc=origin_cover&biz_tag=aweme_video&l=021705311011646fdbddc02002a00260000000000000014854330",
        "videoPlayUrl": "https://api-hl.amemv.com/aweme/v1/play/?video_id=v0200fg10000cmgk2crc77ufpqbsc4fg&line=1&file_id=38697bcd385a4d6581f218bec5879e94&sign=b7a6ba29165a699eb61612d55cfc65c2&is_play_url=1&source=PackSourceEnum_FEED"
    },
    {
        "file_hash": "910885c8f292324a8e809efc4849ecb9",
        "create_time": 1704446718,
        "title": "大理一医院被曝院内摆贡品，众人围着“大师”吹吹打打做法，120救护车就停在一旁。医院回应：不清楚情况",
        "author": "极目新闻",
        "thumbnail": "https://p6-sign.douyinpic.com/tos-cn-p-0015/oAnXfDK4QB2lwQDwwb9yADDAcrYi8gksCTAZel~tplv-dy-360p.jpeg?x-expires=1706518800&x-signature=KRpbUEmWjj7ERSDAld8Gyo6YP7c%3D&from=3213915784&s=PackSourceEnum_FEED&se=false&sc=origin_cover&biz_tag=aweme_video&l=021705311025349fdbddc02002a00260000000000000014e3d273",
        "videoPlayUrl": "https://api-hl.amemv.com/aweme/v1/play/?video_id=v0300fg10000cmbslu3c77u1ktj1mi8g&line=1&file_id=0da666808fd141a59c409211a2fbcfd4&sign=910885c8f292324a8e809efc4849ecb9&is_play_url=1&source=PackSourceEnum_FEED"
    },
    {
        "file_hash": "b2180e1051899d657e610995abd81ff2",
        "create_time": 1703593270,
        "title": "叙利亚今天多处被炸，就知道欺负人家小国叙利亚#国际局势#叙利亚",
        "author": "东北故事王",
        "thumbnail": "https://p11-sign.douyinpic.com/tos-cn-p-0015/okfhD2P2PBkL5tpBiVHiYAgmFCEgeALABf7cpA~tplv-dy-360p.jpeg?x-expires=1706518800&x-signature=VzDMkv8QC82LbUv7yAdlfmAQ47g%3D&from=3213915784&s=PackSourceEnum_FEED&se=false&sc=origin_cover&biz_tag=aweme_video&l=021705310700918fdbddc0200ff0500a6bf9cab15d3ccee23ad63",
        "videoPlayUrl": "https://api-hl.amemv.com/aweme/v1/play/?video_id=v0200fg10000cm5cacbc77u87rd95jo0&line=1&file_id=038f29bf18b346418745f670762e752e&sign=b2180e1051899d657e610995abd81ff2&is_play_url=1&source=PackSourceEnum_FEED"
    },
    {
        "file_hash": "e7d7e23bc1f87b4a4c3ed2966a6b7a0c",
        "create_time": 1705225863,
        "title": "让您“滨至如归”，让我陌生至极…  #别人家小孩的新年礼",
        "author": "我的孩儿们",
        "thumbnail": "https://p11-sign.douyinpic.com/tos-cn-p-0015/ogQACBCzyBjMJXzfhb3cKAIRAAEjN0MgEeIPKm~tplv-dy-360p.jpeg?x-expires=1706518800&x-signature=C8uz1WwRkv32Hv9MLbNAg%2FEY1lA%3D&from=3213915784&s=PackSourceEnum_FEED&se=false&sc=origin_cover&biz_tag=aweme_video&l=02170531062072700000000000000000000ffff0a18680beb5c7c",
        "videoPlayUrl": "https://api-hl.amemv.com/aweme/v1/play/?video_id=v0200fg10000cmho0j3c77uc8h0j6980&line=1&file_id=714a58b70bc741ebac2421a576b2af51&sign=e7d7e23bc1f87b4a4c3ed2966a6b7a0c&is_play_url=1&source=PackSourceEnum_FEED"
    },
    {
        "file_hash": "3cdfd70f56117aad3fbb05710ba46600",
        "create_time": 1702807200,
        "title": "这4种孩子长大后，一定会有出息！ #家庭教育 #父母课堂 #父母必看系列",
        "author": "胡剑云聊育儿",
        "thumbnail": "https://p6-sign.douyinpic.com/tos-cn-p-0015/7a2f58d24b264ef7955ebb09b29be413_1702627455~tplv-dy-360p.jpeg?x-expires=1706518800&x-signature=2VPf17Ukfm4izp%2FsJH%2FMe6sYnBM%3D&from=3213915784&s=PackSourceEnum_FEED&se=false&sc=origin_cover&biz_tag=aweme_video&l=021705310814633fdbddc02002a0026000000000000001463da51",
        "videoPlayUrl": "https://api-hl.amemv.com/aweme/v1/play/?video_id=v0300fg10000clu0ghrc77u8gpjhgpl0&line=1&file_id=4f5cb9eb35474339b4924bc00c6e9e18&sign=3cdfd70f56117aad3fbb05710ba46600&is_play_url=1&source=PackSourceEnum_FEED"
    }
]