[
    {
        "file_hash": "ac8717c21e540dc48392b08184436aa6",
        "create_time": 1704274334,
        "title": "父爱如山！#看哭了#没有你的冬好冷",
        "author": "期待未来123",
        "thumbnail": "https://p9-sign.douyinpic.com/tos-cn-p-0015/osVlglnBwQlf82lm7NbB9eahZgG8KSAgADA0BQ~tplv-dy-360p.jpeg?x-expires=1706518800&x-signature=sMgUwxKthfWF9llcJPCFWaqaIV0%3D&from=3213915784&s=PackSourceEnum_FEED&se=false&sc=origin_cover&biz_tag=aweme_video&l=021705310688004fdbddc02001a04080000000000000050561652",
        "videoPlayUrl": "https://api-hl.amemv.com/aweme/v1/play/?video_id=v0d00fg10000cmaij6jc77u87km153d0&line=1&file_id=4aa7cb2f3288438eacfb965784dfe5e2&sign=ac8717c21e540dc48392b08184436aa6&is_play_url=1&source=PackSourceEnum_FEED"
    },
    {
        "file_hash": "27a31a5a3febfd4eb7345cc0ff387cbe",
        "create_time": 1703770143,
        "title": "挑战职业，理解职业，成为职业\n#抖音百分大战 #杨皓喆 #王智伟",
        "author": "黑牛体育",
        "thumbnail": "https://p3-sign.douyinpic.com/tos-cn-p-0015/oQxJeXC0nQkCsavgAa8CD19LfBbClhAQD5gDAj~tplv-dy-360p.jpeg?x-expires=1706518800&x-signature=%2ByuQ68fotWMnR4ve1REDO%2FNCnoc%3D&from=3213915784&s=PackSourceEnum_FEED&se=false&sc=origin_cover&biz_tag=aweme_video&l=021705310878686fdbddc0200ff0500c407fc1c4b494bca819f11",
        "videoPlayUrl": "https://api-hl.amemv.com/aweme/v1/play/?video_id=v0300fg10000cm6ng2rc77ubug69dfr0&line=1&file_id=71813fc60c3b4b3e938e509b170126dd&sign=27a31a5a3febfd4eb7345cc0ff387cbe&is_play_url=1&source=PackSourceEnum_FEED"
    },
    {
        "file_hash": "420779686f5dbe06a1ff01b84c4e2e77",
        "create_time": 1703007357,
        "title": "#记录孩子的点点滴滴",
        "author": "程依依日常",
        "thumbnail": "https://p6-sign.douyinpic.com/tos-cn-p-0015/oIwAGAoeAAjFBT8U752L6LPCfVAhZHBMfcdMHO~tplv-dy-360p.jpeg?x-expires=1706518800&x-signature=xgSy6qOe2JgXizfcj3aMZoo%2FAeg%3D&from=3213915784&s=PackSourceEnum_FEED&se=false&sc=origin_cover&biz_tag=aweme_video&l=021705310998879fdbddc02001a040800000000000000509fec34",
        "videoPlayUrl": "https://api-hl.amemv.com/aweme/v1/play/?video_id=v0300fg10000cm0t8pjc77ufh6bej2hg&line=1&file_id=59d73b2c73374b299b889a9d23d37883&sign=420779686f5dbe06a1ff01b84c4e2e77&is_play_url=1&source=PackSourceEnum_FEED"
    },
    {
        "file_hash": "7fc458d10d5f91b48a49923a7d0f0818",
        "create_time": 1702978973,
        "title": "回复 @L☃的评论 “忽然下雨该往哪躲～” #不只是场梦 #李玖哲 #方大同 #翻唱 #rnb",
        "author": "路二loer",
        "thumbnail": "https://p11-sign.douyinpic.com/tos-cn-p-0015/oE0AK2egnInvORAAW21gbtDelBAG9EUAN3aWZB~tplv-dy-360p.jpeg?x-expires=1706518800&x-signature=4cNKvci0xMfl2Hz2SKxycz6d4hg%3D&from=3213915784&s=PackSourceEnum_FEED&se=false&sc=origin_cover&biz_tag=aweme_video&l=02170531079081400000000000000000000ffff0a1b2b9cc32a9b",
        "videoPlayUrl": "https://api-hl.amemv.com/aweme/v1/play/?video_id=v0d00fg10000cm0mb3jc77u8vbagl7r0&line=1&file_id=30febf7803684f7eaa81e59f02e13ff1&sign=7fc458d10d5f91b48a49923a7d0f0818&is_play_url=1&source=PackSourceEnum_FEED"
    },
    {
        "file_hash": "d851a72feb839ffe5f6caf031bdebf33",
        "create_time": 1704371280,
        "title": "蘑菇终于有了销路，但价格实在太低，村民们无奈只能低价卖菇#山海情 #电视剧推荐 #影视",
        "author": "江苏影视频道",
        "thumbnail": "https://p3-sign.douyinpic.com/tos-cn-p-0015/oYBxAFIlA8CfKAhCQlDn7LbcQNhngRcfADWOQ9~tplv-dy-360p.jpeg?x-expires=1706518800&x-signature=BGwpJBn%2BGIUOs3H2QHogUw%2BCJwE%3D&from=3213915784&s=PackSourceEnum_FEED&se=false&sc=origin_cover&biz_tag=aweme_video&l=021705310852873fdbddc02001a04080000000000000050528cd3",
        "videoPlayUrl": "https://api-hl.amemv.com/aweme/v1/play/?video_id=v0300fg10000cmb18jjc77uepbtog470&line=1&file_id=45b6221e25aa446b9062a87780581d9b&sign=d851a72feb839ffe5f6caf031bdebf33&is_play_url=1&source=PackSourceEnum_FEED"
    },
    {
        "file_hash": "f15a414e11c929fda073fc92c365ddd8",
        "create_time": 1703497595,
        "title": "小月龄宝宝可以穿的拉拉裤，柔软舒适再也不用担心割到孩子或者漏尿了#纸尿裤 #布班迪倾芯柔",
        "author": "乐乐妈妈",
        "thumbnail": "https://p9-sign.douyinpic.com/tos-cn-p-0015/oQ66QN4g5nA3TpF4XUeKA9lEeAPgYBtiA4bjJD~tplv-dy-360p.jpeg?x-expires=1706518800&x-signature=2A8I0RjQS3LyxQF3BnrJk0gd%2F%2Fg%3D&from=3213915784&s=PackSourceEnum_FEED&se=false&sc=origin_cover&biz_tag=aweme_video&l=021705310892671fdbddc02001a0408000000000000005027177c",
        "videoPlayUrl": "https://api-hl.amemv.com/aweme/v1/play/?video_id=v0d00fg10000cm4ktebc77u5857gfce0&line=1&file_id=7e2582fc587145b8aec0aac87c1b6854&sign=f15a414e11c929fda073fc92c365ddd8&is_play_url=1&source=PackSourceEnum_FEED"
    },
    {
        "file_hash": "055b261af3557bca76c635081c0ac037",
        "create_time": 1704333787,
        "title": "狗狗帮主人骑三轮赶羊，现在连铲车都会开了，网友：建国后不许成精。 #狗子成精了 #狗子的迷惑行为",
        "author": "崇左广播电视台",
        "thumbnail": "https://p3-sign.douyinpic.com/tos-cn-p-0015/oceq9AO5AC5IxDdyhwDfhhOyIBONoLyWGgzEAV~tplv-dy-360p.jpeg?x-expires=1706518800&x-signature=z%2FSHKg4YQ4zu80X6UDCsUMs%2FOr8%3D&from=3213915784&s=PackSourceEnum_FEED&se=false&sc=origin_cover&biz_tag=aweme_video&l=021705310685182fdbddc02001a04080000000000000050aca383",
        "videoPlayUrl": "https://api-hl.amemv.com/aweme/v1/play/?video_id=v0300fg10000cmb1173c77u2ajn4thgg&line=1&file_id=7488f72ec3d04881a4bf7e36b6490c3c&sign=055b261af3557bca76c635081c0ac037&is_play_url=1&source=PackSourceEnum_FEED"
    },
    {
        "file_hash": "ee836be29f0e57868edf06fb1818d2e9",
        "create_time": 1704763290,
        "title": "家有宝贝的给孩子安排吧，好玩又可爱#骗你生女儿 #治愈系笑容 #我的女孩👧🏻",
        "author": "小雅儿歌分享",
        "thumbnail": "https://p9-sign.douyinpic.com/tos-cn-p-0015/o8z9c5t9BKwkyfzAFRKBAJCOhzIAnI3gej2Wwi~tplv-dy-360p.jpeg?x-expires=1706518800&x-signature=scWa2yri43I6olhoohP98K8Bxyc%3D&from=3213915784&s=PackSourceEnum_FEED&se=false&sc=origin_cover&biz_tag=aweme_video&l=02170531094218600000000000000000000ffff0a1b4f55ba2682",
        "videoPlayUrl": "https://api-hl.amemv.com/aweme/v1/play/?video_id=v0200fg10000cme9t4rc77uautpa7g70&line=1&file_id=ec80bc0f2d65464b9c43903c6140a36b&sign=ee836be29f0e57868edf06fb1818d2e9&is_play_url=1&source=PackSourceEnum_FEED"
    },
    {
        "file_hash": "4a31532662069621463dfe224689f140",
        "create_time": 1705045258,
        "title": "《时髦婚姻》第二集，各玩儿各的新婚夫妻#绘画 #艺术 #历史",
        "author": "大话美术馆",
        "thumbnail": "https://p9-sign.douyinpic.com/tos-cn-p-0015/o8cy0BzvIABhnaFwtAAgI1tf3HgpCMjYQmneD7~tplv-dy-360p.jpeg?x-expires=1706518800&x-signature=uudqbraAjGVnrZY%2Bo3CpMFgmTRw%3D&from=3213915784&s=PackSourceEnum_FEED&se=false&sc=origin_cover&biz_tag=aweme_video&l=021705310626719fdbddc02001a04080000000000000050bccc09",
        "videoPlayUrl": "https://api-hl.amemv.com/aweme/v1/play/?video_id=v0300fg10000cmgeokrc77u5jn6uv360&line=1&file_id=2755122365234f4e99c56e12707fa2ab&sign=4a31532662069621463dfe224689f140&is_play_url=1&source=PackSourceEnum_FEED"
    },
    {
        "file_hash": "bb4de9fd4d02b225762c8206b7bd74c1",
        "create_time": 1703811122,
        "title": "猫咪对穿线很好奇🙂",
        "author": "墨镜哥哥",
        "thumbnail": "https://p26-sign.douyinpic.com/tos-cn-p-0015/osDnnZSZDqbBIDeglNNAfGhbiZJ9BFAjOIAxYA~tplv-dy-360p.jpeg?x-expires=1706518800&x-signature=o5huftBm6sxDWcnnRdIkDDGrGVU%3D&from=3213915784&s=PackSourceEnum_FEED&se=false&sc=origin_cover&biz_tag=aweme_video&l=021705310972837fdbddc02001a0408000000000000005064b8f6",
        "videoPlayUrl": "https://api-hl.amemv.com/aweme/v1/play/?video_id=v0300fg10000cm71chbc77u4oj3s0djg&line=1&file_id=2962c1c8521749438784836eac4036b0&sign=bb4de9fd4d02b225762c8206b7bd74c1&is_play_url=1&source=PackSourceEnum_FEED"
    }
]