[
    {
        "file_hash": "c2de4b36b26a316f72c26c6a4cbbebd5",
        "create_time": 1704366419,
        "title": "今天带宝宝去做6个月体检，说肋骨外翻，这个严重么？#人类幼崽 #宝宝体检 #脾气暴躁的李知予",
        "author": "七月有你",
        "thumbnail": "https://p6-sign.douyinpic.com/tos-cn-p-0015/o4RtClQPDzTpA8ncfDCQcgAIf8ClB0nSAQqb91~tplv-dy-360p.jpeg?x-expires=1706518800&x-signature=zbtSLTT7GYacijznBFzKBLNkIU4%3D&from=3213915784&s=PackSourceEnum_FEED&se=false&sc=origin_cover&biz_tag=aweme_video&l=021705310955159fdbddc0200ff05001ce38fdad3b7b5fd18693b",
        "videoPlayUrl": "https://api-hl.amemv.com/aweme/v1/play/?video_id=v0200fg10000cmb91f3c77u4ht0hvqt0&line=1&file_id=9a395ed753a24cdaa3e6d119f0e0e300&sign=c2de4b36b26a316f72c26c6a4cbbebd5&is_play_url=1&source=PackSourceEnum_FEED"
    },
    {
        "file_hash": "248c819d20c32eefb58de937cee9e903",
        "create_time": 1703332461,
        "title": "吉林一家八口20年不出门，邻居从未见过真面目，偷看却吓一身冷汗",
        "author": "趣史论古今",
        "thumbnail": "https://p11-sign.douyinpic.com/tos-cn-p-0015/oI9ymA3Xy2AuOqGGB4iigUB1AwAew5FAIjfFD2~tplv-dy-360p.jpeg?x-expires=1706518800&x-signature=Bi%2FdZkqsTQsSNkqiw0iMYo0Wzq0%3D&from=3213915784&s=PackSourceEnum_FEED&se=false&sc=origin_cover&biz_tag=aweme_video&l=021705310727168fdbddc0200ff0500539d98e2bea7afe5d6b062",
        "videoPlayUrl": "https://api-hl.amemv.com/aweme/v1/play/?video_id=v0300fg10000cm3ckqvog65ohv8obabg&line=1&file_id=791e936963364afba3740d75bc834045&sign=248c819d20c32eefb58de937cee9e903&is_play_url=1&source=PackSourceEnum_FEED"
    },
    {
        "file_hash": "91cdc2e7bc2cf1570f165966d7f9e0ef",
        "create_time": 1705223294,
        "title": "受JN.1变异株持续输入、国内流感活动逐渐降低和人群免疫水平下降等因素影响，中疾控：JN.1变异株大概率将成我国优势流行株",
        "author": "云上深夜快递",
        "thumbnail": "https://p11-sign.douyinpic.com/tos-cn-p-0015/ooGRiCCnlBSczddeD6p66AQUAAKHboeg49QP9p~tplv-dy-360p.jpeg?x-expires=1706518800&x-signature=I6BLqWFxxh4x5WSv0l%2BsaQI%2FczE%3D&from=3213915784&s=PackSourceEnum_FEED&se=false&sc=origin_cover&biz_tag=aweme_video&l=021705311014138fdbddc0200ff05001ce38fdad3b7b5fd80dac9",
        "videoPlayUrl": "https://api-hl.amemv.com/aweme/v1/play/?video_id=v0200fg10000cmhq8qbc77ue570ktphg&line=1&file_id=8925a7826cf346a59b621466ecac8d08&sign=91cdc2e7bc2cf1570f165966d7f9e0ef&is_play_url=1&source=PackSourceEnum_FEED"
    },
    {
        "file_hash": "777d278a8e1c8818b5eca6d3de4e2dbd",
        "create_time": 1702909469,
        "title": "昆仑山是什么样子的，古往今来都在找寻#家龙兄讲三星堆 #昆仑山 #全能导游 #九野八方 @抖音小助手",
        "author": "三星堆家龙兄",
        "thumbnail": "https://p6-sign.douyinpic.com/tos-cn-p-0015/oID9K0AAa2m6a0nyBgbJeCADBVIeiTDKAFglVA~tplv-dy-360p.jpeg?x-expires=1706518800&x-signature=9eJ46gBx9sXKE%2B5E576ChhqNkeM%3D&from=3213915784&s=PackSourceEnum_FEED&se=false&sc=origin_cover&biz_tag=aweme_video&l=021705310796004fdbddc0200ff05001ce38fdad3b7b5fd753964",
        "videoPlayUrl": "https://api-hl.amemv.com/aweme/v1/play/?video_id=v0300fg10000cm05aijc77ud0n8liu4g&line=1&file_id=54769721dfc0437c87350d077f72a876&sign=777d278a8e1c8818b5eca6d3de4e2dbd&is_play_url=1&source=PackSourceEnum_FEED"
    },
    {
        "file_hash": "f12f2722b02f7b142d7a425a349db70f",
        "create_time": 1703407978,
        "title": "不要买这些非医用口罩！紧急扩散！ #口罩  #紧急扩散  #最新消息  #质量  #老百姓关心的话题  中疾控回应“不倡导长期戴口罩”（编辑：曼言快语）",
        "author": "醒目视频",
        "thumbnail": "https://p3-sign.douyinpic.com/tos-cn-p-0015/owABHfG9BhgWz8WF9tABfwALgNh9AKcAklGkIC~tplv-dy-360p.jpeg?x-expires=1706518800&x-signature=6WxqaDEtSvhyjn3QrsJ6WiD0gcI%3D&from=3213915784&s=PackSourceEnum_FEED&se=false&sc=origin_cover&biz_tag=aweme_video&l=021705310896446fdbddc0200ff05001ce38fdad3b7b5fde57256",
        "videoPlayUrl": "https://api-hl.amemv.com/aweme/v1/play/?video_id=v0d00fg10000cm3u1urc77ubg04gd410&line=1&file_id=285d92b34d804c23b09df616bd78789a&sign=f12f2722b02f7b142d7a425a349db70f&is_play_url=1&source=PackSourceEnum_FEED"
    },
    {
        "file_hash": "b4346779bc908de5d305ac5bf22bd5dd",
        "create_time": 1703579084,
        "title": "拍摄者葛女士称当时零下十几度，小朋友也特别乖，对路过的人投去期待的目光，但大多数人都想让小朋友体验一下赚钱的辛苦，所以很少有人去买，都是站在远处看。",
        "author": "小鱼视频",
        "thumbnail": "https://p26-sign.douyinpic.com/tos-cn-p-0015/oon9KcbeCEsQLeZBbHECAPaeDFABjI5A7Pmr9z~tplv-dy-360p.jpeg?x-expires=1706518800&x-signature=KrCXxbGu8S36ah%2FEJUrs5rL2%2BKY%3D&from=3213915784&s=PackSourceEnum_FEED&se=false&sc=origin_cover&biz_tag=aweme_video&l=021705310983609fdbddc0200ff05001ce38fdad3b7b5fd980cfe",
        "videoPlayUrl": "https://api-hl.amemv.com/aweme/v1/play/?video_id=v0d00fg10000cm58f3rc77u2ff48fmf0&line=1&file_id=5cdf4d8732d2491bae5ce7389f27dbbd&sign=b4346779bc908de5d305ac5bf22bd5dd&is_play_url=1&source=PackSourceEnum_FEED"
    },
    {
        "file_hash": "d33d508f3139b32dd38a28228fcea672",
        "create_time": 1704856655,
        "title": "让毛孩子的健康从口腔开始吧。#猫咪 #狗狗 #科学养宠攻略",
        "author": "周桥梁-宠物生命科学",
        "thumbnail": "https://p6-sign.douyinpic.com/tos-cn-p-0015/oEdAcEDeCknu28Az9QYleL7Cbd0EkWQDevQe0p~tplv-dy-360p.jpeg?x-expires=1706518800&x-signature=Sgd3GhoCjxms4Angd80oggejcG4%3D&from=3213915784&s=PackSourceEnum_FEED&se=false&sc=origin_cover&biz_tag=aweme_video&l=021705310602687fdbddc020108005116444f48a0000028b61aba",
        "videoPlayUrl": "https://api-hl.amemv.com/aweme/v1/play/?video_id=v0d00fg10000cmevffjc77uek6iv5pn0&line=1&file_id=6654e009acb14a3ba38dfdc22f0e3370&sign=d33d508f3139b32dd38a28228fcea672&is_play_url=1&source=PackSourceEnum_FEED"
    }
]