[
    {
        "file_hash": "e707fc4d3f59fe9087dbed7e028f02e8",
        "create_time": 1704869104,
        "title": "浓眉被巴雷特推倒，裁判吹罚掩护犯规，一个回合直接左右战局，你觉得这球有犯规吗？#浓眉造巴雷特掩护犯规 #巴恩斯关键三分无效 #湖人险胜猛龙",
        "author": "咪咕篮球",
        "thumbnail": "https://p6-sign.douyinpic.com/tos-cn-p-0015/oUblnl98Agnn2eIDKPex5QQPAWIMQgBMjjDCOA~tplv-dy-360p.jpeg?x-expires=1706493600&x-signature=JcheMO5GJ6yfTSheJwZRAmb35Hs%3D&from=3213915784&s=PackSourceEnum_FEED&se=false&sc=origin_cover&biz_tag=aweme_video&l=021705286747871fdbddc0200ff050003e4861f574b2a3cf1a51a",
        "videoPlayUrl": "https://api-hl.amemv.com/aweme/v1/play/?video_id=v0200fg10000cmf3oubc77u63hjd5hlg&line=1&file_id=bc76094be1864b3ba8f793541f98fb80&sign=e707fc4d3f59fe9087dbed7e028f02e8&is_play_url=1&source=PackSourceEnum_FEED"
    },
    {
        "file_hash": "2e9cd8bfe8861890d0ca938f0f6ef87c",
        "create_time": 1703227827,
        "title": "后悔买晚了，孩子看图写话一团糟家长又不会辅导，两本书帮我省去补习班的费用",
        "author": "佳佳妈妈",
        "thumbnail": "https://p11-sign.douyinpic.com/tos-cn-v-c9e10a/ooFze8B5Cnl6heIxLgooD1F4Eb7A4XADjyI9SB~tplv-dy-360p.jpeg?x-expires=1706493600&x-signature=rxtnjfm9AKr4wsoUN9MpyvPglN8%3D&from=3213915784&s=PackSourceEnum_FEED&se=false&sc=origin_cover&biz_tag=aweme_video&l=021705286849513fdbddc0200ff05007419aa6eea1525cd930423",
        "videoPlayUrl": "https://api-hl.amemv.com/aweme/v1/play/?video_id=v03033g10000cm2j3cvog65k8e3e95l0&line=1&file_id=0e7899206be34113b015a9e68edfbc4e&sign=2e9cd8bfe8861890d0ca938f0f6ef87c&is_play_url=1&source=PackSourceEnum_FEED"
    },
    {
        "file_hash": "18875230e4a53f27c7406834abd57c21",
        "create_time": 1702856115,
        "title": "自创冬季开冰钓鲫鱼#冬钓鲫鱼",
        "author": "游钓渔生",
        "thumbnail": "https://p11-sign.douyinpic.com/tos-cn-p-0015/e1b8168a27f24d2b80fc49cfe85e6ebf_1702856120~tplv-dy-360p.jpeg?x-expires=1706493600&x-signature=lfCiaWtUWfPHiHjhMkei20RhzrU%3D&from=3213915784&s=PackSourceEnum_FEED&se=false&sc=origin_cover&biz_tag=aweme_video&l=021705286884538fdbddc0200ff050003e4861f574b2a3c144504",
        "videoPlayUrl": "https://api-hl.amemv.com/aweme/v1/play/?video_id=v0d00fg10000clvoacbc77u9300f3ed0&line=1&file_id=111311706da0426c93d59eb2101c094a&sign=18875230e4a53f27c7406834abd57c21&is_play_url=1&source=PackSourceEnum_FEED"
    },
    {
        "file_hash": "608d1c4e3774f46a5075e5ae9821156a",
        "create_time": 1704338123,
        "title": "1月4日（发布）河南郑州，新车刚买8天就出现问题？“开着开着就跑偏了”，女子：行驶中车辆严重向右偏移（1）#河南dou知道",
        "author": "河南广播电视台民生频道",
        "thumbnail": "https://p3-sign.douyinpic.com/tos-cn-p-0015/oU9VJxhIIAgyLPyNoIfCWTaUMsFdXAA0zBxeBC~tplv-dy-360p.jpeg?x-expires=1706493600&x-signature=5nDD0mLvfCYqH49TykjnPtGVt7Q%3D&from=3213915784&s=PackSourceEnum_FEED&se=false&sc=origin_cover&biz_tag=aweme_video&l=021705287025530fdbddc0200ff050003e4861f574b2a3c8cbf38",
        "videoPlayUrl": "https://api-hl.amemv.com/aweme/v1/play/?video_id=v0200fg10000cmb255jc77u2qa3l8960&line=1&file_id=37fc714be0f5425da832c87d9bb507e5&sign=608d1c4e3774f46a5075e5ae9821156a&is_play_url=1&source=PackSourceEnum_FEED"
    },
    {
        "file_hash": "22e27549610d12243259d03f12426c14",
        "create_time": 1702713916,
        "title": "什么家庭能养loft小狗啊？ #柯基 #哈士奇 #狗狗",
        "author": "大魔王伏特加",
        "thumbnail": "https://p11-sign.douyinpic.com/tos-cn-p-0015/86f651cdca36483887f7cc2f0814126b_1702713920~tplv-dy-360p.jpeg?x-expires=1706493600&x-signature=ws1%2FtzRP3xJBXCLbobkFMSgrFIU%3D&from=3213915784&s=PackSourceEnum_FEED&se=false&sc=origin_cover&biz_tag=aweme_video&l=021705286997431fdbddc0200ff050003e4861f574b2a3c55b0a3",
        "videoPlayUrl": "https://api-hl.amemv.com/aweme/v1/play/?video_id=v0300fg10000clukm93c77u9stq0nf80&line=1&file_id=11118f93eca040e9aa9adb8226a26fe1&sign=22e27549610d12243259d03f12426c14&is_play_url=1&source=PackSourceEnum_FEED"
    },
    {
        "file_hash": "754ecab2bd590f50945b39a7645d8546",
        "create_time": 1704808662,
        "title": "#为ta点歌 #破防 #心碎的声音 #你不知道的事 #对不起我爱你",
        "author": "云村村长*为爱点歌",
        "thumbnail": "https://p6-sign.douyinpic.com/tos-cn-p-0015/oodbMfB9DzlansAfUgmuAsNYItiy1gAhvAISUA~tplv-dy-360p.jpeg?x-expires=1706493600&x-signature=EOZGisQ3gix4sXGBMtswkuncB5U%3D&from=3213915784&s=PackSourceEnum_FEED&se=false&sc=origin_cover&biz_tag=aweme_video&l=021705286909156fdbddc0200ff050003e4861f574b2a3c764c48",
        "videoPlayUrl": "https://api-hl.amemv.com/aweme/v1/play/?video_id=v0300fg10000cmekvpbc77ucqrlhh2dg&line=1&file_id=5f7c6dbe614e42929ce3bde050207601&sign=754ecab2bd590f50945b39a7645d8546&is_play_url=1&source=PackSourceEnum_FEED"
    },
    {
        "file_hash": "d6d3dfd5b496ad14f4a7b80297acf620",
        "create_time": 1702882250,
        "title": "#一线下乡收老物件 #好东西一起分享给大家 #晒晒老古董 #古玩杂项 #那些有点意思的老东西",
        "author": "乡村收货",
        "thumbnail": "https://p9-sign.douyinpic.com/tos-cn-p-0015/cf831a16338947bd8d35c7e41a4c7085_1702882254~tplv-dy-360p.jpeg?x-expires=1706493600&x-signature=aJfejXAleFOJifbtL%2Bl%2FMzALYGg%3D&from=3213915784&s=PackSourceEnum_FEED&se=false&sc=origin_cover&biz_tag=aweme_video&l=021705286991741fdbddc0200ff050003e4861f574b2a3ce57fa4",
        "videoPlayUrl": "https://api-hl.amemv.com/aweme/v1/play/?video_id=v0200fg10000clvun6bc77ue7bovstsg&line=1&file_id=69290aefa1cd4430b549392337758caa&sign=d6d3dfd5b496ad14f4a7b80297acf620&is_play_url=1&source=PackSourceEnum_FEED"
    },
    {
        "file_hash": "e49934f74b70a339d2996aeea5c3e613",
        "create_time": 1703941344,
        "title": "emmmm  三十个小时没合眼，我祝她成功吧~ #2023热播影视剧CP",
        "author": "我的偶像巨顽皮",
        "thumbnail": "https://p6-sign.douyinpic.com/tos-cn-p-0015/oELAMcekVQnfwQBAN0ggbqDrlgQQ9prANtcBKB~tplv-dy-360p.jpeg?x-expires=1706493600&x-signature=%2BJQhwcUE%2BbSvudXpCy3a9prTz8w%3D&from=3213915784&s=PackSourceEnum_FEED&se=false&sc=origin_cover&biz_tag=aweme_video&l=021705286945009fdbddc0200ff0500427aa650c67ae5eb18f552",
        "videoPlayUrl": "https://api-hl.amemv.com/aweme/v1/play/?video_id=v0d00fg10000cm816s3c77u8atamcat0&line=1&file_id=bbd6b20e93d2472ead753e0a2f4d0e9e&sign=e49934f74b70a339d2996aeea5c3e613&is_play_url=1&source=PackSourceEnum_FEED"
    },
    {
        "file_hash": "a215a8cc8161c57f2cfda9cda93966ec",
        "create_time": 1704510000,
        "title": "女生跟猫咪告状 说被骂了，猫咪大哥立马帮她骂回去 （视频来源于：@好鄂茶摊 ）#橘猫还是那个橘猫 #猫猫：让我瞅瞅什么情况 #猫咪的心思都写在脸上了 #猫咪 #萌宠成精了",
        "author": "新闻视界",
        "thumbnail": "https://p6-sign.douyinpic.com/tos-cn-p-0015/o0vJpf0AhIyIgSy99Xt56tPAesuEyzNsAC1VBd~tplv-dy-360p.jpeg?x-expires=1706493600&x-signature=CzySE9GJQhOtJb8T5Tvy2rtSfRU%3D&from=3213915784&s=PackSourceEnum_FEED&se=false&sc=origin_cover&biz_tag=aweme_video&l=021705287020203fdbddc0200ff050003e4861f574b2a3c5b68b2",
        "videoPlayUrl": "https://api-hl.amemv.com/aweme/v1/play/?video_id=v0d00fg10000cmbrp7rc77u9qbljr9t0&line=1&file_id=89ec9fe2fa8b4d0cb5de1b2eecbb911d&sign=a215a8cc8161c57f2cfda9cda93966ec&is_play_url=1&source=PackSourceEnum_FEED"
    }
]