[
    {
        "file_hash": "8f1bcc945c2cbc212d6d6bd40f4a9935",
        "create_time": 1704781000,
        "title": "缉毒警爸爸外出执行任务“失联”6个月后去接女儿放学，女儿见到他却撒腿就跑……",
        "author": "无际视频",
        "thumbnail": "https://p26-sign.douyinpic.com/tos-cn-p-0015/ooIAc8l3OB6eANnrIbrOyDAgD15ZfnW0HSSA9M~tplv-dy-360p.jpeg?x-expires=1706518800&x-signature=fOzZD12JAoQUACi958nRfG547zM%3D&from=3213915784&s=PackSourceEnum_FEED&se=false&sc=origin_cover&biz_tag=aweme_video&l=021705310943628fdbddc0200ff0500a7656b6d24310fc7f3f081",
        "videoPlayUrl": "https://api-hl.amemv.com/aweme/v1/play/?video_id=v0300fg10000cmee9d3c77u5mtid3vfg&line=1&file_id=590fa2234ed3449689b6984e9d728406&sign=8f1bcc945c2cbc212d6d6bd40f4a9935&is_play_url=1&source=PackSourceEnum_FEED"
    },
    {
        "file_hash": "86ed7460ee477e60c88a5a1aec3b2406",
        "create_time": 1703301807,
        "title": "2024成都郎朗钢琴元宇宙 来咯来咯，激情四射的郎朗钢琴音乐会终于来成都了，2月1号一起相约东安湖！#郎朗成都音乐会  #新年音乐会#温暖跨年季#抖音跨年生活节#发现城市美好现场",
        "author": "票圈儿",
        "thumbnail": "https://p26-sign.douyinpic.com/tos-cn-p-0015/ooJnUyECzAWrDGMdAnfACCe5GBtxyYAIhqgnAw~tplv-dy-360p.jpeg?x-expires=1706518800&x-signature=CPllqZsKqcfTlIZ3psETILewiao%3D&from=3213915784&s=PackSourceEnum_FEED&se=false&sc=origin_cover&biz_tag=aweme_video&l=021705310765668fdbddc0200ff0500a7656b6d24310fc72a7666",
        "videoPlayUrl": "https://api-hl.amemv.com/aweme/v1/play/?video_id=v0200fg10000cm34tsrc77uc19sue61g&line=1&file_id=966ce58834b64eadac1ec9e9a25246ad&sign=86ed7460ee477e60c88a5a1aec3b2406&is_play_url=1&source=PackSourceEnum_FEED"
    },
    {
        "file_hash": "c142f2741c74342fa4123ad9a6299ef7",
        "create_time": 1703587345,
        "title": "安徽工业大学同班6人保研！ 为您揭秘保研秘籍！#保研 #安徽工业大学 #马鞍山广播电视台 （记者/编辑:赵婷 实习:李双春 陈序鹏）",
        "author": "见马鞍山",
        "thumbnail": "https://p3-sign.douyinpic.com/tos-cn-p-0015/oo5qgNAF2AgfYmoHGP7L6ECQuHBG4Bw9cTUgfe~tplv-dy-360p.jpeg?x-expires=1706518800&x-signature=wZo0hMXi4k8Zpd%2FuP%2BBUuGel5v0%3D&from=3213915784&s=PackSourceEnum_FEED&se=false&sc=origin_cover&biz_tag=aweme_video&l=021705310884544fdbddc020024062a000000000000004633c85e",
        "videoPlayUrl": "https://api-hl.amemv.com/aweme/v1/play/?video_id=v0300fg10000cm59pk3c77u7jjlpuja0&line=1&file_id=f625db5bf8ff4e44849dabab2ac18d3d&sign=c142f2741c74342fa4123ad9a6299ef7&is_play_url=1&source=PackSourceEnum_FEED"
    },
    {
        "file_hash": "c560e1f7f4c58c32f5663457da7f9270",
        "create_time": 1703847600,
        "title": "“我拒绝参加在加沙的罪恶战争”#以色列18岁青年拒服兵役被判30天监禁 ，本轮冲突第一个因良心拒服兵役者！“我相信屠杀并不能解决‘屠杀问题’”#巴以冲突",
        "author": "看看新闻Knews",
        "thumbnail": "https://p11-sign.douyinpic.com/tos-cn-p-0015/oUCYaBxpyCA852zOBJfhgDzCAxAekb2IIatzDz~tplv-dy-360p.jpeg?x-expires=1706518800&x-signature=Fr3FqMieKjn2yhlkJA%2FGSy9jzY0%3D&from=3213915784&s=PackSourceEnum_FEED&se=false&sc=origin_cover&biz_tag=aweme_video&l=021705310876500fdbddc0200ff0500a7656b6d24310fc7fa5d36",
        "videoPlayUrl": "https://api-hl.amemv.com/aweme/v1/play/?video_id=v0300fg10000cm7631bc77u9d0mf7mkg&line=1&file_id=7351635488134a168fed42f117ad75cc&sign=c560e1f7f4c58c32f5663457da7f9270&is_play_url=1&source=PackSourceEnum_FEED"
    },
    {
        "file_hash": "2d11d5eb0ce29950bccee0729fbffa93",
        "create_time": 1704453297,
        "title": "中国体坛都让 #王家卫 撬来了，为何却唯独不敢请 #费翔  #繁花  #范志毅  #胡歌  #电视剧  #幕后",
        "author": "娱圈贝勒爷",
        "thumbnail": "https://p6-sign.douyinpic.com/tos-cn-p-0015/oAU1EBAFZQB1s7BANWBLPSQe1iywDfOCGWfLIv~tplv-dy-360p.jpeg?x-expires=1706518800&x-signature=%2FYT88wilx6wIE7bN8168ZNriOfk%3D&from=3213915784&s=PackSourceEnum_FEED&se=false&sc=origin_cover&biz_tag=aweme_video&l=021705310675766fdbddc0200ff0500a7656b6d24310fc7170bb5",
        "videoPlayUrl": "https://api-hl.amemv.com/aweme/v1/play/?video_id=v0300fg10000cmbu9c7og65qj918p7og&line=1&file_id=79590f8b8e0a44728fad025a8e07b4a7&sign=2d11d5eb0ce29950bccee0729fbffa93&is_play_url=1&source=PackSourceEnum_FEED"
    },
    {
        "file_hash": "ede0f8c0eafd0e599eef41a98625589c",
        "create_time": 1703736149,
        "title": "12月26日，#云南昆明 ，老人上一秒还在和邻居聊天说笑，短短几分钟后却天人永隔，“一生相伴的人扶他走完了最后的路”#监控下的一幕 #老人去世 （视频来源@崔 师 ）",
        "author": "越牛新闻",
        "thumbnail": "https://p3-sign.douyinpic.com/tos-cn-p-0015/osNNMxJAABBhGwgUEgz5DyI1xIymR8e7nfNA6Z~tplv-dy-360p.jpeg?x-expires=1706518800&x-signature=YFxeeqlwop8HF629ichwxlLZD4Q%3D&from=3213915784&s=PackSourceEnum_FEED&se=false&sc=origin_cover&biz_tag=aweme_video&l=021705310881417fdbddc0200ff0500a7656b6d24310fc760d482",
        "videoPlayUrl": "https://api-hl.amemv.com/aweme/v1/play/?video_id=v0300fg10000cm6f64jc77u4a69n1p6g&line=1&file_id=640c57222e0d429799da57bd839fde4a&sign=ede0f8c0eafd0e599eef41a98625589c&is_play_url=1&source=PackSourceEnum_FEED"
    },
    {
        "file_hash": "67bef2a65f972bd91a9911f9a91f00ac",
        "create_time": 1704683979,
        "title": "摩托车太高，女子穿着裙子上不去，老公直接蹲下来背妻子上车！网友见状直呼：果然好老公都是别人家的，嫁对老公每天都是情人节，嫁错老公每天都是劳动节",
        "author": "麻吉哥哥Lin",
        "thumbnail": "https://p9-sign.douyinpic.com/tos-cn-p-0015/oMQbF1ThJIeWDI0ISBfyAaWzgVNmXANcNbzApE~tplv-dy-360p.jpeg?x-expires=1706518800&x-signature=UVPy9kFp%2BZ5n9JCGqqZySxBIXhk%3D&from=3213915784&s=PackSourceEnum_FEED&se=false&sc=origin_cover&biz_tag=aweme_video&l=021705310658991fdbddc0200ff0500a7656b6d24310fc7288c85",
        "videoPlayUrl": "https://api-hl.amemv.com/aweme/v1/play/?video_id=v0d00fg10000cmdmj2jc77u4qi2qigag&line=1&file_id=922f994e189549b399378823a134f58b&sign=67bef2a65f972bd91a9911f9a91f00ac&is_play_url=1&source=PackSourceEnum_FEED"
    }
]