[
    {
        "file_hash": "3f23e12f500c6e234f82eebf42c7ea76",
        "create_time": 1704123497,
        "title": "生孩子那天你们老公都发的什么朋友圈#人类幼崽 #胖宝宝哈基米 #生娃朋友圈 @抖音创作者中心",
        "author": "一只小橘子🍊",
        "thumbnail": "https://p6-sign.douyinpic.com/tos-cn-p-0015/o4Qxy7CLDJS3g5flBQePGACBafB2AwrmrQHgHb~tplv-dy-360p.jpeg?x-expires=1706518800&x-signature=AxVtFfo%2FaNV6gs8stQzIRU9z4Rg%3D&from=3213915784&s=PackSourceEnum_FEED&se=false&sc=origin_cover&biz_tag=aweme_video&l=021705310962979fdbddc0200ff05007069c7e82e0982d16ee947",
        "videoPlayUrl": "https://api-hl.amemv.com/aweme/v1/play/?video_id=v0d00fg10000cm9do63c77u86n0lvvk0&line=1&file_id=e33af152e1f8458cbd6979bd3d3469ad&sign=3f23e12f500c6e234f82eebf42c7ea76&is_play_url=1&source=PackSourceEnum_FEED"
    },
    {
        "file_hash": "267e8b745f74daf3164b7e8c3683fbae",
        "create_time": 1703073745,
        "title": "女生发现自家猫咪爪爪粘在护栏上，直接上手给猫咪暖爪爪成功解救猫咪，“还舔，舔完又粘住了”。",
        "author": "新民晚报",
        "thumbnail": "https://p9-sign.douyinpic.com/tos-cn-p-0015/okB6eCz1wSWtvYtGCwWtDPihBaJfIAy7AAgA9n~tplv-dy-360p.jpeg?x-expires=1706518800&x-signature=z%2BL3cxbGsAu7g5IngtsT%2BlNUEc4%3D&from=3213915784&s=PackSourceEnum_FEED&se=false&sc=origin_cover&biz_tag=aweme_video&l=021705310910740fdbddc0200ff05007069c7e82e0982d14838d0",
        "videoPlayUrl": "https://api-hl.amemv.com/aweme/v1/play/?video_id=v0300fg10000cm1dfhbc77u9ob8rn7d0&line=1&file_id=d563ee9c9b72420c80c8b3ba0ae6af46&sign=267e8b745f74daf3164b7e8c3683fbae&is_play_url=1&source=PackSourceEnum_FEED"
    },
    {
        "file_hash": "e8a1be016741e1907fe65d67d563dac0",
        "create_time": 1704797691,
        "title": "打败小米的不是技术难关，而是人性的丑恶 #小米汽车  #小米su7  #雷军  #小米被流量霸凌",
        "author": "机器猫懂车小知识",
        "thumbnail": "https://p26-sign.douyinpic.com/tos-cn-p-0015/o88WfKilnAAxA6vDD6oS59lBDe0bgcqsAIUggn~tplv-dy-360p.jpeg?x-expires=1706518800&x-signature=hcqx4UQOlFsUG0OeQBFUY49NFAY%3D&from=3213915784&s=PackSourceEnum_FEED&se=false&sc=origin_cover&biz_tag=aweme_video&l=021705310616899fdbddc0200ff05005ee10d1d1868a54271b8ac",
        "videoPlayUrl": "https://api-hl.amemv.com/aweme/v1/play/?video_id=v0300fg10000cmeibbrc77ueh2haouig&line=1&file_id=9cac966be214499ebbcb6cd7f40c2bbc&sign=e8a1be016741e1907fe65d67d563dac0&is_play_url=1&source=PackSourceEnum_FEED"
    },
    {
        "file_hash": "ff22e36d58d3a27c73bc88de203de130",
        "create_time": 1702978026,
        "title": "唱红歌，用激动的歌声点燃自己的心灵；干实事，用实际行动书写自己的人生；比实绩，用壮丽事业助推追赶跨越#优美的旋律动感的节奏 #百听不厌的旋律 #好听的音乐总是触动人的心灵 #器乐合奏 #纯音乐",
        "author": "千寻纯音乐（可够U盘）",
        "thumbnail": "https://p11-sign.douyinpic.com/tos-cn-p-0015/og2bBbisnAUl822AKCDwWuQ9gBCAe8Igpr9eHA~tplv-dy-360p.jpeg?x-expires=1706518800&x-signature=5PKOyKnW3Hsvv7qDIBDqaJVSf2c%3D&from=3213915784&s=PackSourceEnum_FEED&se=false&sc=origin_cover&biz_tag=aweme_video&l=021705310758552fdbddc020028003e0000000000000042f34576",
        "videoPlayUrl": "https://api-hl.amemv.com/aweme/v1/play/?video_id=v0200fg10000cm0m3ijc77uafljc8hf0&line=1&file_id=3af332b6abd84fc3a668e81bd83a54db&sign=ff22e36d58d3a27c73bc88de203de130&is_play_url=1&source=PackSourceEnum_FEED"
    },
    {
        "file_hash": "15fae999bbbcda021c071558aa32573c",
        "create_time": 1703130088,
        "title": "#亲子互动 #亲子时光 #一老一小两个活宝",
        "author": "慧玉",
        "thumbnail": "https://p11-sign.douyinpic.com/tos-cn-p-0015/oQAnYAfHaZUEezs9seeDwDQHAQxHIWvAiGfZc2~tplv-dy-360p.jpeg?x-expires=1706518800&x-signature=ujiA%2F8IeiYLZkIjBeucdlnhjVRc%3D&from=3213915784&s=PackSourceEnum_FEED&se=false&sc=origin_cover&biz_tag=aweme_video&l=021705310907066fdbddc0200ff0500819de527705ebabd497fad",
        "videoPlayUrl": "https://api-hl.amemv.com/aweme/v1/play/?video_id=v0200fg10000cm1r703c77ufvpdtrf6g&line=1&file_id=b18fcf915f174d839f5f34c1d20f6173&sign=15fae999bbbcda021c071558aa32573c&is_play_url=1&source=PackSourceEnum_FEED"
    },
    {
        "file_hash": "86c4c4276e280b65b7bee1f0627e20f4",
        "create_time": 1703384273,
        "title": "家里布置炫光彩灯打造氛围感，女孩随着节奏跳 K - POP ，家长在一旁鼓励。#呱呱舞 #家长鼓励 #兴趣爱好",
        "author": "新界",
        "thumbnail": "https://p26-sign.douyinpic.com/tos-cn-p-0015/oIyuIHoAAzhKPgcUPlQBNfNKoADb6ATWe8w5xB~tplv-dy-360p.jpeg?x-expires=1706518800&x-signature=O9anjUpLxS%2FksdduAvIIFFb9%2BdM%3D&from=3213915784&s=PackSourceEnum_FEED&se=false&sc=origin_cover&biz_tag=aweme_video&l=021705310986266fdbddc0200ff05004b5e2b79359642d2d0832a",
        "videoPlayUrl": "https://api-hl.amemv.com/aweme/v1/play/?video_id=v0300fg10000cm3p8t3c77uab4v4v87g&line=1&file_id=a65441d360e14e99b50be38e2e53c466&sign=86c4c4276e280b65b7bee1f0627e20f4&is_play_url=1&source=PackSourceEnum_FEED"
    },
    {
        "file_hash": "1df088c9d24ce699dfc9b77ac1a61227",
        "create_time": 1703149871,
        "title": "火眼金睛，找找里边有没有用错量词的小朋友 \n#人类幼崽 #无忧无虑的年纪 #记录幼儿园的点点滴滴 #幼儿园里欢乐多 #车寨幼儿园",
        "author": "菲菲老师💕",
        "thumbnail": "https://p26-sign.douyinpic.com/tos-cn-p-0015/okTAAhCCZAAAr5wxtAABEbBE2gDO8BnSlIe9Re~tplv-dy-360p.jpeg?x-expires=1706518800&x-signature=N73w%2FWEJppSNGG5uAg3SfLTNNI4%3D&from=3213915784&s=PackSourceEnum_FEED&se=false&sc=origin_cover&biz_tag=aweme_video&l=021705310906623fdbddc0200ff05007069c7e82e0982d1bd0049",
        "videoPlayUrl": "https://api-hl.amemv.com/aweme/v1/play/?video_id=v0200fg10000cm200gjc77u7f67qrbr0&line=1&file_id=33d16c435f9440468fd78e46da35237f&sign=1df088c9d24ce699dfc9b77ac1a61227&is_play_url=1&source=PackSourceEnum_FEED"
    },
    {
        "file_hash": "eb6b8a129d39d4b6fbfd1c4a75df45e6",
        "create_time": 1704424973,
        "title": "#记录远嫁日常生活 #一拖三的全职宝妈 用8分钟记录全职妈妈带三娃的同时在家都干什么，很忙，很累，很压抑也很幸福，或许这就是全职妈妈吧 ！ #90后三胎宝妈日常生活",
        "author": "小燕一家",
        "thumbnail": "https://p6-sign.douyinpic.com/tos-cn-p-0015/oohAAykNRIA7Ik0UYFdqXtBXughLtBzGyI0e6f~tplv-dy-360p.jpeg?x-expires=1706518800&x-signature=L%2FY5zJGIiDgCM1HJedG1XkHJ6nc%3D&from=3213915784&s=PackSourceEnum_FEED&se=false&sc=origin_cover&biz_tag=aweme_video&l=021705310677979fdbddc0200ff05007069c7e82e0982d142c670",
        "videoPlayUrl": "https://api-hl.amemv.com/aweme/v1/play/?video_id=v0d00fg10000cmbnaibc77ubml6hg8n0&line=1&file_id=ec272225c07444979265a0175be4465f&sign=eb6b8a129d39d4b6fbfd1c4a75df45e6&is_play_url=1&source=PackSourceEnum_FEED"
    },
    {
        "file_hash": "9d23be6e74a9003f1b7e66f4071c400d",
        "create_time": 1703225371,
        "title": "云南不比广东，涵涵要慢慢习惯#小闺女",
        "author": "星星《108》",
        "thumbnail": "https://p9-sign.douyinpic.com/tos-cn-p-0015/oMNpgFOhp9IHwwByA2CAeKgfONCRY2ANAzOBgH~tplv-dy-360p.jpeg?x-expires=1706518800&x-signature=hHvboyCO%2FNn5hDeFVFp42HhPo4I%3D&from=3213915784&s=PackSourceEnum_FEED&se=false&sc=origin_cover&biz_tag=aweme_video&l=02170531090328700000000000000000000ffff0a913566e82cfd",
        "videoPlayUrl": "https://api-hl.amemv.com/aweme/v1/play/?video_id=v0d00fg10000cm2ieujc77udr854e770&line=1&file_id=886d7514b63f48ec9e827208b8f0ab2b&sign=9d23be6e74a9003f1b7e66f4071c400d&is_play_url=1&source=PackSourceEnum_FEED"
    }
]