[
    {
        "file_hash": "0954b29df8479a210171d7f7b43c3f4d",
        "create_time": 1703563633,
        "title": "这下嬛嬛也去“宁古塔”了！雪雕师傅对照手办等比例放大甄嬛雪雕 （来源：@周蔓蔓🍒 ）",
        "author": "潇湘晨报",
        "thumbnail": "https://p9-sign.douyinpic.com/tos-cn-p-0015/ocDGxxIezILjAUBAhySgJizCfitAABXxuAtKa3~tplv-dy-360p.jpeg?x-expires=1706518800&x-signature=rWp4fTyprTD5zhvZFO9G8E6WT3E%3D&from=3213915784&s=PackSourceEnum_FEED&se=false&sc=origin_cover&biz_tag=aweme_video&l=02170531089099800000000000000000000ffff0a1b3c89428f50",
        "videoPlayUrl": "https://api-hl.amemv.com/aweme/v1/play/?video_id=v0300fg10000cm552hbc77u25gccdjog&line=1&file_id=1d1254fa8521488fae00934e2be5ad06&sign=0954b29df8479a210171d7f7b43c3f4d&is_play_url=1&source=PackSourceEnum_FEED"
    },
    {
        "file_hash": "c5ddc2ad0574c69373fe90d6b4ee9ab4",
        "create_time": 1703053978,
        "title": "嘴上起水泡，这可不是上火！医生：可能是单纯疱疹病毒在作怪！#皮肤问题 #上火 #单纯疱疹 @抖音小助手",
        "author": "惠城发布",
        "thumbnail": "https://p6-sign.douyinpic.com/tos-cn-p-0015/owITCl6A2Bo5ag9UBNAASfhApiziugAwTt1fpC~tplv-dy-360p.jpeg?x-expires=1706518800&x-signature=3D65tGUwIEKGqUR2purwfE5QDQ4%3D&from=3213915784&s=PackSourceEnum_FEED&se=false&sc=origin_cover&biz_tag=aweme_video&l=021705310788357fdbddc0200ff05004b3325c82d4e05987300b4",
        "videoPlayUrl": "https://api-hl.amemv.com/aweme/v1/play/?video_id=v0200fg10000cm18kvrc77u19l1nleqg&line=1&file_id=e8f5e42c979b458f9f90aba62b3fb4a2&sign=c5ddc2ad0574c69373fe90d6b4ee9ab4&is_play_url=1&source=PackSourceEnum_FEED"
    },
    {
        "file_hash": "d7edf3175917fe54078b3c60e7f50a7f",
        "create_time": 1703322911,
        "title": "回复 @天王盖地虎！的评论 抖音电商平台给部分优质新用户发优惠券了，现在领券下单，360度旋转的黑色金属底座手机支架只要这个价，一人限购一单。你们也赶紧看看有没有！#手机支架 #超便宜超划算 #新人福利第一单 #自用好物分享",
        "author": "大嘴超会薅",
        "thumbnail": "https://p11-sign.douyinpic.com/tos-cn-p-0015/ogkAAhYCQAAqsrW4xeSUNbBMOgDVEBnUlQT9re~tplv-dy-360p.jpeg?x-expires=1706518800&x-signature=Djc3%2B699PsCqvt0NjBgCNS5fRqM%3D&from=3213915784&s=PackSourceEnum_FEED&se=false&sc=origin_cover&biz_tag=aweme_video&l=021705310764879fdbddc0200ff0500191901312700ede2cab023",
        "videoPlayUrl": "https://api-hl.amemv.com/aweme/v1/play/?video_id=v0200fg10000cm3aa63c77uah717hm3g&line=1&file_id=3f231c4899da47309e8c3a56405bc59c&sign=d7edf3175917fe54078b3c60e7f50a7f&is_play_url=1&source=PackSourceEnum_FEED"
    },
    {
        "file_hash": "ff8f2064dad7d66324ef44f01427d336",
        "create_time": 1703460065,
        "title": "#娃的奇思妙想我总没想到 #小孩子能有什么坏心眼 #谁教的娃这么优秀😀 #这孩子有点虎 #万万没想到",
        "author": "露露LULU",
        "thumbnail": "https://p6-sign.douyinpic.com/tos-cn-p-0015/okn9LDRCyAviyejAiCLbu4sO1mHSB9gfIlILAA~tplv-dy-360p.jpeg?x-expires=1706518800&x-signature=yoWP3S%2FktNVh73HHNQcHccRGxsI%3D&from=3213915784&s=PackSourceEnum_FEED&se=false&sc=origin_cover&biz_tag=aweme_video&l=021705310755130fdbddc0200ff05004b3325c82d4e0598881d98",
        "videoPlayUrl": "https://api-hl.amemv.com/aweme/v1/play/?video_id=v0200fg10000cm4bpcjc77u8vvf2d290&line=1&file_id=e09f20e5b57a4e5eaf27c51e7b4cb502&sign=ff8f2064dad7d66324ef44f01427d336&is_play_url=1&source=PackSourceEnum_FEED"
    },
    {
        "file_hash": "af12cdc5645d2934de08083e32af0410",
        "create_time": 1703497324,
        "title": "6070老大哥你们辛苦了#真情演绎 #改编歌曲 #支持农民歌手 ",
        "author": "滁州旋哥",
        "thumbnail": "https://p9-sign.douyinpic.com/tos-cn-p-0015/o0yhCFJDVBbIKAfeBAAA5nLA9xA3g8Ny8cTzhp~tplv-dy-360p.jpeg?x-expires=1706518800&x-signature=RnOyNpwZNd%2BrXzH4hnkPFobU7a8%3D&from=3213915784&s=PackSourceEnum_FEED&se=false&sc=origin_cover&biz_tag=aweme_video&l=021705310751382fdbddc0200ff05007069c7e82e0982d1f9fe65",
        "videoPlayUrl": "https://api-hl.amemv.com/aweme/v1/play/?video_id=v0200fg10000cm4ksajc77u11ues0rkg&line=1&file_id=8aaf328285ad4bf89fd15cc260dbb7c9&sign=af12cdc5645d2934de08083e32af0410&is_play_url=1&source=PackSourceEnum_FEED"
    },
    {
        "file_hash": "c9d01b5780cbb24f35b2ff05669f8c47",
        "create_time": 1704279537,
        "title": "来东北得坐狗拉雪橇呀#狗拉雪橇",
        "author": "奔跑吧哈士奇",
        "thumbnail": "https://p11-sign.douyinpic.com/tos-cn-p-0015/o4JGbhwb9lDkJCAFBFnU838TofZlgAkg3MebgA~tplv-dy-360p.jpeg?x-expires=1706518800&x-signature=hMeunUC%2Fqa4zO075TjvBVqw%2BaiM%3D&from=3213915784&s=PackSourceEnum_FEED&se=false&sc=origin_cover&biz_tag=aweme_video&l=021705310696207fdbddc0200ff05004b3325c82d4e0598ec0495",
        "videoPlayUrl": "https://api-hl.amemv.com/aweme/v1/play/?video_id=v0200fg10000cmajrobc77u96tm5u1m0&line=1&file_id=6501b9e86ebb41f294d8eb61d71c0f2d&sign=c9d01b5780cbb24f35b2ff05669f8c47&is_play_url=1&source=PackSourceEnum_FEED"
    },
    {
        "file_hash": "c467e618ddb1d89df51c109d20145dbe",
        "create_time": 1703646141,
        "title": "#中国跳水梦之队 这个集体太牛了，太优秀。#因为热爱所以坚持 #这该死的魅力",
        "author": "UP-sports",
        "thumbnail": "https://p6-sign.douyinpic.com/tos-cn-p-0015/oQxxAMuD9CwbmOocTgD5egGigA3l9uneXAvA8B~tplv-dy-360p.jpeg?x-expires=1706518800&x-signature=4ZLW2wBBY313nOZbrMnhN4Z74z4%3D&from=3213915784&s=PackSourceEnum_FEED&se=false&sc=origin_cover&biz_tag=aweme_video&l=02170531073897900000000000000000000ffff0a1b549982c800",
        "videoPlayUrl": "https://api-hl.amemv.com/aweme/v1/play/?video_id=v0200fg10000cm5p703c77ubmv1tjcbg&line=1&file_id=51ff4b12498c460aa68f0acf867e9770&sign=c467e618ddb1d89df51c109d20145dbe&is_play_url=1&source=PackSourceEnum_FEED"
    },
    {
        "file_hash": "ca463884571284344bcf5f911b535254",
        "create_time": 1704621525,
        "title": "#抖音热歌#百听不厌#梦儿音乐",
        "author": "梦儿音乐",
        "thumbnail": "https://p6-sign.douyinpic.com/tos-cn-p-0015/oYfkBu2PEBEf7iLBrrf5zNIOTCrAsHpw5MqcAA~tplv-dy-360p.jpeg?x-expires=1706518800&x-signature=9N9qHr2vRA3r21iRBZ8TfRF%2FKHE%3D&from=3213915784&s=PackSourceEnum_FEED&se=false&sc=origin_cover&biz_tag=aweme_video&l=021705310829433fdbddc020024062a00000000000000467ed870",
        "videoPlayUrl": "https://api-hl.amemv.com/aweme/v1/play/?video_id=v0200fg10000cmd7abjc77u8in4n8h3g&line=1&file_id=a94664ac0d584473a66c499a862dfc94&sign=ca463884571284344bcf5f911b535254&is_play_url=1&source=PackSourceEnum_FEED"
    },
    {
        "file_hash": "abe12def17f353c6465c9a33444a1af8",
        "create_time": 1704520309,
        "title": "1月4日 黑龙江哈尔滨#浙江温州姑娘一声哥哥给东北大哥整害羞了 东北大哥:别叫哥哥 我害怕",
        "author": "看看温州",
        "thumbnail": "https://p26-sign.douyinpic.com/tos-cn-p-0015/ogvxplUiD8fOAetE2CDQigA1msGmBYnJAQOb9G~tplv-dy-360p.jpeg?x-expires=1706518800&x-signature=EFCRG7gDamvbrcPtVW4fNmMlwbU%3D&from=3213915784&s=PackSourceEnum_FEED&se=false&sc=origin_cover&biz_tag=aweme_video&l=021705310669387fdbddc02002a0004000000000000002821533e",
        "videoPlayUrl": "https://api-hl.amemv.com/aweme/v1/play/?video_id=v0300fg10000cmcekr3c77u4oiivm360&line=1&file_id=7e43b15211e8465ba7f0ea1a72e0bc9b&sign=abe12def17f353c6465c9a33444a1af8&is_play_url=1&source=PackSourceEnum_FEED"
    },
    {
        "file_hash": "fd39563fa54456a55a5a4d262513a2c0",
        "create_time": 1704114000,
        "title": "以后不好意思的事少干 #万万没想到 #搞笑 #猫咪",
        "author": "娱乐课代表孙小寒",
        "thumbnail": "https://p6-sign.douyinpic.com/tos-cn-p-0015/o4CSeUr3yIN8A6ACmByfNWyhIvzAR8A5ngtBXP~tplv-dy-360p.jpeg?x-expires=1706518800&x-signature=RjRX1FcEtc0l66JQg8Q%2BppVS3%2B8%3D&from=3213915784&s=PackSourceEnum_FEED&se=false&sc=origin_cover&biz_tag=aweme_video&l=02170531069869200000000000000000000ffff0a1b549918f783",
        "videoPlayUrl": "https://api-hl.amemv.com/aweme/v1/play/?video_id=v0d00fg10000cm99ijrc77u28jtvi2lg&line=1&file_id=fd8614b3918e42f8a3cecff638a040a7&sign=fd39563fa54456a55a5a4d262513a2c0&is_play_url=1&source=PackSourceEnum_FEED"
    }
]