[
    {
        "file_hash": "3721a2fd1290640ea43de9c2c57aff41",
        "create_time": 1703585621,
        "title": "偏心的爸爸 #探索新奇",
        "author": "默默探索",
        "thumbnail": "https://p6-sign.douyinpic.com/tos-cn-p-0015/owQeFxhyGggAcKN1AmOcpDgIztASfABSbB6yVI~tplv-dy-360p.jpeg?x-expires=1706518800&x-signature=Kb9u8EqiMHcOtVjGiFnVLyLBijg%3D&from=3213915784&s=PackSourceEnum_FEED&se=false&sc=origin_cover&biz_tag=aweme_video&l=02170531087016100000000000000000000ffff0a92f1de41d86b",
        "videoPlayUrl": "https://api-hl.amemv.com/aweme/v1/play/?video_id=v0d00fg10000cm5aeebc77u5g9gpmi80&line=1&file_id=dbb5a76a3e084aebbc6c60c9dac2648d&sign=3721a2fd1290640ea43de9c2c57aff41&is_play_url=1&source=PackSourceEnum_FEED"
    },
    {
        "file_hash": "e2556466a47cc542089df02ef45e25e2",
        "create_time": 1704092700,
        "title": "武汉江汉路跨年现场，气球升空碰上电线爆炸，假期出游，注意安全！#跨年 #危险 #江汉路 #危险行为请勿模仿 #注意安全 @抖音小助手",
        "author": "台州交通广播",
        "thumbnail": "https://p11-sign.douyinpic.com/tos-cn-p-0015/osNntLI9DOWCIzeglSfA9RkbabA9BQAkSIASZo~tplv-dy-360p.jpeg?x-expires=1706518800&x-signature=VpAokxtsYtWBZgB%2FZ%2BvcxfOoFdk%3D&from=3213915784&s=PackSourceEnum_FEED&se=false&sc=origin_cover&biz_tag=aweme_video&l=02170531063165700000000000000000000ffff0a92d7d92c4148",
        "videoPlayUrl": "https://api-hl.amemv.com/aweme/v1/play/?video_id=v0d00fg10000cm94dk3c77u06j7r8vmg&line=1&file_id=73e1f520346d438e9b49b1943750dd8d&sign=e2556466a47cc542089df02ef45e25e2&is_play_url=1&source=PackSourceEnum_FEED"
    },
    {
        "file_hash": "b208893110dc467302d4e6a34236558f",
        "create_time": 1703984105,
        "title": "老爸55岁那年，你突如其来的出现，让我措手不及！在否让你降生的问题上，我和你妈妈做了讨论，你妈妈的态度坚决，最后我们决定把你生下来，老爸56岁那年阴历三月初七，你顺利降生！从那天开始，老爸的幸福生活开始了，没一天后悔过当时的决定！幺女，谢谢你来陪着老爸慢慢变老！老爸要守护着你慢慢长大。。#陪你春夏秋冬陪你慢慢长大",
        "author": "六月♥",
        "thumbnail": "https://p6-sign.douyinpic.com/tos-cn-p-0015/ooJGdLRZnQE90hGuA8eEDm9pYBb0lbAQDegcAk~tplv-dy-360p.jpeg?x-expires=1706518800&x-signature=coD1%2Fr1e7zNAGLOHJVgLgmDRoas%3D&from=3213915784&s=PackSourceEnum_FEED&se=false&sc=origin_cover&biz_tag=aweme_video&l=02170531067475500000000000000000000ffff0a92f1de3aa9a1",
        "videoPlayUrl": "https://api-hl.amemv.com/aweme/v1/play/?video_id=v0300fg10000cm8bnabc77u36bgdscd0&line=1&file_id=8ef1582823dc4d818a4b2345ac286b34&sign=b208893110dc467302d4e6a34236558f&is_play_url=1&source=PackSourceEnum_FEED"
    },
    {
        "file_hash": "ea2919219a53ee4b3669631b2e60d6cd",
        "create_time": 1703466357,
        "title": "秘鲁警察扮圣诞老人平安夜砸门抓毒贩，缴获数百袋大麻和可卡因",
        "author": "环球网",
        "thumbnail": "https://p6-sign.douyinpic.com/tos-cn-p-0015/oEIlCfBeCzymxTAq1gB0AgXzItZv2aAhpNA6GB~tplv-dy-360p.jpeg?x-expires=1706518800&x-signature=SupO9GF8QRJcWcpZEFPJHSXSKZ8%3D&from=3213915784&s=PackSourceEnum_FEED&se=false&sc=origin_cover&biz_tag=aweme_video&l=02170531087465300000000000000000000ffff0a92f1de863edc",
        "videoPlayUrl": "https://api-hl.amemv.com/aweme/v1/play/?video_id=v0200fg10000cm4danrc77u2rd2f6pig&line=1&file_id=16a46a287f534d02ac514aa57391c9f4&sign=ea2919219a53ee4b3669631b2e60d6cd&is_play_url=1&source=PackSourceEnum_FEED"
    },
    {
        "file_hash": "2e6755ff3982b20c377972afc6c55a6b",
        "create_time": 1704767700,
        "title": "男子抱着小孩的车强行卖报纸，孩子妈妈不买，男子用力推孩子（来源：@🌈🌈WQC.🌈🌈 ）05",
        "author": "南阳网",
        "thumbnail": "https://p26-sign.douyinpic.com/tos-cn-p-0015/occ9nDgiQklFcfAAQB5UzNeFVnOsHAbIbDA83E~tplv-dy-360p.jpeg?x-expires=1706518800&x-signature=bqJl0XQ9DNeG2JgeQkOH7vhAhqM%3D&from=3213915784&s=PackSourceEnum_FEED&se=false&sc=origin_cover&biz_tag=aweme_video&l=02170531100412100000000000000000000ffff0a92f1dee0c3fa",
        "videoPlayUrl": "https://api-hl.amemv.com/aweme/v1/play/?video_id=v0d00fg10000cme8rh3c77udp2m4spjg&line=1&file_id=978072cc0c5b4667a434cbe5a09795cd&sign=2e6755ff3982b20c377972afc6c55a6b&is_play_url=1&source=PackSourceEnum_FEED"
    },
    {
        "file_hash": "c0f7614bd815d603cf55348736fc1b72",
        "create_time": 1703562254,
        "title": "小时候玩的“东南西北”，现在卖到3800元“天价”？",
        "author": "玉林晚报",
        "thumbnail": "https://p9-sign.douyinpic.com/tos-cn-p-0015/oAhAbDeAIAAtBAqKByDg5lduDBfYGTxzS2lENI~tplv-dy-360p.jpeg?x-expires=1706518800&x-signature=DWD7%2Bl7jcyLicircGaHNz6S0vTY%3D&from=3213915784&s=PackSourceEnum_FEED&se=false&sc=origin_cover&biz_tag=aweme_video&l=02170531069917900000000000000000000ffff0a93d626b842ca",
        "videoPlayUrl": "https://api-hl.amemv.com/aweme/v1/play/?video_id=v0300fg10000cm54o2bc77u8eubes6ig&line=1&file_id=afa38da7287648a38fcf36a30a9afc56&sign=c0f7614bd815d603cf55348736fc1b72&is_play_url=1&source=PackSourceEnum_FEED"
    },
    {
        "file_hash": "2e9cd8bfe8861890d0ca938f0f6ef87c",
        "create_time": 1703227827,
        "title": "推荐给一二年级的孩子宝妈：孩子看图写话不会写，主要是素材少练的少#看图写话",
        "author": "佳佳妈妈",
        "thumbnail": "https://p11-sign.douyinpic.com/tos-cn-v-c9e10a/ooFze8B5Cnl6heIxLgooD1F4Eb7A4XADjyI9SB~tplv-dy-360p.jpeg?x-expires=1706518800&x-signature=p5h5pLJ0Fx31s3uqz9yOPkIu0uQ%3D&from=3213915784&s=PackSourceEnum_FEED&se=false&sc=origin_cover&biz_tag=aweme_video&l=02170531069102100000000000000000000ffff0a93d54d36b98c",
        "videoPlayUrl": "https://api-hl.amemv.com/aweme/v1/play/?video_id=v03033g10000cm2j3cvog65k8e3e95l0&line=1&file_id=0e7899206be34113b015a9e68edfbc4e&sign=2e9cd8bfe8861890d0ca938f0f6ef87c&is_play_url=1&source=PackSourceEnum_FEED"
    },
    {
        "file_hash": "ba7deea0b8d792f71de1383d3412adff",
        "create_time": 1703550600,
        "title": "宝宝接种麻腮风疫苗，家长牢记这4点 #疫苗 #医学科普 #关爱儿童健康",
        "author": "儿科丁淑贤",
        "thumbnail": "https://p26-sign.douyinpic.com/tos-cn-p-0015/osfkCiAg9EHKgLRLAmBtAJIJfgB6yCBGRDf7EF~tplv-dy-360p.jpeg?x-expires=1706518800&x-signature=XHhNN%2BoU4jrHastQP95i%2BEkRP4g%3D&from=3213915784&s=PackSourceEnum_FEED&se=false&sc=origin_cover&biz_tag=aweme_video&l=02170531067610100000000000000000000ffff0a92d0e8ab48ef",
        "videoPlayUrl": "https://api-hl.amemv.com/aweme/v1/play/?video_id=v0300fg10000cm4i87vog65vg4fm4hj0&line=1&file_id=f3b3b53097f44ccea8d84a53fe6089a2&sign=ba7deea0b8d792f71de1383d3412adff&is_play_url=1&source=PackSourceEnum_FEED"
    },
    {
        "file_hash": "7d502a5bbb3e998693c2d525f12611a1",
        "create_time": 1703421878,
        "title": "锻炼你独立睡有错吗？",
        "author": "盐城一家人",
        "thumbnail": "https://p6-sign.douyinpic.com/tos-cn-p-0015/oIB0EoQAEGAecDETkO7iEEb4IenfBCPARE3LTQ~tplv-dy-360p.jpeg?x-expires=1706518800&x-signature=CLQZBjnr8kbIFnRPVoNMf1HXPpA%3D&from=3213915784&s=PackSourceEnum_FEED&se=false&sc=origin_cover&biz_tag=aweme_video&l=02170531087584600000000000000000000ffff0a92f1de1e6702",
        "videoPlayUrl": "https://api-hl.amemv.com/aweme/v1/play/?video_id=v0200fg10000cm42fa3c77u24v38hh70&line=1&file_id=7b2ef77a14bb4b5ba642fbb9d688db83&sign=7d502a5bbb3e998693c2d525f12611a1&is_play_url=1&source=PackSourceEnum_FEED"
    }
]