[
    {
        "file_hash": "5740bbe414f304f21488bc1c19517cd2",
        "create_time": 1704443326,
        "title": "又是这个位置！！！张梓祎5-7不敌栾浩伟遗憾止步年度32强！！！#路人王2023年度总决赛 #立马成王 #路人王篮球",
        "author": "路人王篮球",
        "thumbnail": "https://p6-sign.douyinpic.com/tos-cn-p-0015/ocfYEb77nAClezdAGXDv7yQclBCQuAngZB9P1A~tplv-dy-360p.jpeg?x-expires=1706518800&x-signature=3pId3tveVFXvacjjgGdC1aQQzxY%3D&from=3213915784&s=PackSourceEnum_FEED&se=false&sc=origin_cover&biz_tag=aweme_video&l=021705311919456fdbddc0200ff05006c5c80f9298a04d33985db",
        "videoPlayUrl": "https://api-hl.amemv.com/aweme/v1/play/?video_id=v0200fg10000cmbrqhjc77ucrndr7tg0&line=1&file_id=e0f289ef323a403cb44e44f3afe81455&sign=5740bbe414f304f21488bc1c19517cd2&is_play_url=1&source=PackSourceEnum_FEED"
    },
    {
        "file_hash": "10ad89d2516756e1a7983d8047d719ea",
        "create_time": 1704103111,
        "title": "#山歌送上热门 #热门音乐🔥 #抖音热歌推荐🔥 #真人真唱",
        "author": "杨琳（210）收徒弟",
        "thumbnail": "https://p26-sign.douyinpic.com/tos-cn-p-0015/osSIghCB9vhIlAjNSOckCoMS1gEzABffDQgAWw~tplv-dy-360p.jpeg?x-expires=1706518800&x-signature=G%2BHb2gJNokWbu2GN6hOaCyu%2Fv0w%3D&from=3213915784&s=PackSourceEnum_FEED&se=false&sc=origin_cover&biz_tag=aweme_video&l=02170531166613800000000000000000000ffff0a913566fe1933",
        "videoPlayUrl": "https://api-hl.amemv.com/aweme/v1/play/?video_id=v0300fg10000cm98nvjc77u28dc710e0&line=1&file_id=e8deaecd428649e8856016c945a19b37&sign=10ad89d2516756e1a7983d8047d719ea&is_play_url=1&source=PackSourceEnum_FEED"
    },
    {
        "file_hash": "bf44c72f0a328fbdf503a1700590c782",
        "create_time": 1702684800,
        "title": "关二爷败走麦城的幕后黑手 #陆逊 #三国 #关羽 #知识榕树计划 #孙权",
        "author": "秒懂历史",
        "thumbnail": "https://p6-sign.douyinpic.com/tos-cn-p-0015/4fe6041865724494a13d5716c2702d03_1702626509~tplv-dy-360p.jpeg?x-expires=1706518800&x-signature=gdgJ78%2FLzrNNeGfbWEah4k6Kr0o%3D&from=3213915784&s=PackSourceEnum_FEED&se=false&sc=origin_cover&biz_tag=aweme_video&l=021705311896967fdbddc0200ff05006c5c80f9298a04d3c6b81a",
        "videoPlayUrl": "https://api-hl.amemv.com/aweme/v1/play/?video_id=v0300fg10000clu08gjc77uej7t3urn0&line=1&file_id=77072dbb5d594a119fe4cc4c68c17fca&sign=bf44c72f0a328fbdf503a1700590c782&is_play_url=1&source=PackSourceEnum_FEED"
    },
    {
        "file_hash": "5cbe57a5f999b8cc4f5704bd7984f0d5",
        "create_time": 1704503280,
        "title": "我泡的茶感觉好喝一点 #茶溜子 #茶溜子是啥梗 #茶具 #盖碗 #今天你喝茶了吗",
        "author": "一步・知窑",
        "thumbnail": "https://p6-sign.douyinpic.com/tos-cn-p-0015/owfBGbCwfAm7ntgQC17DAPCGLBM8QC5RLReRlE~tplv-dy-360p.jpeg?x-expires=1706518800&x-signature=2a9He3AfF1J%2F5%2FOAHwUIEcaghAw%3D&from=3213915784&s=PackSourceEnum_FEED&se=false&sc=origin_cover&biz_tag=aweme_video&l=021705311809569fdbddc0200ff05006c5c80f9298a04d3f204b4",
        "videoPlayUrl": "https://api-hl.amemv.com/aweme/v1/play/?video_id=v0300fg10000cmc1f3rc77ueq53lv8hg&line=1&file_id=4e7f871f516d40af90a93884b26a7a66&sign=5cbe57a5f999b8cc4f5704bd7984f0d5&is_play_url=1&source=PackSourceEnum_FEED"
    },
    {
        "file_hash": "47099bdb3a6d880a8abe377de8a6bee8",
        "create_time": 1703118969,
        "title": "苹果快充 ，来大活动了，一个帐号领一份哦，仅限新人，宝子们快去冲吖！#苹果快充 #苹果快充30w #快充 #充电器 #手机充电",
        "author": "雯静爱生活",
        "thumbnail": "https://p9-sign.douyinpic.com/tos-cn-p-0015/osicyAAGQAz3gPA6ItGABBiDEDfHewKhP1XIN4~tplv-dy-360p.jpeg?x-expires=1706518800&x-signature=h9m2PmZp21QY8psht9uMq5K5hkc%3D&from=3213915784&s=PackSourceEnum_FEED&se=false&sc=origin_cover&biz_tag=aweme_video&l=021705311962026fdbddc0200ff05004b3325c82d4e0598f669cd",
        "videoPlayUrl": "https://api-hl.amemv.com/aweme/v1/play/?video_id=v0300fg10000cm1ogt3c77u648hvea20&line=1&file_id=5ad7ccea01eb49b191a8ab9ad1df87ea&sign=47099bdb3a6d880a8abe377de8a6bee8&is_play_url=1&source=PackSourceEnum_FEED"
    },
    {
        "file_hash": "2bf731af09489eeab410e1bdd51ffbdb",
        "create_time": 1704618571,
        "title": "这一幕真的好治愈#金毛 #萌宠出道计划 #笨蛋小狗 #被小狗治愈的一万个瞬间  #狗狗是生活的解药",
        "author": "小金毛叫七月",
        "thumbnail": "https://p26-sign.douyinpic.com/tos-cn-p-0015/oIlWIaHAAnD0rgOxvaMBbekKiADiXICf9mmO8B~tplv-dy-360p.jpeg?x-expires=1706518800&x-signature=1y%2FqjLKHCSZlkp%2FkjxKZ9zOurqY%3D&from=3213915784&s=PackSourceEnum_FEED&se=false&sc=origin_cover&biz_tag=aweme_video&l=021705311802463fdbddc0200ff05006c5c80f9298a04d3a2d01b",
        "videoPlayUrl": "https://api-hl.amemv.com/aweme/v1/play/?video_id=v0300fg10000cmd6h5rc77u5fghqm7ng&line=1&file_id=66c37ef93d9b4659a9d55c10f527d70d&sign=2bf731af09489eeab410e1bdd51ffbdb&is_play_url=1&source=PackSourceEnum_FEED"
    },
    {
        "file_hash": "6796caa9f4728de4a5fc6e67a6ee9723",
        "create_time": 1704306517,
        "title": "#陶喆 #单依纯 天天",
        "author": "什么都存",
        "thumbnail": "https://p11-sign.douyinpic.com/tos-cn-p-0015/oc7V12NhpReIBIYINBfyApOzg0NGDAH1NtyARD~tplv-dy-360p.jpeg?x-expires=1706518800&x-signature=H%2FUQnMyjDv98lfZlkgcpo1L9Aro%3D&from=3213915784&s=PackSourceEnum_FEED&se=false&sc=origin_cover&biz_tag=aweme_video&l=021705311818344fdbddc0200ff05006c5c80f9298a04d355e129",
        "videoPlayUrl": "https://api-hl.amemv.com/aweme/v1/play/?video_id=v0d00fg10000cmaqdqjc77u3r4913rq0&line=1&file_id=637e97101af34112a352fc8eaf2ef38a&sign=6796caa9f4728de4a5fc6e67a6ee9723&is_play_url=1&source=PackSourceEnum_FEED"
    },
    {
        "file_hash": "988a0674b2e13a88c974fed0ad0bcb68",
        "create_time": 1704533761,
        "title": "原著温实初比剧版温实初疯癫多了！ #孙俪  #陈建斌  #温实初  #新晋癫公温太医  #九月吐槽大会 ",
        "author": "九月清宫",
        "thumbnail": "https://p6-sign.douyinpic.com/tos-cn-p-0015/oMBt9vDHmeRf8rKLZEyLDLAECKwFQAlRAQgAwj~tplv-dy-360p.jpeg?x-expires=1706518800&x-signature=7n4%2FFJuatv4u6yszZ%2FwV%2Bm1j3Lc%3D&from=3213915784&s=PackSourceEnum_FEED&se=false&sc=origin_cover&biz_tag=aweme_video&l=021705311638503fdbddc0200ff05006c5c80f9298a04d38ff947",
        "videoPlayUrl": "https://api-hl.amemv.com/aweme/v1/play/?video_id=v0300fg10000cmchu07og65o11cmhhig&line=1&file_id=db0467a4884f47659d6a19d83abb2e6b&sign=988a0674b2e13a88c974fed0ad0bcb68&is_play_url=1&source=PackSourceEnum_FEED"
    },
    {
        "file_hash": "0ec155104c43c4cb79e97e0c096f1a47",
        "create_time": 1704392137,
        "title": "深夜也要活跃",
        "author": "清风朱  零食分享",
        "thumbnail": "https://p6-sign.douyinpic.com/tos-cn-p-0015/os3rICkYQzAc9ylwv3fNAeyBOAGgmB8yIJt0Wh~tplv-dy-360p.jpeg?x-expires=1706518800&x-signature=oX3EpVXoshTVuUpPHy8dT3yMRQY%3D&from=3213915784&s=PackSourceEnum_FEED&se=false&sc=origin_cover&biz_tag=aweme_video&l=021705311642648fdbddc0200ff05006c9c12876d898e8453defa",
        "videoPlayUrl": "https://api-hl.amemv.com/aweme/v1/play/?video_id=v0200fg10000cmbfb8bc77udcch4d6i0&line=1&file_id=a3a851c735a64933a3830853238bd12b&sign=0ec155104c43c4cb79e97e0c096f1a47&is_play_url=1&source=PackSourceEnum_FEED"
    },
    {
        "file_hash": "9cd596681d8c9b6b35de1128607c02d9",
        "create_time": 1703910000,
        "title": "国务院：元旦当天加班，发放3倍工资， 30日，31日加班应补休或发2倍工资，不得以调休方式代替。",
        "author": "帮女郎在行动",
        "thumbnail": "https://p11-sign.douyinpic.com/tos-cn-p-0015/ogIOIBAE98SjAanlf8y2blN6eC1AvDtgNBvQBn~tplv-dy-360p.jpeg?x-expires=1706518800&x-signature=9xpBin1XtLa3DXvIwH2JjEnPMQA%3D&from=3213915784&s=PackSourceEnum_FEED&se=false&sc=origin_cover&biz_tag=aweme_video&l=021705311839295fdbddc0200ff05004b3325c82d4e05981986c8",
        "videoPlayUrl": "https://api-hl.amemv.com/aweme/v1/play/?video_id=v0d00fg10000cm7f1brc77udfv941iv0&line=1&file_id=09ffb56ae8134aa9b00b7db811568a62&sign=9cd596681d8c9b6b35de1128607c02d9&is_play_url=1&source=PackSourceEnum_FEED"
    }
]