[
    {
        "file_hash": "6ff8c248a837247419824f314cdcb547",
        "create_time": 1704424127,
        "title": "说好了啊！我们每天都要贴贴～",
        "author": "金三柜",
        "thumbnail": "https://p11-sign.douyinpic.com/tos-cn-p-0015/oQdKQNWqcnAY5iQXl383A9lCcA1gfBflQzb4uD~tplv-dy-360p.jpeg?x-expires=1706518800&x-signature=H37i%2BoRQNuRLwUHkN1nNuduyYpI%3D&from=3213915784&s=PackSourceEnum_FEED&se=false&sc=origin_cover&biz_tag=aweme_video&l=021705311643485fdbddc0200ff05007880f92fa5f5d9a71e420f",
        "videoPlayUrl": "https://api-hl.amemv.com/aweme/v1/play/?video_id=v0d00fg10000cmbn573c77udta5jqvlg&line=1&file_id=c8aec44284a440ba81ceba1f8376d451&sign=6ff8c248a837247419824f314cdcb547&is_play_url=1&source=PackSourceEnum_FEED"
    },
    {
        "file_hash": "7aea3b5f8f6b45aefa807f5dd19e85cf",
        "create_time": 1704533348,
        "title": "#看家护院 #第一批回村的狗在干什么",
        "author": "sandalwood",
        "thumbnail": "https://p9-sign.douyinpic.com/tos-cn-p-0015/okFYmVGwgHnIeYZBjOLByPsCMgEmaxe2AAf4M7~tplv-dy-360p.jpeg?x-expires=1706518800&x-signature=TOvopGbsqHaH1iAbFk3JZrfQO8Q%3D&from=3213915784&s=PackSourceEnum_FEED&se=false&sc=origin_cover&biz_tag=aweme_video&l=021705311634585fdbddc0200ff05007880f92fa5f5d9a7a484ff",
        "videoPlayUrl": "https://api-hl.amemv.com/aweme/v1/play/?video_id=v0d00fg10000cmchpj3c77u2nuc8opu0&line=1&file_id=9887d59469994c6681e48b11980306ef&sign=7aea3b5f8f6b45aefa807f5dd19e85cf&is_play_url=1&source=PackSourceEnum_FEED"
    },
    {
        "file_hash": "ea0396a7a57d9cc6c611d6194a3a2012",
        "create_time": 1704169868,
        "title": "王志芬  数字签：7sm3L，你看懂了吗？你的名字由哪些数字组成？#签名设计 #手写 #签名 #数字签",
        "author": "松哥签名设计",
        "thumbnail": "https://p9-sign.douyinpic.com/tos-cn-p-0015/os9BEfA1BKfN2Gk5YlgGAqNTUWIAIyKXz5kXhg~tplv-dy-360p.jpeg?x-expires=1706518800&x-signature=2IJ9wnXVbonND2xIPWc%2BBC7d%2BsI%3D&from=3213915784&s=PackSourceEnum_FEED&se=false&sc=origin_cover&biz_tag=aweme_video&l=021705311661480fdbddc0200ff05007880f92fa5f5d9a7ce3f4f",
        "videoPlayUrl": "https://api-hl.amemv.com/aweme/v1/play/?video_id=v0d00fg10000cm9p2fjc77u6siisknl0&line=1&file_id=bc93b18ad90941bfba65c9275a83e5ed&sign=ea0396a7a57d9cc6c611d6194a3a2012&is_play_url=1&source=PackSourceEnum_FEED"
    },
    {
        "file_hash": "9ec392ce6d5a29b5b94639a3affefa31",
        "create_time": 1703294982,
        "title": "缅北电诈亲历者郝振东：借助网络帮助更多人，做个普通人做点好事。#又见2023",
        "author": "四川观察",
        "thumbnail": "https://p3-sign.douyinpic.com/tos-cn-p-0015/owQBMeLOGC2vBJneAbhRAaCADkckwDYKs8fA7A~tplv-dy-360p.jpeg?x-expires=1706518800&x-signature=2n2ySGDiXulDT1ouZ1ykLxDcSOs%3D&from=3213915784&s=PackSourceEnum_FEED&se=false&sc=origin_cover&biz_tag=aweme_video&l=02170531186788900000000000000000000ffff0a2eb6a63cf34c",
        "videoPlayUrl": "https://api-hl.amemv.com/aweme/v1/play/?video_id=v0d00fg10000cm33fijc77uc3kgjcns0&line=1&file_id=93d82a34b2264c60895dc8f44b7f879a&sign=9ec392ce6d5a29b5b94639a3affefa31&is_play_url=1&source=PackSourceEnum_FEED"
    },
    {
        "file_hash": "22d9bfc0cd425bc5cd9c93917dfcbe52",
        "create_time": 1703073512,
        "title": "他们从来不看好你 但认输从不是你的性格#中长跑 #冬训",
        "author": "Run🥱",
        "thumbnail": "https://p26-sign.douyinpic.com/tos-cn-p-0015/be99775ef00a469b9fe9625423a8a95c~tplv-dy-360p.jpeg?x-expires=1706518800&x-signature=VLw%2BDKT2mN43by%2FsLElN16ik%2F%2BI%3D&from=3213915784&s=PackSourceEnum_FEED&se=false&sc=origin_cover&biz_tag=aweme_video&l=021705311750727fdbddc0200ff05007880f92fa5f5d9a770611b",
        "videoPlayUrl": "https://api-hl.amemv.com/aweme/v1/play/?video_id=v0d00fg10000cm1ddk3c77u53n4u72fg&line=1&file_id=6eb774cc620340c8b5fdbed46585fe28&sign=22d9bfc0cd425bc5cd9c93917dfcbe52&is_play_url=1&source=PackSourceEnum_FEED"
    },
    {
        "file_hash": "bae42ce4e5481faf5d31e92860019479",
        "create_time": 1702722312,
        "title": "好震惊 震惊我全家#韩国 #万万没想到 #震惊 #娱乐评论大赏",
        "author": "茶言茶娱",
        "thumbnail": "https://p9-sign.douyinpic.com/tos-cn-p-0015/903f775605744afe96c9de823261a3c5_1702722316~tplv-dy-360p.jpeg?x-expires=1706518800&x-signature=N1qSFjGY4lLjtcas%2FBuAcAyu3WY%3D&from=3213915784&s=PackSourceEnum_FEED&se=false&sc=origin_cover&biz_tag=aweme_video&l=02170531176396800000000000000000000ffff0a962f0cdd99ed",
        "videoPlayUrl": "https://api-hl.amemv.com/aweme/v1/play/?video_id=v0300fg10000clunlhbc77u01vpogd80&line=1&file_id=2b8457dcb0794974a4ad2d7432d9535f&sign=bae42ce4e5481faf5d31e92860019479&is_play_url=1&source=PackSourceEnum_FEED"
    },
    {
        "file_hash": "6db6fb1c27540eeac3379cd0ccc12b64",
        "create_time": 1704899092,
        "title": "未婚率… 催婚催不动？",
        "author": "丸子妹",
        "thumbnail": "https://p9-sign.douyinpic.com/tos-cn-p-0015/oAQUw9Blen9ZHepzUGcnDgCADkAbAS7DzQsdDr~tplv-dy-360p.jpeg?x-expires=1706518800&x-signature=3M%2BKJhKrf4LXHOXorKUVn7nTU4g%3D&from=3213915784&s=PackSourceEnum_FEED&se=false&sc=origin_cover&biz_tag=aweme_video&l=021705311789790fdbddc02002a0004000000000000002824702c",
        "videoPlayUrl": "https://api-hl.amemv.com/aweme/v1/play/?video_id=v0300fg10000cmfb3kjc77uaern79i1g&line=1&file_id=08fd57a844234bf0a37d6fa26a266e09&sign=6db6fb1c27540eeac3379cd0ccc12b64&is_play_url=1&source=PackSourceEnum_FEED"
    },
    {
        "file_hash": "b37b8932889e2ea53156a04069488f9d",
        "create_time": 1704576585,
        "title": "#投资#查理芒格 #独立思考 #巴菲特 #书",
        "author": "老于/休假版",
        "thumbnail": "https://p6-sign.douyinpic.com/tos-cn-p-0015/oUqMRBNzyBxAkvmfhJWOPAIgAAFZNzpgGeIkSB~tplv-dy-360p.jpeg?x-expires=1706518800&x-signature=84fouC8LQsJpLN3Pm4mB%2BUjsz3Y%3D&from=3213915784&s=PackSourceEnum_FEED&se=false&sc=origin_cover&biz_tag=aweme_video&l=021705311988894fdbddc0200ff05007880f92fa5f5d9a7222c4d",
        "videoPlayUrl": "https://api-hl.amemv.com/aweme/v1/play/?video_id=v0d00fg10000cmcsc0jc77u0g1gmd4l0&line=1&file_id=82b339b5c30f48b699e8e8f590ee93f7&sign=b37b8932889e2ea53156a04069488f9d&is_play_url=1&source=PackSourceEnum_FEED"
    },
    {
        "file_hash": "6bdee452aafeadf97be271683a68728c",
        "create_time": 1704430800,
        "title": "主人用中药骗小猫咪，猫咪以为是好吃的 闻了一下 （视频来源于：@吃饭去了 ）#猫咪 #猫咪的迷惑行为 #萌宠出道计划 #萌宠成精了 #搞笑",
        "author": "新闻视界",
        "thumbnail": "https://p9-sign.douyinpic.com/tos-cn-p-0015/oYIjWyKAUBz4hge1JgIAOfhAXazGCyA62tBJ8N~tplv-dy-360p.jpeg?x-expires=1706518800&x-signature=qHDHmege8oOXQRCyUVVDAlzMNYM%3D&from=3213915784&s=PackSourceEnum_FEED&se=false&sc=origin_cover&biz_tag=aweme_video&l=021705311817959fdbddc0200ff05007880f92fa5f5d9a7d936f1",
        "videoPlayUrl": "https://api-hl.amemv.com/aweme/v1/play/?video_id=v0d00fg10000cmb6n4rc77u9rdc0k20g&line=1&file_id=09be1ea0c9f944c4a50c3010ede912c1&sign=6bdee452aafeadf97be271683a68728c&is_play_url=1&source=PackSourceEnum_FEED"
    },
    {
        "file_hash": "81b0db219d229f1e6a6a7f615f6dc5fa",
        "create_time": 1704025583,
        "title": "全国巡洗之江苏镇江布偶猫 这只猫确实有点难度 但是对我来说有手就行 还特意去吃了镇江锅盖面 #宠小哥洗护 #布偶猫",
        "author": "宠小哥",
        "thumbnail": "https://p9-sign.douyinpic.com/tos-cn-p-0015/okpIghFBe6VIyAXtRqjyOKjQIFyzABf5NAZAOV~tplv-dy-360p.jpeg?x-expires=1706518800&x-signature=G6fl7WQcDENsyJ2AUFH0aa8bEhE%3D&from=3213915784&s=PackSourceEnum_FEED&se=false&sc=origin_cover&biz_tag=aweme_video&l=021705311674011fdbddc0200ff05007880f92fa5f5d9a78ad791",
        "videoPlayUrl": "https://api-hl.amemv.com/aweme/v1/play/?video_id=v0d00fg10000cm8lqsrc77u5022la5hg&line=1&file_id=1c736d9084224cf0aee172abbfdd7a1f&sign=81b0db219d229f1e6a6a7f615f6dc5fa&is_play_url=1&source=PackSourceEnum_FEED"
    }
]