[
    {
        "file_hash": "efb4f7ad3d3a1035a9ea6c6bbd43825d",
        "create_time": 1704242525,
        "title": "#育婴知识 #孕期知识 #育儿 #母婴育儿",
        "author": "@辉姐育儿",
        "thumbnail": "https://p26-sign.douyinpic.com/tos-cn-p-0015/oAe0rkfllAz3Au9DDKqKk9WBD8pbQX9DAFwgQn~tplv-dy-360p.jpeg?x-expires=1706518800&x-signature=zI4FpP1YFeeBDa1AwZ26Ainf%2B0U%3D&from=3213915784&s=PackSourceEnum_FEED&se=false&sc=origin_cover&biz_tag=aweme_video&l=021705311657246fdbddc02002a00040000000000000028654b5f",
        "videoPlayUrl": "https://api-hl.amemv.com/aweme/v1/play/?video_id=v0300fg10000cmaaqfbc77u51dbrnnc0&line=1&file_id=67aa98f7a2c742769775b4457ca7bdb9&sign=efb4f7ad3d3a1035a9ea6c6bbd43825d&is_play_url=1&source=PackSourceEnum_FEED"
    },
    {
        "file_hash": "ea0396a7a57d9cc6c611d6194a3a2012",
        "create_time": 1704169868,
        "title": "王志芬  数字签：7sm3L，你看懂了吗？你的名字由哪些数字组成？#签名设计 #手写 #签名 #数字签",
        "author": "松哥签名设计",
        "thumbnail": "https://p9-sign.douyinpic.com/tos-cn-p-0015/os9BEfA1BKfN2Gk5YlgGAqNTUWIAIyKXz5kXhg~tplv-dy-360p.jpeg?x-expires=1706518800&x-signature=2IJ9wnXVbonND2xIPWc%2BBC7d%2BsI%3D&from=3213915784&s=PackSourceEnum_FEED&se=false&sc=origin_cover&biz_tag=aweme_video&l=02170531165589100000000000000000000ffff0a1b4f552c9627",
        "videoPlayUrl": "https://api-hl.amemv.com/aweme/v1/play/?video_id=v0d00fg10000cm9p2fjc77u6siisknl0&line=1&file_id=bc93b18ad90941bfba65c9275a83e5ed&sign=ea0396a7a57d9cc6c611d6194a3a2012&is_play_url=1&source=PackSourceEnum_FEED"
    },
    {
        "file_hash": "44cd704022db2611817938a83ab70448",
        "create_time": 1704775155,
        "title": "",
        "author": "꧁꫞꯭女王💔冷血꫞꧂",
        "thumbnail": "https://p11-sign.douyinpic.com/tos-cn-p-0015/ogb9gA35EQtI5vHzMABpgehNgC8eAlAMnRnCjD~tplv-dy-360p.jpeg?x-expires=1706518800&x-signature=%2FHfs%2BD0h5glEeiOVmeNdZ%2FU8Hsk%3D&from=3213915784&s=PackSourceEnum_FEED&se=false&sc=origin_cover&biz_tag=aweme_video&l=021705311985184fdbddc0200ff05006c5c80f9298a04d3cb20d2",
        "videoPlayUrl": "https://api-hl.amemv.com/aweme/v1/play/?video_id=v0200fg10000cmecrrbc77u474f18j0g&line=1&file_id=82365fee222842138763e1ce62393545&sign=44cd704022db2611817938a83ab70448&is_play_url=1&source=PackSourceEnum_FEED"
    },
    {
        "file_hash": "e455296bb91761f5b49787eab1b84c5f",
        "create_time": 1702993268,
        "title": "正在努力的是，用世界能懂的方式，向世界讲述真正的东方哲学。嘿，你好，我是张突然是个，裁缝啊。#旗袍 #汉服 #中国风 #服装设计",
        "author": "张突然",
        "thumbnail": "https://p3-sign.douyinpic.com/tos-cn-p-0015/oQ2wQDDnC4bADJZAnlZBAiWAXeepI9AglHBDXg~tplv-dy-360p.jpeg?x-expires=1706518800&x-signature=tBba3Fea52EwRQL%2FRFwcJjmUv0w%3D&from=3213915784&s=PackSourceEnum_FEED&se=false&sc=origin_cover&biz_tag=aweme_video&l=02170531196708300000000000000000000ffff0a9ff746195bfd",
        "videoPlayUrl": "https://api-hl.amemv.com/aweme/v1/play/?video_id=v0300fg10000cm0po1rc77u4u12a3h5g&line=1&file_id=b36781db245f48f1959a0417c219d7ed&sign=e455296bb91761f5b49787eab1b84c5f&is_play_url=1&source=PackSourceEnum_FEED"
    },
    {
        "file_hash": "e9f9ad1a226a608f87f763ac9b5a4dba",
        "create_time": 1704441885,
        "title": "凌晨三点乘客手机落出租答应20元送回，到场却反悔，司机直接送至18公里外派出所#社会百态 #出租 #你怎么看",
        "author": "越牛新闻",
        "thumbnail": "https://p6-sign.douyinpic.com/tos-cn-p-0015/ocwyzNCFAhWNIBuPRBygfBhXIje9ASJpKA9GIK~tplv-dy-360p.jpeg?x-expires=1706518800&x-signature=LP4gHsLgWmYLoW0%2FO62P0fGfCZ0%3D&from=3213915784&s=PackSourceEnum_FEED&se=false&sc=origin_cover&biz_tag=aweme_video&l=02170531199242900000000000000000000ffff0a1b2b9c511031",
        "videoPlayUrl": "https://api-hl.amemv.com/aweme/v1/play/?video_id=v0d00fg10000cmbrg2jc77u28o90ifkg&line=1&file_id=2dca58af668e4913bd92760faee522cb&sign=e9f9ad1a226a608f87f763ac9b5a4dba&is_play_url=1&source=PackSourceEnum_FEED"
    },
    {
        "file_hash": "1950ad816229ded2a27299846543fe38",
        "create_time": 1703680625,
        "title": "重庆开州区6位村民疑似气体中毒，3人抢救无效死亡，事发地堆放了大量的柑橘。",
        "author": "逐浪新闻",
        "thumbnail": "https://p6-sign.douyinpic.com/tos-cn-p-0015/oIBAUjBune6fABDzOlRC9cgRpDIObA4nIMGnJI~tplv-dy-360p.jpeg?x-expires=1706518800&x-signature=jWanCW9Yxa5R5BcvjuQoWtftThk%3D&from=3213915784&s=PackSourceEnum_FEED&se=false&sc=origin_cover&biz_tag=aweme_video&l=021705311942990fdbddc02002805380000000000000025a809ed",
        "videoPlayUrl": "https://api-hl.amemv.com/aweme/v1/play/?video_id=v0300fg10000cm61kgjc77u8pqgtqsfg&line=1&file_id=45df4807e0d943c9914e0b33578ab5b3&sign=1950ad816229ded2a27299846543fe38&is_play_url=1&source=PackSourceEnum_FEED"
    },
    {
        "file_hash": "3455f28a3dff115d55228d462633e84a",
        "create_time": 1703410268,
        "title": "#斐乐儿童这个冬天根本不怕冷！防冷防寒，快给孩子准备上！#人类幼崽的防寒手册#抖in宝贝计划",
        "author": "FILAKIDS官方旗舰店",
        "thumbnail": "https://p6-sign.douyinpic.com/tos-cn-p-0015/oAOg1RnJQeApAyCDuCDGPeBuBZfnb7FPL2lEAE~tplv-dy-360p.jpeg?x-expires=1706518800&x-signature=Hb3TvKBucT3pswYgORjhsbH%2B%2BPo%3D&from=3213915784&s=PackSourceEnum_FEED&se=false&sc=origin_cover&biz_tag=aweme_video&l=02170531195436200000000000000000000ffff0a19548fd5743c",
        "videoPlayUrl": "https://api-hl.amemv.com/aweme/v1/play/?video_id=v0300fg10000cm3vkibc77ucjmob02bg&line=1&file_id=88781fd43a684d199d9f4259f9ecc469&sign=3455f28a3dff115d55228d462633e84a&is_play_url=1&source=PackSourceEnum_FEED"
    },
    {
        "file_hash": "6c3364f144c0aef6e23261e85233b9e0",
        "create_time": 1704442675,
        "title": "“顶流鹅” 可爱出场，引起“qiě”们的阵阵欢呼",
        "author": "新华社",
        "thumbnail": "https://p6-sign.douyinpic.com/tos-cn-p-0015/o4zAAycC3IA9I9BoONusXtAUSghBdBz2yI5eDf~tplv-dy-360p.jpeg?x-expires=1706518800&x-signature=%2B%2F74iNCfCfNG2Jkzli8eGDLOfu8%3D&from=3213915784&s=PackSourceEnum_FEED&se=false&sc=origin_cover&biz_tag=aweme_video&l=02170531199242900000000000000000000ffff0a1b2b9c511031",
        "videoPlayUrl": "https://api-hl.amemv.com/aweme/v1/play/?video_id=v0200fg10000cmbrcebc77u1eq74s890&line=1&file_id=37fd99e40d4e443599ac319013b14920&sign=6c3364f144c0aef6e23261e85233b9e0&is_play_url=1&source=PackSourceEnum_FEED"
    }
]