[
    {
        "file_hash": "c251816a756386f3e8a3b1983bdab90a",
        "create_time": 1705128319,
        "title": "央视曝光一县医院全链条式腐败：院长接受医药代表1400多万贿赂、科长半年挪用2424万公款去网络赌博",
        "author": "Vista看天下",
        "thumbnail": "https://p11-sign.douyinpic.com/tos-cn-p-0015/oQiec8B9DnliogAFMgetAjYcQbLKoEADNGQNjD~tplv-dy-360p.jpeg?x-expires=1706518800&x-signature=N2WNp2%2F1UKyNHhVGWOig8sy680w%3D&from=3213915784&s=PackSourceEnum_FEED&se=false&sc=origin_cover&biz_tag=aweme_video&l=021705311898945fdbddc0200ff05007069c7e82e0982d1ec67c9",
        "videoPlayUrl": "https://api-hl.amemv.com/aweme/v1/play/?video_id=v0300fg10000cmh32ijc77u752r0e2vg&line=1&file_id=3a88b867b2574b62b71a196645ab4bf1&sign=c251816a756386f3e8a3b1983bdab90a&is_play_url=1&source=PackSourceEnum_FEED"
    },
    {
        "file_hash": "5c1d4b64a27a0d9706d9dd2b12845c38",
        "create_time": 1704515914,
        "title": "雷吉致命失误，班凯罗关键两罚致胜，魔术逆转掘金。#班凯罗关键两罚致胜 #魔术逆转掘金 #NBA",
        "author": "咪咕体育",
        "thumbnail": "https://p11-sign.douyinpic.com/tos-cn-p-0015/okuAyUz2fz4dz2YvCeRSABZAhIQIINANgyGOgh~tplv-dy-360p.jpeg?x-expires=1706518800&x-signature=XhE1Rn7mQYM1fLLyhmxCbo%2FOlsM%3D&from=3213915784&s=PackSourceEnum_FEED&se=false&sc=origin_cover&biz_tag=aweme_video&l=021705311810347fdbddc0200ff05007069c7e82e0982d1dc4714",
        "videoPlayUrl": "https://api-hl.amemv.com/aweme/v1/play/?video_id=v0d00fg10000cmcdiejc77u8gji1jo90&line=1&file_id=e566e35ee1bf4a30b8cc40c5b6f15815&sign=5c1d4b64a27a0d9706d9dd2b12845c38&is_play_url=1&source=PackSourceEnum_FEED"
    },
    {
        "file_hash": "a83c559b19e3fda67d8e853a560d424c",
        "create_time": 1703038368,
        "title": "#东北甜妹 #腼腆害羞内向社恐文静小男生 #没有人可以拒绝甜妹",
        "author": "口水格格",
        "thumbnail": "https://p26-sign.douyinpic.com/tos-cn-p-0015/oQblyu9eA2ng9CCDKTe0GQFaAw6EAgBbkHDC0A~tplv-dy-360p.jpeg?x-expires=1706518800&x-signature=njenq8FaafqSbonXvlqqQerncts%3D&from=3213915784&s=PackSourceEnum_FEED&se=false&sc=origin_cover&biz_tag=aweme_video&l=021705311880629fdbddc0200ff05007069c7e82e0982d111b5b4",
        "videoPlayUrl": "https://api-hl.amemv.com/aweme/v1/play/?video_id=v0200fg10000cm14q1jc77udt0jre3s0&line=1&file_id=ce587deefa3243669b026c5470b38cfe&sign=a83c559b19e3fda67d8e853a560d424c&is_play_url=1&source=PackSourceEnum_FEED"
    },
    {
        "file_hash": "d4c71454bb58806681699837818fb723",
        "create_time": 1704679773,
        "title": "长台贴库球要这么打、#台球 #一分钟干货教学 #台球教学 #是时候展现真正的技术了",
        "author": "小新子x",
        "thumbnail": "https://p9-sign.douyinpic.com/tos-cn-p-0015/oMbbllfxD6J1AeLy4BCIJgAWXYimBPnaAIVb9J~tplv-dy-360p.jpeg?x-expires=1706518800&x-signature=vhTB%2FI2Wvjy7BTLWnlNnz0WLg%2BI%3D&from=3213915784&s=PackSourceEnum_FEED&se=false&sc=origin_cover&biz_tag=aweme_video&l=02170531179903700000000000000000000ffff0a1b4f55bd88a3",
        "videoPlayUrl": "https://api-hl.amemv.com/aweme/v1/play/?video_id=v0200fg10000cmdlim3c77udcfrfg97g&line=1&file_id=0b3b9763f3f943b1802b47145a3c86af&sign=d4c71454bb58806681699837818fb723&is_play_url=1&source=PackSourceEnum_FEED"
    },
    {
        "file_hash": "e86748bdf4fb52511b96939534501020",
        "create_time": 1704808544,
        "title": "9日多哈上训高清图来咯#国乒 #樊振东 #马龙#孙颖莎 #林高远@DOU+上热门 @DOU+小助手",
        "author": "小马哥说乒乓",
        "thumbnail": "https://p26-sign.douyinpic.com/tos-cn-p-0015/oMm9FnDeqChWTdCGAZALUAgQnbANeABlbBFlVQ~tplv-dy-360p.jpeg?x-expires=1706518800&x-signature=jYWVdaU0VDerETmRiNC7ETcit%2B8%3D&from=3213915784&s=PackSourceEnum_FEED&se=false&sc=origin_cover&biz_tag=aweme_video&l=021705311907145fdbddc0200ff05007069c7e82e0982d1975af0",
        "videoPlayUrl": "https://api-hl.amemv.com/aweme/v1/play/?video_id=v0200fg10000cmel02rc77u2ob6kripg&line=1&file_id=7cff79224e5e4cf494b452830504a62f&sign=e86748bdf4fb52511b96939534501020&is_play_url=1&source=PackSourceEnum_FEED"
    },
    {
        "file_hash": "3afab5cc27168db56140b1aa631d3736",
        "create_time": 1704978698,
        "title": "许飞深情演唱#父亲写的散文诗 歌词句句催人泪下，深情感人肺腑，忍不住泪目#许飞",
        "author": "开车听曲【车载优盘】",
        "thumbnail": "https://p11-sign.douyinpic.com/tos-cn-p-0015/oA9ggaINenAMyj5YA88JB7LCZBbAnCkPgjbefD~tplv-dy-360p.jpeg?x-expires=1706518800&x-signature=DunEqV6USSAATJ%2Bfu6A%2Fb3xa9ZM%3D&from=3213915784&s=PackSourceEnum_FEED&se=false&sc=origin_cover&biz_tag=aweme_video&l=021705311902056fdbddc0200ff05007069c7e82e0982d1a139a6",
        "videoPlayUrl": "https://api-hl.amemv.com/aweme/v1/play/?video_id=v0d00fg10000cmfu87jc77u29m73dpp0&line=1&file_id=4617192dd9b247e493f9673925f3e3cf&sign=3afab5cc27168db56140b1aa631d3736&is_play_url=1&source=PackSourceEnum_FEED"
    },
    {
        "file_hash": "24ed47ec019b0b32c3f796023b0b34f9",
        "create_time": 1704890782,
        "title": "正在直播！#对话退钱哥聊国足反腐片 ，“球迷付出的真感情，看到的却是球员一场假戏”",
        "author": "大象新闻",
        "thumbnail": "https://p11-sign.douyinpic.com/tos-cn-p-0015/o4snDQwQn7oFpBkRgDbaAABXmeuidlAAOVg9ae~tplv-dy-360p.jpeg?x-expires=1706518800&x-signature=a7Msu0Y946hmG7uA2t8j%2BU%2FeaSI%3D&from=3213915784&s=PackSourceEnum_FEED&se=false&sc=origin_cover&biz_tag=aweme_video&l=02170531158184600000000000000000000ffff0a1a2b98a0f414",
        "videoPlayUrl": "https://api-hl.amemv.com/aweme/v1/play/?video_id=v0300fg10000cmf92s3c77uarkbn68o0&line=1&file_id=b2a0ac92c8fe4ea4bc3dfa40b89931d1&sign=24ed47ec019b0b32c3f796023b0b34f9&is_play_url=1&source=PackSourceEnum_FEED"
    },
    {
        "file_hash": "53313d97d160281c04d43fb8943243b1",
        "create_time": 1703491606,
        "title": "更适合小月龄宝宝的冻干米饼闪亮登场！",
        "author": "喵小侠旗舰店",
        "thumbnail": "https://p3-sign.douyinpic.com/tos-cn-p-0015/oAqmBeANfDSiiZJLAUBCAOIJbfBKHCBGwn47E8~tplv-dy-360p.jpeg?x-expires=1706518800&x-signature=34VKDwWfs1nYkGIB%2B9697ySOB64%3D&from=3213915784&s=PackSourceEnum_FEED&se=false&sc=origin_cover&biz_tag=aweme_video&l=021705311950395fdbddc0200ff0500c407fc1c4b494bcad738f8",
        "videoPlayUrl": "https://api-hl.amemv.com/aweme/v1/play/?video_id=v0300fg10000cm4jfqjc77ue48jvtga0&line=1&file_id=8f86b45d7ec04226bf39451a901f245a&sign=53313d97d160281c04d43fb8943243b1&is_play_url=1&source=PackSourceEnum_FEED"
    },
    {
        "file_hash": "533519ee37bccc7c079dd72cd5bab1dd",
        "create_time": 1703498903,
        "title": "新疆奶酪包四拼口味来啦，用料足够狠，四个口味直接吃到爽#好吃到停不下来  #新疆奶酪包 #亲子时光",
        "author": "农村小欣宝",
        "thumbnail": "https://p11-sign.douyinpic.com/tos-cn-p-0015/ocgSJLuBQCqfjA7eINAAe4HBUVPm0EDvB2QYJa~tplv-dy-360p.jpeg?x-expires=1706518800&x-signature=PrVu1Mm6AGWQSnUieNgPs33MkSY%3D&from=3213915784&s=PackSourceEnum_FEED&se=false&sc=origin_cover&biz_tag=aweme_video&l=021705311714110fdbddc0200ff05007069c7e82e0982d1190a26",
        "videoPlayUrl": "https://api-hl.amemv.com/aweme/v1/play/?video_id=v0d00fg10000cm4l533c77u103sdnd20&line=1&file_id=cc4bdea36f154117a2fe0fa69218e387&sign=533519ee37bccc7c079dd72cd5bab1dd&is_play_url=1&source=PackSourceEnum_FEED"
    }
]